NAME,GENDER,COUNT,PERCENTAGE,PROP100K
ARON,M,44
ALEXANDER,M,41
VIKTOR,M,34
GUÐMUNDUR,M,28
JÓN,M,28
ÓLIVER,M,26
SIGURÐUR,M,26
BALTASAR,M,24
JÓHANN,M,24
DANÍEL,M,22
KRISTJÁN,M,22
BJARKI,M,21
GUNNAR,M,21
KÁRI,M,20
KRISTÓFER,M,20
ÓLAFUR,M,20
ARI,M,19
DAGUR,M,18
JÖKULL,M,18
MIKAEL,M,18
STEFÁN,M,18
ARNAR,M,17
BENEDIKT,M,17
MAGNÚS,M,17
ÓÐINN,M,17
TÓMAS,M,17
ARNÓR,M,15
BIRKIR,M,15
EINAR,M,15
ÍSAK,M,15
ELMAR,M,14
ÓSKAR,M,14
RAGNAR,M,14
RÓBERT,M,14
SÖLVI,M,14
ÚLFUR,M,14
ANDRI,M,13
AXEL,M,13
ELVAR,M,13
EMIL,M,13
FROSTI,M,13
GABRÍEL,M,13
BALDUR,M,12
BJÖRN,M,12
HILMAR,M,12
MATTHÍAS,M,12
ELÍAS,M,11
FANNAR,M,11
HALLDÓR,M,11
JAKOB,M,11
EMILÍA,F,37
SARA,F,30
ÍSABELLA,F,28
ANNA,F,26
ELÍSABET,F,24
EMMA,F,23
EMBLA,F,21
KATRÍN,F,21
JÚLÍA,F,20
SIGRÚN,F,19
VIKTORÍA,F,19
HARPA,F,18
ELÍN,F,17
FREYJA,F,17
KATLA,F,17
MARÍA,F,17
EVA,F,16
KRISTÍN,F,16
MARGRÉT,F,16
RAKEL,F,16
AUÐUR,F,15
DAGBJÖRT,F,15
HEKLA,F,15
LILJA,F,15
SALKA,F,15
ANDREA,F,14
BRÍET,F,13
HELGA,F,13
JÓHANNA,F,13
SÓLEY,F,13
ÍRIS,F,12
KAREN,F,12
RAGNHILDUR,F,12
AÞENA,F,11
GUÐRÚN,F,11
HRAFNHILDUR,F,11
HRAFNTINNA,F,11
KARÍTAS,F,11
LOVÍSA,F,11
MÓEIÐUR,F,11
ÓLÖF,F,11
SAGA,F,11
YLFA,F,11
ANÍTA,F,10
ARÍA,F,10
EDDA,F,10
ELÍSA,F,10
KLARA,F,10
MATTHILDUR,F,10
SANDRA,F,10
STELLA,F,10
