Total,1696,,,
TotalF,785,,,
TotalM,911,,,
NAME,GENDER,COUNT,PERCENT,PROP100K
ARON,M,44,2.594339623%,2594.3396226415
ALEXANDER,M,41,2.417452830%,2417.4528301887
VIKTOR,M,34,2.004716981%,2004.7169811321
GUÐMUNDUR,M,28,1.650943396%,1650.9433962264
JÓN,M,28,1.650943396%,1650.9433962264
ÓLIVER,M,26,1.533018868%,1533.0188679245
SIGURÐUR,M,26,1.533018868%,1533.0188679245
BALTASAR,M,24,1.415094340%,1415.0943396227
JÓHANN,M,24,1.415094340%,1415.0943396227
DANÍEL,M,22,1.297169811%,1297.1698113208
KRISTJÁN,M,22,1.297169811%,1297.1698113208
BJARKI,M,21,1.238207547%,1238.2075471698
GUNNAR,M,21,1.238207547%,1238.2075471698
KÁRI,M,20,1.179245283%,1179.2452830189
KRISTÓFER,M,20,1.179245283%,1179.2452830189
ÓLAFUR,M,20,1.179245283%,1179.2452830189
ARI,M,19,1.120283019%,1120.2830188679
DAGUR,M,18,1.061320755%,1061.3207547170
JÖKULL,M,18,1.061320755%,1061.3207547170
MIKAEL,M,18,1.061320755%,1061.3207547170
STEFÁN,M,18,1.061320755%,1061.3207547170
ARNAR,M,17,1.002358491%,1002.3584905660
BENEDIKT,M,17,1.002358491%,1002.3584905660
MAGNÚS,M,17,1.002358491%,1002.3584905660
ÓÐINN,M,17,1.002358491%,1002.3584905660
TÓMAS,M,17,1.002358491%,1002.3584905660
ARNÓR,M,15,0.884433962%,884.4339622642
BIRKIR,M,15,0.884433962%,884.4339622642
EINAR,M,15,0.884433962%,884.4339622642
ÍSAK,M,15,0.884433962%,884.4339622642
ELMAR,M,14,0.825471698%,825.4716981132
ÓSKAR,M,14,0.825471698%,825.4716981132
RAGNAR,M,14,0.825471698%,825.4716981132
RÓBERT,M,14,0.825471698%,825.4716981132
SÖLVI,M,14,0.825471698%,825.4716981132
ÚLFUR,M,14,0.825471698%,825.4716981132
ANDRI,M,13,0.766509434%,766.5094339623
AXEL,M,13,0.766509434%,766.5094339623
ELVAR,M,13,0.766509434%,766.5094339623
EMIL,M,13,0.766509434%,766.5094339623
FROSTI,M,13,0.766509434%,766.5094339623
GABRÍEL,M,13,0.766509434%,766.5094339623
BALDUR,M,12,0.707547170%,707.5471698113
BJÖRN,M,12,0.707547170%,707.5471698113
HILMAR,M,12,0.707547170%,707.5471698113
MATTHÍAS,M,12,0.707547170%,707.5471698113
ELÍAS,M,11,0.648584906%,648.5849056604
FANNAR,M,11,0.648584906%,648.5849056604
HALLDÓR,M,11,0.648584906%,648.5849056604
JAKOB,M,11,0.648584906%,648.5849056604
EMILÍA,F,37,2.181603774%,2181.6037735849
SARA,F,30,1.768867925%,1768.8679245283
ÍSABELLA,F,28,1.650943396%,1650.9433962264
ANNA,F,26,1.533018868%,1533.0188679245
ELÍSABET,F,24,1.415094340%,1415.0943396227
EMMA,F,23,1.356132075%,1356.1320754717
EMBLA,F,21,1.238207547%,1238.2075471698
KATRÍN,F,21,1.238207547%,1238.2075471698
JÚLÍA,F,20,1.179245283%,1179.2452830189
SIGRÚN,F,19,1.120283019%,1120.2830188679
VIKTORÍA,F,19,1.120283019%,1120.2830188679
HARPA,F,18,1.061320755%,1061.3207547170
ELÍN,F,17,1.002358491%,1002.3584905660
FREYJA,F,17,1.002358491%,1002.3584905660
KATLA,F,17,1.002358491%,1002.3584905660
MARÍA,F,17,1.002358491%,1002.3584905660
EVA,F,16,0.943396226%,943.3962264151
KRISTÍN,F,16,0.943396226%,943.3962264151
MARGRÉT,F,16,0.943396226%,943.3962264151
RAKEL,F,16,0.943396226%,943.3962264151
AUÐUR,F,15,0.884433962%,884.4339622642
DAGBJÖRT,F,15,0.884433962%,884.4339622642
HEKLA,F,15,0.884433962%,884.4339622642
LILJA,F,15,0.884433962%,884.4339622642
SALKA,F,15,0.884433962%,884.4339622642
ANDREA,F,14,0.825471698%,825.4716981132
BRÍET,F,13,0.766509434%,766.5094339623
HELGA,F,13,0.766509434%,766.5094339623
JÓHANNA,F,13,0.766509434%,766.5094339623
SÓLEY,F,13,0.766509434%,766.5094339623
ÍRIS,F,12,0.707547170%,707.5471698113
KAREN,F,12,0.707547170%,707.5471698113
RAGNHILDUR,F,12,0.707547170%,707.5471698113
AÞENA,F,11,0.648584906%,648.5849056604
GUÐRÚN,F,11,0.648584906%,648.5849056604
HRAFNHILDUR,F,11,0.648584906%,648.5849056604
HRAFNTINNA,F,11,0.648584906%,648.5849056604
KARÍTAS,F,11,0.648584906%,648.5849056604
LOVÍSA,F,11,0.648584906%,648.5849056604
MÓEIÐUR,F,11,0.648584906%,648.5849056604
ÓLÖF,F,11,0.648584906%,648.5849056604
SAGA,F,11,0.648584906%,648.5849056604
YLFA,F,11,0.648584906%,648.5849056604
ANÍTA,F,10,0.589622642%,589.6226415094
ARÍA,F,10,0.589622642%,589.6226415094
EDDA,F,10,0.589622642%,589.6226415094
ELÍSA,F,10,0.589622642%,589.6226415094
KLARA,F,10,0.589622642%,589.6226415094
MATTHILDUR,F,10,0.589622642%,589.6226415094
SANDRA,F,10,0.589622642%,589.6226415094
STELLA,F,10,0.589622642%,589.6226415094
