NAME,GENDER,COUNT,PERCENTAGE,PROP100K
EMMA,F,793
JULIA,F,687
SOPHIE,F,678
ANNA,F,628
MILA,F,622
EVA,F,583
TESS,F,580
LOTTE,F,561
SARA,F,542
ZOË,F,537
EVI,F,518
FENNA,F,514
LYNN,F,497
LISA,F,473
SAAR,F,461
FLEUR,F,450
MAUD,F,450
LIEKE,F,445
SARAH,F,434
ISA,F,432
LIV,F,429
ROOS,F,428
NOA,F,409
NORA,F,407
NOOR,F,397
YARA,F,379
MILOU,F,376
OLIVIA,F,370
NOVA,F,355
ELIN,F,348
SANNE,F,345
ESMEE,F,322
SOFIE,F,322
NINA,F,317
JASMIJN,F,311
ANNE,F,303
EMILY,F,300
FEMKE,F,290
NAOMI,F,288
LOÏS,F,283
AMY,F,282
JULIE,F,279
LAUREN,F,278
JILL,F,262
ELISE,F,257
BENTHE,F,256
FELINE,F,256
NORAH,F,256
LIZ,F,255
HANNAH,F,253
LENA,F,253
FENNE,F,250
CHARLOTTE,F,243
ELINE,F,243
ELLA,F,241
SOFIA,F,239
ELIF,F,238
LINA,F,238
MARIA,F,231
VERA,F,231
LIZZY,F,230
AMBER,F,221
SOPHIA,F,218
LARA,F,213
FLOOR,F,209
TESSA,F,207
EVY,F,203
BO,F,201
ISABELLA,F,201
SUZE,F,201
FAY,F,197
ISABEL,F,197
LUNA,F,196
ROSALIE,F,196
FIEN,F,195
IRIS,F,195
VEERLE,F,195
NIKKI,F,191
JAYLINN,F,181
FEM,F,180
LINDE,F,180
LOLA,F,178
MIA,F,177
AMIRA,F,175
LANA,F,174
ELENA,F,173
LAURA,F,173
LIZE,F,173
ROSA,F,170
SUUS,F,170
FIENE,F,168
HAILEY,F,167
ANOUK,F,162
LIVIA,F,158
SENNA,F,157
IVY,F,154
MEREL,F,153
KATE,F,151
STERRE,F,151
JADE,F,147
LIAM,M,720
SEM,M,696
LUCAS,M,689
LUUK,M,680
NOAH,M,672
MILAN,M,663
DAAN,M,657
LEVI,M,621
FINN,M,620
JESSE,M,587
MAX,M,575
THOMAS,M,530
BRAM,M,521
THIJS,M,505
SAM,M,495
TIM,M,459
LARS,M,452
RUBEN,M,450
JULIAN,M,439
ADAM,M,436
JAYDEN,M,430
MEES,M,426
NOUD,M,410
GIJS,M,404
BENJAMIN,M,399
STIJN,M,388
HUGO,M,382
SIEM,M,380
VINCE,M,375
SVEN,M,360
TEUN,M,357
JAN,M,355
TYGO,M,347
JAMES,M,343
JENS,M,338
LUCA,M,334
DAVID,M,330
MATS,M,326
DEX,M,322
RYAN,M,320
FLORIS,M,319
TIJN,M,313
JACK,M,303
MASON,M,297
GUUS,M,292
CAS,M,291
OLIVIER,M,290
TOM,M,286
BOAZ,M,279
JOEP,M,279
JURRE,M,276
PIM,M,275
ROAN,M,259
SENN,M,259
DANIËL,M,258
DEAN,M,249
DALEY,M,248
PEPIJN,M,244
QUINN,M,237
TIES,M,237
FEDDE,M,233
JASON,M,233
JORIS,M,230
TOBIAS,M,225
MOHAMED,M,222
THIJMEN,M,217
NATHAN,M,215
MOHAMMED,M,214
SAMUEL,M,213
DANI,M,212
NIEK,M,212
WILLEM,M,212
DYLAN,M,210
HIDDE,M,209
RAYAN,M,209
BAS,M,205
JOHANNES,M,204
JASPER,M,203
MORRIS,M,200
ALEXANDER,M,199
STAN,M,199
AIDEN,M,198
CASPER,M,198
KOEN,M,193
NICK,M,191
OWEN,M,189
JOEY,M,188
XAVI,M,187
JAX,M,186
STEF,M,183
JOB,M,182
MICK,M,181
ABEL,M,180
NIELS,M,179
JELLE,M,178
KYAN,M,178
JOSHUA,M,176
KAI,M,170
JACE,M,169
RENS,M,169
