NAME,COUNT,PERCENT,PROP100K,ISNOTREALCOUNT
AARON,1,0.01%,10,1
ABBOTT,1,0.01%,10,1
ABNEY,1,0.01%,10,1
ABRAHAMS,1,0.01%,10,1
ABRAM,1,0.01%,10,1
ABRAMSON,1,0.01%,10,1
ACKERMAN,1,0.01%,10,1
ADAM,1,0.01%,10,1
ADAMSON,1,0.01%,10,1
ADDISON,1,0.01%,10,1
AIKEN,1,0.01%,10,1
AITKEN,1,0.01%,10,1
AKERS,1,0.01%,10,1
ALBERT,1,0.01%,10,1
ALBERTSON,1,0.01%,10,1
ALDEN,1,0.01%,10,1
ALFREDSON,1,0.01%,10,1
ALLAN,1,0.01%,10,1
ALLEN,1,0.01%,10,1
ALVEY,1,0.01%,10,1
ANDERSON,1,0.01%,10,1
ANDREWSON,1,0.01%,10,1
ANSON,1,0.01%,10,1
APPLEBY,1,0.01%,10,1
APTED,1,0.01%,10,1
ARKWRIGHT,1,0.01%,10,1
ARMSTRONG,1,0.01%,10,1
ARRINGTON,1,0.01%,10,1
ARTERBURY,1,0.01%,10,1
ARTHURSON,1,0.01%,10,1
ASHLEY,1,0.01%,10,1
ASTON,1,0.01%,10,1
ATKINS,1,0.01%,10,1
ATTAWAY,1,0.01%,10,1
ATTERBERRY,1,0.01%,10,1
ATTWOOD,1,0.01%,10,1
ATWOOD,1,0.01%,10,1
AUGUSTINE,1,0.01%,10,1
AUTEBERRY,1,0.01%,10,1
AVERY,1,0.01%,10,1
AYERS,1,0.01%,10,1
AYLMER,1,0.01%,10,1
BABCOCK,1,0.01%,10,1
BADCOCK,1,0.01%,10,1
BAILEY,1,0.01%,10,1
BAINES,1,0.01%,10,1
BALDWIN,1,0.01%,10,1
BANISTER,1,0.01%,10,1
BANNER,1,0.01%,10,1
BANNISTER,1,0.01%,10,1
BARDSLEY,1,0.01%,10,1
BARLOW,1,0.01%,10,1
BARNET,1,0.01%,10,1
BARR,1,0.01%,10,1
BARRETT,1,0.01%,10,1
BARTRAM,1,0.01%,10,1
BATES,1,0.01%,10,1
BATTLE,1,0.01%,10,1
BAXTER,1,0.01%,10,1
BEAN,1,0.01%,10,1
BEAUMONT,1,0.01%,10,1
BECK,1,0.01%,10,1
BECKET,1,0.01%,10,1
BECKHAM,1,0.01%,10,1
BELCHER,1,0.01%,10,1
BELL,1,0.01%,10,1
BELMONT,1,0.01%,10,1
BENJAMINSON,1,0.01%,10,1
BENNET,1,0.01%,10,1
BENSON,1,0.01%,10,1
BENTON,1,0.01%,10,1
BERNARD,1,0.01%,10,1
BEST,1,0.01%,10,1
BEVERLY,1,0.01%,10,1
BISHOP,1,0.01%,10,1
BISSETTE,1,0.01%,10,1
BLACKBOURNE,1,0.01%,10,1
BLACKMAN,1,0.01%,10,1
BLAKE,1,0.01%,10,1
BLAKESLEY,1,0.01%,10,1
BLOODWORTH,1,0.01%,10,1
BLOXHAM,1,0.01%,10,1
BLYTHE,1,0.01%,10,1
BOLTON,1,0.01%,10,1
BONE,1,0.01%,10,1
BONHAM,1,0.01%,10,1
BONNEY,1,0.01%,10,1
BOON,1,0.01%,10,1
BOOTH,1,0.01%,10,1
BOTTERILL,1,0.01%,10,1
BOURKE,1,0.01%,10,1
BOWMAN,1,0.01%,10,1
BRADDOCK,1,0.01%,10,1
BRADLEY,1,0.01%,10,1
BRANDON,1,0.01%,10,1
BRANT,1,0.01%,10,1
BRASSINGTON,1,0.01%,10,1
BRECKENRIDGE,1,0.01%,10,1
BRENT,1,0.01%,10,1
BREWER,1,0.01%,10,1
BRICE,1,0.01%,10,1
BRISTOL,1,0.01%,10,1
BRITTAIN,1,0.01%,10,1
BROADBENT,1,0.01%,10,1
BRONSON,1,0.01%,10,1
BROOKE,1,0.01%,10,1
BROWN,1,0.01%,10,1
BROWNLOW,1,0.01%,10,1
BRYANT,1,0.01%,10,1
BRYSON,1,0.01%,10,1
BULL,1,0.01%,10,1
BULLOCK,1,0.01%,10,1
BURKE,1,0.01%,10,1
BURNS,1,0.01%,10,1
BURTON,1,0.01%,10,1
BUTCHER,1,0.01%,10,1
BUTTS,1,0.01%,10,1
CALDWELL,1,0.01%,10,1
CANTRELL,1,0.01%,10,1
CARLISLE,1,0.01%,10,1
CARMAN,1,0.01%,10,1
CARPENTER,1,0.01%,10,1
CARTWRIGHT,1,0.01%,10,1
CASTLE,1,0.01%,10,1
CAUSER,1,0.01%,10,1
CHADWICK,1,0.01%,10,1
CHAMBERS,1,0.01%,10,1
CHANCELLOR,1,0.01%,10,1
CHAPMAN,1,0.01%,10,1
CHESHIRE,1,0.01%,10,1
CHRISTIANS,1,0.01%,10,1
CHRISTINSEN,1,0.01%,10,1
CHRISTOPHER,1,0.01%,10,1
CHRISTOPHERSON,1,0.01%,10,1
CLARK,1,0.01%,10,1
CLARKSON,1,0.01%,10,1
CLAYTON,1,0.01%,10,1
CLIFFORD,1,0.01%,10,1
CLINTON,1,0.01%,10,1
COBB,1,0.01%,10,1
COCK,1,0.01%,10,1
COCKS,1,0.01%,10,1
COKES,1,0.01%,10,1
COLE,1,0.01%,10,1
COLLINGWOOD,1,0.01%,10,1
COLTON,1,0.01%,10,1
COMSTOCK,1,0.01%,10,1
CONSTABLE,1,0.01%,10,1
COOKE,1,0.01%,10,1
COOMBS,1,0.01%,10,1
COREY,1,0.01%,10,1
CORNETT,1,0.01%,10,1
CORY,1,0.01%,10,1
COUPE,1,0.01%,10,1
COURTENAY,1,0.01%,10,1
COWDEN,1,0.01%,10,1
COY,1,0.01%,10,1
CREWE,1,0.01%,10,1
CROFT,1,0.01%,10,1
CROSS,1,0.01%,10,1
CULLEN,1,0.01%,10,1
CURTIS,1,0.01%,10,1
DALE,1,0.01%,10,1
DANE,1,0.01%,10,1
DANELL,1,0.01%,10,1
DANIELL,1,0.01%,10,1
DANIELSON,1,0.01%,10,1
DANNIEL,1,0.01%,10,1
DARBY,1,0.01%,10,1
DARWIN,1,0.01%,10,1
DAVID,1,0.01%,10,1
DAVIDSON,1,0.01%,10,1
DAVIS,1,0.01%,10,1
DAWSON,1,0.01%,10,1
DEADMAN,1,0.01%,10,1
DEAN,1,0.01%,10,1
DEDRICK,1,0.01%,10,1
DELANEY,1,0.01%,10,1
DENNELL,1,0.01%,10,1
DERBY,1,0.01%,10,1
DERRICKS,1,0.01%,10,1
DEVEREUX,1,0.01%,10,1
DEVINE,1,0.01%,10,1
DICK,1,0.01%,10,1
DICKENSON,1,0.01%,10,1
DICKMAN,1,0.01%,10,1
DISNEY,1,0.01%,10,1
DOCTOR,1,0.01%,10,1
DONALDSON,1,0.01%,10,1
DOWNER,1,0.01%,10,1
DRAPER,1,0.01%,10,1
DUKE,1,0.01%,10,1
DUNN,1,0.01%,10,1
DURANT,1,0.01%,10,1
DWERRYHOUSE,1,0.01%,10,1
DYER,1,0.01%,10,1
EADS,1,0.01%,10,1
EARLS,1,0.01%,10,1
EASON,1,0.01%,10,1
EATON,1,0.01%,10,1
ECCLESTONE,1,0.01%,10,1
EDISON,1,0.01%,10,1
EDWARDSON,1,0.01%,10,1
ELDRED,1,0.01%,10,1
ELIOT,1,0.01%,10,1
ELLERY,1,0.01%,10,1
ELLIOTT,1,0.01%,10,1
ELLISON,1,0.01%,10,1
ELLISTON,1,0.01%,10,1
ELMER,1,0.01%,10,1
ELWES,1,0.01%,10,1
ELWYN,1,0.01%,10,1
EMERSON,1,0.01%,10,1
EMMETT,1,0.01%,10,1
ENGLISH,1,0.01%,10,1
ERICSON,1,0.01%,10,1
ETHANS,1,0.01%,10,1
EVANSON,1,0.01%,10,1
EVERED,1,0.01%,10,1
EVERILL,1,0.01%,10,1
EWART,1,0.01%,10,1
FAIRBAIRN,1,0.01%,10,1
FAIRCHILD,1,0.01%,10,1
FARMER,1,0.01%,10,1
FAULKNER,1,0.01%,10,1
FEAR,1,0.01%,10,1
FIELDS,1,0.01%,10,1
FISHER,1,0.01%,10,1
FITZROY,1,0.01%,10,1
FLETCHER,1,0.01%,10,1
FOREST,1,0.01%,10,1
FORNEY,1,0.01%,10,1
FOSS,1,0.01%,10,1
FOSTER,1,0.01%,10,1
FOSTER,1,0.01%,10,1
FOX,1,0.01%,10,1
FRANK,1,0.01%,10,1
FRANKLIN,1,0.01%,10,1
FREEMAN,1,0.01%,10,1
FRY,1,0.01%,10,1
FULLER,1,0.01%,10,1
GABRIELS,1,0.01%,10,1
GAGE,1,0.01%,10,1
GARDINER,1,0.01%,10,1
GAREY,1,0.01%,10,1
GARLAND,1,0.01%,10,1
GARNET,1,0.01%,10,1
GARNETT,1,0.01%,10,1
GARRET,1,0.01%,10,1
GARROD,1,0.01%,10,1
GARY,1,0.01%,10,1
GEORGE,1,0.01%,10,1
GIBB,1,0.01%,10,1
GIBSON,1,0.01%,10,1
GILBERT,1,0.01%,10,1
GILLIAM,1,0.01%,10,1
GLADWYN,1,0.01%,10,1
GLAZIER,1,0.01%,10,1
GODDARD,1,0.01%,10,1
GOFFE,1,0.01%,10,1
GOODWIN,1,0.01%,10,1
GORE,1,0.01%,10,1
GRANGER,1,0.01%,10,1
GRANVILLE,1,0.01%,10,1
GRAY,1,0.01%,10,1
GREENE,1,0.01%,10,1
GRENVILLE,1,0.01%,10,1
GRIFFIN,1,0.01%,10,1
GULLY,1,0.01%,10,1
HADAWAY,1,0.01%,10,1
HAGGARD,1,0.01%,10,1
HAILEY,1,0.01%,10,1
HALE,1,0.01%,10,1
HALL,1,0.01%,10,1
HAMBLEDON,1,0.01%,10,1
HAMELDON,1,0.01%,10,1
HAMM,1,0.01%,10,1
HAMPTON,1,0.01%,10,1
HANLEY,1,0.01%,10,1
HARDEN,1,0.01%,10,1
HARDWICK,1,0.01%,10,1
HARFORD,1,0.01%,10,1
HARLAN,1,0.01%,10,1
HARLEY,1,0.01%,10,1
HARMAN,1,0.01%,10,1
HAROLDSON,1,0.01%,10,1
HARRELL,1,0.01%,10,1
HARRIS,1,0.01%,10,1
HART,1,0.01%,10,1
HARVEY,1,0.01%,10,1
HATHEWAY,1,0.01%,10,1
HAWARD,1,0.01%,10,1
HAWKING,1,0.01%,10,1
HAYDEN,1,0.01%,10,1
HAYLEY,1,0.01%,10,1
HAYWARD,1,0.01%,10,1
HEAD,1,0.01%,10,1
HEADLEY,1,0.01%,10,1
HEDLEY,1,0.01%,10,1
HENDRY,1,0.01%,10,1
HENRYSON,1,0.01%,10,1
HEPBURN,1,0.01%,10,1
HERBERTS,1,0.01%,10,1
HERMAN,1,0.01%,10,1
HEWITT,1,0.01%,10,1
HIBBERT,1,0.01%,10,1
HIGHTOWER,1,0.01%,10,1
HILLAM,1,0.01%,10,1
HOBBES,1,0.01%,10,1
HOBSON,1,0.01%,10,1
HODSON,1,0.01%,10,1
HOLLAND,1,0.01%,10,1
HOLLINS,1,0.01%,10,1
HOLMES,1,0.01%,10,1
HOLT,1,0.01%,10,1
HONEYSETT,1,0.01%,10,1
HOOPER,1,0.01%,10,1
HOPKINS,1,0.01%,10,1
HOPSON,1,0.01%,10,1
HORN,1,0.01%,10,1
HORSFALL,1,0.01%,10,1
HOUSE,1,0.01%,10,1
HOWARD,1,0.01%,10,1
HOWLAND,1,0.01%,10,1
HUDDLESON,1,0.01%,10,1
HUDNALL,1,0.01%,10,1
HUFF,1,0.01%,10,1
HULL,1,0.01%,10,1
HUMPHREY,1,0.01%,10,1
HUNT,1,0.01%,10,1
HURST,1,0.01%,10,1
HUXLEY,1,0.01%,10,1
HYLAND,1,0.01%,10,1
IBBOT,1,0.01%,10,1
IKIN,1,0.01%,10,1
INGHAM,1,0.01%,10,1
IRVIN,1,0.01%,10,1
IRVING,1,0.01%,10,1
ISAACSON,1,0.01%,10,1
JACK,1,0.01%,10,1
JACOBS,1,0.01%,10,1
JAKEMAN,1,0.01%,10,1
JAMES,1,0.01%,10,1
JAMISON,1,0.01%,10,1
JARDINE,1,0.01%,10,1
JARVIS,1,0.01%,10,1
JEANES,1,0.01%,10,1
JEFFERSON,1,0.01%,10,1
JEFFRIES,1,0.01%,10,1
JENKINS,1,0.01%,10,1
JEPHSON,1,0.01%,10,1
JERNIGAN,1,0.01%,10,1
JERVIS,1,0.01%,10,1
JEWELL,1,0.01%,10,1
JOHNS,1,0.01%,10,1
JOINER,1,0.01%,10,1
JORDAN,1,0.01%,10,1
JOSEPHSON,1,0.01%,10,1
JUDD,1,0.01%,10,1
KAY,1,0.01%,10,1
KEIGHLEY,1,0.01%,10,1
KELSEY,1,0.01%,10,1
KENDAL,1,0.01%,10,1
KENDRICK,1,0.01%,10,1
KERRY,1,0.01%,10,1
KEVINS,1,0.01%,10,1
KEY,1,0.01%,10,1
KIDD,1,0.01%,10,1
KIMBALL,1,0.01%,10,1
KIMBERLY,1,0.01%,10,1
KINGSLEY,1,0.01%,10,1
KINSLEY,1,0.01%,10,1
KIRBY,1,0.01%,10,1
KITCHENS,1,0.01%,10,1
KNIGHT,1,0.01%,10,1
LACEY,1,0.01%,10,1
LAMAR,1,0.01%,10,1
LANE,1,0.01%,10,1
LANGLEY,1,0.01%,10,1
LAW,1,0.01%,10,1
LAWSON,1,0.01%,10,1
LEACH,1,0.01%,10,1
LEDFORD,1,0.01%,10,1
LEIGH,1,0.01%,10,1
LEON,1,0.01%,10,1
LEONARDSON,1,0.01%,10,1
LEWIN,1,0.01%,10,1
LEYTON,1,0.01%,10,1
LINDON,1,0.01%,10,1
LINDSEY,1,0.01%,10,1
LINWOOD,1,0.01%,10,1
LOCKWOOD,1,0.01%,10,1
LONDON,1,0.01%,10,1
LONGSTAFF,1,0.01%,10,1
LOVEL,1,0.01%,10,1
LOW,1,0.01%,10,1
LOWELL,1,0.01%,10,1
LUCAS,1,0.01%,10,1
LUM,1,0.01%,10,1
LYNDON,1,0.01%,10,1
LYNTON,1,0.01%,10,1
LYON,1,0.01%,10,1
MACEY,1,0.01%,10,1
MADDISON,1,0.01%,10,1
MALLORY,1,0.01%,10,1
MARCHAND,1,0.01%,10,1
MARLEY,1,0.01%,10,1
MARLOWE,1,0.01%,10,1
MARSHALL,1,0.01%,10,1
MARTEL,1,0.01%,10,1
MARTELL,1,0.01%,10,1
MARTINS,1,0.01%,10,1
MASON,1,0.01%,10,1
MASTERS,1,0.01%,10,1
MATHERS,1,0.01%,10,1
MATHEWSON,1,0.01%,10,1
MATTHEWSON,1,0.01%,10,1
MAYER,1,0.01%,10,1
MAYNARD,1,0.01%,10,1
MERCER,1,0.01%,10,1
MERRILL,1,0.01%,10,1
MICHAEL,1,0.01%,10,1
MICHAELSON,1,0.01%,10,1
MILBURN,1,0.01%,10,1
MILFORD,1,0.01%,10,1
MILLER,1,0.01%,10,1
MILLS,1,0.01%,10,1
MILTON,1,0.01%,10,1
MITCHELL,1,0.01%,10,1
MONDAY,1,0.01%,10,1
MONTGOMERY,1,0.01%,10,1
MOORE,1,0.01%,10,1
MOORES,1,0.01%,10,1
MORCE,1,0.01%,10,1
MORISON,1,0.01%,10,1
MORRISH,1,0.01%,10,1
MORRISS,1,0.01%,10,1
MOSES,1,0.01%,10,1
MOULD,1,0.01%,10,1
MUNSON,1,0.01%,10,1
MUTTON,1,0.01%,10,1
MYLES,1,0.01%,10,1
NASH,1,0.01%,10,1
NATHANSON,1,0.01%,10,1
NEIL,1,0.01%,10,1
NESS,1,0.01%,10,1
NEWELL,1,0.01%,10,1
NEWPORT,1,0.01%,10,1
NICHOLS,1,0.01%,10,1
NICOLSON,1,0.01%,10,1
NIGEL,1,0.01%,10,1
NIXON,1,0.01%,10,1
NORMAN,1,0.01%,10,1
NORRIS,1,0.01%,10,1
NORTH,1,0.01%,10,1
NORTON,1,0.01%,10,1
NOWELL,1,0.01%,10,1
OAKLEY,1,0.01%,10,1
OGDEN,1,0.01%,10,1
OLIVER,1,0.01%,10,1
OSBORNE,1,0.01%,10,1
OTIS,1,0.01%,10,1
OUTLAW,1,0.01%,10,1
OVERTON,1,0.01%,10,1
PADDON,1,0.01%,10,1
PAGE,1,0.01%,10,1
PAIGE,1,0.01%,10,1
PARENT,1,0.01%,10,1
PARISH,1,0.01%,10,1
PARK,1,0.01%,10,1
PARKER,1,0.01%,10,1
PARRIS,1,0.01%,10,1
PARSONS,1,0.01%,10,1
PATERSON,1,0.01%,10,1
PATRICKSON,1,0.01%,10,1
PATTON,1,0.01%,10,1
PAULSON,1,0.01%,10,1
PAYTON,1,0.01%,10,1
PEAK,1,0.01%,10,1
PEARSON,1,0.01%,10,1
PECK,1,0.01%,10,1
PEMBERTON,1,0.01%,10,1
PENNY,1,0.01%,10,1
PERRY,1,0.01%,10,1
PETERS,1,0.01%,10,1
PETIT,1,0.01%,10,1
PEYTON,1,0.01%,10,1
PHILIPS,1,0.01%,10,1
PICKERING,1,0.01%,10,1
PIERCE,1,0.01%,10,1
PIPER,1,0.01%,10,1
PLANK,1,0.01%,10,1
PLATT,1,0.01%,10,1
POINDEXTER,1,0.01%,10,1
POND,1,0.01%,10,1
POPE,1,0.01%,10,1
PORTER,1,0.01%,10,1
POUND,1,0.01%,10,1
POWER,1,0.01%,10,1
PRATT,1,0.01%,10,1
PRESLEY,1,0.01%,10,1
PRESTON,1,0.01%,10,1
PROUDFOOT,1,0.01%,10,1
PURCELL,1,0.01%,10,1
QUEEN,1,0.01%,10,1
QUICK,1,0.01%,10,1
QUINCEY,1,0.01%,10,1
RADCLIFF,1,0.01%,10,1
RAINES,1,0.01%,10,1
RAKE,1,0.01%,10,1
RAMSEY,1,0.01%,10,1
RANDALL,1,0.01%,10,1
RAY,1,0.01%,10,1
RAYNERSON,1,0.01%,10,1
READ,1,0.01%,10,1
READY,1,0.01%,10,1
REEVE,1,0.01%,10,1
RENNELL,1,0.01%,10,1
RENNOLL,1,0.01%,10,1
REY,1,0.01%,10,1
REYNELL,1,0.01%,10,1
RHODES,1,0.01%,10,1
RICHARDS,1,0.01%,10,1
RICKARD,1,0.01%,10,1
RIDLEY,1,0.01%,10,1
RIGBY,1,0.01%,10,1
RIMMER,1,0.01%,10,1
ROBBINS,1,0.01%,10,1
ROBERTS,1,0.01%,10,1
ROBINSON,1,0.01%,10,1
RODERICK,1,0.01%,10,1
ROGERS,1,0.01%,10,1
ROLLINS,1,0.01%,10,1
ROMILLY,1,0.01%,10,1
ROSE,1,0.01%,10,1
ROSS,1,0.01%,10,1
ROWBOTTOM,1,0.01%,10,1
ROWLAND,1,0.01%,10,1
ROY,1,0.01%,10,1
ROYCESTON,1,0.01%,10,1
ROYLE,1,0.01%,10,1
RUGGLES,1,0.01%,10,1
RUSH,1,0.01%,10,1
RUSSEL,1,0.01%,10,1
RYDER,1,0.01%,10,1
RYER,1,0.01%,10,1
RYLEY,1,0.01%,10,1
SADLER,1,0.01%,10,1
SALVAGE,1,0.01%,10,1
SAMS,1,0.01%,10,1
SAMUEL,1,0.01%,10,1
SAMUELSON,1,0.01%,10,1
SANDERSON,1,0.01%,10,1
SANDS,1,0.01%,10,1
SANGSTER,1,0.01%,10,1
SARGENT,1,0.01%,10,1
SAUVAGE,1,0.01%,10,1
SAVEGE,1,0.01%,10,1
SAWYER,1,0.01%,10,1
SCARLETT,1,0.01%,10,1
SCOTT,1,0.01%,10,1
SCRIVENER,1,0.01%,10,1
SCRIVENS,1,0.01%,10,1
SEAVER,1,0.01%,10,1
SEMPERS,1,0.01%,10,1
SERGEANT,1,0.01%,10,1
SEWARD,1,0.01%,10,1
SEXTON,1,0.01%,10,1
SEYMOUR,1,0.01%,10,1
SHARMAN,1,0.01%,10,1
SHAW,1,0.01%,10,1
SHELTON,1,0.01%,10,1
SHEPHERD,1,0.01%,10,1
SHERBURNE,1,0.01%,10,1
SHINE,1,0.01%,10,1
SIDDALL,1,0.01%,10,1
SIMMONS,1,0.01%,10,1
SIMON,1,0.01%,10,1
SIMONSON,1,0.01%,10,1
SIMPSON,1,0.01%,10,1
SINCLAIR,1,0.01%,10,1
SLATER,1,0.01%,10,1
SMALLS,1,0.01%,10,1
SMITH,1,0.01%,10,1
SNELLING,1,0.01%,10,1
SNIDERS,1,0.01%,10,1
SNYDERS,1,0.01%,10,1
SOUTHERS,1,0.01%,10,1
SOWARDS,1,0.01%,10,1
SPARKS,1,0.01%,10,1
SPEARING,1,0.01%,10,1
SPEIGHT,1,0.01%,10,1
SPENCER,1,0.01%,10,1
SPURLING,1,0.01%,10,1
STACK,1,0.01%,10,1
STACY,1,0.01%,10,1
STAINTHORPE,1,0.01%,10,1
STANFORD,1,0.01%,10,1
STANTON,1,0.01%,10,1
STARR,1,0.01%,10,1
STEED,1,0.01%,10,1
STEFFEN,1,0.01%,10,1
STEPHENS,1,0.01%,10,1
STERN,1,0.01%,10,1
STEVENSON,1,0.01%,10,1
ST JOHN,1,0.01%,10,1
STONE,1,0.01%,10,1
STREET,1,0.01%,10,1
STRINGER,1,0.01%,10,1
STRUDWICK,1,0.01%,10,1
STYLES,1,0.01%,10,1
SUGGITT,1,0.01%,10,1
SUMMERS,1,0.01%,10,1
SUMNER,1,0.01%,10,1
SWEET,1,0.01%,10,1
SYDNEY,1,0.01%,10,1
TAILOR,1,0.01%,10,1
TASH,1,0.01%,10,1
TATE,1,0.01%,10,1
TAYLOR,1,0.01%,10,1
TENNISON,1,0.01%,10,1
TERRELL,1,0.01%,10,1
THACKER,1,0.01%,10,1
THOMAS,1,0.01%,10,1
THOMPSON,1,0.01%,10,1
THORBURN,1,0.01%,10,1
THORN,1,0.01%,10,1
THORNTON,1,0.01%,10,1
THRUSSELL,1,0.01%,10,1
THWAITE,1,0.01%,10,1
TIMBERLAKE,1,0.01%,10,1
TINKER,1,0.01%,10,1
TIRRELL,1,0.01%,10,1
TOBIAS,1,0.01%,10,1
TOD,1,0.01%,10,1
TOFT,1,0.01%,10,1
TOLLEMACHE,1,0.01%,10,1
TOWNER,1,0.01%,10,1
TRACEY,1,0.01%,10,1
TRASK,1,0.01%,10,1
TRAVES,1,0.01%,10,1
TRAVISS,1,0.01%,10,1
TRELOAR,1,0.01%,10,1
TRENT,1,0.01%,10,1
TRIGGS,1,0.01%,10,1
TRUMAN,1,0.01%,10,1
TUFF,1,0.01%,10,1
TUPPER,1,0.01%,10,1
TURNER,1,0.01%,10,1
TYRELL,1,0.01%,10,1
TYSON,1,0.01%,10,1
UNDERHILL,1,0.01%,10,1
UPTON,1,0.01%,10,1
VAN MIDDLESWORTH,1,0.01%,10,1
VARLEY,1,0.01%,10,1
VERITY,1,0.01%,10,1
VICTOR,1,0.01%,10,1
VICTORS,1,0.01%,10,1
VIPOND,1,0.01%,10,1
WADE,1,0.01%,10,1
WAKEFIELD,1,0.01%,10,1
WALKER,1,0.01%,10,1
WALLER,1,0.01%,10,1
WALLER,1,0.01%,10,1
WALMSLEY,1,0.01%,10,1
WALTER,1,0.01%,10,1
WALTERSON,1,0.01%,10,1
WARD,1,0.01%,10,1
WARE,1,0.01%,10,1
WARNER,1,0.01%,10,1
WARREN,1,0.01%,10,1
WARWICK,1,0.01%,10,1
WASHINGTON,1,0.01%,10,1
WATERMAN,1,0.01%,10,1
WATERS,1,0.01%,10,1
WATSON,1,0.01%,10,1
WATTS,1,0.01%,10,1
WAYNE,1,0.01%,10,1
WEAVER,1,0.01%,10,1
WEBSTER,1,0.01%,10,1
WELCH,1,0.01%,10,1
WEMBLEY,1,0.01%,10,1
WESLEY,1,0.01%,10,1
WESTBROOK,1,0.01%,10,1
WESTLEY,1,0.01%,10,1
WHEELOCK,1,0.01%,10,1
WHITAKER,1,0.01%,10,1
WHITNEY,1,0.01%,10,1
WHITTLE,1,0.01%,10,1
WILBUR,1,0.01%,10,1
WILKERSON,1,0.01%,10,1
WILKINS,1,0.01%,10,1
WILLARD,1,0.01%,10,1
WILLIAMS,1,0.01%,10,1
WILLIS,1,0.01%,10,1
WILMER,1,0.01%,10,1
WILTON,1,0.01%,10,1
WINFIELD,1,0.01%,10,1
WINSLOW,1,0.01%,10,1
WINTER,1,0.01%,10,1
WINTHROP,1,0.01%,10,1
WITHERSPOON,1,0.01%,10,1
WOLFE,1,0.01%,10,1
WOOD,1,0.01%,10,1
WOODHAM,1,0.01%,10,1
WOODROW,1,0.01%,10,1
WOODWARD,1,0.01%,10,1
WORTHAM,1,0.01%,10,1
WRAY,1,0.01%,10,1
WRIGHT,1,0.01%,10,1
WYMAN,1,0.01%,10,1
WYNNE,1,0.01%,10,1
YATES,1,0.01%,10,1
YORK,1,0.01%,10,1
YOUNGE,1,0.01%,10,1
