NAME,COUNT,PERCENT,PROP100K
ALEKSANDROV,1,0.01%,10
ANDREEV,1,0.01%,10
BOGDANOV,1,0.01%,10
BORISOV,1,0.01%,10
FEDOROV,1,0.01%,10
FYODOROV,1,0.01%,10
KONSTANTINOV,1,0.01%,10
KRUPIN,1,0.01%,10
LAGOUNOV,1,0.01%,10
MAKSIMOV,1,0.01%,10
MATVEEV,1,0.01%,10
MIKHAILOV,1,0.01%,10
NAUMOV,1,0.01%,10
ORLOV,1,0.01%,10
PAVLOV,1,0.01%,10
POLZIN,1,0.01%,10
ROMANOV,1,0.01%,10
SOKOLOVSKY,1,0.01%,10
UTKIN,1,0.01%,10
VASILYEV,1,0.01%,10
VOLKOV,1,0.01%,10
YAKOVLEV,1,0.01%,10
