NAME,COUNT,PERCENT,PROP100K
HORVAT,22225
KOVAČEVIĆ,15835
BABIĆ,13150
MARIĆ,11617
NOVAK,11396
JURIĆ,11356
KOVAČIĆ,11171
VUKOVIĆ,10582
KNEŽEVIĆ,10554
MARKOVIĆ,10074
PETROVIĆ,9957
MATIĆ,9560
TOMIĆ,9538
KOVAČ,8997
PAVLOVIĆ,8759
BOŽIĆ,8258
BLAŽEVIĆ,8152
GRGIĆ,8010
PAVIĆ,7538
RADIĆ,7406
PERIĆ,7351
FILIPOVIĆ,7321
ŠARIĆ,7184
LOVRIĆ,7131
VIDOVIĆ,6986
PERKOVIĆ,6903
POPOVIĆ,6797
BOŠNJAK,6760
JUKIĆ,6653
BARIŠIĆ,6417
BARIŠIĆ,6417
BAŠIĆ,6361
NIKOLIĆ,6301
MANDIĆ,5999
ŽIVKOVIĆ,5958
KLARIĆ,5875
BARIĆ,5730
LONČAR,5695
MARTINOVIĆ,5624
BRKIĆ,5471
BILIĆ,5341
KOS,5333
GALIĆ,5320
JURKOVIĆ,5211
STANIĆ,5073
LUKIĆ,4963
KRALJ,4855
MATIJEVIĆ,4855
MATKOVIĆ,4783
JANKOVIĆ,4719
NOVOSEL,4650
KATIČ,4319
MILETIĆ,4303
JELIĆ,4286
ĆOSIĆ,4119
IVANOVIĆ,4167
JURIŠIĆ,4149
ILIĆ,4120
MIHALJEVIĆ,4045
LUČIĆ,4001
POSAVEC,3993
IVANKOVIĆ,3927
IVANČIĆ,3820
JERKOVIĆ,3797
MARINOVIĆ,3772
HERCEG,3760
TADIĆ,3753
ŠIMUNOVIĆ,3732
POLJAK,3731
MIKULIĆ,3726
JOVANOVIĆ,3690
RUKAVINA,3684
VIDAKOVIĆ,3661
CINDRIĆ,3658
VUČKOVIĆ,3638
MARUŠIĆ,3598
MARJANOVIĆ,3557
MILIĆ,3557
NOVAKOVIĆ,3375
TOPIĆ,3274
VARGA,3261
PAVIČIĆ,3240
VUKELIĆ,3224
KOLAR,3212
ŠPOLJARIĆ,3209
DELIĆ,3190
BAČIĆ,3139
JOZIĆ,3137
PETRIĆ,3104
GRUBIŠIĆ,3095
BURIĆ,3070
DUJMOVIĆ,3070
ŠTIMAC,3070
PETKOVIĆ,3065
ĐURIĆ,3052
JAKŠIĆ,3043
JOVIĆ,3027
BRAJKOVIĆ,2989
STANKOVIĆ,2982
RUŽIĆ,2974
