NAME,GENDER,COUNT,PERCENT,PROP100K,ISNOTREALCOUNT
AH|阿,U,1,0.01%,10,1
AN|安,U,1,0.01%,10,1
BAO|宝|褒|苞,U,1,0.01%,10,1
CHANG|昌|畅|长,U,1,0.01%,10,1
CHEN|晨|辰,U,1,0.01%,10,1
CHIN|金|锦|津,U,1,0.01%,10,1
DA|达|大,U,1,0.01%,10,1
FANG|芳|方,U,1,0.01%,10,1
FU|富|芙|甫,U,1,0.01%,10,1
GUANTING|冠廷,U,1,0.01%,10,1
GUIYING|桂英,U,1,0.01%,10,1
HAI|海,U,1,0.01%,10,1
HENG|恒,U,1,0.01%,10,1
HUA|华|花,U,1,0.01%,10,1
HUANG|煌|凰,U,1,0.01%,10,1
JIA|佳|家,U,1,0.01%,10,1
JIAN|建|健,U,1,0.01%,10,1
JIANHONG|健宏,M,1,0.01%,10,1
JIN|金|锦|津,U,1,0.01%,10,1
JINGYI|静怡,U,1,0.01%,10,1
JUAN|娟,F,1,0.01%,10,1
KUN|坤,U,1,0.01%,10,1
LEI|磊|蕾,U,1,0.01%,10,1
LIM|林|琳,U,1,0.01%,10,1
LING|灵|铃,U,1,0.01%,10,1
MIN|敏|民,U,1,0.01%,10,1
MU|慕|木,U,1,0.01%,10,1
NING|宁,U,1,0.01%,10,1
PING|平,U,1,0.01%,10,1
QING|青|清,U,1,0.01%,10,1
RONG|荣|融|容,U,1,0.01%,10,1
SHI|时|实|史|石,U,1,0.01%,10,1
SHUFEN|淑芬,F,1,0.01%,10,1
SHUN|顺,U,1,0.01%,10,1
TAI|太,U,1,0.01%,10,1
TU|图,U,1,0.01%,10,1
WEN|文,U,1,0.01%,10,1
XIA|夏|霞,U,1,0.01%,10,1
XINYI|欣怡|心怡,U,1,0.01%,10,1
XIULAN|秀兰,F,1,0.01%,10,1
XUE|雪|学,U,1,0.01%,10,1
YA|雅,F,1,0.01%,10,1
YALING|雅玲,F,1,0.01%,10,1
YANG|洋|阳,U,1,0.01%,10,1
YAWEN|雅雯,F,1,0.01%,10,1
YI|宜|毅|义|益|艺|怡|仪,U,1,0.01%,10,1
YIN|银|音|荫,U,1,0.01%,10,1
YU|玉|愉|雨|宇|裕,U,1,0.01%,10,1
ZAN|赞,U,1,0.01%,10,1
ZHEN|珍|真|贞|震,U,1,0.01%,10,1
ZHI|志|智,U,1,0.01%,10,1
ZHONG|中|忠,U,1,0.01%,10,1
