Total births:,217661,,,
Total M:,114206,,,
Total F:,103455,,,
NAME,GENDER,COUNT,PERCENT,PROP100K
EMMA,F,3269,1.501876772%,1501.8767716771
LUCAS,M,3122,1.434340557%,1434.3405571049
LOUIS,M,3108,1.427908537%,1427.9085366694
NOAH,M,2928,1.345211131%,1345.2111310708
LOUISE,F,2843,1.306159578%,1306.159578427
ARTHUR,M,2811,1.291457817%,1291.4578174317
ADAM,M,2741,1.259297715%,1259.2977152545
NATHAN,M,2564,1.177978600%,1177.9785997492
MOHAMED,M,2448,1.124684716%,1124.6847161412
LIAM,M,2374,1.090686894%,1090.6868938395
ELISE,F,2354,1.081498293%,1081.4982932174
OLIVIA,F,2178,1.000638608%,1000.6386077432
VICTOR,M,2132,0.979504826%,979.5048263125
JULES,M,2127,0.977207676%,977.207676157
MATHIS,M,2126,0.976748246%,976.7482461259
MARIE,F,2048,0.940912704%,940.9127036998
LÉA,F,1911,0.877970789%,877.9707894386
GABRIEL,M,1896,0.871079339%,871.0793389721
LINA,F,1857,0.853161568%,853.161567759
HUGO,M,1856,0.852702138%,852.7021377279
JULIETTE,F,1786,0.820542036%,820.5420355507
LUCIE,F,1766,0.811353435%,811.3534349286
CAMILLE,F,1751,0.804461984%,804.4619844621
JULIE,F,1747,0.802624264%,802.6242643377
ALICE,F,1724,0.792057374%,792.0573736223
THOMAS,M,1684,0.773680172%,773.6801723781
CHLOÉ,F,1660,0.762653852%,762.6538516317
MILA,F,1648,0.757140691%,757.1406912584
ELENA,F,1597,0.733709760%,733.7097596722
ETHAN,M,1554,0.713954268%,713.9542683347
ELLA,F,1547,0.710738258%,710.738258117
NINA,F,1536,0.705684528%,705.6845277748
THÉO,M,1515,0.696036497%,696.0364971217
MAXIME,M,1513,0.695117637%,695.1176370595
LENA,F,1510,0.693739347%,693.7393469662
ANNA,F,1472,0.676281006%,676.2810057842
NOOR,F,1469,0.674902716%,674.9027156909
CHARLOTTE,F,1450,0.666173545%,666.1735450999
VINCE,M,1401,0.643661474%,643.6614735759
ZOÉ,F,1394,0.640445463%,640.4454633582
RAYAN,M,1390,0.638607743%,638.6077432337
LAURA,F,1381,0.634472873%,634.4728729538
MANON,F,1373,0.630797433%,630.797432705
SIMON,M,1362,0.625743702%,625.7437023628
ALEXANDER,M,1362,0.625743702%,625.7437023628
JADE,F,1344,0.617473962%,617.473961803
LARS,M,1340,0.615636242%,615.6362416786
MATTEO,M,1333,0.612420231%,612.4202314609
SARAH,F,1328,0.610123081%,610.1230813053
LISA,F,1328,0.610123081%,610.1230813053
FINN,M,1309,0.601393911%,601.3939107144
MILAN,M,1308,0.600934481%,600.9344806833
LOTTE,F,1303,0.598637331%,598.6373305277
EVA,F,1295,0.594961890%,594.9618902789
SOFIA,F,1294,0.594502460%,594.5024602478
SARA,F,1284,0.589908160%,589.9081599368
LUCA,M,1265,0.581178989%,581.1789893458
LEON,M,1252,0.575206399%,575.2063989415
NORA,F,1245,0.571990389%,571.9903887237
TOM,M,1242,0.570612099%,570.6120986304
VICTORIA,F,1218,0.559585778%,559.585777884
FIEN,F,1191,0.547181167%,547.1811670442
LORE,F,1181,0.542586867%,542.5868667331
CLARA,F,1178,0.541208577%,541.2085766398
WOUT,M,1170,0.537533136%,537.533136391
KOBE,M,1164,0.534776556%,534.7765562044
SACHA,M,1159,0.532479406%,532.4794060489
LILY,F,1155,0.530641686%,530.6416859244
AARON,M,1141,0.524209665%,524.209665489
DAAN,M,1114,0.511805055%,511.8050546492
YANIS,M,1113,0.511345625%,511.3456246181
SEPPE,M,1111,0.510426765%,510.4267645559
MATS,M,1087,0.499400444%,499.4004438094
STAN,M,1087,0.499400444%,499.4004438094
OSCAR,M,1087,0.499400444%,499.4004438094
JULIA,F,1070,0.491590133%,491.5901332807
ALEXANDRE,M,1060,0.486995833%,486.9958329696
ELISA,F,1052,0.483320393%,483.3203927208
ELIAS,M,1045,0.480104383%,480.1043825031
AMÉLIE,F,1040,0.477807232%,477.8072323476
LUNA,F,1039,0.477347802%,477.3478023164
ROBIN,M,1037,0.476428942%,476.4289422542
AYA,F,1030,0.473212932%,473.2129320365
RAPHAËL,M,1010,0.464024331%,464.0243314144
LOLA,F,1003,0.460808321%,460.8083211967
SENNE,M,997,0.458051741%,458.0517410101
DAVID,M,990,0.454835731%,454.8357307924
MATHÉO,M,988,0.453916871%,453.9168707302
MATHIAS,M,984,0.452079151%,452.0791506058
SAMUEL,M,977,0.448863140%,448.863140388
NOA,F,972,0.446565990%,446.5659902325
VIC,M,939,0.431404799%,431.4047992061
GIULIA,F,938,0.430945369%,430.945369175
AMBER,F,935,0.429567079%,429.5670790817
NOLAN,M,925,0.424972779%,424.9727787707
ANAÏS,F,922,0.423594489%,423.5944886773
TIMÉO,M,916,0.420837908%,420.8379084907
MAXIM,M,903,0.414865318%,414.8653180864
WARRE,M,897,0.412108738%,412.1087378998
FERRE,M,889,0.408433298%,408.4332976509
SAM,M,871,0.400163557%,400.1635570911
LOU,F,864,0.396947547%,396.9475468733
YASMINE,F,860,0.395109827%,395.1098267489
ELINE,F,852,0.391434387%,391.4343865001
FLEUR,F,846,0.388677806%,388.6778063135
LOWIE,M,840,0.385921226%,385.9212261269
ANTOINE,M,839,0.385461796%,385.4617960958
TUUR,M,837,0.384542936%,384.5429360336
ROMAIN,M,834,0.383164646%,383.1646459402
JASPER,M,827,0.379948636%,379.9486357225
WILLIAM,M,823,0.378110916%,378.1109155981
LARA,F,821,0.377192056%,377.1920555359
HANNE,F,816,0.374894905%,374.8949053804
ENZO,M,802,0.368462885%,368.4628849449
NICOLAS,M,801,0.368003455%,368.0034549138
MIA,F,798,0.366625165%,366.6251648205
INÈS,F,791,0.363409155%,363.4091546028
INAYA,F,790,0.362949725%,362.9497245717
DIEGO,M,774,0.355598844%,355.598844074
MATHYS,M,769,0.353301694%,353.3016939185
MAURO,M,769,0.353301694%,353.3016939185
MARTIN,M,769,0.353301694%,353.3016939185
EMILIE,F,768,0.352842264%,352.8422638874
ALEXIS,M,764,0.351004544%,351.004543763
CLÉMENT,M,763,0.350545114%,350.5451137319
PAULINE,F,753,0.345950813%,345.9508134209
EMILE,M,745,0.342275373%,342.275373172
AXEL,M,745,0.342275373%,342.275373172
ALESSIO,M,739,0.339518793%,339.5187929854
RUBEN,M,735,0.337681073%,337.681072861
ALEX,M,734,0.337221643%,337.2216428299
ROBBE,M,732,0.336302783%,336.3027827677
HAMZA,M,731,0.335843353%,335.8433527366
ALICIA,F,725,0.333086773%,333.08677255
EDEN,M,722,0.331708482%,331.7084824567
LÉON,M,718,0.329870762%,329.8707623323
JAYDEN,M,714,0.328033042%,328.0330422078
MARGAUX,F,709,0.325735892%,325.7358920523
CÉLIA,F,696,0.319763302%,319.763301648
AXELLE,F,695,0.319303872%,319.3038716169
BAPTISTE,M,686,0.315169001%,315.1690013369
JEANNE,F,682,0.313331281%,313.3312812125
NOÉMIE,F,677,0.311034131%,311.034131057
LILOU,F,669,0.307358691%,307.3586908082
ENORA,F,665,0.305520971%,305.5209706838
AYOUB,M,661,0.303683251%,303.6832505594
ILYAS,M,655,0.300926670%,300.9266703727
INES,F,650,0.298629520%,298.6295202172
LUKAS,M,644,0.295872940%,295.8729400306
HELENA,F,633,0.290819210%,290.8192096885
KATO,F,631,0.289900350%,289.9003496263
ZOË,F,619,0.284387189%,284.387189253
IMRAN,M,615,0.282549469%,282.5494691286
MAYA,F,603,0.277036309%,277.0363087554
AMINA,F,584,0.268307138%,268.3071381644
MONA,F,584,0.268307138%,268.3071381644
NORE,F,576,0.264631698%,264.6316979156
JANA,F,572,0.262793978%,262.7939777912
MARION,F,568,0.260956258%,260.9562576667
ALIX,F,565,0.259577968%,259.5779675734
LÉO,M,564,0.259118538%,259.1185375423
EMIEL,M,544,0.249929937%,249.9299369203
JACK,M,538,0.247173357%,247.1733567336
ESTELLE,F,537,0.246713927%,246.7139267025
MOHAMMED,M,535,0.245795067%,245.7950666403
LOÏC,M,534,0.245335637%,245.3356366092
MARGOT,F,530,0.243497916%,243.4979164848
NOUR,F,527,0.242119626%,242.1196263915
LIV,F,526,0.241660196%,241.6601963604
JANNE,F,522,0.239822476%,239.822476236
ELSA,F,517,0.237525326%,237.5253260805
ROOS,F,507,0.232931026%,232.9310257694
RENÉE,F,488,0.224201855%,224.2018551785
JONAS,M,483,0.221904705%,221.9047050229
FEBE,F,482,0.221445275%,221.4452749918
TESS,F,481,0.220985845%,220.9858449607
AMIR,M,453,0.208121804%,208.1218040898
YOUSSEF,M,453,0.208121804%,208.1218040898
FELIX,M,449,0.206284084%,206.2840839654
NORAH,F,449,0.206284084%,206.2840839654
LANDER,M,441,0.202608644%,202.6086437166
IBRAHIM,M,438,0.201230354%,201.2303536233
RUNE,M,432,0.198473773%,198.4737734367
LISE,F,417,0.191582323%,191.5823229701
GUILLAUME,M,400,0.183772012%,183.7720124414
CAS,M,397,0.182393722%,182.3937223481
MILO,M,395,0.181474862%,181.4748622858
TIAGO,M,378,0.173664552%,173.6645517571
MARYAM,F,368,0.169070251%,169.0702514461
OONA,F,366,0.168151391%,168.1513913838
VALENTINA,F,362,0.166313671%,166.3136712594
ROSE,F,343,0.157584501%,157.5845006685
LÉNA,F,339,0.155746781%,155.7467805441
MALAK,F,333,0.152990200%,152.9902003574
LEWIS,M,327,0.150233620%,150.2336201708
LAURE,F,326,0.149774190%,149.7741901397
SOPHIA,F,320,0.147017610%,147.0176099531
FENNA,F,310,0.142423310%,142.4233096421
EMILY,F,305,0.140126159%,140.1261594865
XANDER,M,298,0.136910149%,136.9101492688
TRISTAN,M,296,0.135991289%,135.9912892066
SIEBE,M,290,0.133234709%,133.23470902
BENJAMIN,M,275,0.126343259%,126.3432585534
NAND,M,273,0.125424398%,125.4243984912
MEHDI,M,256,0.117614088%,117.6140879625
JULIEN,M,254,0.116695228%,116.6952279003
RANIA,F,245,0.112560358%,112.5603576203
FLORIAN,M,243,0.111641498%,111.6414975581
ALYSSA,F,237,0.108884917%,108.8849173715
AMIRA,F,237,0.108884917%,108.8849173715
ROMANE,F,222,0.101993467%,101.993466905
ELIF,F,221,0.101534037%,101.5340368739
MARIA,F,220,0.101074607%,101.0746068428
ELOÏSE,F,219,0.100615177%,100.6151768116
CLÉMENCE,F,203,0.093264296%,93.264296314
FATIMA,F,201,0.092345436%,92.3454362518
ANAS,M,142,0.065239064%,65.2390644167
SEM,M,138,0.063401344%,63.4013442923
ARNE,M,134,0.061563624%,61.5636241679
YOUNES,M,130,0.059725904%,59.7259040434
VALENTIN,M,130,0.059725904%,59.7259040434
VIKTOR,M,130,0.059725904%,59.7259040434
MARCEL,M,129,0.059266474%,59.2664740123
ALI,M,129,0.059266474%,59.2664740123
DANIEL,M,128,0.058807044%,58.8070439812
NOÉ,M,126,0.057888184%,57.888183919
ADRIEN,M,126,0.057888184%,57.888183919
HENRI,M,125,0.057428754%,57.4287538879
MATTHIAS,M,125,0.057428754%,57.4287538879
MAXENCE,M,124,0.056969324%,56.9693238568
GUST,M,119,0.054672174%,54.6721737013
MAURICE,M,118,0.054212744%,54.2127436702
BILAL,M,118,0.054212744%,54.2127436702
DINA,F,116,0.053293884%,53.293883608
BO,F,112,0.051456163%,51.4561634836
JOLIEN,F,112,0.051456163%,51.4561634836
MIRA,F,112,0.051456163%,51.4561634836
JUNE,F,110,0.050537303%,50.5373034214
KAAT,F,108,0.049618443%,49.6184433592
ALEXIA,F,106,0.048699583%,48.699583297
LIEN,F,105,0.048240153%,48.2401532659
MARWA,F,105,0.048240153%,48.2401532659
LANA,F,105,0.048240153%,48.2401532659
NELL,F,105,0.048240153%,48.2401532659
ALINE,F,102,0.046861863%,46.8618631725
PAULIEN,F,102,0.046861863%,46.8618631725
FEMKE,F,102,0.046861863%,46.8618631725
YANA,F,101,0.046402433%,46.4024331414
LINDE,F,101,0.046402433%,46.4024331414
ELÉONORE,F,99,0.045483573%,45.4835730792
EMILIA,F,98,0.045024143%,45.0241430481
LEONIE,F,94,0.043186423%,43.1864229237
