NAME,COUNT,PERCENT,PROP100K,ISNOTREALCOUNT
ADAM|ÁDÁM,1,0.01%,10,1
ALBERT,1,0.01%,10,1
ANTAL,1,0.01%,10,1
ARANY,1,0.01%,10,1
BAKO|BAKÓ,1,0.01%,10,1
BALINT|BÁLINT,1,0.01%,10,1
BALOGH,1,0.01%,10,1
BARATH|BARÁTH,1,0.01%,10,1
BARTA,1,0.01%,10,1
BARTOS,1,0.01%,10,1
BATORI|BÁTORI,1,0.01%,10,1
BENES,1,0.01%,10,1
BODNAR|BODNÁR,1,0.01%,10,1
BOGNAR|BOGNÁR,1,0.01%,10,1
BOKORI,1,0.01%,10,1
BOROS,1,0.01%,10,1
BUDAY,1,0.01%,10,1
CINEGE,1,0.01%,10,1
CSEH,1,0.01%,10,1
CSIZMADIA,1,0.01%,10,1
CSORBA,1,0.01%,10,1
DOBOS,1,0.01%,10,1
ERDOS|ERDŐS,1,0.01%,10,1
ESZES,1,0.01%,10,1
FARAGO|FARAGÓ,1,0.01%,10,1
FAZEKAS,1,0.01%,10,1
FEJES,1,0.01%,10,1
FILEP,1,0.01%,10,1
FULOP|FÜLÖP,1,0.01%,10,1
GAL|GÁL,1,0.01%,10,1
GASPAR|GÁSPÁR,1,0.01%,10,1
GOROG|GÖRÖG,1,0.01%,10,1
GROSZ|GRÓSZ,1,0.01%,10,1
HAJOS|HAJÓS,1,0.01%,10,1
HALMI,1,0.01%,10,1
HERCZEG,1,0.01%,10,1
HORVATH|HORVÁTH,1,0.01%,10,1
ILLES|ILLÉS,1,0.01%,10,1
JANKOVICS,1,0.01%,10,1
JONAS|JÓNÁS,1,0.01%,10,1
JUHASZ|JUHÁSZ,1,0.01%,10,1
KALMAR|KALMÁR,1,0.01%,10,1
KARPATHY|KÁRPÁTHY,1,0.01%,10,1
KARPATY|KÁRPÁTY,1,0.01%,10,1
KATONA,1,0.01%,10,1
KEDVES,1,0.01%,10,1
KELLER,1,0.01%,10,1
KEREKES,1,0.01%,10,1
KIRALY|KIRÁLY,1,0.01%,10,1
KISS,1,0.01%,10,1
KOCSIS,1,0.01%,10,1
KOVACH|KOVÁCH,1,0.01%,10,1
KOVATS|KOVÁTS,1,0.01%,10,1
KURUCZ,1,0.01%,10,1
LANTOS,1,0.01%,10,1
LAZAR|LÁZÁR,1,0.01%,10,1
LOVASZ|LOVÁSZ,1,0.01%,10,1
MAGYAR,1,0.01%,10,1
MARKO|MARKÓ,1,0.01%,10,1
MEGGYESFALVI,1,0.01%,10,1
MOLNAR|MOLNÁR,1,0.01%,10,1
NEMES,1,0.01%,10,1
NEMETH|NÉMETH,1,0.01%,10,1
NYILAS,1,0.01%,10,1
OLASZ,1,0.01%,10,1
OROSZ,1,0.01%,10,1
PAPP,1,0.01%,10,1
PATAKI,1,0.01%,10,1
PESTI,1,0.01%,10,1
PETER|PÉTER,1,0.01%,10,1
PETHES,1,0.01%,10,1
PETOCS|PETŐCS,1,0.01%,10,1
POKORNI,1,0.01%,10,1
PUSKAS|PUSKÁS,1,0.01%,10,1
RIGO|RIGÓ,1,0.01%,10,1
RUZSA,1,0.01%,10,1
SAMSA,1,0.01%,10,1
SARKA,1,0.01%,10,1
SARKOZY|SÁRKÖZY,1,0.01%,10,1
SASS,1,0.01%,10,1
SIMON,1,0.01%,10,1
SOLYOM|SÓLYOM,1,0.01%,10,1
SOROS|SÖRÖS,1,0.01%,10,1
SVED|SVÉD,1,0.01%,10,1
SZABOLCSI,1,0.01%,10,1
SZARKA,1,0.01%,10,1
SZEKELY|SZÉKELY,1,0.01%,10,1
SZEP|SZÉP,1,0.01%,10,1
SZOMBATHY,1,0.01%,10,1
TAKACS|TAKÁCS,1,0.01%,10,1
TAR,1,0.01%,10,1
TIMAR|TÍMÁR,1,0.01%,10,1
TOLVAJ,1,0.01%,10,1
TOROK|TÖRÖK,1,0.01%,10,1
TOTH|TÓTH,1,0.01%,10,1
VAMOS|VÁMOS,1,0.01%,10,1
VARGHA,1,0.01%,10,1
VASTAG,1,0.01%,10,1
VENCEL,1,0.01%,10,1
VERES,1,0.01%,10,1
VINCZE,1,0.01%,10,1
VOROS|VÖRÖS,1,0.01%,10,1
ZOLTANFI|ZOLTÁNFI,1,0.01%,10,1
