NAME,COUNT,PERCENT,PROP100K,ISNOTREALCOUNT
ADAM,1,0.01%,10,1
ALBERT,1,0.01%,10,1
ANTAL,1,0.01%,10,1
ARANY,1,0.01%,10,1
BAKO,1,0.01%,10,1
BALINT,1,0.01%,10,1
BALOGH,1,0.01%,10,1
BARATH,1,0.01%,10,1
BARTA,1,0.01%,10,1
BARTOS,1,0.01%,10,1
BATORI,1,0.01%,10,1
BENES,1,0.01%,10,1
BODNAR,1,0.01%,10,1
BOGNAR,1,0.01%,10,1
BOKORI,1,0.01%,10,1
BOROS,1,0.01%,10,1
BUDAY,1,0.01%,10,1
CINEGE,1,0.01%,10,1
CSEH,1,0.01%,10,1
CSIZMADIA,1,0.01%,10,1
CSORBA,1,0.01%,10,1
DOBOS,1,0.01%,10,1
ERDOS,1,0.01%,10,1
ESZES,1,0.01%,10,1
FARAGO,1,0.01%,10,1
FAZEKAS,1,0.01%,10,1
FEJES,1,0.01%,10,1
FILEP,1,0.01%,10,1
FULOP,1,0.01%,10,1
GAL,1,0.01%,10,1
GASPAR,1,0.01%,10,1
GOROG,1,0.01%,10,1
GROSZ,1,0.01%,10,1
HAJOS,1,0.01%,10,1
HALMI,1,0.01%,10,1
HERCZEG,1,0.01%,10,1
HORVATH,1,0.01%,10,1
ILLES,1,0.01%,10,1
JANKOVICS,1,0.01%,10,1
JONAS,1,0.01%,10,1
JUHASZ,1,0.01%,10,1
KALMAR,1,0.01%,10,1
KARPATHY,1,0.01%,10,1
KARPATY,1,0.01%,10,1
KATONA,1,0.01%,10,1
KEDVES,1,0.01%,10,1
KELLER,1,0.01%,10,1
KEREKES,1,0.01%,10,1
KIRALY,1,0.01%,10,1
KISS,1,0.01%,10,1
KOCSIS,1,0.01%,10,1
KOVACH,1,0.01%,10,1
KOVATS,1,0.01%,10,1
KURUCZ,1,0.01%,10,1
LANTOS,1,0.01%,10,1
LAZAR,1,0.01%,10,1
LOVASZ,1,0.01%,10,1
MAGYAR,1,0.01%,10,1
MARKO,1,0.01%,10,1
MEGGYESFALVI,1,0.01%,10,1
MOLNAR,1,0.01%,10,1
NEMES,1,0.01%,10,1
NEMETH,1,0.01%,10,1
NYILAS,1,0.01%,10,1
OLASZ,1,0.01%,10,1
OROSZ,1,0.01%,10,1
PAPP,1,0.01%,10,1
PATAKI,1,0.01%,10,1
PESTI,1,0.01%,10,1
PETER,1,0.01%,10,1
PETHES,1,0.01%,10,1
PETOCS,1,0.01%,10,1
POKORNI,1,0.01%,10,1
PUSKAS,1,0.01%,10,1
RIGO,1,0.01%,10,1
RUZSA,1,0.01%,10,1
SAMSA,1,0.01%,10,1
SARKA,1,0.01%,10,1
SARKOZY,1,0.01%,10,1
SASS,1,0.01%,10,1
SIMON,1,0.01%,10,1
SOLYOM,1,0.01%,10,1
SOROS,1,0.01%,10,1
SVED,1,0.01%,10,1
SZABOLCSI,1,0.01%,10,1
SZARKA,1,0.01%,10,1
SZEKELY,1,0.01%,10,1
SZEP,1,0.01%,10,1
SZOMBATHY,1,0.01%,10,1
TAKACS,1,0.01%,10,1
TAR,1,0.01%,10,1
TIMAR,1,0.01%,10,1
TOLVAJ,1,0.01%,10,1
TOROK,1,0.01%,10,1
TOTH,1,0.01%,10,1
VAMOS,1,0.01%,10,1
VARGHA,1,0.01%,10,1
VASTAG,1,0.01%,10,1
VENCEL,1,0.01%,10,1
VERES,1,0.01%,10,1
VINCZE,1,0.01%,10,1
VOROS,1,0.01%,10,1
ZOLTANFI,1,0.01%,10,1
