NAME,COUNT,PERCENT,PROP100K
ABEL,1,0.01%,10
ADAMSEN,1,0.01%,10
ALBERTSEN,1,0.01%,10
ANDERSEN,1,0.01%,10
ANKER,1,0.01%,10
ANTONISEN,1,0.01%,10
AXELSEN,1,0.01%,10
BECK,1,0.01%,10
BENTSEN,1,0.01%,10
BJARNESEN,1,0.01%,10
BRAMS,1,0.01%,10
CARSTENSEN,1,0.01%,10
CHRISTIANSEN,1,0.01%,10
CLAUSEN,1,0.01%,10
DAHL,1,0.01%,10
DAM,1,0.01%,10
DAVIDSEN,1,0.01%,10
FALK,1,0.01%,10
FRANK,1,0.01%,10
GIESE,1,0.01%,10
GUNNARSEN,1,0.01%,10
HANSEN,1,0.01%,10
HENNINGSEN,1,0.01%,10
HERMANSEN,1,0.01%,10
HOLGERSEN,1,0.01%,10
HOLT,1,0.01%,10
HORN,1,0.01%,10
HUMMEL,1,0.01%,10
JACOBSEN,1,0.01%,10
JENSEN,1,0.01%,10
JOHANSEN,1,0.01%,10
JONASEN,1,0.01%,10
KARLSEN,1,0.01%,10
KASPERSEN,1,0.01%,10
KLASSEN,1,0.01%,10
KNUDSEN,1,0.01%,10
KRISTIANSEN,1,0.01%,10
LANG,1,0.01%,10
LARSEN,1,0.01%,10
LORENZEN,1,0.01%,10
LUND,1,0.01%,10
MADSEN,1,0.01%,10
MATTHIASEN,1,0.01%,10
M&Oslash;LLER,1,0.01%,10
NIELSEN,1,0.01%,10
NORDSKOV,1,0.01%,10
NORUP,1,0.01%,10
OLSEN,1,0.01%,10
&Oslash;STER,1,0.01%,10
&Oslash;STERG&Aring;RD,1,0.01%,10
PALLESEN,1,0.01%,10
PETERSEN,1,0.01%,10
PREBENSEN,1,0.01%,10
RASK,1,0.01%,10
RASMUSSEN,1,0.01%,10
RIBER,1,0.01%,10
SIMONSEN,1,0.01%,10
SOLBERG,1,0.01%,10
SORENSON,1,0.01%,10
STEFANSEN,1,0.01%,10
STENBERG,1,0.01%,10
STRAND,1,0.01%,10
THORN,1,0.01%,10
TROELSEN,1,0.01%,10
VERNERSEN,1,0.01%,10
WANG,1,0.01%,10
WOLFF,1,0.01%,10
