Total,20000,,,
TotalF,10000,,,
TotalM,10000,,,
NAME,GENDER,COUNT,PERCENT,PROP100K
SANTIAGO,M,100,0.500000000%,500.0000000000
MATEO,M,100,0.500000000%,500.0000000000
DIEGO,M,100,0.500000000%,500.0000000000
MIGUEL ÁNGEL,M,100,0.500000000%,500.0000000000
EMILIANO,M,100,0.500000000%,500.0000000000
SEBASTIÁN,M,100,0.500000000%,500.0000000000
LEONARDO,M,100,0.500000000%,500.0000000000
JOSÉ ÁNGEL,M,100,0.500000000%,500.0000000000
JESÚS,M,100,0.500000000%,500.0000000000
ALEJANDRO,M,100,0.500000000%,500.0000000000
LUIS ÁNGEL,M,100,0.500000000%,500.0000000000
DANIEL,M,100,0.500000000%,500.0000000000
ALEXANDER,M,100,0.500000000%,500.0000000000
JUAN PABLO,M,100,0.500000000%,500.0000000000
GAEL,M,100,0.500000000%,500.0000000000
FERNANDO,M,100,0.500000000%,500.0000000000
RODRIGO,M,100,0.500000000%,500.0000000000
MATÍAS,M,100,0.500000000%,500.0000000000
EMMANUEL,M,100,0.500000000%,500.0000000000
EDUARDO,M,100,0.500000000%,500.0000000000
ÁNGEL GABRIEL,M,100,0.500000000%,500.0000000000
DAVID,M,100,0.500000000%,500.0000000000
IKER,M,100,0.500000000%,500.0000000000
JUAN CARLOS,M,100,0.500000000%,500.0000000000
ÁNGEL,M,100,0.500000000%,500.0000000000
JOSÉ LUIS,M,100,0.500000000%,500.0000000000
JONATHAN,M,100,0.500000000%,500.0000000000
MAXIMILIANO,M,100,0.500000000%,500.0000000000
RICARDO,M,100,0.500000000%,500.0000000000
ALEXIS,M,100,0.500000000%,500.0000000000
JOSÉ MANUEL,M,100,0.500000000%,500.0000000000
DAMIÁN,M,100,0.500000000%,500.0000000000
KEVIN,M,100,0.500000000%,500.0000000000
JOSÉ ANTONIO,M,100,0.500000000%,500.0000000000
GABRIEL,M,100,0.500000000%,500.0000000000
LUIS FERNANDO,M,100,0.500000000%,500.0000000000
CRISTIAN,M,100,0.500000000%,500.0000000000
AXEL,M,100,0.500000000%,500.0000000000
RAFAEL,M,100,0.500000000%,500.0000000000
MARCO ANTONIO,M,100,0.500000000%,500.0000000000
ALAN,M,100,0.500000000%,500.0000000000
ISAAC,M,100,0.500000000%,500.0000000000
MAURICIO,M,100,0.500000000%,500.0000000000
JOSUE,M,100,0.500000000%,500.0000000000
JOSÉ MIGUEL,M,100,0.500000000%,500.0000000000
ADRIÁN,M,100,0.500000000%,500.0000000000
URIEL,M,100,0.500000000%,500.0000000000
BRAYAN,M,100,0.500000000%,500.0000000000
SAMUEL,M,100,0.500000000%,500.0000000000
JOSÉ DE JESÚS,M,100,0.500000000%,500.0000000000
JUAN DIEGO,M,100,0.500000000%,500.0000000000
JAVIER,M,100,0.500000000%,500.0000000000
JUAN MANUEL,M,100,0.500000000%,500.0000000000
CARLOS,M,100,0.500000000%,500.0000000000
FRANCISCO,M,100,0.500000000%,500.0000000000
ELÍAS,M,100,0.500000000%,500.0000000000
EMILIO,M,100,0.500000000%,500.0000000000
BRANDON,M,100,0.500000000%,500.0000000000
JULIO CÉSAR,M,100,0.500000000%,500.0000000000
NICOLÁS,M,100,0.500000000%,500.0000000000
JUAN JOSÉ,M,100,0.500000000%,500.0000000000
ANDRÉS,M,100,0.500000000%,500.0000000000
AARÓN,M,100,0.500000000%,500.0000000000
ANTONIO,M,100,0.500000000%,500.0000000000
TADEO,M,100,0.500000000%,500.0000000000
LEONEL,M,100,0.500000000%,500.0000000000
FRANCISCO JAVIER,M,100,0.500000000%,500.0000000000
JESÚS ANTONIO,M,100,0.500000000%,500.0000000000
CARLOS DANIEL,M,100,0.500000000%,500.0000000000
JESÚS ALEJANDRO,M,100,0.500000000%,500.0000000000
JOSÉ EDUARDO,M,100,0.500000000%,500.0000000000
GERARDO,M,100,0.500000000%,500.0000000000
IVÁN,M,100,0.500000000%,500.0000000000
ABRAHAM,M,100,0.500000000%,500.0000000000
ISRAEL,M,100,0.500000000%,500.0000000000
ÁNGEL DE JESÚS,M,100,0.500000000%,500.0000000000
ROBERTO,M,100,0.500000000%,500.0000000000
MIGUEL,M,100,0.500000000%,500.0000000000
LUIS ANTONIO,M,100,0.500000000%,500.0000000000
OSCAR,M,100,0.500000000%,500.0000000000
ERICK,M,100,0.500000000%,500.0000000000
OMAR,M,100,0.500000000%,500.0000000000
VÍCTOR MANUEL,M,100,0.500000000%,500.0000000000
SAÚL,M,100,0.500000000%,500.0000000000
JESÚS EDUARDO,M,100,0.500000000%,500.0000000000
ÁNGEL DANIEL,M,100,0.500000000%,500.0000000000
CHRISTOPHER,M,100,0.500000000%,500.0000000000
JOSÉ MARÍA,M,100,0.500000000%,500.0000000000
JORGE,M,100,0.500000000%,500.0000000000
DYLAN,M,100,0.500000000%,500.0000000000
ARTURO,M,100,0.500000000%,500.0000000000
IAN,M,100,0.500000000%,500.0000000000
JUAN ANTONIO,M,100,0.500000000%,500.0000000000
EMANUEL,M,100,0.500000000%,500.0000000000
BRUNO,M,100,0.500000000%,500.0000000000
CRISTOPHER,M,100,0.500000000%,500.0000000000
CÉSAR,M,100,0.500000000%,500.0000000000
LUIS ENRIQUE,M,100,0.500000000%,500.0000000000
MANUEL,M,100,0.500000000%,500.0000000000
PEDRO,M,100,0.500000000%,500.0000000000
XIMENA,F,100,0.500000000%,500.0000000000
MARÍA JOSÉ,F,100,0.500000000%,500.0000000000
VALENTINA,F,100,0.500000000%,500.0000000000
MARÍA FERNANDA,F,100,0.500000000%,500.0000000000
VALERIA,F,100,0.500000000%,500.0000000000
SOFÍA,F,100,0.500000000%,500.0000000000
CAMILA,F,100,0.500000000%,500.0000000000
REGINA,F,100,0.500000000%,500.0000000000
RENATA,F,100,0.500000000%,500.0000000000
MARIA GUADALUPE,F,100,0.500000000%,500.0000000000
NATALIA,F,100,0.500000000%,500.0000000000
DANIELA,F,100,0.500000000%,500.0000000000
ANDREA,F,100,0.500000000%,500.0000000000
VICTORIA,F,100,0.500000000%,500.0000000000
ISABELLA,F,100,0.500000000%,500.0000000000
SAMANTHA,F,100,0.500000000%,500.0000000000
MARIANA,F,100,0.500000000%,500.0000000000
FERNANDA,F,100,0.500000000%,500.0000000000
FATIMA,F,100,0.500000000%,500.0000000000
VANESSA,F,100,0.500000000%,500.0000000000
JIMENA,F,100,0.500000000%,500.0000000000
DULCE MARIA,F,100,0.500000000%,500.0000000000
ALONDRA,F,100,0.500000000%,500.0000000000
ROMINA,F,100,0.500000000%,500.0000000000
ELIZABETH,F,100,0.500000000%,500.0000000000
ALEJANDRA,F,100,0.500000000%,500.0000000000
NICOLE,F,100,0.500000000%,500.0000000000
GUADALUPE,F,100,0.500000000%,500.0000000000
MELISSA,F,100,0.500000000%,500.0000000000
ALEXA,F,100,0.500000000%,500.0000000000
ESMERALDA,F,100,0.500000000%,500.0000000000
ANA SOFÍA,F,100,0.500000000%,500.0000000000
KIMBERLY,F,100,0.500000000%,500.0000000000
EVELYN,F,100,0.500000000%,500.0000000000
ABIGAIL,F,100,0.500000000%,500.0000000000
JENNIFER,F,100,0.500000000%,500.0000000000
YAMILETH,F,100,0.500000000%,500.0000000000
ANA VICTORIA,F,100,0.500000000%,500.0000000000
EMILY,F,100,0.500000000%,500.0000000000
ABRIL,F,100,0.500000000%,500.0000000000
ESTEFANÍA,F,100,0.500000000%,500.0000000000
MONSERRAT,F,100,0.500000000%,500.0000000000
XIMENA GUADALUPE,F,100,0.500000000%,500.0000000000
PAOLA,F,100,0.500000000%,500.0000000000
MIRANDA,F,100,0.500000000%,500.0000000000
MELANY,F,100,0.500000000%,500.0000000000
CAROLINA,F,100,0.500000000%,500.0000000000
PAULINA,F,100,0.500000000%,500.0000000000
ZOE,F,100,0.500000000%,500.0000000000
GABRIELA,F,100,0.500000000%,500.0000000000
LILIANA,F,100,0.500000000%,500.0000000000
ELISA,F,100,0.500000000%,500.0000000000
ITZEL,F,100,0.500000000%,500.0000000000
IVANNA,F,100,0.500000000%,500.0000000000
JULIETA,F,100,0.500000000%,500.0000000000
JAZMIN,F,100,0.500000000%,500.0000000000
ALEXANDRA,F,100,0.500000000%,500.0000000000
YARETZI,F,100,0.500000000%,500.0000000000
LIZBETH,F,100,0.500000000%,500.0000000000
MARISOL,F,100,0.500000000%,500.0000000000
ADRIANA,F,100,0.500000000%,500.0000000000
NAOMI,F,100,0.500000000%,500.0000000000
DANNA PAOLA,F,100,0.500000000%,500.0000000000
REBECA,F,100,0.500000000%,500.0000000000
DIANA,F,100,0.500000000%,500.0000000000
MAYTE,F,100,0.500000000%,500.0000000000
ALLISON,F,100,0.500000000%,500.0000000000
ANA PAULA,F,100,0.500000000%,500.0000000000
LUZ MARIA,F,100,0.500000000%,500.0000000000
CAMILA GUADALUPE,F,100,0.500000000%,500.0000000000
MÍA,F,100,0.500000000%,500.0000000000
DAYANA,F,100,0.500000000%,500.0000000000
WENDY,F,100,0.500000000%,500.0000000000
ANA KAREN,F,100,0.500000000%,500.0000000000
MICHELLE,F,100,0.500000000%,500.0000000000
MONSERRAT,F,100,0.500000000%,500.0000000000
KARLA,F,100,0.500000000%,500.0000000000
ALEXIA,F,100,0.500000000%,500.0000000000
YOSELIN,F,100,0.500000000%,500.0000000000
LUCERO,F,100,0.500000000%,500.0000000000
MARIA DEL CARMEN,F,100,0.500000000%,500.0000000000
MELANIE,F,100,0.500000000%,500.0000000000
VALERIA GUADALUPE,F,100,0.500000000%,500.0000000000
JAQUELINE,F,100,0.500000000%,500.0000000000
AYLIN,F,100,0.500000000%,500.0000000000
MARIA ALEJANDRA,F,100,0.500000000%,500.0000000000
DANNA SOFÍA,F,100,0.500000000%,500.0000000000
ESTRELLA,F,100,0.500000000%,500.0000000000
LUCÍA,F,100,0.500000000%,500.0000000000
MARIA DE JESÚS,F,100,0.500000000%,500.0000000000
SARAHI,F,100,0.500000000%,500.0000000000
KENIA,F,100,0.500000000%,500.0000000000
TANIA,F,100,0.500000000%,500.0000000000
LUCIANA,F,100,0.500000000%,500.0000000000
JOCELYN,F,100,0.500000000%,500.0000000000
MARIA ISABEL,F,100,0.500000000%,500.0000000000
ANA PAOLA,F,100,0.500000000%,500.0000000000
SOFÍA GUADALUPE,F,100,0.500000000%,500.0000000000
SARA,F,100,0.500000000%,500.0000000000
JACQUELINE,F,100,0.500000000%,500.0000000000
