NAME,COUNT,PERCENT,PROP100K,ISNOTREALCOUNT
ANDREAS|Ανδρεας,1,0.01%,10,1
ANTONIS|Αντωνης,1,0.01%,10,1
DEMETRIOU|Δημητριου,1,0.01%,10,1
FLOROS|Φλωρος,1,0.01%,10,1
IOANNIDIS|Ιωαννιδης,1,0.01%,10,1
KATSAROS,1,0.01%,10,1
MARINOS,1,0.01%,10,1
METAXAS|Μεταξας,1,0.01%,10,1
MICHELAKAKIS,1,0.01%,10,1
MICHELAKOS,1,0.01%,10,1
PAPADOPOULOS,1,0.01%,10,1
SANNA,1,0.01%,10,1
SPIROS,1,0.01%,10,1
STEPHANIDIS,1,0.01%,10,1
