NAME,COUNT,PERCENT,PROP100K,ISNOTREALCOUNT
BAINES,1,0.01%,10,1
BEVAN,1,0.01%,10,1
BOWEN,1,0.01%,10,1
CECIL,1,0.01%,10,1
EVANS,1,0.01%,10,1
GRIFFIN,1,0.01%,10,1
HIER,1,0.01%,10,1
JERNIGAN,1,0.01%,10,1
KENDRICK,1,0.01%,10,1
LLEWELLYN,1,0.01%,10,1
LLYWELYN,1,0.01%,10,1
MARVIN,1,0.01%,10,1
MERRICKS,1,0.01%,10,1
MORRIS,1,0.01%,10,1
OWENS,1,0.01%,10,1
PERRY,1,0.01%,10,1
PRICE,1,0.01%,10,1
PRIDDY,1,0.01%,10,1
PROBERT,1,0.01%,10,1
PUGH,1,0.01%,10,1
REES,1,0.01%,10,1
RHYDDERCH,1,0.01%,10,1
SAYER,1,0.01%,10,1
TREVOR,1,0.01%,10,1
VAUGHN,1,0.01%,10,1
