NAME,COUNT,PERCENT,PROP100K
ABARCA,1,0.01%,10
ABASCAL,1,0.01%,10
ABEL,1,0.01%,10
ABRAHAM,1,0.01%,10
ACOSTA,1,0.01%,10
AGUA,1,0.01%,10
AIZA,1,0.01%,10
ALBERT,1,0.01%,10
ALFARO,1,0.01%,10
&Aacute;LVAREZ,1,0.01%,10
ANDR&Eacute;S,1,0.01%,10
ANT&Uacute;NEZ,1,0.01%,10
ARAUJO,1,0.01%,10
ARCE,1,0.01%,10
ARENAS,1,0.01%,10
ARMANDO,1,0.01%,10
ARRIOLA,1,0.01%,10
ASTURIAS,1,0.01%,10
BANDERAS,1,0.01%,10
BASURTO,1,0.01%,10
BELLO,1,0.01%,10
BENGOCHEA,1,0.01%,10
BENGOETXEA,1,0.01%,10
BERM&Uacute;DEZ,1,0.01%,10
BLANCO,1,0.01%,10
BOL&Iacute;VAR,1,0.01%,10
BOSQUE,1,0.01%,10
BUSTILLO,1,0.01%,10
BUSTOS,1,0.01%,10
CABRERA,1,0.01%,10
CAMPO,1,0.01%,10
CANT&Uacute;,1,0.01%,10
CARDOSO,1,0.01%,10
CARO,1,0.01%,10
CASALES,1,0.01%,10
CASTELLANO,1,0.01%,10
CASTILLO,1,0.01%,10
CATAL&Aacute;N,1,0.01%,10
CHAVES,1,0.01%,10
COL&Oacute;N,1,0.01%,10
CRESPO,1,0.01%,10
CU&Eacute;LLAR,1,0.01%,10
CUEVAS,1,0.01%,10
DE LA CRUZ,1,0.01%,10
DEL BOSQUE,1,0.01%,10
DELGADO,1,0.01%,10
DE SANTIAGO,1,0.01%,10
DOM&Iacute;NGUEZ,1,0.01%,10
ECHEVARR&Iacute;A,1,0.01%,10
ELIZONDO,1,0.01%,10
ESC&Aacute;RCEGA,1,0.01%,10
ESPARZA,1,0.01%,10
ESPINO,1,0.01%,10
ESPINOZA,1,0.01%,10
ETXEBARRIA,1,0.01%,10
F&Eacute;LIX,1,0.01%,10
FERRER,1,0.01%,10
FLORES,1,0.01%,10
FRANCO,1,0.01%,10
GALLEGO,1,0.01%,10
GARC&Iacute;A,1,0.01%,10
GARZA,1,0.01%,10
GEBARA,1,0.01%,10
GONZALES,1,0.01%,10
GREC,1,0.01%,10
GUERRA,1,0.01%,10
GUTI&Eacute;RREZ,1,0.01%,10
HERN&Aacute;NDEZ,1,0.01%,10
HERRERO,1,0.01%,10
HOLGU&Iacute;N,1,0.01%,10
IB&Aacute;&Ntilde;EZ,1,0.01%,10
I&Ntilde;&Iacute;GUEZ,1,0.01%,10
JASO,1,0.01%,10
JIMENEZ,1,0.01%,10
JU&Aacute;REZ,1,0.01%,10
LOPEZ,1,0.01%,10
LOYOLA,1,0.01%,10
MACHADO,1,0.01%,10
MARADONA,1,0.01%,10
MARINO,1,0.01%,10
MARTELL,1,0.01%,10
MART&Iacute;NEZ,1,0.01%,10
MAS,1,0.01%,10
MATEU,1,0.01%,10
MELENDEZ,1,0.01%,10
MENDOZA,1,0.01%,10
MERLO,1,0.01%,10
MINGO,1,0.01%,10
MOLINA,1,0.01%,10
MORALES,1,0.01%,10
MORENO,1,0.01%,10
NIEVES,1,0.01%,10
N&Uacute;&Ntilde;EZ,1,0.01%,10
OCHOA,1,0.01%,10
OLA,1,0.01%,10
OLGUIN,1,0.01%,10
OLMO,1,0.01%,10
OQUENDO,1,0.01%,10
ORIOL,1,0.01%,10
ORTIZ,1,0.01%,10
PAREDES,1,0.01%,10
PEL&Aacute;EZ,1,0.01%,10
P&Eacute;REZ,1,0.01%,10
PETIT,1,0.01%,10
PORRA,1,0.01%,10
PRIETO,1,0.01%,10
PUGA,1,0.01%,10
QUINONES,1,0.01%,10
QUIR&Oacute;S,1,0.01%,10
RAMOS,1,0.01%,10
REND&Oacute;N,1,0.01%,10
REYES,1,0.01%,10
RIVERA,1,0.01%,10
ROBLEDO,1,0.01%,10
ROCHA,1,0.01%,10
RODRIQUEZ,1,0.01%,10
ROJAS,1,0.01%,10
ROLD&Aacute;N,1,0.01%,10
ROM&Agrave;,1,0.01%,10
ROSA,1,0.01%,10
RUBIO,1,0.01%,10
SALA,1,0.01%,10
SALAZAR,1,0.01%,10
SALINAS,1,0.01%,10
SANDOVAL,1,0.01%,10
SANTANA,1,0.01%,10
SANTILLIAN,1,0.01%,10
SASTRE,1,0.01%,10
SIERRA,1,0.01%,10
SOLER,1,0.01%,10
SOLOS,1,0.01%,10
SU&Aacute;REZ,1,0.01%,10
TAPIA,1,0.01%,10
TOM&Agrave;S,1,0.01%,10
TOS,1,0.01%,10
TOSET,1,0.01%,10
TRUJILLO,1,0.01%,10
URBINA,1,0.01%,10
VALDEZ,1,0.01%,10
VARELA,1,0.01%,10
V&Aacute;SQUEZ,1,0.01%,10
VEGA,1,0.01%,10
VELA,1,0.01%,10
VENTURA,1,0.01%,10
VILAR&Oacute;,1,0.01%,10
VILLALOBOS,1,0.01%,10
VILLAVERDE,1,0.01%,10
VITERI,1,0.01%,10
VIVES,1,0.01%,10
ZABALA,1,0.01%,10
ZAMORANO,1,0.01%,10
ZAVALA,1,0.01%,10
ZU&Ntilde;IGA,1,0.01%,10
