NAME,COUNT,PERCENT,PROP100K,ISNOTREALCOUNT
ABEL,1,0.01%,10,1
ADAM,1,0.01%,10,1
ALLARD,1,0.01%,10,1
ARCHAMBAULT,1,0.01%,10,1
AUGUSTIN,1,0.01%,10,1
BABINEAUX,1,0.01%,10,1
BAUDIN,1,0.01%,10,1
BEAUFORT,1,0.01%,10,1
BEAUMONT,1,0.01%,10,1
BELLAMY,1,0.01%,10,1
BELMONT,1,0.01%,10,1
BERANGER,1,0.01%,10,1
BÉRANGER,1,0.01%,10,1
BERINGER,1,0.01%,10,1
BÉRINGER,1,0.01%,10,1
BERTRAND,1,0.01%,10,1
BLANC,1,0.01%,10,1
BLANCHET,1,0.01%,10,1
BOIVIN,1,0.01%,10,1
BONHEUR,1,0.01%,10,1
BONNAIRE,1,0.01%,10,1
BONNET,1,0.01%,10,1
BOUCHARD,1,0.01%,10,1
BOURDILLON,1,0.01%,10,1
BRET,1,0.01%,10,1
BRODEUR,1,0.01%,10,1
CARON,1,0.01%,10,1
CHARBONNEAU,1,0.01%,10,1
CHARRON,1,0.01%,10,1
CHEVALIER,1,0.01%,10,1
CLOUTIER,1,0.01%,10,1
COMTOIS,1,0.01%,10,1
COTE,1,0.01%,10,1
CÔTÉ,1,0.01%,10,1
COUSINEAU,1,0.01%,10,1
DANIAU,1,0.01%,10,1
D'ARAMITZ,1,0.01%,10,1
DAVID,1,0.01%,10,1
DEGARMO,1,0.01%,10,1
DE LA FONTAINE,1,0.01%,10,1
DENIAUD,1,0.01%,10,1
DENIS,1,0.01%,10,1
DESCHAMPS,1,0.01%,10,1
DESJARDINS,1,0.01%,10,1
DESROSIERS,1,0.01%,10,1
DUBOIS,1,0.01%,10,1
DUFORT,1,0.01%,10,1
DUGUAY,1,0.01%,10,1
DUPONT,1,0.01%,10,1
DURANT,1,0.01%,10,1
EMILE,1,0.01%,10,1
ÉMILE,1,0.01%,10,1
FABIAN,1,0.01%,10,1
FABRON,1,0.01%,10,1
FAUCHEUX,1,0.01%,10,1
FAVAGER,1,0.01%,10,1
FAVREAU,1,0.01%,10,1
FELIX,1,0.01%,10,1
FÉLIX,1,0.01%,10,1
FONTAINE,1,0.01%,10,1
FORESTIER,1,0.01%,10,1
FOSS,1,0.01%,10,1
FRANCOIS,1,0.01%,10,1
FRANÇOIS,1,0.01%,10,1
GAGNE,1,0.01%,10,1
GAGNON,1,0.01%,10,1
GARDINIER,1,0.01%,10,1
GEROUX,1,0.01%,10,1
GÉROUX,1,0.01%,10,1
GIRARD,1,0.01%,10,1
GOSSE,1,0.01%,10,1
GRANGER,1,0.01%,10,1
GUERIN,1,0.01%,10,1
GUÉRIN,1,0.01%,10,1
HARDY,1,0.01%,10,1
HEBERT,1,0.01%,10,1
HÉBERT,1,0.01%,10,1
HERRIOT,1,0.01%,10,1
JANVIER,1,0.01%,10,1
JOUBERT,1,0.01%,10,1
LACHANCE,1,0.01%,10,1
LAMAR,1,0.01%,10,1
LANE,1,0.01%,10,1
LANGLOIS,1,0.01%,10,1
LARUE,1,0.01%,10,1
LAVIGNE,1,0.01%,10,1
LEANDRES,1,0.01%,10,1
LEBLANC,1,0.01%,10,1
LECLERC,1,0.01%,10,1
LEFEBVRE,1,0.01%,10,1
LEFURGEY,1,0.01%,10,1
LEMAIRE,1,0.01%,10,1
LEON,1,0.01%,10,1
LESAUVAGE,1,0.01%,10,1
LEVEQUE,1,0.01%,10,1
LÉVÊQUE,1,0.01%,10,1
LINVILLE,1,0.01%,10,1
LYON,1,0.01%,10,1
MACON,1,0.01%,10,1
MAÇON,1,0.01%,10,1
MARIE,1,0.01%,10,1
MARTEL,1,0.01%,10,1
MARTIN,1,0.01%,10,1
MASSON,1,0.01%,10,1
MERCIER,1,0.01%,10,1
MICHAUD,1,0.01%,10,1
MONET,1,0.01%,10,1
MONTAGNE,1,0.01%,10,1
MOREL,1,0.01%,10,1
MULLINS,1,0.01%,10,1
NOEL,1,0.01%,10,1
OLIVIER,1,0.01%,10,1
PAGET,1,0.01%,10,1
PAN,1,0.01%,10,1
PAQUET,1,0.01%,10,1
PARENT,1,0.01%,10,1
PARRIS,1,0.01%,10,1
PATENAUDE,1,0.01%,10,1
PAUL,1,0.01%,10,1
PERRAULT,1,0.01%,10,1
PERROT,1,0.01%,10,1
PETTIGREW,1,0.01%,10,1
PLAMONDON,1,0.01%,10,1
POINGDESTRE,1,0.01%,10,1
PORCHER,1,0.01%,10,1
PROULX,1,0.01%,10,1
REY,1,0.01%,10,1
RICHARD,1,0.01%,10,1
ROBERT,1,0.01%,10,1
ROME,1,0.01%,10,1
ROSE,1,0.01%,10,1
ROUX,1,0.01%,10,1
ROYER,1,0.01%,10,1
SALOMON,1,0.01%,10,1
SAMSON,1,0.01%,10,1
SARGENT,1,0.01%,10,1
SARKOZY,1,0.01%,10,1
SAULT,1,0.01%,10,1
SAUVAGEAU,1,0.01%,10,1
SAUVAGEOT,1,0.01%,10,1
SAVATIER,1,0.01%,10,1
SERGEANT,1,0.01%,10,1
SIMON,1,0.01%,10,1
ST MARTIN,1,0.01%,10,1
TAILLER,1,0.01%,10,1
THAYER,1,0.01%,10,1
THOMAS,1,0.01%,10,1
TOLBERT,1,0.01%,10,1
TRAVERE,1,0.01%,10,1
TRAVERSE,1,0.01%,10,1
TREMBLAY,1,0.01%,10,1
VICTOR,1,0.01%,10,1
VILLENEUVE,1,0.01%,10,1
VIPOND,1,0.01%,10,1
