NAME,COUNT,PERCENT,PROP100K,ISNOTREALCOUNT
AKSOY,1,0.01%,10,1
ASLAN,1,0.01%,10,1
BADEM,1,0.01%,10,1
BARDAKCI,1,0.01%,10,1
BARDAKÇI,1,0.01%,10,1
BINICI,1,0.01%,10,1
BİNİCİ,1,0.01%,10,1
DEGIRMENCI,1,0.01%,10,1
DEĞIRMENCI,1,0.01%,10,1
DEMIRCI,1,0.01%,10,1
DEMİRCİ,1,0.01%,10,1
KARGA,1,0.01%,10,1
KATIRCI,1,0.01%,10,1
KUCUK,1,0.01%,10,1
KÜÇÜK,1,0.01%,10,1
MACAR,1,0.01%,10,1
MATARACI,1,0.01%,10,1
SADIK,1,0.01%,10,1
TEKE,1,0.01%,10,1
TERZI,1,0.01%,10,1
TIRYAKI,1,0.01%,10,1
YILMAZ,1,0.01%,10,1
