NAME,GENDER,COUNT,PERCENT,PROP100K,ISNOTREALCOUNT
ABENE,F,1,0.01%,10,1
AGURTZANE,F,1,0.01%,10,1
AINHOA,F,1,0.01%,10,1
AINTZANE,F,1,0.01%,10,1
ALAIA,F,1,0.01%,10,1
ALESANDER,M,1,0.01%,10,1
AMAYA,F,1,0.01%,10,1
ANDER,M,1,0.01%,10,1
ANE,F,1,0.01%,10,1
ANTTON,M,1,0.01%,10,1
ARANTZAZU,F,1,0.01%,10,1
ARGIDER,M,1,0.01%,10,1
ARKAITZ,M,1,0.01%,10,1
ASIER,M,1,0.01%,10,1
BAKARNE,F,1,0.01%,10,1
BASAJAUN,M,1,0.01%,10,1
BEREZI,F,1,0.01%,10,1
BIHOTZ,F,1,0.01%,10,1
BITTOR,M,1,0.01%,10,1
EDER,M,1,0.01%,10,1
EDORTA,M,1,0.01%,10,1
EDURNE,F,1,0.01%,10,1
EGUZKINE|EGUZKIÑE,F,1,0.01%,10,1
EKAIN,M,1,0.01%,10,1
ELIXABETE,F,1,0.01%,10,1
ENEKO,M,1,0.01%,10,1
ERLEA,F,1,0.01%,10,1
ESKARNE,F,1,0.01%,10,1
ESTI,F,1,0.01%,10,1
EUKENE,F,1,0.01%,10,1
EZTEBE,M,1,0.01%,10,1
FERMINTXO,M,1,0.01%,10,1
FRANTZISKO,M,1,0.01%,10,1
GANIX,M,1,0.01%,10,1
GARBI,F,1,0.01%,10,1
GARDEN,F,1,0.01%,10,1
GOIZARGI,F,1,0.01%,10,1
GORKA,M,1,0.01%,10,1
GOTZONE,F,1,0.01%,10,1
GURUTZE,F,1,0.01%,10,1
HAIZEA,F,1,0.01%,10,1
HILARGI,F,1,0.01%,10,1
HODEI,M,1,0.01%,10,1
IGON,M,1,0.01%,10,1
IHINTZA,F,1,0.01%,10,1
IMANOL,M,1,0.01%,10,1
ION,M,1,0.01%,10,1
IRUNE,F,1,0.01%,10,1
ITSASO,F,1,0.01%,10,1
ITXASO,F,1,0.01%,10,1
ITZIAR,F,1,0.01%,10,1
IZARO,F,1,0.01%,10,1
JAKES,M,1,0.01%,10,1
JON,M,1,0.01%,10,1
JOSEBA,M,1,0.01%,10,1
JOSUNE,F,1,0.01%,10,1
KATALIN,F,1,0.01%,10,1
KEMEN,M,1,0.01%,10,1
KERMAN,M,1,0.01%,10,1
KOLDO,M,1,0.01%,10,1
LORE,F,1,0.01%,10,1
LUKEN,M,1,0.01%,10,1
MAIALEN,F,1,0.01%,10,1
MARIA,U,1,0.01%,10,1
MARKO,M,1,0.01%,10,1
MATIA,M,1,0.01%,10,1
MATXIN,M,1,0.01%,10,1
MINTXO,M,1,0.01%,10,1
MITXEL,M,1,0.01%,10,1
NAHIA,F,1,0.01%,10,1
NAIARA,F,1,0.01%,10,1
NERE,F,1,0.01%,10,1
NIKOLA,M,1,0.01%,10,1
OIER,M,1,0.01%,10,1
OROITZ,M,1,0.01%,10,1
OSANE,F,1,0.01%,10,1
PEIO,M,1,0.01%,10,1
PETRI,M,1,0.01%,10,1
SORNE,F,1,0.01%,10,1
TXOMIN,M,1,0.01%,10,1
UNAI,M,1,0.01%,10,1
UXUE,F,1,0.01%,10,1
XABIER,M,1,0.01%,10,1
XIMUN,M,1,0.01%,10,1
ZIGOR,M,1,0.01%,10,1
ZORIONE,F,1,0.01%,10,1
ZUZEN,M,1,0.01%,10,1
