NAME,GENDER,COUNT,PERCENTAGE,PROP100K
AGUSTÍN,M,6016
BENJAMÍN,M,3940
VICENTE,M,3843
MARTÍN,M,3701
MATÍAS,M,3228
MATEO,M,3120
JOAQUÍN,M,3005
TOMÁS,M,2999
ALONSO,M,2958
MAXIMILIANO,M,2915
CRISTÓBAL,M,2316
JOSÉ,M,2083
LUCAS,M,2042
SEBASTIÁN,M,1995
FELIPE,M,1839
DIEGO,M,1791
MÁXIMO,M,1676
NICOLÁS,M,1596
GABRIEL,M,1552
JUAN,M,1527
IGNACIO,M,1497
GASPAR,M,1494
SANTIAGO,M,1440
RENATO,M,1365
BASTIÁN,M,1323
FRANCISCO,M,1136
EMILIANO,M,1113
JAVIER,M,1106
BRUNO,M,1070
JULIÁN,M,1063
LEÓN,M,1061
EMILIO,M,1060
DANIEL,M,1055
SIMÓN,M,1035
FRANCO,M,1014
AMARO,M,1008
LUCIANO,M,937
DAMIÁN,M,909
LUIS,M,880
PEDRO,M,863
IAN,M,836
ANGEL,M,811
THOMAS,M,774
FERNANDO,M,765
PABLO,M,762
CARLOS,M,740
FACUNDO,M,727
DAVID,M,715
CRISTIAN,M,708
RAFAEL,M,673
ESTEBAN,M,672
GUSTAVO,M,663
JORGE,M,658
DANTE,M,651
DYLAN,M,626
ALEXANDER,M,619
MANUEL,M,535
RODRIGO,M,535
VÍCTOR,M,498
ALEJANDRO,M,489
EDUARDO,M,456
MIGUEL,M,434
CAMILO,M,431
LEONARDO,M,425
ELÍAS,M,422
FABIÁN,M,421
ÁLVARO,M,417
SAMUEL,M,415
VALENTÍN,M,414
AARON,M,391
ISAAC,M,391
ANDRÉS,M,390
MARIANO,M,387
CRISTOPHER,M,356
ALEXIS,M,331
GONZALO,M,323
CLEMENTE,M,322
OSCAR,M,316
JEAN,M,306
RICARDO,M,304
HÉCTOR,M,294
KEVIN,M,282
SERGIO,M,279
GUILLERMO,M,274
MATHIAS,M,274
MARCELO,M,270
DEMIAN,M,264
LUKAS,M,263
LIAM,M,258
PATRICIO,M,255
CLAUDIO,M,254
SALVADOR,M,253
JESÚS,M,252
ALFONSO,M,249
ALAN,M,247
ISAIAS,M,232
ARTURO,M,231
ALEX,M,229
ANTONIO,M,229
JOSUE,M,224
SOFÍA,F,5246
EMILIA,F,4849
ISIDORA,F,4049
FLORENCIA,F,3492
MAITE,F,3089
ANTONELLA,F,3077
MARTINA,F,3059
JOSEFA,F,2987
AMANDA,F,2982
AGUSTINA,F,2432
CATALINA,F,2223
ANTONIA,F,2188
ISABELLA,F,2163
MARÍA,F,2054
TRINIDAD,F,1904
VALENTINA,F,1850
FERNANDA,F,1735
JAVIERA,F,1554
JULIETA,F,1530
IGNACIA,F,1428
CONSTANZA,F,1402
RENATA,F,1379
EMILY,F,1359
FRANCISCA,F,1317
MIA,F,1273
MONSERRAT,F,1088
VICTORIA,F,1074
MATILDA,F,917
PASCAL,F,880
RAFAELA,F,855
LAURA,F,846
COLOMBA,F,831
CAMILA,F,816
ROCÍO,F,735
JOSEFINA,F,722
MAGDALENA,F,694
BELÉN,F,676
PAZ,F,666
LEONOR,F,646
MATILDE,F,557
EMMA,F,556
DOMINIQUE,F,551
AMPARO,F,546
PÍA,F,538
AMALIA,F,518
ANAÍS,F,509
PASCALE,F,479
ÁMBAR,F,431
VIOLETA,F,399
AMELIA,F,398
DOMINGA,F,395
DANIELA,F,386
ALONDRA,F,367
RAFAELLA,F,362
SAMANTHA,F,358
GABRIELA,F,353
ELENA,F,344
MAYRA,F,331
ISABEL,F,330
GÉNESIS,F,320
LUCÍA,F,316
EMA,F,315
MARIANA,F,303
PAULA,F,301
SOPHIA,F,297
RAYÉN,F,295
CELESTE,F,292
MONTSERRAT,F,290
ELIZABETH,F,272
MILLARAY,F,272
MAYTE,F,269
LUNA,F,261
AMY,F,255
NOELIA,F,252
ANAHÍS,F,249
ELISA,F,249
ESPERANZA,F,247
BÁRBARA,F,245
LÍA,F,244
CAROLINA,F,240
AINHOA,F,237
SARA,F,233
THIARE,F,226
ABIGAIL,F,222
AURORA,F,221
DENISSE,F,221
ANGELA,F,220
MAITHE,F,219
DANAE,F,218
AYLIN,F,217
LUCIANA,F,216
NOEMÍ,F,216
PALOMA,F,215
ALICE,F,214
OLIVIA,F,207
CARLA,F,205
ALISON,F,202
ASHLEY,F,202
CONSUELO,F,199
ELOÍSA,F,196
