,,,,,SOURCE:,https://www.ssa.gov/cgi-bin/popularnames.cgiUSA most popular names on 2016
Name,Rank-FM,count for 100k of peoples,Percent of
total males/females, %,gender,,
name,rank-fm,prop100k,percof-mf,gender,,
Noah,1,4.7325,0.95%,M,,
Liam,2,4.5145,0.90%,M,,
William,3,3.8995,0.78%,M,,
Mason,4,3.781,0.76%,M,,
James,5,3.6775,0.74%,M,,
Benjamin,6,3.626,0.73%,M,,
Jacob,7,3.588,0.72%,M,,
Michael,8,3.484,0.70%,M,,
Elijah,9,3.4255,0.69%,M,,
Ethan,10,3.424,0.68%,M,,
Alexander,11,3.3155,0.66%,M,,
Oliver,12,3.2295,0.65%,M,,
Daniel,13,3.1955,0.64%,M,,
Lucas,14,3.195,0.64%,M,,
Matthew,15,3.124,0.62%,M,,
Aiden,16,3.026,0.61%,M,,
Jackson,17,2.79,0.56%,M,,
Logan,18,2.7875,0.56%,M,,
David,19,2.7445,0.55%,M,,
Joseph,20,2.6935,0.54%,M,,
Samuel,21,2.6115,0.52%,M,,
Henry,22,2.5695,0.51%,M,,
Owen,23,2.551,0.51%,M,,
Sebastian,24,2.551,0.51%,M,,
Gabriel,25,2.524,0.50%,M,,
Carter,26,2.522,0.50%,M,,
Jayden,27,2.5045,0.50%,M,,
John,28,2.477,0.50%,M,,
Luke,29,2.4715,0.49%,M,,
Anthony,30,2.443,0.49%,M,,
Isaac,31,2.407,0.48%,M,,
Dylan,32,2.4035,0.48%,M,,
Wyatt,33,2.368,0.47%,M,,
Andrew,34,2.3205,0.46%,M,,
Joshua,35,2.2745,0.45%,M,,
Christopher,36,2.245,0.45%,M,,
Grayson,37,2.146,0.43%,M,,
Jack,38,2.0825,0.42%,M,,
Julian,39,2.074,0.41%,M,,
Ryan,40,2.0445,0.41%,M,,
Jaxon,41,2.0045,0.40%,M,,
Levi,42,1.9935,0.40%,M,,
Nathan,43,1.9745,0.39%,M,,
Caleb,44,1.9695,0.39%,M,,
Hunter,45,1.895,0.38%,M,,
Christian,46,1.8875,0.38%,M,,
Isaiah,47,1.855,0.37%,M,,
Thomas,48,1.819,0.36%,M,,
Aaron,49,1.7715,0.35%,M,,
Lincoln,50,1.761,0.35%,M,,
Charles,51,1.7545,0.35%,M,,
Eli,52,1.7535,0.35%,M,,
Landon,53,1.739,0.35%,M,,
Connor,54,1.738,0.35%,M,,
Josiah,55,1.7245,0.34%,M,,
Jonathan,56,1.721,0.34%,M,,
Cameron,57,1.694,0.34%,M,,
Jeremiah,58,1.629,0.33%,M,,
Mateo,59,1.624,0.32%,M,,
Adrian,60,1.5685,0.31%,M,,
Hudson,61,1.5175,0.30%,M,,
Robert,62,1.4815,0.30%,M,,
Nicholas,63,1.4225,0.28%,M,,
Brayden,64,1.4135,0.28%,M,,
Nolan,65,1.3975,0.28%,M,,
Easton,66,1.3955,0.28%,M,,
Jordan,67,1.391,0.28%,M,,
Colton,68,1.389,0.28%,M,,
Evan,69,1.388,0.28%,M,,
Angel,70,1.3745,0.27%,M,,
Asher,71,1.3605,0.27%,M,,
Dominic,72,1.3425,0.27%,M,,
Austin,73,1.3275,0.27%,M,,
Leo,74,1.309,0.26%,M,,
Adam,75,1.288,0.26%,M,,
Jace,76,1.2865,0.26%,M,,
Jose,77,1.2665,0.25%,M,,
Ian,78,1.2565,0.25%,M,,
Cooper,79,1.232,0.25%,M,,
Gavin,80,1.223,0.24%,M,,
Carson,81,1.2175,0.24%,M,,
Jaxson,82,1.2115,0.24%,M,,
Theodore,83,1.2095,0.24%,M,,
Jason,84,1.2075,0.24%,M,,
Ezra,85,1.202,0.24%,M,,
Chase,86,1.201,0.24%,M,,
Parker,87,1.166,0.23%,M,,
Xavier,88,1.135,0.23%,M,,
Kevin,89,1.1265,0.23%,M,,
Zachary,90,1.124,0.22%,M,,
Tyler,91,1.1135,0.22%,M,,
Ayden,92,1.113,0.22%,M,,
Elias,93,1.1085,0.22%,M,,
Bryson,94,1.0785,0.22%,M,,
Leonardo,95,1.0725,0.21%,M,,
Greyson,96,1.069,0.21%,M,,
Sawyer,97,1.0485,0.21%,M,,
Roman,98,1.042,0.21%,M,,
Brandon,99,1.0145,0.20%,M,,
Bentley,100,1.002,0.20%,M,,
Kayden,101,0.9925,0.20%,M,,
Ryder,102,0.959,0.19%,M,,
Nathaniel,103,0.958,0.19%,M,,
Vincent,104,0.9475,0.19%,M,,
Miles,105,0.9245,0.18%,M,,
Santiago,106,0.921,0.18%,M,,
Harrison,107,0.9075,0.18%,M,,
Tristan,108,0.8975,0.18%,M,,
Declan,109,0.895,0.18%,M,,
Cole,110,0.891,0.18%,M,,
Maxwell,111,0.886,0.18%,M,,
Luis,112,0.882,0.18%,M,,
Justin,113,0.8815,0.18%,M,,
Everett,114,0.87,0.17%,M,,
Micah,115,0.858,0.17%,M,,
Axel,116,0.8565,0.17%,M,,
Wesley,117,0.848,0.17%,M,,
Max,118,0.8445,0.17%,M,,
Silas,119,0.8425,0.17%,M,,
Weston,120,0.842,0.17%,M,,
Ezekiel,121,0.8315,0.17%,M,,
Juan,122,0.829,0.17%,M,,
Damian,123,0.8285,0.17%,M,,
Camden,124,0.827,0.17%,M,,
George,125,0.8185,0.16%,M,,
Braxton,126,0.816,0.16%,M,,
Blake,127,0.8135,0.16%,M,,
Jameson,128,0.811,0.16%,M,,
Diego,129,0.793,0.16%,M,,
Carlos,130,0.7925,0.16%,M,,
Ivan,131,0.783,0.16%,M,,
Kingston,132,0.774,0.15%,M,,
Ashton,133,0.766,0.15%,M,,
Jesus,134,0.763,0.15%,M,,
Brody,135,0.7555,0.15%,M,,
Emmett,136,0.755,0.15%,M,,
Abel,137,0.7505,0.15%,M,,
Jayce,138,0.735,0.15%,M,,
Maverick,139,0.7315,0.15%,M,,
Bennett,140,0.7265,0.15%,M,,
Giovanni,141,0.7265,0.15%,M,,
Eric,142,0.724,0.14%,M,,
Maddox,143,0.7185,0.14%,M,,
Kaiden,144,0.7145,0.14%,M,,
Kai,145,0.7125,0.14%,M,,
Bryce,146,0.7035,0.14%,M,,
Alex,147,0.7035,0.14%,M,,
Calvin,148,0.692,0.14%,M,,
Ryker,149,0.6915,0.14%,M,,
Jonah,150,0.684,0.14%,M,,
Luca,151,0.679,0.14%,M,,
King,152,0.6575,0.13%,M,,
Timothy,153,0.657,0.13%,M,,
Alan,154,0.6535,0.13%,M,,
Brantley,155,0.645,0.13%,M,,
Malachi,156,0.6435,0.13%,M,,
Emmanuel,157,0.637,0.13%,M,,
Abraham,158,0.637,0.13%,M,,
Antonio,159,0.632,0.13%,M,,
Richard,160,0.622,0.12%,M,,
Jude,161,0.62,0.12%,M,,
Miguel,162,0.62,0.12%,M,,
Edward,163,0.62,0.12%,M,,
Victor,164,0.609,0.12%,M,,
Amir,165,0.6045,0.12%,M,,
Joel,166,0.6,0.12%,M,,
Steven,167,0.5925,0.12%,M,,
Matteo,168,0.5915,0.12%,M,,
Hayden,169,0.5905,0.12%,M,,
Patrick,170,0.5835,0.12%,M,,
Grant,171,0.5825,0.12%,M,,
Preston,172,0.5715,0.11%,M,,
Tucker,173,0.57,0.11%,M,,
Jesse,174,0.5675,0.11%,M,,
Finn,175,0.5665,0.11%,M,,
Oscar,176,0.56,0.11%,M,,
Kaleb,177,0.559,0.11%,M,,
Gael,178,0.5575,0.11%,M,,
Graham,179,0.557,0.11%,M,,
Elliot,180,0.5525,0.11%,M,,
Alejandro,181,0.5465,0.11%,M,,
Rowan,182,0.542,0.11%,M,,
Marcus,183,0.5365,0.11%,M,,
Jeremy,184,0.5275,0.11%,M,,
Zayden,185,0.5265,0.11%,M,,
Karter,186,0.526,0.11%,M,,
Beau,187,0.526,0.11%,M,,
Bryan,188,0.525,0.11%,M,,
Maximus,189,0.5245,0.10%,M,,
Aidan,190,0.523,0.10%,M,,
Avery,191,0.5225,0.10%,M,,
Elliott,192,0.519,0.10%,M,,
August,193,0.5165,0.10%,M,,
Nicolas,194,0.514,0.10%,M,,
Mark,195,0.512,0.10%,M,,
Colin,196,0.509,0.10%,M,,
Waylon,197,0.508,0.10%,M,,
Bradley,198,0.5075,0.10%,M,,
Kyle,199,0.5025,0.10%,M,,
Kaden,200,0.502,0.10%,M,,
Xander,201,0.495,0.10%,M,,
Caden,202,0.494,0.10%,M,,
Paxton,203,0.492,0.10%,M,,
Brian,204,0.489,0.10%,M,,
Dean,205,0.486,0.10%,M,,
Paul,206,0.478,0.10%,M,,
Peter,207,0.474,0.09%,M,,
Kenneth,208,0.473,0.09%,M,,
Jasper,209,0.469,0.09%,M,,
Lorenzo,210,0.463,0.09%,M,,
Zane,211,0.4605,0.09%,M,,
Zion,212,0.455,0.09%,M,,
Beckett,213,0.4545,0.09%,M,,
River,214,0.454,0.09%,M,,
Jax,215,0.447,0.09%,M,,
Andres,216,0.443,0.09%,M,,
Dawson,217,0.4425,0.09%,M,,
Messiah,218,0.442,0.09%,M,,
Jaden,219,0.44,0.09%,M,,
Rhett,220,0.4385,0.09%,M,,
Brady,221,0.4345,0.09%,M,,
Lukas,222,0.434,0.09%,M,,
Omar,223,0.4305,0.09%,M,,
Jorge,224,0.4275,0.09%,M,,
Riley,225,0.4245,0.08%,M,,
Derek,226,0.4235,0.08%,M,,
Charlie,227,0.4225,0.08%,M,,
Emiliano,228,0.4215,0.08%,M,,
Griffin,229,0.42,0.08%,M,,
Myles,230,0.42,0.08%,M,,
Brooks,231,0.414,0.08%,M,,
Israel,232,0.414,0.08%,M,,
Sean,233,0.4125,0.08%,M,,
Judah,234,0.41,0.08%,M,,
Iker,235,0.4055,0.08%,M,,
Javier,236,0.404,0.08%,M,,
Erick,237,0.3975,0.08%,M,,
Tanner,238,0.397,0.08%,M,,
Corbin,239,0.3965,0.08%,M,,
Adriel,240,0.3965,0.08%,M,,
Jase,241,0.393,0.08%,M,,
Jake,242,0.392,0.08%,M,,
Simon,243,0.3845,0.08%,M,,
Cayden,244,0.384,0.08%,M,,
Knox,245,0.38,0.08%,M,,
Tobias,246,0.3755,0.08%,M,,
Felix,247,0.374,0.07%,M,,
Milo,248,0.372,0.07%,M,,
Jayceon,249,0.3635,0.07%,M,,
Gunner,250,0.3595,0.07%,M,,
Francisco,251,0.3585,0.07%,M,,
Kameron,252,0.3575,0.07%,M,,
Cash,253,0.357,0.07%,M,,
Remington,254,0.3485,0.07%,M,,
Reid,255,0.3465,0.07%,M,,
Cody,256,0.346,0.07%,M,,
Martin,257,0.346,0.07%,M,,
Andre,258,0.3455,0.07%,M,,
Rylan,259,0.3455,0.07%,M,,
Maximiliano,260,0.3435,0.07%,M,,
Zander,261,0.3435,0.07%,M,,
Archer,262,0.343,0.07%,M,,
Barrett,263,0.343,0.07%,M,,
Killian,264,0.3425,0.07%,M,,
Stephen,265,0.34,0.07%,M,,
Clayton,266,0.3395,0.07%,M,,
Thiago,267,0.3395,0.07%,M,,
Spencer,268,0.3375,0.07%,M,,
Amari,269,0.336,0.07%,M,,
Josue,270,0.3355,0.07%,M,,
Holden,271,0.3355,0.07%,M,,
Emilio,272,0.332,0.07%,M,,
Arthur,273,0.332,0.07%,M,,
Chance,274,0.331,0.07%,M,,
Eduardo,275,0.329,0.07%,M,,
Leon,276,0.3245,0.06%,M,,
Travis,277,0.323,0.06%,M,,
Ricardo,278,0.322,0.06%,M,,
Damien,279,0.3215,0.06%,M,,
Manuel,280,0.3215,0.06%,M,,
Gage,281,0.3195,0.06%,M,,
Keegan,282,0.319,0.06%,M,,
Titus,283,0.3155,0.06%,M,,
Raymond,284,0.3145,0.06%,M,,
Kyrie,285,0.3125,0.06%,M,,
Nash,286,0.312,0.06%,M,,
Finley,287,0.309,0.06%,M,,
Fernando,288,0.309,0.06%,M,,
Louis,289,0.3085,0.06%,M,,
Peyton,290,0.308,0.06%,M,,
Rafael,291,0.3065,0.06%,M,,
Phoenix,292,0.305,0.06%,M,,
Jaiden,293,0.305,0.06%,M,,
Lane,294,0.3045,0.06%,M,,
Dallas,295,0.303,0.06%,M,,
Emerson,296,0.3025,0.06%,M,,
Cristian,297,0.301,0.06%,M,,
Collin,298,0.2975,0.06%,M,,
Kyler,299,0.2925,0.06%,M,,
Devin,300,0.2895,0.06%,M,,
Jeffrey,301,0.2895,0.06%,M,,
Walter,302,0.2895,0.06%,M,,
Anderson,303,0.2875,0.06%,M,,
Cesar,304,0.287,0.06%,M,,
Mario,305,0.286,0.06%,M,,
Donovan,306,0.2855,0.06%,M,,
Seth,307,0.2855,0.06%,M,,
Garrett,308,0.2845,0.06%,M,,
Enzo,309,0.283,0.06%,M,,
Conner,310,0.2825,0.06%,M,,
Legend,311,0.281,0.06%,M,,
Caiden,312,0.28,0.06%,M,,
Beckham,313,0.2775,0.06%,M,,
Jett,314,0.2755,0.06%,M,,
Ronan,315,0.274,0.05%,M,,
Troy,316,0.274,0.05%,M,,
Karson,317,0.273,0.05%,M,,
Edwin,318,0.273,0.05%,M,,
Hector,319,0.2725,0.05%,M,,
Cohen,320,0.27,0.05%,M,,
Ali,321,0.2695,0.05%,M,,
Trevor,322,0.2695,0.05%,M,,
Conor,323,0.2695,0.05%,M,,
Orion,324,0.2635,0.05%,M,,
Shane,325,0.2635,0.05%,M,,
Andy,326,0.263,0.05%,M,,
Marco,327,0.263,0.05%,M,,
Walker,328,0.26,0.05%,M,,
Angelo,329,0.259,0.05%,M,,
Quinn,330,0.259,0.05%,M,,
Dalton,331,0.2585,0.05%,M,,
Sergio,332,0.2585,0.05%,M,,
Ace,333,0.2575,0.05%,M,,
Tyson,334,0.2565,0.05%,M,,
Johnny,335,0.256,0.05%,M,,
Dominick,336,0.255,0.05%,M,,
Colt,337,0.2545,0.05%,M,,
Johnathan,338,0.253,0.05%,M,,
Gideon,339,0.253,0.05%,M,,
Julius,340,0.2525,0.05%,M,,
Cruz,341,0.2515,0.05%,M,,
Edgar,342,0.251,0.05%,M,,
Prince,343,0.2505,0.05%,M,,
Dante,344,0.25,0.05%,M,,
Marshall,345,0.2485,0.05%,M,,
Ellis,346,0.247,0.05%,M,,
Joaquin,347,0.2465,0.05%,M,,
Major,348,0.2425,0.05%,M,,
Arlo,349,0.241,0.05%,M,,
Alexis,350,0.239,0.05%,M,,
Reed,351,0.239,0.05%,M,,
Muhammad,352,0.2385,0.05%,M,,
Frank,353,0.2365,0.05%,M,,
Theo,354,0.2345,0.05%,M,,
Shawn,355,0.2335,0.05%,M,,
Erik,356,0.233,0.05%,M,,
Grady,357,0.2325,0.05%,M,,
Nehemiah,358,0.2285,0.05%,M,,
Daxton,359,0.228,0.05%,M,,
Atticus,360,0.2275,0.05%,M,,
Gregory,361,0.227,0.05%,M,,
Matias,362,0.227,0.05%,M,,
Bodhi,363,0.226,0.05%,M,,
Emanuel,364,0.226,0.05%,M,,
Jensen,365,0.2235,0.04%,M,,
Kash,366,0.2235,0.04%,M,,
Romeo,367,0.2225,0.04%,M,,
Desmond,368,0.222,0.04%,M,,
Solomon,369,0.2215,0.04%,M,,
Allen,370,0.2215,0.04%,M,,
Jaylen,371,0.221,0.04%,M,,
Leonel,372,0.2205,0.04%,M,,
Roberto,373,0.2205,0.04%,M,,
Pedro,374,0.2175,0.04%,M,,
Kason,375,0.2175,0.04%,M,,
Fabian,376,0.2155,0.04%,M,,
Clark,377,0.2145,0.04%,M,,
Dakota,378,0.2145,0.04%,M,,
Abram,379,0.213,0.04%,M,,
Noel,380,0.21,0.04%,M,,
Kayson,381,0.21,0.04%,M,,
Malik,382,0.209,0.04%,M,,
Odin,383,0.207,0.04%,M,,
Jared,384,0.2065,0.04%,M,,
Warren,385,0.205,0.04%,M,,
Kendrick,386,0.2045,0.04%,M,,
Rory,387,0.204,0.04%,M,,
Jonas,388,0.203,0.04%,M,,
Adan,389,0.203,0.04%,M,,
Ibrahim,390,0.203,0.04%,M,,
Trenton,391,0.203,0.04%,M,,
Finnegan,392,0.2025,0.04%,M,,
Landen,393,0.202,0.04%,M,,
Adonis,394,0.199,0.04%,M,,
Jay,395,0.199,0.04%,M,,
Ruben,396,0.198,0.04%,M,,
Drew,397,0.1975,0.04%,M,,
Gunnar,398,0.197,0.04%,M,,
Ismael,399,0.197,0.04%,M,,
Jaxton,400,0.1965,0.04%,M,,
Kane,401,0.1965,0.04%,M,,
Hendrix,402,0.1965,0.04%,M,,
Atlas,403,0.196,0.04%,M,,
Pablo,404,0.196,0.04%,M,,
Zaiden,405,0.1955,0.04%,M,,
Wade,406,0.1955,0.04%,M,,
Russell,407,0.194,0.04%,M,,
Cade,408,0.1935,0.04%,M,,
Sullivan,409,0.1935,0.04%,M,,
Malcolm,410,0.1925,0.04%,M,,
Kade,411,0.192,0.04%,M,,
Harvey,412,0.1915,0.04%,M,,
Princeton,413,0.1915,0.04%,M,,
Skyler,414,0.1895,0.04%,M,,
Corey,415,0.189,0.04%,M,,
Esteban,416,0.189,0.04%,M,,
Leland,417,0.1875,0.04%,M,,
Derrick,418,0.185,0.04%,M,,
Ari,419,0.1845,0.04%,M,,
Kamden,420,0.1845,0.04%,M,,
Zayn,421,0.1845,0.04%,M,,
Porter,422,0.184,0.04%,M,,
Franklin,423,0.1835,0.04%,M,,
Raiden,424,0.183,0.04%,M,,
Braylon,425,0.1825,0.04%,M,,
Ronald,426,0.18,0.04%,M,,
Cyrus,427,0.1795,0.04%,M,,
Benson,428,0.1795,0.04%,M,,
Malakai,429,0.1795,0.04%,M,,
Hugo,430,0.1785,0.04%,M,,
Marcos,431,0.178,0.04%,M,,
Maximilian,432,0.178,0.04%,M,,
Hayes,433,0.1765,0.04%,M,,
Philip,434,0.1765,0.04%,M,,
Lawson,435,0.1755,0.04%,M,,
Phillip,436,0.1745,0.03%,M,,
Bruce,437,0.1735,0.03%,M,,
Braylen,438,0.173,0.03%,M,,
Zachariah,439,0.173,0.03%,M,,
Damon,440,0.173,0.03%,M,,
Dexter,441,0.173,0.03%,M,,
Enrique,442,0.1725,0.03%,M,,
Aden,443,0.172,0.03%,M,,
Lennox,444,0.172,0.03%,M,,
Drake,445,0.1715,0.03%,M,,
Khalil,446,0.1715,0.03%,M,,
Tate,447,0.171,0.03%,M,,
Zayne,448,0.1705,0.03%,M,,
Milan,449,0.1705,0.03%,M,,
Brock,450,0.17,0.03%,M,,
Brendan,451,0.17,0.03%,M,,
Armando,452,0.169,0.03%,M,,
Gerardo,453,0.169,0.03%,M,,
Jamison,454,0.168,0.03%,M,,
Rocco,455,0.1675,0.03%,M,,
Nasir,456,0.1665,0.03%,M,,
Augustus,457,0.166,0.03%,M,,
Sterling,458,0.1645,0.03%,M,,
Dillon,459,0.1645,0.03%,M,,
Royal,460,0.1645,0.03%,M,,
Royce,461,0.164,0.03%,M,,
Moses,462,0.1635,0.03%,M,,
Jaime,463,0.163,0.03%,M,,
Johan,464,0.163,0.03%,M,,
Scott,465,0.163,0.03%,M,,
Chandler,466,0.162,0.03%,M,,
Raul,467,0.1615,0.03%,M,,
Remy,468,0.1615,0.03%,M,,
Cason,469,0.161,0.03%,M,,
Luka,470,0.161,0.03%,M,,
Mohamed,471,0.161,0.03%,M,,
Deacon,472,0.1605,0.03%,M,,
Winston,473,0.1605,0.03%,M,,
Albert,474,0.16,0.03%,M,,
Pierce,475,0.1595,0.03%,M,,
Taylor,476,0.159,0.03%,M,,
Nikolai,477,0.1585,0.03%,M,,
Bowen,478,0.1585,0.03%,M,,
Danny,479,0.1585,0.03%,M,,
Francis,480,0.1585,0.03%,M,,
Brycen,481,0.158,0.03%,M,,
Jayson,482,0.1575,0.03%,M,,
Moises,483,0.1575,0.03%,M,,
Keith,484,0.157,0.03%,M,,
Hank,485,0.1565,0.03%,M,,
Quentin,486,0.1565,0.03%,M,,
Kasen,487,0.156,0.03%,M,,
Donald,488,0.1545,0.03%,M,,
Julio,489,0.154,0.03%,M,,
Davis,490,0.154,0.03%,M,,
Alec,491,0.1525,0.03%,M,,
Kolton,492,0.1525,0.03%,M,,
Lawrence,493,0.1525,0.03%,M,,
Rhys,494,0.151,0.03%,M,,
Kian,495,0.1505,0.03%,M,,
Nico,496,0.15,0.03%,M,,
Matthias,497,0.15,0.03%,M,,
Kellan,498,0.1485,0.03%,M,,
Mathias,499,0.1485,0.03%,M,,
Ariel,500,0.148,0.03%,M,,
Justice,501,0.148,0.03%,M,,
Braden,502,0.1475,0.03%,M,,
Rodrigo,503,0.1475,0.03%,M,,
Ryland,504,0.1475,0.03%,M,,
Leonidas,505,0.147,0.03%,M,,
Jerry,506,0.1465,0.03%,M,,
Ronin,507,0.146,0.03%,M,,
Alijah,508,0.145,0.03%,M,,
Kobe,509,0.145,0.03%,M,,
Lewis,510,0.145,0.03%,M,,
Dennis,511,0.1445,0.03%,M,,
Luciano,512,0.1445,0.03%,M,,
Ahmed,513,0.144,0.03%,M,,
Frederick,514,0.144,0.03%,M,,
Darius,515,0.144,0.03%,M,,
Arjun,516,0.1435,0.03%,M,,
Dax,517,0.142,0.03%,M,,
Asa,518,0.141,0.03%,M,,
Nixon,519,0.141,0.03%,M,,
Ezequiel,520,0.14,0.03%,M,,
Eden,521,0.14,0.03%,M,,
Tony,522,0.1395,0.03%,M,,
Landyn,523,0.139,0.03%,M,,
Emmitt,524,0.139,0.03%,M,,
Mathew,525,0.139,0.03%,M,,
Kyson,526,0.1385,0.03%,M,,
Otto,527,0.1385,0.03%,M,,
Saul,528,0.138,0.03%,M,,
Uriel,529,0.1375,0.03%,M,,
Colby,530,0.137,0.03%,M,,
Dustin,531,0.137,0.03%,M,,
Omari,532,0.137,0.03%,M,,
Raphael,533,0.136,0.03%,M,,
Brennan,534,0.1355,0.03%,M,,
Callen,535,0.135,0.03%,M,,
Keaton,536,0.135,0.03%,M,,
Arturo,537,0.1335,0.03%,M,,
Isaias,538,0.1335,0.03%,M,,
Roy,539,0.1335,0.03%,M,,
Kieran,540,0.133,0.03%,M,,
Ty,541,0.133,0.03%,M,,
Dorian,542,0.132,0.03%,M,,
Cannon,543,0.132,0.03%,M,,
Marvin,544,0.1315,0.03%,M,,
Cullen,545,0.1315,0.03%,M,,
Sage,546,0.131,0.03%,M,,
Uriah,547,0.131,0.03%,M,,
Darren,548,0.13,0.03%,M,,
Cayson,549,0.1295,0.03%,M,,
Aarav,550,0.129,0.03%,M,,
Case,551,0.129,0.03%,M,,
Izaiah,552,0.1285,0.03%,M,,
Armani,553,0.128,0.03%,M,,
Gustavo,554,0.128,0.03%,M,,
Jimmy,555,0.128,0.03%,M,,
Alberto,556,0.1275,0.03%,M,,
Duke,557,0.1275,0.03%,M,,
Rayan,558,0.1275,0.03%,M,,
Chris,559,0.127,0.03%,M,,
Casey,560,0.1265,0.03%,M,,
Roland,561,0.1265,0.03%,M,,
Moshe,562,0.1255,0.03%,M,,
Curtis,563,0.1245,0.02%,M,,
Mauricio,564,0.1245,0.02%,M,,
Alonzo,565,0.1235,0.02%,M,,
Yusuf,566,0.1235,0.02%,M,,
Nikolas,567,0.123,0.02%,M,,
Soren,568,0.123,0.02%,M,,
Hamza,569,0.1225,0.02%,M,,
Jasiah,570,0.1205,0.02%,M,,
Alfredo,571,0.12,0.02%,M,,
Devon,572,0.1195,0.02%,M,,
Jalen,573,0.1195,0.02%,M,,
Raylan,574,0.1195,0.02%,M,,
Edison,575,0.1195,0.02%,M,,
Jamari,576,0.119,0.02%,M,,
Oakley,577,0.119,0.02%,M,,
Samson,578,0.1185,0.02%,M,,
Lionel,579,0.118,0.02%,M,,
Reece,580,0.118,0.02%,M,,
Sam,581,0.118,0.02%,M,,
Quincy,582,0.1175,0.02%,M,,
Jakob,583,0.1175,0.02%,M,,
Apollo,584,0.1165,0.02%,M,,
Kingsley,585,0.1165,0.02%,M,,
Ahmad,586,0.1155,0.02%,M,,
Bryant,587,0.1155,0.02%,M,,
Alvin,588,0.115,0.02%,M,,
Trey,589,0.115,0.02%,M,,
Mohammed,590,0.1145,0.02%,M,,
Conrad,591,0.1145,0.02%,M,,
Mitchell,592,0.114,0.02%,M,,
Salvador,593,0.113,0.02%,M,,
Quinton,594,0.1125,0.02%,M,,
Bo,595,0.112,0.02%,M,,
Mohammad,596,0.112,0.02%,M,,
Elian,597,0.112,0.02%,M,,
Gianni,598,0.1115,0.02%,M,,
Lennon,599,0.111,0.02%,M,,
Leonard,600,0.111,0.02%,M,,
Douglas,601,0.111,0.02%,M,,
Cassius,602,0.1105,0.02%,M,,
Ricky,603,0.1105,0.02%,M,,
Carl,604,0.11,0.02%,M,,
Gary,605,0.11,0.02%,M,,
Larry,606,0.11,0.02%,M,,
Colten,607,0.11,0.02%,M,,
Ramon,608,0.1095,0.02%,M,,
Kellen,609,0.1095,0.02%,M,,
Korbin,610,0.1095,0.02%,M,,
Wilson,611,0.109,0.02%,M,,
Kylan,612,0.1085,0.02%,M,,
Santino,613,0.1085,0.02%,M,,
Niko,614,0.108,0.02%,M,,
Issac,615,0.108,0.02%,M,,
Jagger,616,0.108,0.02%,M,,
Lance,617,0.108,0.02%,M,,
Joe,618,0.1075,0.02%,M,,
Julien,619,0.1075,0.02%,M,,
Orlando,620,0.107,0.02%,M,,
Jefferson,621,0.1065,0.02%,M,,
Memphis,622,0.1065,0.02%,M,,
Crosby,623,0.1065,0.02%,M,,
Mekhi,624,0.106,0.02%,M,,
Nelson,625,0.106,0.02%,M,,
Lucian,626,0.106,0.02%,M,,
Ayaan,627,0.1055,0.02%,M,,
Nathanael,628,0.1055,0.02%,M,,
Neil,629,0.105,0.02%,M,,
Makai,630,0.1045,0.02%,M,,
Finnley,631,0.1045,0.02%,M,,
Rex,632,0.1045,0.02%,M,,
Forrest,633,0.104,0.02%,M,,
Layton,634,0.104,0.02%,M,,
Randy,635,0.104,0.02%,M,,
Boston,636,0.103,0.02%,M,,
Tristen,637,0.103,0.02%,M,,
Tatum,638,0.103,0.02%,M,,
Brayan,639,0.1025,0.02%,M,,
Sylas,640,0.102,0.02%,M,,
Thaddeus,641,0.102,0.02%,M,,
Trent,642,0.1015,0.02%,M,,
Morgan,643,0.1015,0.02%,M,,
Roger,644,0.1015,0.02%,M,,
Abdullah,645,0.101,0.02%,M,,
Casen,646,0.101,0.02%,M,,
Maurice,647,0.101,0.02%,M,,
Sincere,648,0.101,0.02%,M,,
Titan,649,0.101,0.02%,M,,
Kyree,650,0.1005,0.02%,M,,
Talon,651,0.1,0.02%,M,,
Fletcher,652,0.1,0.02%,M,,
Langston,653,0.0995,0.02%,M,,
Eddie,654,0.099,0.02%,M,,
Briggs,655,0.099,0.02%,M,,
Noe,656,0.099,0.02%,M,,
Kamari,657,0.0985,0.02%,M,,
Rowen,658,0.0985,0.02%,M,,
Zeke,659,0.098,0.02%,M,,
Aldo,660,0.0975,0.02%,M,,
Kaison,661,0.097,0.02%,M,,
Valentino,662,0.097,0.02%,M,,
Vihaan,663,0.097,0.02%,M,,
Alden,664,0.0965,0.02%,M,,
Terry,665,0.096,0.02%,M,,
Bruno,666,0.095,0.02%,M,,
Canaan,667,0.095,0.02%,M,,
Lee,668,0.095,0.02%,M,,
Byron,669,0.0945,0.02%,M,,
Kohen,670,0.0945,0.02%,M,,
Reese,671,0.0945,0.02%,M,,
Braydon,672,0.094,0.02%,M,,
Madden,673,0.0935,0.02%,M,,
Deandre,674,0.0935,0.02%,M,,
Flynn,675,0.093,0.02%,M,,
Harley,676,0.093,0.02%,M,,
Hezekiah,677,0.093,0.02%,M,,
Amos,678,0.093,0.02%,M,,
Harry,679,0.0925,0.02%,M,,
Zain,680,0.091,0.02%,M,,
Alessandro,681,0.0905,0.02%,M,,
Stanley,682,0.0905,0.02%,M,,
Lucca,683,0.09,0.02%,M,,
Branson,684,0.0895,0.02%,M,,
Ernesto,685,0.0895,0.02%,M,,
Joziah,686,0.0895,0.02%,M,,
Leandro,687,0.089,0.02%,M,,
Ares,688,0.0885,0.02%,M,,
Marc,689,0.0885,0.02%,M,,
Blaine,690,0.0885,0.02%,M,,
Joey,691,0.088,0.02%,M,,
Jon,692,0.088,0.02%,M,,
Yosef,693,0.088,0.02%,M,,
Carmelo,694,0.088,0.02%,M,,
Franco,695,0.088,0.02%,M,,
Jamal,696,0.088,0.02%,M,,
Mack,697,0.088,0.02%,M,,
Kristian,698,0.0875,0.02%,M,,
Dane,699,0.0875,0.02%,M,,
Lachlan,700,0.0875,0.02%,M,,
Callum,701,0.0865,0.02%,M,,
Graysen,702,0.0865,0.02%,M,,
Kye,703,0.0865,0.02%,M,,
Ben,704,0.0865,0.02%,M,,
Aryan,705,0.086,0.02%,M,,
Gannon,706,0.086,0.02%,M,,
London,707,0.086,0.02%,M,,
Kareem,708,0.0855,0.02%,M,,
Stetson,709,0.0855,0.02%,M,,
Kristopher,710,0.0855,0.02%,M,,
Tomas,711,0.0855,0.02%,M,,
Ford,712,0.085,0.02%,M,,
Bronson,713,0.085,0.02%,M,,
Enoch,714,0.0845,0.02%,M,,
Baylor,715,0.0845,0.02%,M,,
Kaysen,716,0.0845,0.02%,M,,
Axton,717,0.084,0.02%,M,,
Jaxen,718,0.084,0.02%,M,,
Rodney,719,0.084,0.02%,M,,
Dominik,720,0.084,0.02%,M,,
Emery,721,0.084,0.02%,M,,
Layne,722,0.084,0.02%,M,,
Wilder,723,0.084,0.02%,M,,
Jamir,724,0.0835,0.02%,M,,
Tripp,725,0.0835,0.02%,M,,
Kelvin,726,0.0835,0.02%,M,,
Vicente,727,0.0835,0.02%,M,,
Augustine,728,0.083,0.02%,M,,
Brett,729,0.0825,0.02%,M,,
Callan,730,0.0825,0.02%,M,,
Clay,731,0.0825,0.02%,M,,
Crew,732,0.0825,0.02%,M,,
Brecken,733,0.082,0.02%,M,,
Jacoby,734,0.082,0.02%,M,,
Abdiel,735,0.0815,0.02%,M,,
Allan,736,0.0815,0.02%,M,,
Maxton,737,0.0815,0.02%,M,,
Melvin,738,0.0815,0.02%,M,,
Rayden,739,0.0815,0.02%,M,,
Terrance,740,0.0815,0.02%,M,,
Demetrius,741,0.0815,0.02%,M,,
Rohan,742,0.0815,0.02%,M,,
Wayne,743,0.0815,0.02%,M,,
Yahir,744,0.081,0.02%,M,,
Arian,745,0.0805,0.02%,M,,
Fox,746,0.0805,0.02%,M,,
Brentley,747,0.08,0.02%,M,,
Ray,748,0.08,0.02%,M,,
Zechariah,749,0.08,0.02%,M,,
Cain,750,0.08,0.02%,M,,
Guillermo,751,0.08,0.02%,M,,
Otis,752,0.08,0.02%,M,,
Tommy,753,0.0795,0.02%,M,,
Alonso,754,0.0795,0.02%,M,,
Dariel,755,0.0795,0.02%,M,,
Jedidiah,756,0.0795,0.02%,M,,
Maximo,757,0.0795,0.02%,M,,
Cory,758,0.079,0.02%,M,,
Grey,759,0.079,0.02%,M,,
Reyansh,760,0.079,0.02%,M,,
Skylar,761,0.079,0.02%,M,,
Marcelo,762,0.0785,0.02%,M,,
Castiel,763,0.0785,0.02%,M,,
Kase,764,0.0785,0.02%,M,,
Toby,765,0.078,0.02%,M,,
Bobby,766,0.078,0.02%,M,,
Jadiel,767,0.0775,0.02%,M,,
Marcel,768,0.0775,0.02%,M,,
Lochlan,769,0.0775,0.02%,M,,
Jeffery,770,0.077,0.02%,M,,
Zackary,771,0.077,0.02%,M,,
Fisher,772,0.0765,0.02%,M,,
Yousef,773,0.0765,0.02%,M,,
Aron,774,0.0765,0.02%,M,,
Chaim,775,0.0765,0.02%,M,,
Felipe,776,0.076,0.02%,M,,
Axl,777,0.0755,0.02%,M,,
Anakin,778,0.0755,0.02%,M,,
Brodie,779,0.0755,0.02%,M,,
Dash,780,0.0755,0.02%,M,,
Anson,781,0.075,0.02%,M,,
Maison,782,0.075,0.02%,M,,
Zaire,783,0.075,0.02%,M,,
Samir,784,0.075,0.02%,M,,
Damari,785,0.0745,0.01%,M,,
Elisha,786,0.0745,0.01%,M,,
Davion,787,0.0745,0.01%,M,,
Eugene,788,0.074,0.01%,M,,
Hassan,789,0.074,0.01%,M,,
Kannon,790,0.074,0.01%,M,,
Azariah,791,0.0735,0.01%,M,,
Clyde,792,0.0735,0.01%,M,,
Harper,793,0.073,0.01%,M,,
Nickolas,794,0.073,0.01%,M,,
Boone,795,0.073,0.01%,M,,
Magnus,796,0.073,0.01%,M,,
Coen,797,0.072,0.01%,M,,
Kole,798,0.072,0.01%,M,,
Willie,799,0.072,0.01%,M,,
Chad,800,0.0715,0.01%,M,,
Xzavier,801,0.0715,0.01%,M,,
Duncan,802,0.071,0.01%,M,,
Harold,803,0.071,0.01%,M,,
Houston,804,0.071,0.01%,M,,
Landry,805,0.071,0.01%,M,,
Trace,806,0.071,0.01%,M,,
Alvaro,807,0.0705,0.01%,M,,
Ameer,808,0.0705,0.01%,M,,
Junior,809,0.0705,0.01%,M,,
Kamdyn,810,0.0705,0.01%,M,,
Vincenzo,811,0.0705,0.01%,M,,
Gerald,812,0.0705,0.01%,M,,
Marlon,813,0.0705,0.01%,M,,
Payton,814,0.0695,0.01%,M,,
Jamie,815,0.0695,0.01%,M,,
Kamryn,816,0.0695,0.01%,M,,
Camdyn,817,0.069,0.01%,M,,
Anders,818,0.069,0.01%,M,,
Aydin,819,0.069,0.01%,M,,
Bentlee,820,0.069,0.01%,M,,
Reginald,821,0.069,0.01%,M,,
Jaziel,822,0.0685,0.01%,M,,
Benton,823,0.0685,0.01%,M,,
Bodie,824,0.0685,0.01%,M,,
Misael,825,0.0685,0.01%,M,,
Westin,826,0.068,0.01%,M,,
Will,827,0.068,0.01%,M,,
Channing,828,0.0675,0.01%,M,,
Harlan,829,0.0675,0.01%,M,,
Kody,830,0.0675,0.01%,M,,
Kolten,831,0.0675,0.01%,M,,
Thatcher,832,0.0675,0.01%,M,,
Valentin,833,0.067,0.01%,M,,
Henrik,834,0.067,0.01%,M,,
Keenan,835,0.067,0.01%,M,,
Terrence,836,0.067,0.01%,M,,
Denver,837,0.0665,0.01%,M,,
Emory,838,0.0665,0.01%,M,,
Jerome,839,0.0665,0.01%,M,,
Jermaine,840,0.0665,0.01%,M,,
Cairo,841,0.066,0.01%,M,,
Sonny,842,0.066,0.01%,M,,
Mayson,843,0.066,0.01%,M,,
Alfred,844,0.0655,0.01%,M,,
Cristiano,845,0.0655,0.01%,M,,
Darian,846,0.0655,0.01%,M,,
Eliseo,847,0.0655,0.01%,M,,
Maxim,848,0.0655,0.01%,M,,
Stefan,849,0.0655,0.01%,M,,
Hugh,850,0.065,0.01%,M,,
Santana,851,0.065,0.01%,M,,
Javion,852,0.065,0.01%,M,,
Leighton,853,0.065,0.01%,M,,
Miller,854,0.065,0.01%,M,,
Riaan,855,0.065,0.01%,M,,
Rogelio,856,0.065,0.01%,M,,
Rudy,857,0.065,0.01%,M,,
Blaze,858,0.0645,0.01%,M,,
Bridger,859,0.0645,0.01%,M,,
Darwin,860,0.0645,0.01%,M,,
Markus,861,0.0645,0.01%,M,,
Ronnie,862,0.0645,0.01%,M,,
Shepherd,863,0.0645,0.01%,M,,
Vaughn,864,0.0645,0.01%,M,,
Billy,865,0.064,0.01%,M,,
Marley,866,0.064,0.01%,M,,
Huxley,867,0.064,0.01%,M,,
Rey,868,0.063,0.01%,M,,
Keagan,869,0.063,0.01%,M,,
Draven,870,0.062,0.01%,M,,
Shiloh,871,0.062,0.01%,M,,
Brysen,872,0.0615,0.01%,M,,
Giovani,873,0.0615,0.01%,M,,
Alistair,874,0.0615,0.01%,M,,
Brixton,875,0.0615,0.01%,M,,
Heath,876,0.0615,0.01%,M,,
Kalel,877,0.061,0.01%,M,,
Reuben,878,0.061,0.01%,M,,
Ridge,879,0.061,0.01%,M,,
Adrien,880,0.061,0.01%,M,,
Rene,881,0.061,0.01%,M,,
Sutton,882,0.061,0.01%,M,,
Zyaire,883,0.061,0.01%,M,,
Ephraim,884,0.0605,0.01%,M,,
Neymar,885,0.0605,0.01%,M,,
Vance,886,0.0605,0.01%,M,,
Zavier,887,0.0605,0.01%,M,,
Jessie,888,0.0605,0.01%,M,,
Dangelo,889,0.06,0.01%,M,,
Dayton,890,0.06,0.01%,M,,
Emmet,891,0.06,0.01%,M,,
Ishaan,892,0.06,0.01%,M,,
Zaid,893,0.06,0.01%,M,,
Camron,894,0.06,0.01%,M,,
Jordy,895,0.06,0.01%,M,,
Kenny,896,0.06,0.01%,M,,
Micheal,897,0.06,0.01%,M,,
Shaun,898,0.06,0.01%,M,,
Alexzander,899,0.0595,0.01%,M,,
Howard,900,0.0595,0.01%,M,,
Kylo,901,0.059,0.01%,M,,
Eason,902,0.059,0.01%,M,,
Blaise,903,0.0585,0.01%,M,,
Craig,904,0.0585,0.01%,M,,
Hakeem,905,0.0585,0.01%,M,,
Karim,906,0.0585,0.01%,M,,
Jabari,907,0.058,0.01%,M,,
Jairo,908,0.058,0.01%,M,,
Khalid,909,0.058,0.01%,M,,
Turner,910,0.058,0.01%,M,,
Van,911,0.058,0.01%,M,,
Westley,912,0.058,0.01%,M,,
Braiden,913,0.058,0.01%,M,,
Cedric,914,0.058,0.01%,M,,
Darrell,915,0.058,0.01%,M,,
Louie,916,0.058,0.01%,M,,
Mustafa,917,0.058,0.01%,M,,
Yehuda,918,0.058,0.01%,M,,
Justus,919,0.0575,0.01%,M,,
Salvatore,920,0.0575,0.01%,M,,
Alfonso,921,0.057,0.01%,M,,
Kendall,922,0.057,0.01%,M,,
Konnor,923,0.057,0.01%,M,,
Lamar,924,0.0565,0.01%,M,,
Gibson,925,0.0565,0.01%,M,,
Ignacio,926,0.0565,0.01%,M,,
Koda,927,0.0565,0.01%,M,,
Leroy,928,0.0565,0.01%,M,,
Terrell,929,0.0565,0.01%,M,,
Tristian,930,0.0565,0.01%,M,,
Achilles,931,0.056,0.01%,M,,
Jericho,932,0.056,0.01%,M,,
Ramiro,933,0.056,0.01%,M,,
Yahya,934,0.056,0.01%,M,,
Rolando,935,0.0555,0.01%,M,,
Vivaan,936,0.0555,0.01%,M,,
Dario,937,0.0555,0.01%,M,,
Jair,938,0.0555,0.01%,M,,
Ulises,939,0.0555,0.01%,M,,
Judson,940,0.055,0.01%,M,,
Kashton,941,0.055,0.01%,M,,
Tadeo,942,0.055,0.01%,M,,
Marquis,943,0.055,0.01%,M,,
Avi,944,0.0545,0.01%,M,,
Dimitri,945,0.0545,0.01%,M,,
Dwayne,946,0.0545,0.01%,M,,
Musa,947,0.0545,0.01%,M,,
Ahmir,948,0.0545,0.01%,M,,
Gordon,949,0.0545,0.01%,M,,
Ira,950,0.0545,0.01%,M,,
Seamus,951,0.054,0.01%,M,,
Kolby,952,0.054,0.01%,M,,
Brantlee,953,0.0535,0.01%,M,,
Javon,954,0.0535,0.01%,M,,
Rocky,955,0.0535,0.01%,M,,
Urijah,956,0.0535,0.01%,M,,
Brayson,957,0.0535,0.01%,M,,
Mikael,958,0.0535,0.01%,M,,
Santos,959,0.0535,0.01%,M,,
Gilbert,960,0.053,0.01%,M,,
Greysen,961,0.053,0.01%,M,,
Lyric,962,0.053,0.01%,M,,
Coleman,963,0.0525,0.01%,M,,
Dominique,964,0.0525,0.01%,M,,
Foster,965,0.0525,0.01%,M,,
Gauge,966,0.0525,0.01%,M,,
Harris,967,0.0525,0.01%,M,,
Kymani,968,0.0525,0.01%,M,,
Leif,969,0.0525,0.01%,M,,
Agustin,970,0.0525,0.01%,M,,
Keanu,971,0.0525,0.01%,M,,
Konner,972,0.0525,0.01%,M,,
Brent,973,0.052,0.01%,M,,
Immanuel,974,0.052,0.01%,M,,
Benicio,975,0.052,0.01%,M,,
Ernest,976,0.052,0.01%,M,,
Merrick,977,0.052,0.01%,M,,
Yisroel,978,0.052,0.01%,M,,
Amare,979,0.0515,0.01%,M,,
Jad,980,0.0515,0.01%,M,,
Lyle,981,0.0515,0.01%,M,,
Creed,982,0.0515,0.01%,M,,
Krish,983,0.0515,0.01%,M,,
Maddux,984,0.0515,0.01%,M,,
Camilo,985,0.051,0.01%,M,,
Giancarlo,986,0.051,0.01%,M,,
Jamarion,987,0.051,0.01%,M,,
Steve,988,0.051,0.01%,M,,
Anton,989,0.051,0.01%,M,,
Jamar,990,0.051,0.01%,M,,
Jeremias,991,0.051,0.01%,M,,
Ralph,992,0.051,0.01%,M,,
Wesson,993,0.051,0.01%,M,,
Bode,994,0.0505,0.01%,M,,
Braeden,995,0.0505,0.01%,M,,
Brenden,996,0.0505,0.01%,M,,
Eliezer,997,0.0505,0.01%,M,,
Davian,998,0.0505,0.01%,M,,
Gus,999,0.0505,0.01%,M,,
Jonathon,1000,0.0505,0.01%,M,,
Emma,1,5.054,1.01%,F,,
Olivia,2,5.0105,1.00%,F,,
Ava,3,4.227,0.85%,F,,
Sophia,4,4.1835,0.84%,F,,
Isabella,5,3.8325,0.77%,F,,
Mia,6,3.74,0.75%,F,,
Charlotte,7,3.392,0.68%,F,,
Abigail,8,3.0455,0.61%,F,,
Emily,9,2.8445,0.57%,F,,
Harper,10,2.794,0.56%,F,,
Amelia,11,2.786,0.56%,F,,
Evelyn,12,2.619,0.52%,F,,
Elizabeth,13,2.4715,0.49%,F,,
Sofia,14,2.378,0.48%,F,,
Madison,15,2.3385,0.47%,F,,
Avery,16,2.2735,0.45%,F,,
Ella,17,2.048,0.41%,F,,
Scarlett,18,1.9995,0.40%,F,,
Grace,19,1.9605,0.39%,F,,
Chloe,20,1.929,0.39%,F,,
Victoria,21,1.892,0.38%,F,,
Riley,22,1.851,0.37%,F,,
Aria,23,1.7975,0.36%,F,,
Lily,24,1.7075,0.34%,F,,
Aubrey,25,1.694,0.34%,F,,
Zoey,26,1.67,0.33%,F,,
Penelope,27,1.6575,0.33%,F,,
Lillian,28,1.6485,0.33%,F,,
Addison,29,1.639,0.33%,F,,
Layla,30,1.623,0.32%,F,,
Natalie,31,1.6025,0.32%,F,,
Camila,32,1.5715,0.31%,F,,
Hannah,33,1.556,0.31%,F,,
Brooklyn,34,1.5415,0.31%,F,,
Zoe,35,1.4855,0.30%,F,,
Nora,36,1.4475,0.29%,F,,
Leah,37,1.4005,0.28%,F,,
Savannah,38,1.389,0.28%,F,,
Audrey,39,1.3875,0.28%,F,,
Claire,40,1.351,0.27%,F,,
Eleanor,41,1.3275,0.27%,F,,
Skylar,42,1.3275,0.27%,F,,
Ellie,43,1.3135,0.26%,F,,
Samantha,44,1.282,0.26%,F,,
Stella,45,1.279,0.26%,F,,
Paisley,46,1.26,0.25%,F,,
Violet,47,1.259,0.25%,F,,
Mila,48,1.25,0.25%,F,,
Allison,49,1.2395,0.25%,F,,
Alexa,50,1.239,0.25%,F,,
Anna,51,1.2365,0.25%,F,,
Hazel,52,1.2065,0.24%,F,,
Aaliyah,53,1.2005,0.24%,F,,
Ariana,54,1.1915,0.24%,F,,
Lucy,55,1.189,0.24%,F,,
Caroline,56,1.148,0.23%,F,,
Sarah,57,1.1395,0.23%,F,,
Genesis,58,1.126,0.23%,F,,
Kennedy,59,1.123,0.22%,F,,
Sadie,60,1.11,0.22%,F,,
Gabriella,61,1.0975,0.22%,F,,
Madelyn,62,1.0955,0.22%,F,,
Adeline,63,1.068,0.21%,F,,
Maya,64,1.0555,0.21%,F,,
Autumn,65,1.0385,0.21%,F,,
Aurora,66,1.0315,0.21%,F,,
Piper,67,1.022,0.20%,F,,
Hailey,68,1.02,0.20%,F,,
Arianna,69,1.007,0.20%,F,,
Kaylee,70,0.993,0.20%,F,,
Ruby,71,0.988,0.20%,F,,
Serenity,72,0.9865,0.20%,F,,
Eva,73,0.9835,0.20%,F,,
Naomi,74,0.982,0.20%,F,,
Nevaeh,75,0.978,0.20%,F,,
Alice,76,0.955,0.19%,F,,
Luna,77,0.949,0.19%,F,,
Bella,78,0.948,0.19%,F,,
Quinn,79,0.9465,0.19%,F,,
Lydia,80,0.9345,0.19%,F,,
Peyton,81,0.9065,0.18%,F,,
Melanie,82,0.904,0.18%,F,,
Kylie,83,0.884,0.18%,F,,
Aubree,84,0.8825,0.18%,F,,
Mackenzie,85,0.8825,0.18%,F,,
Kinsley,86,0.873,0.17%,F,,
Cora,87,0.872,0.17%,F,,
Julia,88,0.8615,0.17%,F,,
Taylor,89,0.849,0.17%,F,,
Katherine,90,0.8485,0.17%,F,,
Madeline,91,0.848,0.17%,F,,
Gianna,92,0.8355,0.17%,F,,
Eliana,93,0.829,0.17%,F,,
Elena,94,0.8245,0.16%,F,,
Vivian,95,0.8135,0.16%,F,,
Willow,96,0.8035,0.16%,F,,
Reagan,97,0.802,0.16%,F,,
Brianna,98,0.801,0.16%,F,,
Clara,99,0.7955,0.16%,F,,
Faith,100,0.79,0.16%,F,,
Ashley,101,0.787,0.16%,F,,
Emilia,102,0.786,0.16%,F,,
Isabelle,103,0.783,0.16%,F,,
Annabelle,104,0.774,0.15%,F,,
Rylee,105,0.767,0.15%,F,,
Valentina,106,0.757,0.15%,F,,
Everly,107,0.748,0.15%,F,,
Hadley,108,0.7475,0.15%,F,,
Sophie,109,0.742,0.15%,F,,
Alexandra,110,0.737,0.15%,F,,
Natalia,111,0.7325,0.15%,F,,
Ivy,112,0.728,0.15%,F,,
Maria,113,0.726,0.15%,F,,
Josephine,114,0.72,0.14%,F,,
Delilah,115,0.707,0.14%,F,,
Bailey,116,0.7,0.14%,F,,
Jade,117,0.699,0.14%,F,,
Ximena,118,0.696,0.14%,F,,
Alexis,119,0.693,0.14%,F,,
Alyssa,120,0.693,0.14%,F,,
Brielle,121,0.69,0.14%,F,,
Jasmine,122,0.6835,0.14%,F,,
Liliana,123,0.683,0.14%,F,,
Adalynn,124,0.673,0.13%,F,,
Khloe,125,0.656,0.13%,F,,
Isla,126,0.652,0.13%,F,,
Mary,127,0.6475,0.13%,F,,
Andrea,128,0.644,0.13%,F,,
Kayla,129,0.6395,0.13%,F,,
Emery,130,0.6275,0.13%,F,,
London,131,0.609,0.12%,F,,
Kimberly,132,0.604,0.12%,F,,
Morgan,133,0.6035,0.12%,F,,
Lauren,134,0.6015,0.12%,F,,
Sydney,135,0.601,0.12%,F,,
Nova,136,0.5915,0.12%,F,,
Trinity,137,0.5765,0.12%,F,,
Lyla,138,0.575,0.12%,F,,
Margaret,139,0.5735,0.11%,F,,
Ariel,140,0.5665,0.11%,F,,
Adalyn,141,0.5665,0.11%,F,,
Athena,142,0.563,0.11%,F,,
Lilly,143,0.555,0.11%,F,,
Melody,144,0.554,0.11%,F,,
Isabel,145,0.5465,0.11%,F,,
Jordyn,146,0.5445,0.11%,F,,
Jocelyn,147,0.5435,0.11%,F,,
Eden,148,0.5385,0.11%,F,,
Paige,149,0.5315,0.11%,F,,
Teagan,150,0.5295,0.11%,F,,
Valeria,151,0.5285,0.11%,F,,
Sara,152,0.527,0.11%,F,,
Norah,153,0.525,0.11%,F,,
Rose,154,0.525,0.11%,F,,
Aliyah,155,0.519,0.10%,F,,
Mckenzie,156,0.516,0.10%,F,,
Molly,157,0.5145,0.10%,F,,
Raelynn,158,0.513,0.10%,F,,
Leilani,159,0.51,0.10%,F,,
Valerie,160,0.5075,0.10%,F,,
Emerson,161,0.507,0.10%,F,,
Juliana,162,0.506,0.10%,F,,
Nicole,163,0.5055,0.10%,F,,
Laila,164,0.5045,0.10%,F,,
Makayla,165,0.4995,0.10%,F,,
Elise,166,0.496,0.10%,F,,
Mariah,167,0.496,0.10%,F,,
Mya,168,0.495,0.10%,F,,
Arya,169,0.492,0.10%,F,,
Ryleigh,170,0.4885,0.10%,F,,
Adaline,171,0.4875,0.10%,F,,
Brooke,172,0.483,0.10%,F,,
Rachel,173,0.4825,0.10%,F,,
Eliza,174,0.482,0.10%,F,,
Angelina,175,0.48,0.10%,F,,
Amy,176,0.476,0.10%,F,,
Reese,177,0.4725,0.09%,F,,
Alina,178,0.472,0.09%,F,,
Cecilia,179,0.472,0.09%,F,,
Londyn,180,0.4715,0.09%,F,,
Gracie,181,0.4685,0.09%,F,,
Payton,182,0.467,0.09%,F,,
Esther,183,0.4655,0.09%,F,,
Alaina,184,0.458,0.09%,F,,
Charlie,185,0.456,0.09%,F,,
Iris,186,0.452,0.09%,F,,
Arabella,187,0.4485,0.09%,F,,
Genevieve,188,0.4485,0.09%,F,,
Finley,189,0.4475,0.09%,F,,
Daisy,190,0.447,0.09%,F,,
Harmony,191,0.4435,0.09%,F,,
Anastasia,192,0.441,0.09%,F,,
Kendall,193,0.441,0.09%,F,,
Daniela,194,0.433,0.09%,F,,
Catherine,195,0.432,0.09%,F,,
Adelyn,196,0.432,0.09%,F,,
Vanessa,197,0.4305,0.09%,F,,
Brooklynn,198,0.4295,0.09%,F,,
Juliette,199,0.4285,0.09%,F,,
Julianna,200,0.416,0.08%,F,,
Presley,201,0.415,0.08%,F,,
Summer,202,0.414,0.08%,F,,
Destiny,203,0.4095,0.08%,F,,
Amaya,204,0.409,0.08%,F,,
Hayden,205,0.4085,0.08%,F,,
Alana,206,0.407,0.08%,F,,
Rebecca,207,0.407,0.08%,F,,
Michelle,208,0.406,0.08%,F,,
Eloise,209,0.4045,0.08%,F,,
Lila,210,0.4035,0.08%,F,,
Fiona,211,0.4025,0.08%,F,,
Callie,212,0.3985,0.08%,F,,
Lucia,213,0.3935,0.08%,F,,
Angela,214,0.3915,0.08%,F,,
Marley,215,0.388,0.08%,F,,
Adriana,216,0.3875,0.08%,F,,
Parker,217,0.3825,0.08%,F,,
Alexandria,218,0.38,0.08%,F,,
Giselle,219,0.3795,0.08%,F,,
Alivia,220,0.378,0.08%,F,,
Alayna,221,0.3725,0.07%,F,,
Brynlee,222,0.372,0.07%,F,,
Ana,223,0.371,0.07%,F,,
Harley,224,0.37,0.07%,F,,
Gabrielle,225,0.367,0.07%,F,,
Dakota,226,0.366,0.07%,F,,
Georgia,227,0.366,0.07%,F,,
Juliet,228,0.362,0.07%,F,,
Tessa,229,0.3605,0.07%,F,,
Leila,230,0.36,0.07%,F,,
Kate,231,0.36,0.07%,F,,
Jayla,232,0.3585,0.07%,F,,
Jessica,233,0.358,0.07%,F,,
Lola,234,0.357,0.07%,F,,
Stephanie,235,0.3555,0.07%,F,,
Sienna,236,0.3555,0.07%,F,,
Josie,237,0.352,0.07%,F,,
Daleyza,238,0.3505,0.07%,F,,
Rowan,239,0.35,0.07%,F,,
Evangeline,240,0.3445,0.07%,F,,
Hope,241,0.3445,0.07%,F,,
Maggie,242,0.3415,0.07%,F,,
Camille,243,0.3385,0.07%,F,,
Makenzie,244,0.338,0.07%,F,,
Vivienne,245,0.332,0.07%,F,,
Sawyer,246,0.331,0.07%,F,,
Gemma,247,0.329,0.07%,F,,
Joanna,248,0.329,0.07%,F,,
Noelle,249,0.328,0.07%,F,,
Elliana,250,0.327,0.07%,F,,
Mckenna,251,0.324,0.06%,F,,
Gabriela,252,0.3235,0.06%,F,,
Kinley,253,0.3235,0.06%,F,,
Rosalie,254,0.323,0.06%,F,,
Brynn,255,0.3205,0.06%,F,,
Amiyah,256,0.3195,0.06%,F,,
Melissa,257,0.3195,0.06%,F,,
Adelaide,258,0.3195,0.06%,F,,
Malia,259,0.3195,0.06%,F,,
Ayla,260,0.319,0.06%,F,,
Izabella,261,0.3165,0.06%,F,,
Delaney,262,0.312,0.06%,F,,
Cali,263,0.311,0.06%,F,,
Journey,264,0.3105,0.06%,F,,
Maci,265,0.3085,0.06%,F,,
Elaina,266,0.308,0.06%,F,,
Sloane,267,0.308,0.06%,F,,
June,268,0.307,0.06%,F,,
Diana,269,0.3065,0.06%,F,,
Blakely,270,0.3055,0.06%,F,,
Aniyah,271,0.3015,0.06%,F,,
Olive,272,0.3005,0.06%,F,,
Jennifer,273,0.3,0.06%,F,,
Paris,274,0.3,0.06%,F,,
Miranda,275,0.2955,0.06%,F,,
Lena,276,0.295,0.06%,F,,
Jacqueline,277,0.294,0.06%,F,,
Paislee,278,0.294,0.06%,F,,
Jane,279,0.294,0.06%,F,,
Raegan,280,0.294,0.06%,F,,
Lyric,281,0.2935,0.06%,F,,
Lilliana,282,0.293,0.06%,F,,
Adelynn,283,0.2925,0.06%,F,,
Lucille,284,0.292,0.06%,F,,
Selena,285,0.2915,0.06%,F,,
River,286,0.291,0.06%,F,,
Annie,287,0.29,0.06%,F,,
Cassidy,288,0.29,0.06%,F,,
Jordan,289,0.29,0.06%,F,,
Thea,290,0.29,0.06%,F,,
Mariana,291,0.288,0.06%,F,,
Amina,292,0.2865,0.06%,F,,
Miriam,293,0.2865,0.06%,F,,
Haven,294,0.286,0.06%,F,,
Remi,295,0.285,0.06%,F,,
Charlee,296,0.285,0.06%,F,,
Blake,297,0.284,0.06%,F,,
Lilah,298,0.2815,0.06%,F,,
Ruth,299,0.2815,0.06%,F,,
Amara,300,0.2805,0.06%,F,,
Kali,301,0.2805,0.06%,F,,
Kylee,302,0.2795,0.06%,F,,
Arielle,303,0.278,0.06%,F,,
Emersyn,304,0.278,0.06%,F,,
Alessandra,305,0.2775,0.06%,F,,
Fatima,306,0.2755,0.06%,F,,
Talia,307,0.274,0.05%,F,,
Vera,308,0.274,0.05%,F,,
Nina,309,0.271,0.05%,F,,
Ariah,310,0.2705,0.05%,F,,
Allie,311,0.2695,0.05%,F,,
Addilyn,312,0.269,0.05%,F,,
Keira,313,0.268,0.05%,F,,
Catalina,314,0.2665,0.05%,F,,
Raelyn,315,0.2665,0.05%,F,,
Phoebe,316,0.266,0.05%,F,,
Lexi,317,0.2655,0.05%,F,,
Zara,318,0.265,0.05%,F,,
Makenna,319,0.265,0.05%,F,,
Ember,320,0.2625,0.05%,F,,
Leia,321,0.2615,0.05%,F,,
Rylie,322,0.261,0.05%,F,,
Angel,323,0.2605,0.05%,F,,
Haley,324,0.26,0.05%,F,,
Madilyn,325,0.26,0.05%,F,,
Kaitlyn,326,0.259,0.05%,F,,
Heaven,327,0.2585,0.05%,F,,
Nyla,328,0.2585,0.05%,F,,
Amanda,329,0.2585,0.05%,F,,
Freya,330,0.258,0.05%,F,,
Journee,331,0.2565,0.05%,F,,
Daniella,332,0.256,0.05%,F,,
Danielle,333,0.256,0.05%,F,,
Kenzie,334,0.256,0.05%,F,,
Ariella,335,0.2555,0.05%,F,,
Lia,336,0.255,0.05%,F,,
Brinley,337,0.255,0.05%,F,,
Maddison,338,0.255,0.05%,F,,
Shelby,339,0.2545,0.05%,F,,
Elsie,340,0.2535,0.05%,F,,
Kamila,341,0.2535,0.05%,F,,
Camilla,342,0.253,0.05%,F,,
Alison,343,0.2515,0.05%,F,,
Ainsley,344,0.2505,0.05%,F,,
Ada,345,0.2495,0.05%,F,,
Laura,346,0.2495,0.05%,F,,
Kendra,347,0.2485,0.05%,F,,
Kayleigh,348,0.2475,0.05%,F,,
Adrianna,349,0.2465,0.05%,F,,
Madeleine,350,0.2465,0.05%,F,,
Joy,351,0.245,0.05%,F,,
Juniper,352,0.2445,0.05%,F,,
Chelsea,353,0.2415,0.05%,F,,
Sage,354,0.2415,0.05%,F,,
Erin,355,0.2395,0.05%,F,,
Felicity,356,0.2385,0.05%,F,,
Gracelyn,357,0.2365,0.05%,F,,
Nadia,358,0.2365,0.05%,F,,
Skyler,359,0.2355,0.05%,F,,
Briella,360,0.2355,0.05%,F,,
Aspen,361,0.2335,0.05%,F,,
Myla,362,0.232,0.05%,F,,
Heidi,363,0.2305,0.05%,F,,
Katie,364,0.2305,0.05%,F,,
Zuri,365,0.23,0.05%,F,,
Jenna,366,0.23,0.05%,F,,
Kyla,367,0.2295,0.05%,F,,
Kaia,368,0.229,0.05%,F,,
Kira,369,0.228,0.05%,F,,
Sabrina,370,0.2275,0.05%,F,,
Gracelynn,371,0.227,0.05%,F,,
Gia,372,0.226,0.05%,F,,
Amira,373,0.2255,0.05%,F,,
Alexia,374,0.225,0.05%,F,,
Amber,375,0.225,0.05%,F,,
Cadence,376,0.225,0.05%,F,,
Esmeralda,377,0.225,0.05%,F,,
Katelyn,378,0.225,0.05%,F,,
Scarlet,379,0.2245,0.04%,F,,
Kamryn,380,0.224,0.04%,F,,
Alicia,381,0.2235,0.04%,F,,
Miracle,382,0.223,0.04%,F,,
Kelsey,383,0.222,0.04%,F,,
Logan,384,0.222,0.04%,F,,
Kiara,385,0.2215,0.04%,F,,
Bianca,386,0.221,0.04%,F,,
Kaydence,387,0.22,0.04%,F,,
Alondra,388,0.2195,0.04%,F,,
Evelynn,389,0.2195,0.04%,F,,
Christina,390,0.219,0.04%,F,,
Lana,391,0.219,0.04%,F,,
Aviana,392,0.2185,0.04%,F,,
Dahlia,393,0.2185,0.04%,F,,
Dylan,394,0.218,0.04%,F,,
Anaya,395,0.2175,0.04%,F,,
Ashlyn,396,0.216,0.04%,F,,
Jada,397,0.216,0.04%,F,,
Kathryn,398,0.216,0.04%,F,,
Jimena,399,0.2155,0.04%,F,,
Elle,400,0.215,0.04%,F,,
Gwendolyn,401,0.2145,0.04%,F,,
April,402,0.2135,0.04%,F,,
Carmen,403,0.2135,0.04%,F,,
Mikayla,404,0.213,0.04%,F,,
Annalise,405,0.2125,0.04%,F,,
Maeve,406,0.2125,0.04%,F,,
Camryn,407,0.212,0.04%,F,,
Helen,408,0.2115,0.04%,F,,
Daphne,409,0.2105,0.04%,F,,
Braelynn,410,0.209,0.04%,F,,
Carly,411,0.209,0.04%,F,,
Cheyenne,412,0.209,0.04%,F,,
Leslie,413,0.2085,0.04%,F,,
Veronica,414,0.2085,0.04%,F,,
Nylah,415,0.207,0.04%,F,,
Kennedi,416,0.2065,0.04%,F,,
Skye,417,0.205,0.04%,F,,
Evie,418,0.204,0.04%,F,,
Averie,419,0.2035,0.04%,F,,
Harlow,420,0.2035,0.04%,F,,
Allyson,421,0.2005,0.04%,F,,
Carolina,422,0.2,0.04%,F,,
Tatum,423,0.199,0.04%,F,,
Francesca,424,0.1985,0.04%,F,,
Aylin,425,0.198,0.04%,F,,
Ashlynn,426,0.1975,0.04%,F,,
Sierra,427,0.197,0.04%,F,,
Mckinley,428,0.1965,0.04%,F,,
Leighton,429,0.1965,0.04%,F,,
Maliyah,430,0.1965,0.04%,F,,
Annabella,431,0.194,0.04%,F,,
Megan,432,0.1935,0.04%,F,,
Margot,433,0.193,0.04%,F,,
Luciana,434,0.1915,0.04%,F,,
Mallory,435,0.1915,0.04%,F,,
Millie,436,0.1915,0.04%,F,,
Regina,437,0.191,0.04%,F,,
Nia,438,0.19,0.04%,F,,
Rosemary,439,0.19,0.04%,F,,
Saylor,440,0.1895,0.04%,F,,
Abby,441,0.1885,0.04%,F,,
Briana,442,0.187,0.04%,F,,
Phoenix,443,0.187,0.04%,F,,
Viviana,444,0.187,0.04%,F,,
Alejandra,445,0.1865,0.04%,F,,
Frances,446,0.1865,0.04%,F,,
Jayleen,447,0.1865,0.04%,F,,
Serena,448,0.1865,0.04%,F,,
Lorelei,449,0.185,0.04%,F,,
Zariah,450,0.185,0.04%,F,,
Ariyah,451,0.184,0.04%,F,,
Jazmin,452,0.1835,0.04%,F,,
Avianna,453,0.183,0.04%,F,,
Carter,454,0.182,0.04%,F,,
Marlee,455,0.182,0.04%,F,,
Eve,456,0.1815,0.04%,F,,
Aleah,457,0.1815,0.04%,F,,
Remington,458,0.181,0.04%,F,,
Amari,459,0.181,0.04%,F,,
Bethany,460,0.179,0.04%,F,,
Fernanda,461,0.178,0.04%,F,,
Malaysia,462,0.178,0.04%,F,,
Willa,463,0.1775,0.04%,F,,
Liana,464,0.177,0.04%,F,,
Ryan,465,0.177,0.04%,F,,
Addyson,466,0.176,0.04%,F,,
Yaretzi,467,0.176,0.04%,F,,
Colette,468,0.175,0.04%,F,,
Macie,469,0.175,0.04%,F,,
Selah,470,0.175,0.04%,F,,
Nayeli,471,0.1745,0.03%,F,,
Madelynn,472,0.174,0.03%,F,,
Michaela,473,0.174,0.03%,F,,
Priscilla,474,0.1735,0.03%,F,,
Janelle,475,0.1725,0.03%,F,,
Samara,476,0.1725,0.03%,F,,
Justice,477,0.1725,0.03%,F,,
Itzel,478,0.1705,0.03%,F,,
Emely,479,0.169,0.03%,F,,
Lennon,480,0.169,0.03%,F,,
Aubrie,481,0.168,0.03%,F,,
Julie,482,0.1675,0.03%,F,,
Kyleigh,483,0.167,0.03%,F,,
Sarai,484,0.167,0.03%,F,,
Braelyn,485,0.1665,0.03%,F,,
Alani,486,0.165,0.03%,F,,
Lacey,487,0.165,0.03%,F,,
Edith,488,0.1645,0.03%,F,,
Elisa,489,0.1635,0.03%,F,,
Macy,490,0.1635,0.03%,F,,
Marilyn,491,0.1635,0.03%,F,,
Baylee,492,0.163,0.03%,F,,
Karina,493,0.163,0.03%,F,,
Raven,494,0.163,0.03%,F,,
Celeste,495,0.1625,0.03%,F,,
Adelina,496,0.1625,0.03%,F,,
Matilda,497,0.162,0.03%,F,,
Kara,498,0.162,0.03%,F,,
Jamie,499,0.1615,0.03%,F,,
Charleigh,500,0.1615,0.03%,F,,
Aisha,501,0.1605,0.03%,F,,
Kassidy,502,0.1605,0.03%,F,,
Hattie,503,0.1605,0.03%,F,,
Karen,504,0.16,0.03%,F,,
Sylvia,505,0.16,0.03%,F,,
Winter,506,0.16,0.03%,F,,
Aleena,507,0.159,0.03%,F,,
Angelica,508,0.1585,0.03%,F,,
Magnolia,509,0.1585,0.03%,F,,
Cataleya,510,0.158,0.03%,F,,
Danna,511,0.1575,0.03%,F,,
Henley,512,0.1565,0.03%,F,,
Mabel,513,0.1565,0.03%,F,,
Kelly,514,0.1565,0.03%,F,,
Brylee,515,0.156,0.03%,F,,
Jazlyn,516,0.156,0.03%,F,,
Virginia,517,0.156,0.03%,F,,
Helena,518,0.1555,0.03%,F,,
Jillian,519,0.1555,0.03%,F,,
Madilynn,520,0.1555,0.03%,F,,
Blair,521,0.1545,0.03%,F,,
Galilea,522,0.1545,0.03%,F,,
Kensley,523,0.154,0.03%,F,,
Wren,524,0.1535,0.03%,F,,
Bristol,525,0.1525,0.03%,F,,
Emmalyn,526,0.1525,0.03%,F,,
Holly,527,0.1525,0.03%,F,,
Lauryn,528,0.1525,0.03%,F,,
Cameron,529,0.152,0.03%,F,,
Hanna,530,0.152,0.03%,F,,
Meredith,531,0.152,0.03%,F,,
Royalty,532,0.1515,0.03%,F,,
Sasha,533,0.1515,0.03%,F,,
Lilith,534,0.151,0.03%,F,,
Jazmine,535,0.1505,0.03%,F,,
Alayah,536,0.15,0.03%,F,,
Madisyn,537,0.1495,0.03%,F,,
Cecelia,538,0.149,0.03%,F,,
Renata,539,0.149,0.03%,F,,
Lainey,540,0.1485,0.03%,F,,
Liberty,541,0.1485,0.03%,F,,
Brittany,542,0.1485,0.03%,F,,
Savanna,543,0.1485,0.03%,F,,
Imani,544,0.148,0.03%,F,,
Kyra,545,0.148,0.03%,F,,
Mira,546,0.1475,0.03%,F,,
Mariam,547,0.1475,0.03%,F,,
Tenley,548,0.147,0.03%,F,,
Aitana,549,0.147,0.03%,F,,
Gloria,550,0.1465,0.03%,F,,
Maryam,551,0.1465,0.03%,F,,
Giuliana,552,0.146,0.03%,F,,
Skyla,553,0.146,0.03%,F,,
Anne,554,0.146,0.03%,F,,
Johanna,555,0.146,0.03%,F,,
Myra,556,0.146,0.03%,F,,
Charley,557,0.1445,0.03%,F,,
Tiffany,558,0.1445,0.03%,F,,
Beatrice,559,0.144,0.03%,F,,
Karla,560,0.1435,0.03%,F,,
Cynthia,561,0.143,0.03%,F,,
Janiyah,562,0.143,0.03%,F,,
Melany,563,0.143,0.03%,F,,
Alanna,564,0.143,0.03%,F,,
Lilian,565,0.143,0.03%,F,,
Demi,566,0.1425,0.03%,F,,
Pearl,567,0.142,0.03%,F,,
Jaylah,568,0.1415,0.03%,F,,
Maia,569,0.141,0.03%,F,,
Cassandra,570,0.1405,0.03%,F,,
Jolene,571,0.1405,0.03%,F,,
Crystal,572,0.1405,0.03%,F,,
Everleigh,573,0.14,0.03%,F,,
Maisie,574,0.1395,0.03%,F,,
Anahi,575,0.1395,0.03%,F,,
Elianna,576,0.1395,0.03%,F,,
Hallie,577,0.139,0.03%,F,,
Ivanna,578,0.1385,0.03%,F,,
Oakley,579,0.138,0.03%,F,,
Ophelia,580,0.1375,0.03%,F,,
Emelia,581,0.137,0.03%,F,,
Mae,582,0.137,0.03%,F,,
Marie,583,0.137,0.03%,F,,
Rebekah,584,0.136,0.03%,F,,
Azalea,585,0.1355,0.03%,F,,
Haylee,586,0.135,0.03%,F,,
Bailee,587,0.135,0.03%,F,,
Anika,588,0.1345,0.03%,F,,
Monica,589,0.134,0.03%,F,,
Kimber,590,0.134,0.03%,F,,
Sloan,591,0.134,0.03%,F,,
Jayda,592,0.1325,0.03%,F,,
Anya,593,0.132,0.03%,F,,
Bridget,594,0.1315,0.03%,F,,
Kailey,595,0.131,0.03%,F,,
Julissa,596,0.1305,0.03%,F,,
Marissa,597,0.1305,0.03%,F,,
Leona,598,0.1305,0.03%,F,,
Aileen,599,0.13,0.03%,F,,
Addisyn,600,0.1295,0.03%,F,,
Kaliyah,601,0.1295,0.03%,F,,
Coraline,602,0.129,0.03%,F,,
Dayana,603,0.129,0.03%,F,,
Kaylie,604,0.129,0.03%,F,,
Celine,605,0.128,0.03%,F,,
Jaliyah,606,0.128,0.03%,F,,
Elaine,607,0.1275,0.03%,F,,
Lillie,608,0.1275,0.03%,F,,
Melina,609,0.1275,0.03%,F,,
Jaelyn,610,0.127,0.03%,F,,
Shiloh,611,0.127,0.03%,F,,
Jemma,612,0.127,0.03%,F,,
Madalyn,613,0.127,0.03%,F,,
Addilynn,614,0.1265,0.03%,F,,
Alaia,615,0.1265,0.03%,F,,
Mikaela,616,0.1265,0.03%,F,,
Adley,617,0.1255,0.03%,F,,
Saige,618,0.125,0.03%,F,,
Angie,619,0.125,0.03%,F,,
Dallas,620,0.1245,0.02%,F,,
Braylee,621,0.1245,0.02%,F,,
Elsa,622,0.124,0.02%,F,,
Emmy,623,0.124,0.02%,F,,
Hayley,624,0.124,0.02%,F,,
Siena,625,0.1235,0.02%,F,,
Lorelai,626,0.1235,0.02%,F,,
Miah,627,0.1235,0.02%,F,,
Royal,628,0.1235,0.02%,F,,
Tiana,629,0.1235,0.02%,F,,
Elliot,630,0.123,0.02%,F,,
Kori,631,0.123,0.02%,F,,
Greta,632,0.1225,0.02%,F,,
Charli,633,0.1225,0.02%,F,,
Elliott,634,0.122,0.02%,F,,
Julieta,635,0.122,0.02%,F,,
Alena,636,0.121,0.02%,F,,
Rory,637,0.121,0.02%,F,,
Harlee,638,0.1205,0.02%,F,,
Rosa,639,0.1195,0.02%,F,,
Ivory,640,0.119,0.02%,F,,
Guadalupe,641,0.119,0.02%,F,,
Jessie,642,0.1185,0.02%,F,,
Laurel,643,0.1185,0.02%,F,,
Annika,644,0.118,0.02%,F,,
Clarissa,645,0.118,0.02%,F,,
Karsyn,646,0.118,0.02%,F,,
Collins,647,0.1175,0.02%,F,,
Kenia,648,0.117,0.02%,F,,
Milani,649,0.117,0.02%,F,,
Alia,650,0.117,0.02%,F,,
Chanel,651,0.117,0.02%,F,,
Dorothy,652,0.1165,0.02%,F,,
Armani,653,0.1165,0.02%,F,,
Emory,654,0.1165,0.02%,F,,
Ellen,655,0.116,0.02%,F,,
Irene,656,0.1155,0.02%,F,,
Adele,657,0.1155,0.02%,F,,
Jaelynn,658,0.115,0.02%,F,,
Myah,659,0.115,0.02%,F,,
Hadassah,660,0.1145,0.02%,F,,
Jayde,661,0.1145,0.02%,F,,
Lilyana,662,0.1145,0.02%,F,,
Malaya,663,0.1145,0.02%,F,,
Kenna,664,0.1145,0.02%,F,,
Amelie,665,0.114,0.02%,F,,
Reyna,666,0.113,0.02%,F,,
Teresa,667,0.113,0.02%,F,,
Angelique,668,0.113,0.02%,F,,
Linda,669,0.113,0.02%,F,,
Nathalie,670,0.113,0.02%,F,,
Kora,671,0.1125,0.02%,F,,
Zahra,672,0.1125,0.02%,F,,
Aurelia,673,0.112,0.02%,F,,
Kalani,674,0.112,0.02%,F,,
Rayna,675,0.112,0.02%,F,,
Jolie,676,0.112,0.02%,F,,
Sutton,677,0.112,0.02%,F,,
Aniya,678,0.1115,0.02%,F,,
Jessa,679,0.1115,0.02%,F,,
Laylah,680,0.1115,0.02%,F,,
Esme,681,0.111,0.02%,F,,
Keyla,682,0.1105,0.02%,F,,
Ariya,683,0.1105,0.02%,F,,
Elisabeth,684,0.1105,0.02%,F,,
Marina,685,0.1105,0.02%,F,,
Mara,686,0.11,0.02%,F,,
Meadow,687,0.11,0.02%,F,,
Aliza,688,0.11,0.02%,F,,
Zelda,689,0.1095,0.02%,F,,
Lea,690,0.109,0.02%,F,,
Elyse,691,0.1085,0.02%,F,,
Monroe,692,0.1085,0.02%,F,,
Penny,693,0.1085,0.02%,F,,
Lilianna,694,0.108,0.02%,F,,
Lylah,695,0.108,0.02%,F,,
Liv,696,0.1075,0.02%,F,,
Scarlette,697,0.107,0.02%,F,,
Kadence,698,0.1065,0.02%,F,,
Ansley,699,0.1065,0.02%,F,,
Emilee,700,0.106,0.02%,F,,
Perla,701,0.106,0.02%,F,,
Annabel,702,0.1055,0.02%,F,,
Alaya,703,0.1055,0.02%,F,,
Milena,704,0.1055,0.02%,F,,
Karter,705,0.105,0.02%,F,,
Avah,706,0.105,0.02%,F,,
Amirah,707,0.104,0.02%,F,,
Leyla,708,0.104,0.02%,F,,
Livia,709,0.104,0.02%,F,,
Chaya,710,0.1035,0.02%,F,,
Wynter,711,0.1035,0.02%,F,,
Jaycee,712,0.103,0.02%,F,,
Lailah,713,0.103,0.02%,F,,
Amani,714,0.103,0.02%,F,,
Milana,715,0.103,0.02%,F,,
Lennox,716,0.1025,0.02%,F,,
Remy,717,0.1025,0.02%,F,,
Zariyah,718,0.1025,0.02%,F,,
Clare,719,0.102,0.02%,F,,
Hadlee,720,0.102,0.02%,F,,
Kiera,721,0.102,0.02%,F,,
Rosie,722,0.102,0.02%,F,,
Alma,723,0.1015,0.02%,F,,
Kaelyn,724,0.1015,0.02%,F,,
Eileen,725,0.1015,0.02%,F,,
Jayden,726,0.1015,0.02%,F,,
Martha,727,0.1015,0.02%,F,,
Noa,728,0.1015,0.02%,F,,
Christine,729,0.101,0.02%,F,,
Ariadne,730,0.1005,0.02%,F,,
Natasha,731,0.1005,0.02%,F,,
Emerie,732,0.1005,0.02%,F,,
Tatiana,733,0.1005,0.02%,F,,
Joselyn,734,0.1,0.02%,F,,
Joyce,735,0.1,0.02%,F,,
Salma,736,0.1,0.02%,F,,
Amiya,737,0.1,0.02%,F,,
Audrina,738,0.0995,0.02%,F,,
Kinslee,739,0.0995,0.02%,F,,
Jaylene,740,0.0995,0.02%,F,,
Analia,741,0.099,0.02%,F,,
Erika,742,0.099,0.02%,F,,
Lexie,743,0.099,0.02%,F,,
Mina,744,0.099,0.02%,F,,
Patricia,745,0.099,0.02%,F,,
Dulce,746,0.0985,0.02%,F,,
Poppy,747,0.0985,0.02%,F,,
Aubrielle,748,0.0985,0.02%,F,,
Clementine,749,0.0985,0.02%,F,,
Lara,750,0.098,0.02%,F,,
Amaris,751,0.098,0.02%,F,,
Milan,752,0.098,0.02%,F,,
Aliana,753,0.0975,0.02%,F,,
Kailani,754,0.0975,0.02%,F,,
Kaylani,755,0.0975,0.02%,F,,
Maleah,756,0.0975,0.02%,F,,
Belen,757,0.097,0.02%,F,,
Simone,758,0.097,0.02%,F,,
Whitney,759,0.097,0.02%,F,,
Elora,760,0.097,0.02%,F,,
Claudia,761,0.0965,0.02%,F,,
Gwen,762,0.0965,0.02%,F,,
Rylan,763,0.0965,0.02%,F,,
Antonella,764,0.0965,0.02%,F,,
Khaleesi,765,0.0965,0.02%,F,,
Arely,766,0.096,0.02%,F,,
Princess,767,0.096,0.02%,F,,
Kenley,768,0.096,0.02%,F,,
Itzayana,769,0.0955,0.02%,F,,
Karlee,770,0.0955,0.02%,F,,
Paulina,771,0.0955,0.02%,F,,
Laney,772,0.0955,0.02%,F,,
Bria,773,0.095,0.02%,F,,
Chana,774,0.095,0.02%,F,,
Kynlee,775,0.095,0.02%,F,,
Astrid,776,0.0945,0.02%,F,,
Giovanna,777,0.0945,0.02%,F,,
Lindsey,778,0.0945,0.02%,F,,
Sky,779,0.094,0.02%,F,,
Aryanna,780,0.094,0.02%,F,,
Ayleen,781,0.094,0.02%,F,,
Azariah,782,0.094,0.02%,F,,
Joelle,783,0.094,0.02%,F,,
Nala,784,0.094,0.02%,F,,
Tori,785,0.094,0.02%,F,,
Noemi,786,0.0935,0.02%,F,,
Breanna,787,0.093,0.02%,F,,
Emmeline,788,0.093,0.02%,F,,
Mavis,789,0.093,0.02%,F,,
Amalia,790,0.093,0.02%,F,,
Mercy,791,0.093,0.02%,F,,
Tinley,792,0.093,0.02%,F,,
Averi,793,0.0925,0.02%,F,,
Aiyana,794,0.0925,0.02%,F,,
Alyson,795,0.092,0.02%,F,,
Corinne,796,0.092,0.02%,F,,
Leanna,797,0.092,0.02%,F,,
Madalynn,798,0.092,0.02%,F,,
Briar,799,0.092,0.02%,F,,
Jaylee,800,0.092,0.02%,F,,
Kailyn,801,0.092,0.02%,F,,
Kassandra,802,0.092,0.02%,F,,
Kaylin,803,0.092,0.02%,F,,
Nataly,804,0.092,0.02%,F,,
Amia,805,0.0915,0.02%,F,,
Yareli,806,0.0915,0.02%,F,,
Cara,807,0.091,0.02%,F,,
Taliyah,808,0.091,0.02%,F,,
Thalia,809,0.091,0.02%,F,,
Carolyn,810,0.091,0.02%,F,,
Estrella,811,0.091,0.02%,F,,
Montserrat,812,0.091,0.02%,F,,
Zaylee,813,0.091,0.02%,F,,
Anabelle,814,0.0905,0.02%,F,,
Deborah,815,0.0905,0.02%,F,,
Frida,816,0.0905,0.02%,F,,
Zaria,817,0.0905,0.02%,F,,
Kairi,818,0.0905,0.02%,F,,
Katalina,819,0.0905,0.02%,F,,
Nola,820,0.0905,0.02%,F,,
Erica,821,0.09,0.02%,F,,
Isabela,822,0.09,0.02%,F,,
Jazlynn,823,0.09,0.02%,F,,
Paula,824,0.09,0.02%,F,,
Faye,825,0.09,0.02%,F,,
Louisa,826,0.09,0.02%,F,,
Alessia,827,0.0895,0.02%,F,,
Courtney,828,0.0895,0.02%,F,,
Reign,829,0.0895,0.02%,F,,
Ryann,830,0.0895,0.02%,F,,
Stevie,831,0.0895,0.02%,F,,
Heavenly,832,0.089,0.02%,F,,
Lisa,833,0.089,0.02%,F,,
Roselyn,834,0.089,0.02%,F,,
Raina,835,0.089,0.02%,F,,
Adrienne,836,0.0885,0.02%,F,,
Celia,837,0.0885,0.02%,F,,
Estelle,838,0.0885,0.02%,F,,
Marianna,839,0.0885,0.02%,F,,
Brenda,840,0.088,0.02%,F,,
Kathleen,841,0.088,0.02%,F,,
Paola,842,0.0875,0.02%,F,,
Hunter,843,0.087,0.02%,F,,
Ellis,844,0.087,0.02%,F,,
Hana,845,0.087,0.02%,F,,
Lina,846,0.0865,0.02%,F,,
Raquel,847,0.0865,0.02%,F,,
Aliya,848,0.086,0.02%,F,,
Iliana,849,0.086,0.02%,F,,
Kallie,850,0.086,0.02%,F,,
Emmalynn,851,0.086,0.02%,F,,
Naya,852,0.0855,0.02%,F,,
Reina,853,0.0855,0.02%,F,,
Wendy,854,0.0855,0.02%,F,,
Landry,855,0.085,0.02%,F,,
Barbara,856,0.085,0.02%,F,,
Casey,857,0.0845,0.02%,F,,
Karlie,858,0.0845,0.02%,F,,
Kiana,859,0.0845,0.02%,F,,
Rivka,860,0.0845,0.02%,F,,
Kenya,861,0.0845,0.02%,F,,
Aya,862,0.084,0.02%,F,,
Carla,863,0.084,0.02%,F,,
Dalary,864,0.084,0.02%,F,,
Jaylynn,865,0.084,0.02%,F,,
Sariah,866,0.084,0.02%,F,,
Andi,867,0.0835,0.02%,F,,
Romina,868,0.0835,0.02%,F,,
Dana,869,0.0835,0.02%,F,,
Danica,870,0.0835,0.02%,F,,
Ingrid,871,0.0835,0.02%,F,,
Kehlani,872,0.0835,0.02%,F,,
Zaniyah,873,0.0835,0.02%,F,,
Alannah,874,0.083,0.02%,F,,
Avalynn,875,0.083,0.02%,F,,
Evalyn,876,0.083,0.02%,F,,
Sandra,877,0.083,0.02%,F,,
Veda,878,0.083,0.02%,F,,
Hadleigh,879,0.0825,0.02%,F,,
Paityn,880,0.0825,0.02%,F,,
Abril,881,0.0825,0.02%,F,,
Ciara,882,0.0825,0.02%,F,,
Holland,883,0.0825,0.02%,F,,
Lillianna,884,0.0825,0.02%,F,,
Kai,885,0.082,0.02%,F,,
Bryleigh,886,0.0815,0.02%,F,,
Emilie,887,0.0815,0.02%,F,,
Carlee,888,0.0815,0.02%,F,,
Judith,889,0.0815,0.02%,F,,
Kristina,890,0.0815,0.02%,F,,
Janessa,891,0.081,0.02%,F,,
Annalee,892,0.081,0.02%,F,,
Zoie,893,0.081,0.02%,F,,
Maliah,894,0.0805,0.02%,F,,
Bonnie,895,0.0805,0.02%,F,,
Emmaline,896,0.0805,0.02%,F,,
Louise,897,0.0805,0.02%,F,,
Kaylynn,898,0.08,0.02%,F,,
Monserrat,899,0.08,0.02%,F,,
Nancy,900,0.0795,0.02%,F,,
Noor,901,0.0795,0.02%,F,,
Vada,902,0.0795,0.02%,F,,
Aubriella,903,0.0795,0.02%,F,,
Maxine,904,0.0795,0.02%,F,,
Nathalia,905,0.0795,0.02%,F,,
Tegan,906,0.0795,0.02%,F,,
Aranza,907,0.079,0.02%,F,,
Emmie,908,0.079,0.02%,F,,
Brenna,909,0.0785,0.02%,F,,
Estella,910,0.0785,0.02%,F,,
Ellianna,911,0.0785,0.02%,F,,
Kailee,912,0.0785,0.02%,F,,
Ailani,913,0.078,0.02%,F,,
Caylee,914,0.078,0.02%,F,,
Zainab,915,0.078,0.02%,F,,
Zendaya,916,0.078,0.02%,F,,
Jana,917,0.078,0.02%,F,,
Julianne,918,0.0775,0.02%,F,,
Ellison,919,0.0775,0.02%,F,,
Sariyah,920,0.0775,0.02%,F,,
Lizbeth,921,0.077,0.02%,F,,
Susan,922,0.077,0.02%,F,,
Alyvia,923,0.077,0.02%,F,,
Jewel,924,0.077,0.02%,F,,
Marjorie,925,0.077,0.02%,F,,
Marleigh,926,0.077,0.02%,F,,
Nathaly,927,0.077,0.02%,F,,
Sharon,928,0.077,0.02%,F,,
Yamileth,929,0.077,0.02%,F,,
Zion,930,0.077,0.02%,F,,
Mariyah,931,0.0765,0.02%,F,,
Lyra,932,0.076,0.02%,F,,
Belle,933,0.076,0.02%,F,,
Yasmin,934,0.076,0.02%,F,,
Kaiya,935,0.0755,0.02%,F,,
Maren,936,0.0755,0.02%,F,,
Marisol,937,0.0755,0.02%,F,,
Vienna,938,0.0755,0.02%,F,,
Calliope,939,0.075,0.02%,F,,
Hailee,940,0.075,0.02%,F,,
Rayne,941,0.075,0.02%,F,,
Tabitha,942,0.075,0.02%,F,,
Anabella,943,0.0745,0.01%,F,,
Blaire,944,0.0745,0.01%,F,,
Giana,945,0.0745,0.01%,F,,
Milania,946,0.0745,0.01%,F,,
Paloma,947,0.0745,0.01%,F,,
Amya,948,0.0745,0.01%,F,,
Novalee,949,0.0745,0.01%,F,,
Harleigh,950,0.074,0.01%,F,,
Ramona,951,0.074,0.01%,F,,
Rhea,952,0.074,0.01%,F,,
Aadhya,953,0.074,0.01%,F,,
Miya,954,0.074,0.01%,F,,
Desiree,955,0.0735,0.01%,F,,
Frankie,956,0.0735,0.01%,F,,
Sylvie,957,0.0735,0.01%,F,,
Jasmin,958,0.073,0.01%,F,,
Moriah,959,0.073,0.01%,F,,
Rosalyn,960,0.073,0.01%,F,,
Kaya,961,0.073,0.01%,F,,
Joslyn,962,0.0725,0.01%,F,,
Tinsley,963,0.0725,0.01%,F,,
Farrah,964,0.0725,0.01%,F,,
Aislinn,965,0.072,0.01%,F,,
Halle,966,0.072,0.01%,F,,
Madyson,967,0.072,0.01%,F,,
Micah,968,0.072,0.01%,F,,
Arden,969,0.0715,0.01%,F,,
Bexley,970,0.0715,0.01%,F,,
Ari,971,0.0715,0.01%,F,,
Aubri,972,0.0715,0.01%,F,,
Ayana,973,0.071,0.01%,F,,
Cherish,974,0.071,0.01%,F,,
Davina,975,0.071,0.01%,F,,
Anniston,976,0.071,0.01%,F,,
Riya,977,0.071,0.01%,F,,
Adilynn,978,0.0705,0.01%,F,,
Ally,979,0.0705,0.01%,F,,
Amayah,980,0.0705,0.01%,F,,
Harmoni,981,0.0705,0.01%,F,,
Heather,982,0.0705,0.01%,F,,
Saoirse,983,0.0705,0.01%,F,,
Azaria,984,0.0705,0.01%,F,,
Alisha,985,0.07,0.01%,F,,
Nalani,986,0.07,0.01%,F,,
Maylee,987,0.07,0.01%,F,,
Shayla,988,0.07,0.01%,F,,
Briley,989,0.0695,0.01%,F,,
Elin,990,0.069,0.01%,F,,
Lilia,991,0.069,0.01%,F,,
Ann,992,0.0685,0.01%,F,,
Antonia,993,0.0685,0.01%,F,,
Aryana,994,0.0685,0.01%,F,,
Chandler,995,0.0685,0.01%,F,,
Esperanza,996,0.0685,0.01%,F,,
Lilyanna,997,0.0685,0.01%,F,,
Alianna,998,0.0685,0.01%,F,,
Luz,999,0.0685,0.01%,F,,
Meilani,1000,0.0685,0.01%,F,,
