Total,3139623,,
NAME,COUNT,PERCENT,PROP100K
JOHANSSON,276131,8.795036856%,8795.0368563359
ANDERSSON,273669,8.716619798%,8716.6197979821
KARLSSON,211086,6.723291300%,6723.2912996242
NILSSON,184887,5.888828054%,5888.8280535593
ERIKSSON,147485,4.697538526%,4697.5385261224
LARSSON,133393,4.248694827%,4248.6948273726
OLSSON,118405,3.771312670%,3771.3126703429
PERSSON,115670,3.684200300%,3684.2003004819
SVENSSON,111175,3.541030245%,3541.0302447141
GUSTAFSSON,76796,2.446026163%,2446.0261630138
PETTERSSON,70084,2.232242534%,2232.2425335781
JONSSON,61221,1.949947494%,1949.9474936959
JANSSON,53175,1.693674686%,1693.6746864194
HANSSON,46425,1.478680721%,1478.6807205833
BENGTSSON,36298,1.156126070%,1156.1260699135
JÖNSSON,35410,1.127842419%,1127.8424192968
PETERSSON,32522,1.035856853%,1035.8568528769
CARLSSON,29979,0.954859867%,954.8598669331
MAGNUSSON,27567,0.878035356%,878.0353564743
LINDBERG,27382,0.872142929%,872.1429292625
GUSTAVSSON,27191,0.866059396%,866.0593963033
OLOFSSON,25863,0.823761324%,823.7613242099
LINDSTRÖM,25563,0.814206037%,814.2060368395
LINDGREN,23372,0.744420588%,744.4205880770
AXELSSON,23211,0.739292584%,739.2925838548
JAKOBSSON,21856,0.696134536%,696.1345358981
LUNDBERG,21773,0.693490906%,693.4909063923
BERGSTRÖM,21450,0.683203047%,683.2030469900
LUNDGREN,21076,0.671290789%,671.2907887348
BERG,19797,0.630553414%,630.5534135786
BERGLUND,19710,0.627782380%,627.7823802412
FREDRIKSSON,18812,0.599180220%,599.1802200455
MATTSSON,18665,0.594498129%,594.4981292340
SANDBERG,17917,0.570673613%,570.6736127236
HENRIKSSON,17405,0.554365922%,554.3659222779
SJÖBERG,16570,0.527770372%,527.7703724301
FORSBERG,16469,0.524553426%,524.5534256820
HÅKANSSON,16207,0.516208475%,516.2084747118
LINDQVIST,16194,0.515794412%,515.7944122591
DANIELSSON,15946,0.507895375%,507.8953746994
ENGSTRÖM,15789,0.502894774%,502.8947743089
LIND,15440,0.491778790%,491.7787900012
LUNDIN,15318,0.487892973%,487.8929731372
EKLUND,15235,0.485249344%,485.2493436314
GUNNARSSON,14752,0.469865331%,469.8653309649
FRANSSON,14742,0.469546821%,469.5468213859
SAMUELSSON,14628,0.465915812%,465.9158121851
JOHNSSON,14580,0.464386966%,464.3869662058
HOLM,14416,0.459163409%,459.1634091099
BERGMAN,14009,0.446200069%,446.2000692440
HOLMBERG,13517,0.430529398%,430.5293979564
NYSTRÖM,13480,0.429350913%,429.3509125140
LUNDQVIST,13364,0.425656201%,425.6562013974
ARVIDSSON,13337,0.424796226%,424.7962255341
ISAKSSON,12942,0.412215097%,412.2150971629
MÅRTENSSON,12922,0.411578078%,411.5780780049
BJÖRK,12820,0.408329280%,408.3292802989
NYBERG,12760,0.406418223%,406.4182228248
SÖDERBERG,12713,0.404921228%,404.9212278035
NORDSTRÖM,12389,0.394601517%,394.6015174433
LUNDSTRÖM,12219,0.389186855%,389.1868546001
WALLIN,12124,0.386161014%,386.1610135994
ELIASSON,11881,0.378421231%,378.4212308293
BJÖRKLUND,11293,0.359692868%,359.6928675831
BERGGREN,11284,0.359406209%,359.4062089620
HERMANSSON,10915,0.347653205%,347.6532054963
STRÖM,10914,0.347621355%,347.6213545384
SANDSTRÖM,10872,0.346283614%,346.2836143066
NORDIN,10861,0.345933254%,345.9332537696
ÅBERG,10394,0.331058856%,331.0588564296
HOLMGREN,10391,0.330963304%,330.9633035559
EKSTRÖM,10350,0.329657414%,329.6574142819
SUNDBERG,10324,0.328829289%,328.8292893765
HEDLUND,10146,0.323159819%,323.1598188700
SJÖGREN,9973,0.317649603%,317.6496031530
MÅNSSON,9788,0.311757176%,311.7571759412
MARTINSSON,9643,0.307138787%,307.1387870455
DAHLBERG,9415,0.299876769%,299.8767686439
ÖBERG,9380,0.298761985%,298.7619851173
ABRAHAMSSON,9316,0.296723524%,296.7235238116
JONASSON,9254,0.294748764%,294.7487644217
STRÖMBERG,9218,0.293602130%,293.6021299373
ANDREASSON,9162,0.291818476%,291.8184762948
HELLSTRÖM,9136,0.290990351%,290.9903513893
ÅKESSON,9109,0.290130376%,290.1303755260
BLOM,9016,0.287168236%,287.1682364411
NORBERG,9013,0.287072684%,287.0726835674
BLOMQVIST,8969,0.285671241%,285.6712414198
SUNDSTRÖM,8865,0.282358742%,282.3587417980
GÖRANSSON,8775,0.279492156%,279.4921555868
ÅSTRÖM,8734,0.278186266%,278.1862663129
EK,8619,0.274523406%,274.5234061542
SÖDERSTRÖM,8562,0.272707902%,272.7079015538
IVARSSON,8557,0.272548647%,272.5486467643
LÖFGREN,8554,0.272453094%,272.4530938906
LINDHOLM,8551,0.272357541%,272.3575410169
NYMAN,8342,0.265700691%,265.7006908154
BERGQVIST,8324,0.265127374%,265.1273735732
LUND,8317,0.264904417%,264.9044168679
FALK,8103,0.258088312%,258.0883118769
