NAME,GENDER,COUNT,PERCENTAGE,PROP100K
LEO,M,408
ELIAS,M,379
ONNI,M,361
EINO,M,339
OLIVER,M,330
NIILO,M,321
VÄINÖ,M,316
EETU,M,313
LEEVI,M,293
DANIEL,M,265
JOEL,M,251
VEETI,M,251
NOEL,M,240
ALEKSI,M,236
MIKAEL,M,234
LENNI,M,213
HUGO,M,212
MATIAS,M,210
VILHO,M,209
JOONA,M,204
EMIL,M,197
EEMELI,M,196
NOOA,M,194
VILJAMI,M,194
JULIUS,M,193
LUKA,M,191
EELI,M,188
EEMIL,M,186
NIKLAS,M,178
LAURI,M,175
RASMUS,M,174
AAPO,M,172
PEETU,M,172
TOIVO,M,167
BENJAMIN,M,164
SAMUEL,M,164
AKSELI,M,162
JOOA,M,160
VEIKKO,M,160
VALTTERI,M,157
KASPER,M,156
JIMI,M,154
EELIS,M,153
MIRO,M,151
AARON,M,150
EEMI,M,149
ROOPE,M,148
VILI,M,145
ANTON,M,144
AATU,M,139
VENLA,F,394
SOFIA,F,346
AADA,F,335
AINO,F,331
ELSA,F,326
HELMI,F,325
EMMA,F,323
EEVI,F,299
ELLA,F,297
EMILIA,F,262
VILMA,F,240
ELLI,F,238
LILJA,F,237
ENNI,F,228
AMANDA,F,227
MILA,F,222
ISLA,F,221
OLIVIA,F,218
IIDA,F,207
KERTTU,F,206
ANNI,F,198
PIHLA,F,198
ELLEN,F,193
SARA,F,192
LINNEA,F,177
OONA,F,175
HILLA,F,174
MINEA,F,173
AAVA,F,172
SIIRI,F,171
NELLA,F,166
MINTTU,F,165
VEERA,F,165
VIIVI,F,154
ALISA,F,150
IINA,F,143
LOTTA,F,136
VILJA,F,135
ALMA,F,133
ILONA,F,132
MATILDA,F,132
RONJA,F,132
SANNI,F,132
NELLI,F,131
VIOLA,F,131
LUMI,F,130
SEELA,F,129
HILDA,F,128
IIRIS,F,118
JULIA,F,113
