Total,13780,,,
TotalF,6894,,,
TotalM,6886,,,
NAME,GENDER,COUNT,PERCENT,PROP100K
AHMED,M,263,1.908563135%,1908.5631349782
AMAR,M,246,1.785195936%,1785.1959361393
DARIS,M,217,1.574746009%,1574.7460087083
ADIN,M,202,1.465892598%,1465.8925979681
HARUN,M,199,1.444121916%,1444.12191582
DAVUD,M,185,1.342525399%,1342.5253991292
IMRAN,M,183,1.328011611%,1328.0116110305
HAMZA,M,178,1.291727141%,1291.7271407838
TARIK,M,167,1.211901306%,1211.9013062409
VEDAD,M,157,1.139332366%,1139.3323657475
AJDIN,M,151,1.095791001%,1095.7910014514
EMAN,M,142,1.030478955%,1030.4789550073
MUHAMED,M,136,0.986937591%,986.9375907112
EMIR,M,133,0.965166909%,965.1669085631
AJNUR,M,119,0.863570392%,863.5703918723
ALI,M,115,0.834542816%,834.5428156749
LUKA,M,110,0.798258345%,798.2583454282
KENAN,M,109,0.791001451%,791.0014513788
IVAN,M,101,0.732946299%,732.946298984
FARIS,M,98,0.711175617%,711.175616836
EMIN,M,93,0.674891147%,674.8911465893
OMAR,M,93,0.674891147%,674.8911465893
BENJAMIN,M,87,0.631349782%,631.3497822932
ARMAN,M,86,0.624092888%,624.0928882438
DANIN,M,84,0.609579100%,609.5791001451
KERIM,M,84,0.609579100%,609.5791001451
MARKO,M,84,0.609579100%,609.5791001451
DŽAN,M,77,0.558780842%,558.7808417997
DAVID,M,76,0.551523948%,551.5239477504
DŽENAN,M,71,0.515239478%,515.2394775036
HARIS,M,71,0.515239478%,515.2394775036
ARMIN,M,70,0.507982583%,507.9825834543
MAHIR,M,70,0.507982583%,507.9825834543
MATEJ,M,65,0.471698113%,471.6981132075
EDIN,M,63,0.457184325%,457.1843251089
ELDAR,M,61,0.442670537%,442.6705370102
ADI,M,58,0.420899855%,420.8998548621
PETAR,M,58,0.420899855%,420.8998548621
BILAL,M,57,0.413642961%,413.6429608128
ISMAIL,M,57,0.413642961%,413.6429608128
ADIAN,M,56,0.406386067%,406.3860667634
ALDIN,M,56,0.406386067%,406.3860667634
ADNAN,M,55,0.399129173%,399.1291727141
JOSIP,M,54,0.391872279%,391.8722786647
DANIS,M,52,0.377358491%,377.358490566
MAK,M,52,0.377358491%,377.358490566
ANTE,M,51,0.370101597%,370.1015965167
JUSUF,M,51,0.370101597%,370.1015965167
AMER,M,50,0.362844702%,362.8447024673
MAID,M,50,0.362844702%,362.8447024673
MIHAEL,M,49,0.355587808%,355.587808418
MIRZA,M,49,0.355587808%,355.587808418
IBRAHIM,M,48,0.348330914%,348.3309143687
ADEM,M,47,0.341074020%,341.0740203193
FILIP,M,47,0.341074020%,341.0740203193
ANES,M,46,0.333817126%,333.81712627
NEDIM,M,46,0.333817126%,333.81712627
BAKIR,M,44,0.319303338%,319.3033381713
DANI,M,44,0.319303338%,319.3033381713
JAKOV,M,44,0.319303338%,319.3033381713
MUSTAFA,M,44,0.319303338%,319.3033381713
AFAN,M,43,0.312046444%,312.0464441219
EMRAH,M,43,0.312046444%,312.0464441219
RIJAD,M,42,0.304789550%,304.7895500726
DEMIR,M,40,0.290275762%,290.2757619739
ELDIN,M,40,0.290275762%,290.2757619739
ENSAR,M,39,0.283018868%,283.0188679245
OMER,M,39,0.283018868%,283.0188679245
LEON,M,37,0.268505080%,268.5050798258
AMEL,M,36,0.261248186%,261.2481857765
IVANO,M,36,0.261248186%,261.2481857765
MEHMED,M,36,0.261248186%,261.2481857765
ALMIN,M,35,0.253991292%,253.9912917271
MALIK,M,35,0.253991292%,253.9912917271
DINO,M,34,0.246734398%,246.7343976778
ALEN,M,33,0.239477504%,239.4775036284
ARSLAN,M,33,0.239477504%,239.4775036284
MATEO,M,33,0.239477504%,239.4775036284
ANDREJ,M,32,0.232220610%,232.2206095791
AMMAR,M,31,0.224963716%,224.9637155298
ELMIN,M,30,0.217706821%,217.7068214804
ILHAN,M,29,0.210449927%,210.4499274311
ALEM,M,28,0.203193033%,203.1930333817
ANEL,M,27,0.195936139%,195.9361393324
REJJAN,M,27,0.195936139%,195.9361393324
AID,M,26,0.188679245%,188.679245283
DAMIR,M,26,0.188679245%,188.679245283
ERMIN,M,26,0.188679245%,188.679245283
ISHAK,M,26,0.188679245%,188.679245283
KARLO,M,26,0.188679245%,188.679245283
JASMIN,M,25,0.181422351%,181.4223512337
ADIS,M,24,0.174165457%,174.1654571843
ABDULAH,M,23,0.166908563%,166.908563135
ANUR,M,23,0.166908563%,166.908563135
EMIL,M,23,0.166908563%,166.908563135
ISMAR,M,23,0.166908563%,166.908563135
ANTONIO,M,22,0.159651669%,159.6516690856
DIN,M,22,0.159651669%,159.6516690856
GABRIJEL,M,22,0.159651669%,159.6516690856
AMINA,F,297,2.155297533%,2155.297532656
SARA,F,254,1.843251089%,1843.2510885341
EMINA,F,244,1.770682148%,1770.6821480406
LAMIJA,F,234,1.698113208%,1698.1132075472
MERJEM,F,203,1.473149492%,1473.1494920174
ASJA,F,198,1.436865022%,1436.8650217707
LEJLA,F,184,1.335268505%,1335.2685050798
AJNA,F,181,1.313497823%,1313.4978229318
EMA,F,177,1.284470247%,1284.4702467344
NEJLA,F,171,1.240928882%,1240.9288824383
ESMA,F,169,1.226415094%,1226.4150943396
AJLA,F,168,1.219158200%,1219.1582002903
HANA,F,158,1.146589260%,1146.5892597968
ADNA,F,152,1.103047896%,1103.0478955007
AJŠA,F,144,1.044992743%,1044.992743106
SAJRA,F,104,0.754716981%,754.7169811321
ALINA,F,102,0.740203193%,740.2031930334
AMNA,F,102,0.740203193%,740.2031930334
ILMA,F,99,0.718432511%,718.4325108853
ENA,F,93,0.674891147%,674.8911465893
AMILA,F,89,0.645863570%,645.8635703919
LANA,F,83,0.602322206%,602.3222060958
DŽANA,F,81,0.587808418%,587.8084179971
PETRA,F,80,0.580551524%,580.5515239478
MIA,F,78,0.566037736%,566.0377358491
ANA,F,77,0.558780842%,558.7808417997
IVA,F,73,0.529753266%,529.7532656023
NEJRA,F,73,0.529753266%,529.7532656023
MARIJA,F,72,0.522496372%,522.496371553
NEDŽLA,F,71,0.515239478%,515.2394775036
NAIDA,F,70,0.507982583%,507.9825834543
AIŠA,F,69,0.500725689%,500.7256894049
AJLIN,F,69,0.500725689%,500.7256894049
IMAN,F,67,0.486211901%,486.2119013062
AZRA,F,66,0.478955007%,478.9550072569
DŽEJLA,F,66,0.478955007%,478.9550072569
ZARA,F,64,0.464441219%,464.4412191582
SUMEJA,F,61,0.442670537%,442.6705370102
UMA,F,61,0.442670537%,442.6705370102
DALIA,F,60,0.435413643%,435.4136429608
FATIMA,F,57,0.413642961%,413.6429608128
FARAH,F,56,0.406386067%,406.3860667634
DALILA,F,55,0.399129173%,399.1291727141
TAJRA,F,54,0.391872279%,391.8722786647
ALEJNA,F,51,0.370101597%,370.1015965167
MEDINA,F,50,0.362844702%,362.8447024673
MELINA,F,50,0.362844702%,362.8447024673
ELMA,F,49,0.355587808%,355.587808418
UNA,F,49,0.355587808%,355.587808418
ANIDA,F,45,0.326560232%,326.5602322206
LEJNA,F,44,0.319303338%,319.3033381713
LUCIJA,F,44,0.319303338%,319.3033381713
NADIJA,F,43,0.312046444%,312.0464441219
NADJA,F,42,0.304789550%,304.7895500726
EJNA,F,41,0.297532656%,297.5326560232
EMMA,F,40,0.290275762%,290.2757619739
LAJLA,F,39,0.283018868%,283.0188679245
MARTA,F,39,0.283018868%,283.0188679245
JASMINA,F,38,0.275761974%,275.7619738752
AMRA,F,37,0.268505080%,268.5050798258
BELMA,F,37,0.268505080%,268.5050798258
ELENA,F,37,0.268505080%,268.5050798258
MAJRA,F,37,0.268505080%,268.5050798258
BERINA,F,36,0.261248186%,261.2481857765
NAĐA,F,36,0.261248186%,261.2481857765
ŠEJLA,F,36,0.261248186%,261.2481857765
SELMA,F,35,0.253991292%,253.9912917271
DALAL,F,34,0.246734398%,246.7343976778
ERNA,F,32,0.232220610%,232.2206095791
AYLIN,F,31,0.224963716%,224.9637155298
ILHANA,F,31,0.224963716%,224.9637155298
NAJLA,F,30,0.217706821%,217.7068214804
NORA,F,30,0.217706821%,217.7068214804
ASIJA,F,29,0.210449927%,210.4499274311
ZANA,F,29,0.210449927%,210.4499274311
LENA,F,28,0.203193033%,203.1930333817
MERJEMA,F,28,0.203193033%,203.1930333817
NADINA,F,28,0.203193033%,203.1930333817
ZERINA,F,28,0.203193033%,203.1930333817
KLARA,F,27,0.195936139%,195.9361393324
MAIDA,F,27,0.195936139%,195.9361393324
NAHLA,F,27,0.195936139%,195.9361393324
ELA,F,26,0.188679245%,188.679245283
RITA,F,26,0.188679245%,188.679245283
SARAH,F,26,0.188679245%,188.679245283
EVA,F,25,0.181422351%,181.4223512337
KANITA,F,25,0.181422351%,181.4223512337
LORENA,F,25,0.181422351%,181.4223512337
MELISA,F,25,0.181422351%,181.4223512337
NINA,F,25,0.181422351%,181.4223512337
ZEJNEB,F,25,0.181422351%,181.4223512337
ALMA,F,24,0.174165457%,174.1654571843
ELIF,F,24,0.174165457%,174.1654571843
LEA,F,24,0.174165457%,174.1654571843
EDNA,F,23,0.166908563%,166.908563135
LARA,F,23,0.166908563%,166.908563135
MATEA,F,23,0.166908563%,166.908563135
MERIMA,F,23,0.166908563%,166.908563135
AMELA,F,22,0.159651669%,159.6516690856
