NAME,COUNT,PERCENT,PROP100K,ISNOTREALCOUNT
AHMAD|احمد,1,0.01%,10,1
BACHCHAN|बच्चन,1,0.01%,10,1
BANERJEE|বন্দ্যোপাধ্যায|ব্যানার্জী,1,0.01%,10,1
CHAUDHARI|चौधरी|ચૌધરી,1,0.01%,10,1
CHAUDHRI|चौधरी,1,0.01%,10,1
CHOUDHARY|चौधरी,1,0.01%,10,1
CHOWDHURY|চৌধুরী,1,0.01%,10,1
D'CRUZ,1,0.01%,10,1
GADHAVI|ગઢવી,1,0.01%,10,1
IYER|ஐயர்,1,0.01%,10,1
JOSHI|जोशी|જોષી,1,0.01%,10,1
KORRAPATI,1,0.01%,10,1
KUMAR|कुमार|কুমার|কুমাৰ|કુમાર|କୁମାର|ਕੁਮਾਰ|குமார்|కుమార్|കുമാർ|ಕುಮಾರ್,1,0.01%,10,1
MISHRA|मिश्र,1,0.01%,10,1
NAGARKAR|नगरकर,1,0.01%,10,1
NIBHANUPUDI|నిభానుపూడి,1,0.01%,10,1
PATIL|पाटील,1,0.01%,10,1
SHARMA|शर्मा|শর্মা|শৰ্মা|શર્મા|ਸ਼ਰਮਾ|சர்மா|శర్మ|ശർമ്മ|ಶರ್ಮಾ,1,0.01%,10,1
SULTANA|سلطانہ|সুলতানা,1,0.01%,10,1
VEMULAKONDA,1,0.01%,10,1
