NAME,COUNT,PERCENT,PROP100K,ISNOTREALCOUNT
AARON,1,0.01%,10,1
ABRAHAMS,1,0.01%,10,1
ABRAMS,1,0.01%,10,1
ADAMS,1,0.01%,10,1
AMOS|עָמוֹס,1,0.01%,10,1
AVRAHAM,1,0.01%,10,1
BAUMANN,1,0.01%,10,1
BERKOWICZ,1,0.01%,10,1
BIEBER,1,0.01%,10,1
BLUMENTHAL,1,0.01%,10,1
BOHMER|BÖHMER,1,0.01%,10,1
CHAIKIN|חײקין,1,0.01%,10,1
COHEN|כֹּהֵן,1,0.01%,10,1
EZRA,1,0.01%,10,1
FELD,1,0.01%,10,1
FERMI,1,0.01%,10,1
GASS,1,0.01%,10,1
GREENBERG,1,0.01%,10,1
HABER,1,0.01%,10,1
HAYES,1,0.01%,10,1
HERSHEY,1,0.01%,10,1
HOCHBERG,1,0.01%,10,1
JAGER|JÄGER,1,0.01%,10,1
KAUFFMANN,1,0.01%,10,1
KLEID,1,0.01%,10,1
KRAKOWSKI,1,0.01%,10,1
KRANTZ,1,0.01%,10,1
LANDAU,1,0.01%,10,1
LEHRER,1,0.01%,10,1
LEVINE,1,0.01%,10,1
MAIER,1,0.01%,10,1
MANDELBAUM,1,0.01%,10,1
MAYER,1,0.01%,10,1
MEIR,1,0.01%,10,1
MENDEL,1,0.01%,10,1
MENDELSSOHN,1,0.01%,10,1
MORGENSTERN,1,0.01%,10,1
NEUMAN,1,0.01%,10,1
NUSSENBAUM,1,0.01%,10,1
OSTBERG|ÖSTBERG,1,0.01%,10,1
PASTERNACK,1,0.01%,10,1
PENSAK,1,0.01%,10,1
PENZAK,1,0.01%,10,1
PENZIK,1,0.01%,10,1
PRINZ,1,0.01%,10,1
REGENBOGEN,1,0.01%,10,1
REUTER,1,0.01%,10,1
RIESE,1,0.01%,10,1
ROSENBERG,1,0.01%,10,1
ROSENFELD,1,0.01%,10,1
ROTH,1,0.01%,10,1
ROTHSCHILD,1,0.01%,10,1
SAMSON,1,0.01%,10,1
SCHEINBERG,1,0.01%,10,1
SCHINDLER,1,0.01%,10,1
SCHNUR,1,0.01%,10,1
SCHWARZ,1,0.01%,10,1
SEGAL,1,0.01%,10,1
SHAFIR,1,0.01%,10,1
SHAPIRO,1,0.01%,10,1
SHERMAN,1,0.01%,10,1
SILVERSTEIN,1,0.01%,10,1
SISKIN,1,0.01%,10,1
SITZ,1,0.01%,10,1
SOBOL,1,0.01%,10,1
SOKOLL,1,0.01%,10,1
SOKOLOFF,1,0.01%,10,1
SOLOMON,1,0.01%,10,1
STEIN,1,0.01%,10,1
STUECK,1,0.01%,10,1
TOBIAS,1,0.01%,10,1
VANG,1,0.01%,10,1
WALDVOGEL,1,0.01%,10,1
WANG,1,0.01%,10,1
WARSZAWSKI,1,0.01%,10,1
WEXLER,1,0.01%,10,1
WIRTH,1,0.01%,10,1
ZILBERSCHLAG,1,0.01%,10,1
ZIMMERMANN,1,0.01%,10,1
