Total births:,154317
Total M:,79879
Total F:,74438
NAME,GENDER,COUNT,PERCENTAGETOTAL,PROP100K
LARA,F,1951
EMMA,F,1815
MIA,F,1789
SARA,F,1616
LAURA,F,1606
LENA,F,1465
JULIA,F,1445
ANNA,F,1422
NINA,F,1361
ALINA,F,1358
LEA,F,1352
ELENA,F,1323
SOFIA,F,1309
LEONIE,F,1244
SOPHIE,F,1185
CHIARA,F,1153
LINA,F,1110
GIULIA,F,1071
LIA,F,1043
SOPHIA,F,1042
NORA,F,1036
ELIN,F,1021
ALESSIA,F,1020
LISA,F,1006
SARAH,F,992
LIVIA,F,986
JANA,F,955
LUANA,F,924
ELISA,F,846
AMÉLIE,F,827
OLIVIA,F,812
NOEMI,F,800
ZOÉ,F,799
ELINA,F,798
EVA,F,783
SELINA,F,776
LORENA,F,765
MELINA,F,723
EMILIA,F,717
ALICE,F,698
VALENTINA,F,690
FIONA,F,686
EMILY,F,663
EMILIE,F,627
ALICIA,F,624
ELLA,F,621
JULIE,F,618
LYNN,F,609
ALINE,F,596
CHLOÉ,F,592
CLARA,F,591
LEONA,F,591
YARA,F,589
MELISSA,F,587
JAEL,F,585
VANESSA,F,573
MARIA,F,565
CHARLOTTE,F,554
MARA,F,536
JESSICA,F,524
ZOE,F,522
RONJA,F,518
LÉA,F,508
MILA,F,505
STELLA,F,494
LINDA,F,491
LADINA,F,481
LUISA,F,480
HANNA,F,462
VICTORIA,F,458
CAMILLE,F,443
ANAÏS,F,437
ANOUK,F,435
JASMIN,F,428
SARINA,F,427
SINA,F,421
LUCIE,F,420
KIM,F,411
LARISSA,F,407
AMELIE,F,393
SORAYA,F,383
ANGELINA,F,364
MARIE,F,346
ANJA,F,340
MICHELLE,F,332
LEANA,F,329
LUNA,F,325
AURORA,F,318
HANNAH,F,313
MALIN,F,313
LEANDRA,F,309
MILENA,F,263
SAMIRA,F,244
MAYA,F,232
ANA,F,230
CÉLINE,F,170
LILY,F,160
MELANIE,F,160
DIANA,F,158
AMELIA,F,158
ENYA,F,157
RAHEL,F,154
LOU,F,154
LANA,F,153
ELINE,F,153
MANON,F,152
ALEA,F,151
LILLY,F,147
BEATRIZ,F,146
LOUISE,F,87
JOHANNA,F,86
MARTINA,F,85
AMY,F,84
ISABELLA,F,77
ALENA,F,77
NICOLE,F,76
JADE,F,76
VIVIENNE,F,75
MATILDE,F,75
SALOME,F,75
MATHILDE,F,75
AMINA,F,74
MALEA,F,73
ERINA,F,72
JARA,F,72
JULIETTE,F,71
CARLA,F,70
NOELIA,F,69
HELENA,F,69
