Total births:,154317
Total M:,79879
Total F:,74438
NAME,GENDER,COUNT,PERCENTAGETOTAL,PROP100K
NOAH,M,2210
LUCA,M,2164
DAVID,M,1793
LEON,M,1629
GABRIEL,M,1561
LEANDRO,M,1449
MATTEO,M,1403
SAMUEL,M,1363
NICO,M,1303
JONAS,M,1279
JULIAN,M,1264
TIM,M,1229
LEVIN,M,1219
ELIAS,M,1200
LIAM,M,1152
DIEGO,M,1129
JAN,M,1125
DARIO,M,1105
LOUIS,M,1096
SIMON,M,1092
GIAN,M,1070
LUKAS,M,1052
ROBIN,M,1030
BENJAMIN,M,1013
BEN,M,939
FABIO,M,937
LIONEL,M,904
RAFAEL,M,904
LORIS,M,883
NICOLAS,M,879
ELIA,M,873
ALEXANDER,M,872
NILS,M,853
LUCAS,M,837
NATHAN,M,828
JOEL,M,823
LIVIO,M,822
ANDRIN,M,813
FABIAN,M,802
DANIEL,M,796
AARON,M,786
NEVIO,M,753
LEO,M,740
ALESSIO,M,737
MATTIA,M,722
FINN,M,716
LEONARDO,M,715
THOMAS,M,714
LUIS,M,690
LAURIN,M,675
NINO,M,667
KEVIN,M,664
JANIS,M,656
LARS,M,650
MARCO,M,650
LENNY,M,646
FLORIAN,M,645
TIMO,M,635
ALESSANDRO,M,634
COLIN,M,619
RAPHAEL,M,615
VALENTIN,M,611
NOÉ,M,595
MANUEL,M,593
MAXIMILIAN,M,587
MAXIME,M,567
MAX,M,564
LINUS,M,546
ARTHUR,M,542
NICK,M,530
RYAN,M,529
NOEL,M,526
ADRIAN,M,524
DYLAN,M,521
RUBEN,M,509
OLIVER,M,504
ALEXANDRE,M,503
JOSHUA,M,467
KILIAN,M,436
JONATHAN,M,429
SILVAN,M,426
EVAN,M,420
ETHAN,M,418
THÉO,M,400
NOLAN,M,394
TIAGO,M,381
LÉO,M,378
TOBIAS,M,374
FELIX,M,374
SVEN,M,373
ALEX,M,368
SEBASTIAN,M,358
LIAN,M,333
ENZO,M,296
PAUL,M,293
MAËL,M,287
MICHAEL,M,279
LORENZO,M,275
YANIS,M,271
MARC,M,213
SILAS,M,211
ADAM,M,205
LEVI,M,189
YANNICK,M,183
LUAN,M,183
MARLON,M,181
TOM,M,173
JAMIE,M,170
VINCENT,M,106
JASON,M,98
SANDRO,M,96
MAEL,M,96
MORITZ,M,94
RAYAN,M,94
RODRIGO,M,92
DAMIAN,M,90
EMIL,M,89
HUGO,M,87
DOMINIK,M,87
LUKA,M,85
LINO,M,85
PASCAL,M,84
FYNN,M,83
