NAME,GENDER,COUNT,PERCENTAGE,PROP100K
MIA,F,386
EMMA,F,376
SARA,F,316
LARA,F,309
ALINA,F,292
LAURA,F,283
NINA,F,272
JULIA,F,271
LEA,F,270
ANNA,F,267
SOFIA,F,267
SOPHIA,F,263
LENA,F,261
LEONIE,F,242
LINA,F,237
ELIN,F,233
GIULIA,F,228
SOPHIE,F,228
ELENA,F,227
LIA,F,225
EMILIA,F,209
LISA,F,200
OLIVIA,F,200
ALESSIA,F,196
CHIARA,F,193
LIVIA,F,192
NORA,F,191
VALENTINA,F,186
LUANA,F,183
ELINA,F,182
EMILY,F,174
AMÉLIE,F,173
MILA,F,171
ELISA,F,170
NOEMI,F,170
ZOÉ,F,167
JANA,F,156
ELLA,F,153
SARAH,F,149
ALICE,F,148
EVA,F,147
MELINA,F,145
LORENA,F,139
RONJA,F,134
CHARLOTTE,F,130
CHLOÉ,F,128
EMILIE,F,128
JULIE,F,128
SELINA,F,128
ALICIA,F,126
LUISA,F,122
MELISSA,F,122
CLARA,F,116
LEANA,F,116
MARA,F,116
FIONA,F,115
LYNN,F,115
HANNA,F,110
VICTORIA,F,108
JAEL,F,107
LINDA,F,107
YARA,F,107
ALINE,F,106
MARIA,F,103
LEONA,F,101
AMELIE,F,99
LÉA,F,97
STELLA,F,96
CAMILLE,F,93
MILENA,F,89
ZOE,F,89
VANESSA,F,88
LOUISE,F,87
MICHELLE,F,87
LEANDRA,F,86
MALIN,F,85
AMELIA,F,84
AMY,F,84
ANAÏS,F,82
LUCIE,F,81
ANOUK,F,80
LUNA,F,80
AURORA,F,79
MARIE,F,78
JASMIN,F,77
LADINA,F,77
SORAYA,F,75
ALEA,F,74
JESSICA,F,74
ELINE,F,73
ERINA,F,72
HANNAH,F,72
JARA,F,72
SINA,F,71
DIANA,F,70
HELENA,F,69
LANA,F,69
NOELIA,F,69
SARINA,F,69
KIM,F,68
NOAH,M,437
LUCA,M,390
LIAM,M,319
GABRIEL,M,318
LEON,M,313
DAVID,M,297
JULIAN,M,276
SAMUEL,M,263
LEANDRO,M,255
MATTEO,M,254
ELIAS,M,248
LOUIS,M,242
LEVIN,M,241
JONAS,M,236
NICO,M,231
TIM,M,227
DARIO,M,225
GIAN,M,223
SIMON,M,223
DIEGO,M,218
ROBIN,M,214
JAN,M,210
BEN,M,196
BENJAMIN,M,196
LUKAS,M,185
NINO,M,179
RAFAEL,M,177
ELIA,M,176
LEO,M,176
FABIO,M,175
LIVIO,M,174
LIONEL,M,172
LUCAS,M,171
LORIS,M,169
ALEXANDER,M,164
ANDRIN,M,161
NATHAN,M,161
MATTIA,M,159
DANIEL,M,149
FABIAN,M,148
LUIS,M,147
NICOLAS,M,145
VALENTIN,M,144
ALESSIO,M,143
LIAN,M,140
NEVIO,M,139
THOMAS,M,139
LENNY,M,137
FINN,M,136
NILS,M,136
AARON,M,135
JOEL,M,135
LAURIN,M,134
LEONARDO,M,131
LARS,M,127
ETHAN,M,123
MAXIMILIAN,M,121
THÉO,M,119
JONATHAN,M,118
COLIN,M,116
RAPHAEL,M,116
ALESSANDRO,M,115
MAX,M,114
TIMO,M,113
MAXIME,M,111
DYLAN,M,110
NOÉ,M,109
JANIS,M,108
LÉO,M,106
ADAM,M,105
NOEL,M,105
ARTHUR,M,104
FLORIAN,M,104
ENZO,M,101
OLIVER,M,100
LEVI,M,99
JASON,M,98
LINUS,M,98
MANUEL,M,98
KEVIN,M,96
MAEL,M,96
MARCO,M,96
RAYAN,M,94
LUAN,M,93
MAËL,M,93
MARLON,M,93
TOBIAS,M,93
RYAN,M,92
FELIX,M,91
NICK,M,91
ADRIAN,M,90
DAMIAN,M,90
SEBASTIAN,M,90
ALEXANDRE,M,89
EMIL,M,89
JOSHUA,M,89
KILIAN,M,89
RUBEN,M,89
LORENZO,M,87
TOM,M,85
