Total births:,318833
Total M:,166278
Total F:,152555
NAME,GENDER,COUNT,PERCENTAGETOTAL,PROP100K
DAAN,M,3666
SEM,M,3597
SOPHIE,F,3542
EMMA,F,3521
LUCAS,M,3505
MILAN,M,3438
BRAM,M,3384
JULIA,F,3352
FINN,M,3301
LEVI,M,3273
LUUK,M,3259
TESS,F,3175
NOAH,M,3058
ANNA,F,3007
JESSE,M,2977
LIAM,M,2893
EVA,F,2807
MILA,F,2782
THIJS,M,2774
THOMAS,M,2730
SARA,F,2718
LOTTE,F,2689
MAX,M,2680
LISA,F,2647
ZOË,F,2641
TIM,M,2628
FENNA,F,2623
JAYDEN,M,2592
RUBEN,M,2524
EVI,F,2522
LYNN,F,2515
LARS,M,2513
ISA,F,2506
JULIAN,M,2479
FLEUR,F,2437
SAM,M,2430
SAAR,F,2428
MEES,M,2369
STIJN,M,2339
LIEKE,F,2310
SARAH,F,2250
NOA,F,2225
ROOS,F,2179
ADAM,M,2073
BENJAMIN,M,2046
MAUD,F,2040
GIJS,M,2012
SVEN,M,1982
SIEM,M,1976
TEUN,M,1968
LIV,F,1917
NORA,F,1915
SANNE,F,1901
NOOR,F,1876
OLIVIA,F,1874
LUCA,M,1872
MATS,M,1860
ELIN,F,1816
JENS,M,1810
JAN,M,1806
HUGO,M,1796
NOUD,M,1758
TIJN,M,1750
NINA,F,1749
YARA,F,1744
TYGO,M,1739
SOFIE,F,1720
DAVID,M,1690
RYAN,M,1684
DEX,M,1653
FEMKE,F,1648
ESMEE,F,1640
FLORIS,M,1611
JASMIJN,F,1607
AMY,F,1586
ANNE,F,1584
VINCE,M,1579
MILOU,F,1572
CAS,M,1537
OLIVIER,M,1521
BOAZ,M,1508
NOVA,F,1441
NAOMI,F,1439
GUUS,M,1418
FELINE,F,1408
JURRE,M,1404
JOEP,M,1404
DANIËL,M,1399
TOM,M,1397
TIES,M,1380
JACK,M,1357
LOÏS,F,1341
PEPIJN,M,1325
LAUREN,F,1318
ELISE,F,1309
LIZ,F,1307
ROAN,M,1297
LINA,F,1282
WILLEM,M,1279
EMILY,F,1279
PIM,M,1276
JILL,F,1246
DEAN,M,1244
DYLAN,M,1244
IRIS,F,1242
VERA,F,1241
ELINE,F,1230
ISABELLA,F,1214
CHARLOTTE,F,1213
HANNAH,F,1211
FLOOR,F,1209
JASON,M,1206
LUNA,F,1203
MOHAMED,M,1198
THIJMEN,M,1197
MARIA,F,1191
FENNE,F,1179
LIZZY,F,1167
BENTHE,F,1167
DANI,M,1153
AMBER,F,1147
TESSA,F,1136
SOPHIA,F,1134
STAN,M,1130
KOEN,M,1129
JULIE,F,1126
EVY,F,1117
LARA,F,1111
NIEK,M,1110
FEDDE,M,1106
ISABEL,F,1099
LANA,F,1098
JOHANNES,M,1096
SOFIA,F,1085
NORAH,F,1078
HIDDE,M,1075
ELLA,F,1069
RAYAN,M,1067
SAMUEL,M,1065
LENA,F,1059
XAVI,M,1057
MOHAMMED,M,1055
TOBIAS,M,1054
QUINN,M,1053
NATHAN,M,1041
NIKKI,F,1038
MASON,M,1025
SUZE,F,1014
SENN,M,1010
ALEXANDER,M,1009
FAY,F,995
VEERLE,F,995
JORIS,M,988
BO,F,983
ROSALIE,F,979
MICK,M,970
CASPER,M,954
JAMES,M,936
LAURA,F,935
JOSHUA,M,933
JASPER,M,925
NICK,M,907
NIELS,M,887
BAS,M,883
PIETER,M,864
FIENE,F,862
MEREL,F,834
JELLE,M,830
ELIF,F,822
ANOUK,F,795
MORRIS,M,782
ROBIN,M,782
JOEY,M,770
FIEN,F,751
LOLA,F,751
OWEN,M,750
SIMON,M,749
LINDE,F,747
SENNA,F,725
ELENA,F,690
ROSA,F,684
JOHANNA,F,683
DAMIAN,M,665
AIDEN,M,603
BENTE,F,587
KYAN,M,581
ABEL,M,554
PUCK,F,550
MIRTHE,F,542
JIP,M,539
RENS,M,535
CORNELIS,M,521
LISE,F,520
ILSE,F,518
FEM,F,509
SUUS,F,508
STERRE,F,504
TIMO,M,432
DALEY,M,429
JAX,M,428
IVY,F,387
MIA,F,373
HENDRIK,M,372
NIENKE,F,371
HAILEY,F,371
JACE,M,371
ROMY,F,369
JOB,M,360
ISIS,F,360
KAI,M,358
AMIRA,F,354
HANNA,F,352
MARIT,F,352
STEF,M,345
FABIAN,M,343
DEMI,F,343
INDY,F,341
LIZE,F,337
CATO,F,333
MIKE,M,332
ELISA,F,321
JADE,F,308
KATE,F,298
QUINTEN,M,217
OSCAR,M,200
BORIS,M,200
DUUK,M,188
JUSTIN,M,183
KEANO,M,183
JAYLINN,F,181
VAJÈN,F,174
SEP,M,174
PIP,F,171
SEPP,M,169
MELLE,M,168
DANIEL,M,165
KIKI,F,161
LIVIA,F,158
ISABELLE,F,156
LILY,F,155
