Total births:,318833,,,
Total M:,166278,,,
Total F:,152555,,,
NAME,GENDER,COUNT,PERCENT,PROP100K
DAAN,M,3666,1.149818243%,1149.8182434064
SEM,M,3597,1.128176820%,1128.1768198399
SOPHIE,F,3542,1.110926410%,1110.9264097506
EMMA,F,3521,1.104339890%,1104.3398895347
LUCAS,M,3505,1.099321588%,1099.3215884178
MILAN,M,3438,1.078307452%,1078.3074524908
BRAM,M,3384,1.061370686%,1061.3706862213
JULIA,F,3352,1.051334084%,1051.3340839876
FINN,M,3301,1.035338249%,1035.3382491775
LEVI,M,3273,1.026556222%,1026.5562222229
LUUK,M,3259,1.022165209%,1022.1652087457
TESS,F,3175,0.995819128%,995.8191278820
NOAH,M,3058,0.959122801%,959.1228009648
ANNA,F,3007,0.943126966%,943.1269661547
JESSE,M,2977,0.933717652%,933.7176515605
LIAM,M,2893,0.907371571%,907.3715706969
EVA,F,2807,0.880398202%,880.3982021936
MILA,F,2782,0.872557107%,872.5571066985
THIJS,M,2774,0.870047956%,870.0479561400
THOMAS,M,2730,0.856247628%,856.2476280686
SARA,F,2718,0.852483902%,852.4839022309
LOTTE,F,2689,0.843388231%,843.3882314566
MAX,M,2680,0.840565437%,840.5654370783
LISA,F,2647,0.830215191%,830.2151910248
ZOË,F,2641,0.828333328%,828.3333281059
TIM,M,2628,0.824255958%,824.2559584485
FENNA,F,2623,0.822687739%,822.6877393494
JAYDEN,M,2592,0.812964781%,812.9647809355
RUBEN,M,2524,0.791637001%,791.6370011887
EVI,F,2522,0.791009714%,791.0097135491
LYNN,F,2515,0.788814207%,788.8142068105
LARS,M,2513,0.788186919%,788.1869191709
ISA,F,2506,0.785991412%,785.9914124322
JULIAN,M,2479,0.777523029%,777.5230292975
FLEUR,F,2437,0.764349989%,764.3499888656
SAM,M,2430,0.762154482%,762.1544821270
SAAR,F,2428,0.761527194%,761.5271944874
MEES,M,2369,0.743022209%,743.0222091189
STIJN,M,2339,0.733612895%,733.6128945247
LIEKE,F,2310,0.724517224%,724.5172237504
SARAH,F,2250,0.705698595%,705.6985945620
NOA,F,2225,0.697857499%,697.8574990669
ROOS,F,2179,0.683429883%,683.4298833559
ADAM,M,2073,0.650183638%,650.1836384565
BENJAMIN,M,2046,0.641715255%,641.7152553218
MAUD,F,2040,0.639833392%,639.8333924029
GIJS,M,2012,0.631051365%,631.0513654484
SVEN,M,1982,0.621642051%,621.6420508542
SIEM,M,1976,0.619760188%,619.7601879354
TEUN,M,1968,0.617251037%,617.2510373769
LIV,F,1917,0.601255203%,601.2552025669
NORA,F,1915,0.600627915%,600.6279149273
SANNE,F,1901,0.596236901%,596.2369014500
NOOR,F,1876,0.588395806%,588.3958059548
OLIVIA,F,1874,0.587768518%,587.7685183152
LUCA,M,1872,0.587141231%,587.1412306756
MATS,M,1860,0.583377505%,583.3775048380
ELIN,F,1816,0.569577177%,569.5771767665
JENS,M,1810,0.567695314%,567.6953138477
JAN,M,1806,0.566440739%,566.4407385685
HUGO,M,1796,0.563304300%,563.3043003704
NOUD,M,1758,0.551385835%,551.3858352178
TIJN,M,1750,0.548876685%,548.8766846594
NINA,F,1749,0.548563041%,548.5630408396
YARA,F,1744,0.546994822%,546.9948217405
TYGO,M,1739,0.545426603%,545.4266026415
SOFIE,F,1720,0.539467370%,539.4673700652
DAVID,M,1690,0.530058055%,530.0580554710
RYAN,M,1684,0.528176193%,528.1761925522
DEX,M,1653,0.518453234%,518.4532341382
FEMKE,F,1648,0.516885015%,516.8850150392
ESMEE,F,1640,0.514375864%,514.3758644808
FLORIS,M,1611,0.505280194%,505.2801937064
JASMIJN,F,1607,0.504025618%,504.0256184272
AMY,F,1586,0.497439098%,497.4390982113
ANNE,F,1584,0.496811811%,496.8118105717
VINCE,M,1579,0.495243591%,495.2435914727
MILOU,F,1572,0.493048085%,493.0480847340
CAS,M,1537,0.482070551%,482.0705510408
OLIVIER,M,1521,0.477052250%,477.0522499239
BOAZ,M,1508,0.472974880%,472.9748802665
NOVA,F,1441,0.451960744%,451.9607443395
NAOMI,F,1439,0.451333457%,451.3334566999
GUUS,M,1418,0.444746936%,444.7469364840
FELINE,F,1408,0.441610498%,441.6104982859
JURRE,M,1404,0.440355923%,440.3559230067
JOEP,M,1404,0.440355923%,440.3559230067
DANIËL,M,1399,0.438787704%,438.7877039077
TOM,M,1397,0.438160416%,438.1604162681
TIES,M,1380,0.432828471%,432.8284713314
JACK,M,1357,0.425614663%,425.6146634759
LOÏS,F,1341,0.420596362%,420.5963623590
PEPIJN,M,1325,0.415578061%,415.5780612421
LAUREN,F,1318,0.413382555%,413.3825545035
ELISE,F,1309,0.410559760%,410.5597601252
LIZ,F,1307,0.409932472%,409.9324724856
ROAN,M,1297,0.406796034%,406.7960342875
LINA,F,1282,0.402091377%,402.0913769905
WILLEM,M,1279,0.401150446%,401.1504455310
EMILY,F,1279,0.401150446%,401.1504455310
PIM,M,1276,0.400209514%,400.2095140716
JILL,F,1246,0.390800199%,390.8001994775
DEAN,M,1244,0.390172912%,390.1729118379
DYLAN,M,1244,0.390172912%,390.1729118379
IRIS,F,1242,0.389545624%,389.5456241982
VERA,F,1241,0.389231980%,389.2319803784
ELINE,F,1230,0.385781898%,385.7818983606
ISABELLA,F,1214,0.380763597%,380.7635972437
CHARLOTTE,F,1213,0.380449953%,380.4499534239
HANNAH,F,1211,0.379822666%,379.8226657843
FLOOR,F,1209,0.379195378%,379.1953781447
JASON,M,1206,0.378254447%,378.2544466853
LUNA,F,1203,0.377313515%,377.3135152258
MOHAMED,M,1198,0.375745296%,375.7452961268
THIJMEN,M,1197,0.375431652%,375.4316523070
MARIA,F,1191,0.373549789%,373.5497893882
FENNE,F,1179,0.369786064%,369.7860635505
LIZZY,F,1167,0.366022338%,366.0223377128
BENTHE,F,1167,0.366022338%,366.0223377128
DANI,M,1153,0.361631324%,361.6313242356
AMBER,F,1147,0.359749461%,359.7494613167
TESSA,F,1136,0.356299379%,356.2993792989
SOPHIA,F,1134,0.355672092%,355.6720916593
STAN,M,1130,0.354417516%,354.4175163800
KOEN,M,1129,0.354103873%,354.1038725602
JULIE,F,1126,0.353162941%,353.1629411008
EVY,F,1117,0.350340147%,350.3401467226
LARA,F,1111,0.348458284%,348.4582838037
NIEK,M,1110,0.348144640%,348.1446399839
FEDDE,M,1106,0.346890065%,346.8900647047
ISABEL,F,1099,0.344694558%,344.6945579661
LANA,F,1098,0.344380914%,344.3809141463
JOHANNES,M,1096,0.343753627%,343.7536265067
SOFIA,F,1085,0.340303544%,340.3035444888
NORAH,F,1078,0.338108038%,338.1080377502
HIDDE,M,1075,0.337167106%,337.1671062908
ELLA,F,1069,0.335285243%,335.2852433719
RAYAN,M,1067,0.334657956%,334.6579557323
SAMUEL,M,1065,0.334030668%,334.0306680927
LENA,F,1059,0.332148805%,332.1488051739
XAVI,M,1057,0.331521518%,331.5215175343
MOHAMMED,M,1055,0.330894230%,330.8942298946
TOBIAS,M,1054,0.330580586%,330.5805860748
QUINN,M,1053,0.330266942%,330.2669422550
NATHAN,M,1041,0.326503216%,326.5032164174
NIKKI,F,1038,0.325562285%,325.5622849580
MASON,M,1025,0.321484915%,321.4849153005
SUZE,F,1014,0.318034833%,318.0348332826
SENN,M,1010,0.316780258%,316.7802580034
ALEXANDER,M,1009,0.316466614%,316.4666141836
FAY,F,995,0.312075601%,312.0756007063
VEERLE,F,995,0.312075601%,312.0756007063
JORIS,M,988,0.309880094%,309.8800939677
BO,F,983,0.308311875%,308.3118748687
ROSALIE,F,979,0.307057300%,307.0572995894
MICK,M,970,0.304234505%,304.2345052112
CASPER,M,954,0.299216204%,299.2162040943
JAMES,M,936,0.293570615%,293.5706153378
LAURA,F,935,0.293256972%,293.2569715180
JOSHUA,M,933,0.292629684%,292.6296838784
JASPER,M,925,0.290120533%,290.1205333200
NICK,M,907,0.284474945%,284.4749445635
NIELS,M,887,0.278202068%,278.2020681673
BAS,M,883,0.276947493%,276.9474928881
PIETER,M,864,0.270988260%,270.9882603118
FIENE,F,862,0.270360973%,270.3609726722
MEREL,F,834,0.261578946%,261.5789457177
JELLE,M,830,0.260324370%,260.3243704384
ELIF,F,822,0.257815220%,257.8152198800
ANOUK,F,795,0.249346837%,249.3468367453
MORRIS,M,782,0.245269467%,245.2694670878
ROBIN,M,782,0.245269467%,245.2694670878
JOEY,M,770,0.241505741%,241.5057412501
FIEN,F,751,0.235546509%,235.5465086738
LOLA,F,751,0.235546509%,235.5465086738
OWEN,M,750,0.235232865%,235.2328648540
SIMON,M,749,0.234919221%,234.9192210342
LINDE,F,747,0.234291933%,234.2919333946
SENNA,F,725,0.227391769%,227.3917693589
ELENA,F,690,0.216414236%,216.4142356657
ROSA,F,684,0.214532373%,214.5323727469
JOHANNA,F,683,0.214218729%,214.2187289271
DAMIAN,M,665,0.208573140%,208.5731401706
AIDEN,M,603,0.189127223%,189.1272233426
BENTE,F,587,0.184108922%,184.1089222257
KYAN,M,581,0.182227059%,182.2270593069
ABEL,M,554,0.173758676%,173.7586761722
PUCK,F,550,0.172504101%,172.5041008929
MIRTHE,F,542,0.169994950%,169.9949503345
JIP,M,539,0.169054019%,169.0540188751
RENS,M,535,0.167799444%,167.7994435959
CORNELIS,M,521,0.163408430%,163.4084301186
LISE,F,520,0.163094786%,163.0947862988
ILSE,F,518,0.162467499%,162.4674986592
FEM,F,509,0.159644704%,159.6447042809
SUUS,F,508,0.159331060%,159.3310604611
STERRE,F,504,0.158076485%,158.0764851819
TIMO,M,432,0.135494130%,135.4941301559
DALEY,M,429,0.134553199%,134.5531986965
JAX,M,428,0.134239555%,134.2395548767
IVY,F,387,0.121380158%,121.3801582647
MIA,F,373,0.116989145%,116.9891447874
HENDRIK,M,372,0.116675501%,116.6755009676
NIENKE,F,371,0.116361857%,116.3618571478
HAILEY,F,371,0.116361857%,116.3618571478
JACE,M,371,0.116361857%,116.3618571478
ROMY,F,369,0.115734570%,115.7345695082
JOB,M,360,0.112911775%,112.9117751299
ISIS,F,360,0.112911775%,112.9117751299
KAI,M,358,0.112284487%,112.2844874903
AMIRA,F,354,0.111029912%,111.0299122111
HANNA,F,352,0.110402625%,110.4026245715
MARIT,F,352,0.110402625%,110.4026245715
STEF,M,345,0.108207118%,108.2071178328
FABIAN,M,343,0.107579830%,107.5798301932
DEMI,F,343,0.107579830%,107.5798301932
INDY,F,341,0.106952543%,106.9525425536
LIZE,F,337,0.105697967%,105.6979672744
CATO,F,333,0.104443392%,104.4433919952
MIKE,M,332,0.104129748%,104.1297481754
ELISA,F,321,0.100679666%,100.6796661575
JADE,F,308,0.096602297%,96.6022965000
KATE,F,298,0.093465858%,93.4658583020
QUINTEN,M,217,0.068060709%,68.0607088978
OSCAR,M,200,0.062728764%,62.7287639611
BORIS,M,200,0.062728764%,62.7287639611
DUUK,M,188,0.058965038%,58.9650381234
JUSTIN,M,183,0.057396819%,57.3968190244
KEANO,M,183,0.057396819%,57.3968190244
JAYLINN,F,181,0.056769531%,56.7695313848
VAJÈN,F,174,0.054574025%,54.5740246461
SEP,M,174,0.054574025%,54.5740246461
PIP,F,171,0.053633093%,53.6330931867
SEPP,M,169,0.053005806%,53.0058055471
MELLE,M,168,0.052692162%,52.6921617273
DANIEL,M,165,0.051751230%,51.7512302679
KIKI,F,161,0.050496655%,50.4966549887
LIVIA,F,158,0.049555724%,49.5557235292
ISABELLE,F,156,0.048928436%,48.9284358896
LILY,F,155,0.048614792%,48.6147920698
