Total births:,1925089
Total M:,992995
Total F:,932094
NAME,GENDER,COUNT,PERCENTAGETOTAL,PROP100K
JULIA,F,62563
JAKUB,M,58218
LENA,F,51511
MAJA,F,50750
ZUZANNA,F,46637
KACPER,M,41555
SZYMON,M,40973
FILIP,M,40468
WIKTORIA,F,33037
AMELIA,F,32917
ALEKSANDRA,F,31489
JAN,M,30847
MICHAŁ,M,30697
OLIWIA,F,30030
NATALIA,F,29811
ZOFIA,F,29174
ANTONI,M,28205
MATEUSZ,M,28100
HANNA,F,26848
BARTOSZ,M,26557
WOJCIECH,M,25800
ADAM,M,25746
PIOTR,M,23199
ALICJA,F,22701
MIKOŁAJ,M,22402
ALEKSANDER,M,22357
WIKTOR,M,21930
IGOR,M,20929
NIKOLA,F,20923
FRANCISZEK,M,20124
EMILIA,F,19930
DAWID,M,19480
MARIA,F,18977
ANNA,F,18731
MARCEL,M,18028
MARTYNA,F,17673
GABRIELA,F,16616
MACIEJ,M,16511
NADIA,F,16116
OSKAR,M,15184
KAROL,M,14948
DOMINIK,M,14883
ALAN,M,14369
MILENA,F,14165
OLIWIER,M,14065
MAGDALENA,F,14000
WERONIKA,F,13677
MAKSYMILIAN,M,13674
PAWEŁ,M,13562
TOMASZ,M,13469
KAROLINA,F,13456
PATRYK,M,13443
KRZYSZTOF,M,13019
ANTONINA,F,12510
LAURA,F,12401
KAMIL,M,12267
HUBERT,M,12065
MIŁOSZ,M,12042
STANISŁAW,M,12012
NIKODEM,M,11256
BARTŁOMIEJ,M,10169
AGATA,F,9718
SEBASTIAN,M,9544
PAULINA,F,8938
ADRIAN,M,8482
PATRYCJA,F,8383
POLA,F,8370
KINGA,F,8357
KORNELIA,F,8275
GABRIEL,M,8013
FABIAN,M,7981
MARTA,F,7878
KRYSTIAN,M,7772
MICHALINA,F,7747
LILIANA,F,7703
KSAWERY,M,7371
KLAUDIA,F,7174
KATARZYNA,F,7157
TYMOTEUSZ,M,7138
IGA,F,7127
JULIAN,M,7112
ŁUKASZ,M,6984
NINA,F,6975
MAŁGORZATA,F,6851
LEON,M,6810
JAGODA,F,6726
DOMINIKA,F,6318
TYMON,M,6172
BARBARA,F,6161
JOANNA,F,6097
MARCIN,M,6091
IGNACY,M,5786
BŁAŻEJ,M,5569
HELENA,F,5405
DAMIAN,M,5389
DANIEL,M,5232
BLANKA,F,5172
MARCELINA,F,4893
BORYS,M,4833
IZABELA,F,4831
ARTUR,M,4582
KONRAD,M,4562
NATAN,M,4534
EWA,F,4506
KAJA,F,4479
DARIA,F,4403
ŁUCJA,F,4249
KAMILA,F,4116
RAFAŁ,M,4044
GRZEGORZ,M,3973
OLAF,M,3945
SANDRA,F,3893
KAJETAN,M,3872
PRZEMYSŁAW,M,3781
ERYK,M,3761
KUBA,M,3760
ROKSANA,F,3712
OLGA,F,3500
SARA,F,3432
MALWINA,F,3378
KALINA,F,3300
NATASZA,F,3261
OLIVIER,M,3139
ANASTAZJA,F,3106
JUSTYNA,F,2991
KLARA,F,2928
RADOSŁAW,M,2882
MATYLDA,F,2809
ELIZA,F,2635
ROBERT,M,2608
URSZULA,F,2599
CEZARY,M,2553
ADRIANNA,F,2539
ALEX,M,2490
MAREK,M,2468
LILIANNA,F,2370
NICOLA,F,2347
TOBIASZ,M,2292
NATANIEL,M,2256
AGNIESZKA,F,2236
BRUNO,M,2227
GRACJAN,M,2190
OLIVIA,F,2178
DOROTA,F,2162
ANIELA,F,2162
MONIKA,F,2162
EMIL,M,2128
KORNEL,M,2121
ALEKS,M,2093
MARIKA,F,2085
KARINA,F,2038
VANESSA,F,2025
LIDIA,F,1993
ARKADIUSZ,M,1926
NORBERT,M,1859
RÓŻA,F,1789
NELA,F,1783
ALEXANDER,M,1714
ANDRZEJ,M,1669
WITOLD,M,1666
VICTORIA,F,1592
LIWIA,F,1584
MARIANNA,F,1540
JACEK,M,1539
BRAJAN,M,1523
DORIAN,M,1498
MARLENA,F,1474
ROZALIA,F,1461
SEWERYN,M,1426
JULITA,F,1409
JERZY,M,1382
EWELINA,F,1349
DAGMARA,F,1303
TADEUSZ,M,1294
AURELIA,F,1284
BIANKA,F,1250
OLIVER,M,1235
ADA,F,1210
CYPRIAN,M,1210
IWO,M,1200
JULIUSZ,M,1128
JĘDRZEJ,M,1094
SONIA,F,1090
ANITA,F,1079
JESSICA,F,1019
NICOLE,F,976
ANGELIKA,F,874
RYSZARD,M,795
SYLWIA,F,792
ELENA,F,776
ALBERT,M,755
DARIUSZ,M,721
DAVID,M,694
MIESZKO,M,644
MAYA,F,643
SAMUEL,M,638
STEFAN,M,625
DIANA,F,528
MILAN,M,517
MARIUSZ,M,487
INGA,F,474
JUDYTA,F,443
LEONARD,M,390
TATIANA,F,389
KEVIN,M,382
JÓZEF,M,375
REMIGIUSZ,M,369
JEREMI,M,342
MIA,F,328
ELŻBIETA,F,303
GUSTAW,M,226
KONSTANTY,M,219
EMMA,F,209
KAZIMIERZ,M,184
JULIANNA,F,182
XAVIER,M,176
MAGDA,F,173
APOLONIA,F,151
MELANIA,F,144
