NAME,COUNT,PERCENT,PROP100K,ISNOTREALCOUNT
AHEARN,1,0.01%,10,1
BEIRNE,1,0.01%,10,1
BOYLE,1,0.01%,10,1
BRADY,1,0.01%,10,1
BREEN,1,0.01%,10,1
BROGAN,1,0.01%,10,1
BURKE,1,0.01%,10,1
BUTLER,1,0.01%,10,1
BYRNES,1,0.01%,10,1
CALLAHAN,1,0.01%,10,1
CAREY,1,0.01%,10,1
CARRAN,1,0.01%,10,1
CARY,1,0.01%,10,1
CASSIDY,1,0.01%,10,1
CAVANAGH,1,0.01%,10,1
CAVANAUGH,1,0.01%,10,1
CLEARY,1,0.01%,10,1
CODY,1,0.01%,10,1
COLEMAN,1,0.01%,10,1
CONNELL,1,0.01%,10,1
CONNOLLY,1,0.01%,10,1
COONEY,1,0.01%,10,1
COUGHLAN,1,0.01%,10,1
CULLEN,1,0.01%,10,1
CURRAN,1,0.01%,10,1
DALY,1,0.01%,10,1
DAVIN,1,0.01%,10,1
DEASUN,1,0.01%,10,1
DELANY,1,0.01%,10,1
DERMOTT,1,0.01%,10,1
DEVIN,1,0.01%,10,1
DEVLIN,1,0.01%,10,1
DOLAN,1,0.01%,10,1
DONNE,1,0.01%,10,1
DONNELLY,1,0.01%,10,1
DONOHOE,1,0.01%,10,1
DONOVAN,1,0.01%,10,1
DOUGHERTY,1,0.01%,10,1
DRISCOLL,1,0.01%,10,1
DUFFY,1,0.01%,10,1
DUNN,1,0.01%,10,1
FANNON,1,0.01%,10,1
FERGUSON,1,0.01%,10,1
FINNEGAN,1,0.01%,10,1
FITZGERALD,1,0.01%,10,1
FITZSIMMONS,1,0.01%,10,1
FLANAGON,1,0.01%,10,1
FOLEY,1,0.01%,10,1
FYLAN,1,0.01%,10,1
GORMAN,1,0.01%,10,1
HADEN,1,0.01%,10,1
HANEGAN,1,0.01%,10,1
HANNIGAN,1,0.01%,10,1
HAYDEN,1,0.01%,10,1
HEARN,1,0.01%,10,1
HICKEY,1,0.01%,10,1
HINES,1,0.01%,10,1
HUGHES,1,0.01%,10,1
HYNES,1,0.01%,10,1
KAVANAGH,1,0.01%,10,1
KAVANAUGH,1,0.01%,10,1
KEEFE,1,0.01%,10,1
KELLEY,1,0.01%,10,1
KENNEDY,1,0.01%,10,1
KILLOUGH,1,0.01%,10,1
LANNON,1,0.01%,10,1
LENNON,1,0.01%,10,1
MAC ALASTAIR,1,0.01%,10,1
MAC AN BHAIRD,1,0.01%,10,1
MAC AODHA,1,0.01%,10,1
MAC BRANAIN,1,0.01%,10,1
MAC CABA,1,0.01%,10,1
MACCARRICK,1,0.01%,10,1
MAC CLEIRICH,1,0.01%,10,1
MACCLELLAND,1,0.01%,10,1
MAC CNAIMHIN,1,0.01%,10,1
MACCONNELL,1,0.01%,10,1
MACCOUGHLAN,1,0.01%,10,1
MACDERMOTT,1,0.01%,10,1
MAC DIARMADA,1,0.01%,10,1
MAC DUIBHSHITHE,1,0.01%,10,1
MACFARLAND,1,0.01%,10,1
MAC GHABHANN,1,0.01%,10,1
MAC GIOLLA BHRIGHDE,1,0.01%,10,1
MAC GIOLLA EOIN,1,0.01%,10,1
MACGOWAN,1,0.01%,10,1
MACGUINNESS,1,0.01%,10,1
MACIOMHAIR,1,0.01%,10,1
MACKAY,1,0.01%,10,1
MAC MAGHNUIS,1,0.01%,10,1
MAC MATHGHAMHNA,1,0.01%,10,1
MAC NEACHTAIN,1,0.01%,10,1
MAC NEILL,1,0.01%,10,1
MAC NIADH,1,0.01%,10,1
MAC PHARLAIN,1,0.01%,10,1
MACRAE,1,0.01%,10,1
MAC RUAIDHRI,1,0.01%,10,1
MAC SITHIGH,1,0.01%,10,1
MAC UILEAGOID,1,0.01%,10,1
MADIGAN,1,0.01%,10,1
MAGEE,1,0.01%,10,1
MAG RAITH,1,0.01%,10,1
MAG UIDHIR,1,0.01%,10,1
MAHONEY,1,0.01%,10,1
MALLON,1,0.01%,10,1
MALONE,1,0.01%,10,1
MCADAMS,1,0.01%,10,1
MCALISTER,1,0.01%,10,1
MCCABE,1,0.01%,10,1
MCCLEARY,1,0.01%,10,1
MCCLELLAND,1,0.01%,10,1
MCCORMICK,1,0.01%,10,1
MCCRAE,1,0.01%,10,1
MCCRORY,1,0.01%,10,1
MCDERMOTT,1,0.01%,10,1
MCELLIGOTT,1,0.01%,10,1
MCFARLANE,1,0.01%,10,1
MCGEE,1,0.01%,10,1
MCGINNIS,1,0.01%,10,1
MCGOWAN,1,0.01%,10,1
MCGUIRE,1,0.01%,10,1
MCKAY,1,0.01%,10,1
MCLAIN,1,0.01%,10,1
MCMAHON,1,0.01%,10,1
MCNAB,1,0.01%,10,1
MCNAMARA,1,0.01%,10,1
MCNEAL,1,0.01%,10,1
MCNEIL,1,0.01%,10,1
MCNIALL,1,0.01%,10,1
MCNIVEN,1,0.01%,10,1
MCQUEEN,1,0.01%,10,1
MCREYNOLDS,1,0.01%,10,1
MCTAGGART,1,0.01%,10,1
MILLIGAN,1,0.01%,10,1
MOFFETT,1,0.01%,10,1
MOLLOWN,1,0.01%,10,1
MOLONEY,1,0.01%,10,1
MONAHAN,1,0.01%,10,1
MOONEY,1,0.01%,10,1
MORRIS,1,0.01%,10,1
MULLEN,1,0.01%,10,1
MULLINS,1,0.01%,10,1
MULRENNAN,1,0.01%,10,1
MURDOCK,1,0.01%,10,1
NEIL,1,0.01%,10,1
NEVIN,1,0.01%,10,1
NEWELL,1,0.01%,10,1
NOLAN,1,0.01%,10,1
O'BEIRNE,1,0.01%,10,1
O'BOYLE,1,0.01%,10,1
O BRADAIN,1,0.01%,10,1
O BRAONAIN,1,0.01%,10,1
O'BRIAN,1,0.01%,10,1
O BROIN,1,0.01%,10,1
O'BYRNE,1,0.01%,10,1
O'CALLAGHAN,1,0.01%,10,1
O CAOIMHAIN,1,0.01%,10,1
O CATHAIN,1,0.01%,10,1
O CEALLACHAIN,1,0.01%,10,1
O CEARMADA,1,0.01%,10,1
O CIARDHA,1,0.01%,10,1
O CLEIRIGH,1,0.01%,10,1
O CNAIMHIN,1,0.01%,10,1
O COIGLIGH,1,0.01%,10,1
O CONAILL,1,0.01%,10,1
O CONGHALAIGH,1,0.01%,10,1
O'CONNOR,1,0.01%,10,1
O CORRAIDHIN,1,0.01%,10,1
O CUIDIGHTHIGH,1,0.01%,10,1
O CUINN,1,0.01%,10,1
O DAMHAIN,1,0.01%,10,1
O DIOMASAIGH,1,0.01%,10,1
O DOIBHILIN,1,0.01%,10,1
O DOMHNAILL,1,0.01%,10,1
O DONNDUBHAIN,1,0.01%,10,1
O DONNGHAILE,1,0.01%,10,1
O DUBHAIN,1,0.01%,10,1
O DUBHSHLAIN,1,0.01%,10,1
O DUBHTHAIGH,1,0.01%,10,1
O FEARGHAIL,1,0.01%,10,1
O FIONNAIN,1,0.01%,10,1
O FLOINN,1,0.01%,10,1
O GALLCHOBHAIR,1,0.01%,10,1
O'GORMAN,1,0.01%,10,1
O'HANEGAN,1,0.01%,10,1
O'HANNAGAIN,1,0.01%,10,1
O'HANNAGAN,1,0.01%,10,1
O'HANNIGAIN,1,0.01%,10,1
O HAODHA,1,0.01%,10,1
O HEACHTHIGHEARNA,1,0.01%,10,1
O'HEARN,1,0.01%,10,1
O HEIDHIN,1,0.01%,10,1
O HEIDIRSCEOIL,1,0.01%,10,1
O HIFEARNAIN,1,0.01%,10,1
O HUIGINN,1,0.01%,10,1
O'KEEFE,1,0.01%,10,1
O LEANNAIN,1,0.01%,10,1
O LOINGSIGH,1,0.01%,10,1
O MADAIDHIN,1,0.01%,10,1
O'MALLEY,1,0.01%,10,1
O MAOIL EOIN,1,0.01%,10,1
O MAOILSHEACHLAINN,1,0.01%,10,1
O MAOL AODHA,1,0.01%,10,1
O MAOLMHUAIDH,1,0.01%,10,1
O MARCAIGH,1,0.01%,10,1
O MEADHRA,1,0.01%,10,1
O MOCHAIN,1,0.01%,10,1
O MUIRCHEARTACH,1,0.01%,10,1
O'NEAL,1,0.01%,10,1
O NEILL,1,0.01%,10,1
O NUALLAIN,1,0.01%,10,1
O RAGHAILLIGH,1,0.01%,10,1
O RIAGAIN,1,0.01%,10,1
O RINN,1,0.01%,10,1
ORMOND,1,0.01%,10,1
O RODAGH,1,0.01%,10,1
O RUAIDH,1,0.01%,10,1
O SEAGHDHA,1,0.01%,10,1
O SEIGHIN,1,0.01%,10,1
O SIODA,1,0.01%,10,1
O SUAIRD,1,0.01%,10,1
O'SULLIVAN,1,0.01%,10,1
O TAIDHG,1,0.01%,10,1
O'TOOLE,1,0.01%,10,1
O TUATHAIL,1,0.01%,10,1
POWER,1,0.01%,10,1
QUEEN,1,0.01%,10,1
QUIGG,1,0.01%,10,1
QUINLAN,1,0.01%,10,1
QUIRK,1,0.01%,10,1
RAFFERTY,1,0.01%,10,1
REAGAN,1,0.01%,10,1
REILLY,1,0.01%,10,1
RINNE,1,0.01%,10,1
ROWE,1,0.01%,10,1
RYAN,1,0.01%,10,1
SEWARD,1,0.01%,10,1
SHEA,1,0.01%,10,1
SHEEDY,1,0.01%,10,1
SHEENAN,1,0.01%,10,1
SHINE,1,0.01%,10,1
SLOAN,1,0.01%,10,1
SULLIVAN,1,0.01%,10,1
TEAGAN,1,0.01%,10,1
TIERNEY,1,0.01%,10,1
TOOLE,1,0.01%,10,1
TRACY,1,0.01%,10,1
VINCENT,1,0.01%,10,1
WALSH,1,0.01%,10,1
WHALEN,1,0.01%,10,1
