NAME,COUNT,PERCENT,PROP100K,ISNOTREALCOUNT
ABRAHAMSEN,1,0.01%,10,1
ADAMSEN,1,0.01%,10,1
ALBERTSEN,1,0.01%,10,1
AMUNDSEN,1,0.01%,10,1
ANKER,1,0.01%,10,1
ANTONSEN,1,0.01%,10,1
ARUD,1,0.01%,10,1
BAARDSEN,1,0.01%,10,1
BERG,1,0.01%,10,1
CHRISTIANSEN,1,0.01%,10,1
DANIELSEN,1,0.01%,10,1
FALK,1,0.01%,10,1
GULBRANDSEN,1,0.01%,10,1
HAGEBAK,1,0.01%,10,1
HANSEN,1,0.01%,10,1
HAUGEN,1,0.01%,10,1
HOLGERSEN,1,0.01%,10,1
HORN,1,0.01%,10,1
HUMMEL,1,0.01%,10,1
JAKOBSEN,1,0.01%,10,1
JOHANSEN,1,0.01%,10,1
KRISTIANSEN,1,0.01%,10,1
LANDVIK,1,0.01%,10,1
LANGE,1,0.01%,10,1
LOSNEDAHL,1,0.01%,10,1
NESS,1,0.01%,10,1
NASS,1,0.01%,10,1
NILSEN,1,0.01%,10,1
OLIVERSEN,1,0.01%,10,1
OSTBERG,1,0.01%,10,1
OVESEN,1,0.01%,10,1
PREBENSEN,1,0.01%,10,1
RASMUSSEN,1,0.01%,10,1
RUUD,1,0.01%,10,1
SIMONSEN,1,0.01%,10,1
SOLBERG,1,0.01%,10,1
SPILLUM,1,0.01%,10,1
STORSTRAND,1,0.01%,10,1
SVENDSEN,1,0.01%,10,1
TENNFJORD,1,0.01%,10,1
VANG,1,0.01%,10,1
VOLL,1,0.01%,10,1
WANG,1,0.01%,10,1
