	TCountryYear{"italy", "2012"},
	TCountryYear{"italy", "2015"},
	TCountryYear{"netherlands", "2012"},
	TCountryYear{"netherlands", "2013"},
	TCountryYear{"netherlands", "2014"},
	TCountryYear{"poland", "2011"},
	TCountryYear{"spain", "2015"},
	TCountryYear{"austria", "2014"},
	TCountryYear{"bosnia", "2015"},
	TCountryYear{"canada-bc", "2015"},
	TCountryYear{"mexico", "2013"},
