NAME,COUNT,PERCENT,PROP100K,ISNOTREALCOUNT
安倍,1,0.01%,10,1
秋山,1,0.01%,10,1
藤岡,1,0.01%,10,1
福井,1,0.01%,10,1
橋本,1,0.01%,10,1
緋村,1,0.01%,10,1
本田,1,0.01%,10,1
井上,1,0.01%,10,1
伊藤,1,0.01%,10,1
加藤,1,0.01%,10,1
木村,1,0.01%,10,1
小林,1,0.01%,10,1
黒澤,1,0.01%,10,1
牧,1,0.01%,10,1
松本,1,0.01%,10,1
松下,1,0.01%,10,1
宮本,1,0.01%,10,1
森,1,0.01%,10,1
中原,1,0.01%,10,1
中村,1,0.01%,10,1
中島,1,0.01%,10,1
大城,1,0.01%,10,1
佐々木,1,0.01%,10,1
清水,1,0.01%,10,1
橘,1,0.01%,10,1
竹中,1,0.01%,10,1
佃,1,0.01%,10,1
上野,1,0.01%,10,1
山田,1,0.01%,10,1
山本,1,0.01%,10,1
山下,1,0.01%,10,1
山崎,1,0.01%,10,1
雪村,1,0.01%,10,1
