Total births:,50500
Total M:,25250
Total F:,25250
NAME,GENDER,COUNT,PERCENTAGETOTAL,PROP100K
DENIZ,M,524
EBUBEKIR,M,483
YUNUS,M,458
HATICE KÜBRA,F,454
İBRAHIM HALIL,M,450
ŞEYMA,F,434
FATMA ZEHRA,F,418
ADEM,M,415
MELIS,F,413
FATMA NUR,F,411
MUHAMMET,M,409
MUHAMMET ALI,M,409
FATMANUR,F,397
MUSA,M,395
BARIŞ,M,394
İPEK,F,393
ESRA,F,392
DORUK,M,392
SÜLEYMAN,M,388
BEDIRHAN,M,385
BAHAR,F,383
ABDULKADIR,M,373
HAVIN,F,372
NAZLI,F,369
ESMA NUR,F,366
HALIL,M,363
HÜMEYRA,F,361
HAYRUNNISA,F,360
MUHAMMED YUSUF,M,359
HARUN,M,359
HAZAL,F,357
EGEMEN,M,357
KADIR,M,356
ENSAR,M,356
FATIH,M,355
MINA,F,350
HILAL,F,348
MAHMUT,M,348
AYSIMA,F,348
EYÜP,M,347
ERDEM,M,345
BATUHAN,M,340
AYŞENUR,F,340
RAVZA,F,338
BERFIN,F,331
MEHMET AKIF,M,330
ECE,F,327
EDA,F,326
EDANUR,F,324
MUHAMMED ENES,M,315
MELIKE,F,312
RÜMEYSA,F,304
SAMET,M,302
ÖYKÜ,F,301
ASMIN,F,300
SALIH,M,299
MEHMET EMIN,M,297
ELIF SU,F,296
CAN,M,293
ELIF NAZ,F,290
OSMAN,M,288
KUZEY,M,287
ŞEVVAL,F,287
SELIM,M,286
BERIL,F,286
FEYZA,F,283
ELIF NUR,F,283
METEHAN,M,281
SERHAT,M,281
YAĞIZ,M,281
MUHAMMED MUSTAFA,M,279
YAVUZ SELIM,M,279
ASLI,F,278
METE,M,275
ARAS,M,275
HALIL İBRAHIM,M,273
TUĞBA,F,273
MEHMET EFE,M,272
MURAT,M,271
YAKUP,M,270
ONUR,M,270
MAHIR,M,268
TAHA,M,266
BERRA,F,266
AYŞEGÜL,F,263
KAAN,M,260
SEMANUR,F,258
CEREN,F,256
EGE,M,256
BERKAY,M,252
ERVA,F,250
EBRAR,F,248
RAMAZAN,M,244
ZÜMRA,F,243
EFE,M,242
NISA NUR,F,240
SUDENAZ,F,236
ESILA,F,235
CANSU,F,233
BÜNYAMIN,M,232
BEYZA,F,232
DERIN,F,232
BILAL,M,230
TALHA,M,230
İLAYDA,F,229
MIRA,F,228
TUANA,F,226
MEDINE,F,226
MEHMET ALI,M,216
BARAN,M,215
KÜBRA,F,214
HIRA NUR,F,209
EMRE,M,209
MELISA,F,208
YAREN,F,207
ADA,F,204
MUHAMMED EMIR,M,204
ÖMER ASAF,M,202
İREM,F,200
GIZEM,F,199
BETÜL,F,195
MUHAMMED TALHA,M,195
EMINE,F,194
MELIH,M,193
IRMAK,F,193
İKRA,F,191
MUHAMMET EMIN,M,191
CEYLIN,F,190
SEMIH,M,188
YASIN,M,186
ESLEM,F,186
YUSUF ALI,M,185
DAMLA,F,185
EREN,M,185
İSA,M,184
ELIFNUR,F,184
ALYA,F,183
POYRAZ,M,183
AYAZ,M,182
YUSUF EYMEN,M,180
ALPEREN,M,177
ELIFSU,F,173
BÜŞRA,F,172
GAMZE,F,172
DEVRAN,M,169
MEHMET EMIR,M,168
ARDA,M,167
İSMAIL,M,166
DURU,F,165
RÜZGAR,M,164
CEMRE,F,164
ABDULLAH,M,162
NISA,F,160
BURAK,M,157
ESMANUR,F,150
ELANUR,F,149
GÜNEŞ,F,148
MELEK,F,146
MUHAMMED EYMEN,M,145
BEREN,F,145
BUĞLEM,F,144
MUHAMMED EMIN,M,142
ASYA,F,139
KAYRA,M,137
DEFNE,F,132
MIRAY,F,132
HASAN,M,131
MERT,M,130
HATICE,F,128
FATMA,F,121
YIĞIT,M,120
SARE,F,119
MERVE,F,118
ESMA,F,118
AYŞE,F,112
FURKAN,M,111
UMUT,M,110
ÖMER FARUK,M,109
TOPRAK,M,108
SÜMEYYE,F,102
HÜSEYIN,M,101
ARYA,F,100
OĞUZHAN,M,100
KERIM,M,99
ELA NUR,F,99
ERAY,M,98
BEYZANUR,F,98
SELIN,F,98
ALI EYMEN,M,97
ELIF ADA,F,97
İKRANUR,F,97
YASEMIN,F,96
ANIL,M,96
ALPER,M,95
ASEL,F,94
EMIRHAN,M,93
AYLIN,F,93
SIRAÇ,M,93
İBRAHIM,M,93
SILA,F,92
HAVVA,F,91
LINA,F,90
MASAL,F,89
HAMZA,M,87
MUHAMMED ALI,M,86
RABIA,F,86
ENES,M,84
ELA,F,84
YUNUS EMRE,M,78
AMINE,F,76
ARIN,F,74
GÖKÇE,F,72
KEREM,M,70
HALIL IBRAHIM,M,69
BELINAY,F,67
ÇINAR,M,65
ALI,M,64
KUMSAL,F,63
ERTUĞRUL,M,62
MERYEM,F,60
ÖMER HALIS,M,55
EYLÜL,F,53
ALPARSLAN,M,52
MIRAÇ,M,51
NISANUR,F,51
HIRA,F,48
MUHAMMED,M,45
EYMEN,M,44
NEHIR,F,43
EMIR,M,41
MEHMET,M,39
YAĞMUR,F,34
AZRA,F,32
ZEHRA,F,31
AHMET,M,30
HIRANUR,F,29
ÖMER,M,25
ECRIN,F,25
MUSTAFA,M,17
BERAT,M,16
ELIF,F,10
YUSUF,M,6
ZEYNEP,F,5
