NAME,GENDER,COUNT,PERCENTAGE,PROP100K
YUSUF,M,1
BERAT,M,2
MUSTAFA,M,3
ÖMER,M,4
AHMET,M,5
EYMEN,M,6
MUHAMMED,M,7
MIRAÇ,M,8
MEHMET,M,9
EMIR,M,10
KEREM,M,11
AYAZ,M,12
ÇINAR,M,13
ALI,M,14
ENES,M,15
MUHAMMED ALI,M,16
YUNUS EMRE,M,17
HAMZA,M,18
EMIRHAN,M,19
HÜSEYIN,M,20
İBRAHIM,M,21
ÖMER FARUK,M,22
UMUT,M,23
FURKAN,M,24
MERT,M,25
RÜZGAR,M,26
HASAN,M,27
MUHAMMED EMIN,M,28
BURAK,M,29
YIĞIT,M,30
ABDULLAH,M,31
ARDA,M,32
İSMAIL,M,33
POYRAZ,M,34
EREN,M,35
BARAN,M,36
YASIN,M,37
TALHA,M,38
ALPEREN,M,39
BILAL,M,40
EMRE,M,41
MUHAMMED EMIR,M,42
MEHMET ALI,M,43
DENIZ,M,44
EFE,M,45
RAMAZAN,M,46
METEHAN,M,47
MUHAMMED MUSTAFA,M,48
MEHMET AKIF,M,49
EGE,M,50
YAĞIZ,M,51
MURAT,M,52
BÜNYAMIN,M,53
SALIH,M,54
KAAN,M,55
MEHMET EMIN,M,56
MUHAMMED ENES,M,57
OSMAN,M,58
ÖMER ASAF,M,59
ARAS,M,60
ENSAR,M,61
YAKUP,M,62
KUZEY,M,63
EGEMEN,M,64
BERKAY,M,65
HALIL İBRAHIM,M,66
MUHAMMED YUSUF,M,67
KADIR,M,68
ERDEM,M,69
FATIH,M,70
HARUN,M,71
BEDIRHAN,M,72
ABDULKADIR,M,73
HALIL,M,74
YAVUZ SELIM,M,75
BATUHAN,M,76
DORUK,M,77
DEVRAN,M,78
SÜLEYMAN,M,79
MUSA,M,80
SAMET,M,81
MUHAMMET ALI,M,82
ADEM,M,83
METE,M,84
MUHAMMET,M,85
YUSUF EYMEN,M,86
SELIM,M,87
MAHIR,M,88
TAHA,M,89
MAHMUT,M,90
EYÜP,M,91
İBRAHIM HALIL,M,92
YUNUS,M,93
BARIŞ,M,94
EBUBEKIR,M,95
MUHAMMED TALHA,M,96
CAN,M,97
SERHAT,M,98
ONUR,M,99
MEHMET EFE,M,100
ZEYNEP,F,1
ELIF,F,2
HIRANUR,F,3
YAĞMUR,F,4
ECRIN,F,5
ZEHRA,F,6
AZRA,F,7
MIRAY,F,8
NEHIR,F,9
EYLÜL,F,10
MERYEM,F,11
NISANUR,F,12
HIRA,F,13
BELINAY,F,14
HIRA NUR,F,15
RABIA,F,16
ELA,F,17
ESMA,F,18
MIRA,F,19
SÜMEYYE,F,20
BEREN,F,21
AYŞE,F,22
MERVE,F,23
ADA,F,24
DEFNE,F,25
FATMA,F,26
ASYA,F,27
MELEK,F,28
ESMANUR,F,29
HATICE,F,30
ELANUR,F,31
BUĞLEM,F,32
NISA,F,33
IRMAK,F,34
ESLEM,F,35
DURU,F,36
BÜŞRA,F,37
BETÜL,F,38
YAREN,F,39
EMINE,F,40
CEMRE,F,41
DAMLA,F,42
BEYZA,F,43
HAVIN,F,44
TUANA,F,45
KÜBRA,F,46
MEDINE,F,47
ZÜMRA,F,48
İREM,F,49
DERIN,F,50
EBRAR,F,51
MELISA,F,52
ERVA,F,53
AYŞEGÜL,F,54
NISA NUR,F,55
ESILA,F,56
ELIF NUR,F,57
MINA,F,58
ELIF NAZ,F,59
ÖYKÜ,F,60
BERFIN,F,61
ESMA NUR,F,62
AYSIMA,F,63
HÜMEYRA,F,64
MELIS,F,65
AYŞENUR,F,66
MELIKE,F,67
HILAL,F,68
BERRA,F,69
DENIZ,F,70
FEYZA,F,71
ŞEYMA,F,72
ASMIN,F,73
ŞEVVAL,F,74
ECE,F,75
RÜMEYSA,F,76
CEREN,F,77
FATMANUR,F,78
İKRA,F,79
ESRA,F,80
HAYRUNNISA,F,81
BAHAR,F,82
FATMA ZEHRA,F,83
İPEK,F,84
EDA,F,85
FATMA NUR,F,86
ELIF SU,F,87
RAVZA,F,88
HAZAL,F,89
CEYLIN,F,90
HATICE KÜBRA,F,91
EDANUR,F,92
ASLI,F,93
SEMANUR,F,94
TUĞBA,F,95
İLAYDA,F,96
NAZLI,F,97
SUDENAZ,F,98
BERIL,F,99
ELIFNUR,F,100
