NAME,GENDER,COUNT,PERCENTAGE,PROP100K
YUSUF,M,1
BERAT,M,2
MUSTAFA,M,3
AHMET,M,4
EMIR,M,5
ÖMER,M,6
MEHMET,M,7
MUHAMMED,M,8
EMIRHAN,M,9
EYMEN,M,10
ALI,M,11
ÇINAR,M,12
ENES,M,13
MIRAÇ,M,14
KEREM,M,15
HÜSEYIN,M,16
UMUT,M,17
YUNUS EMRE,M,18
İBRAHIM,M,19
FURKAN,M,20
MUHAMMED ALI,M,21
HAMZA,M,22
ÖMER FARUK,M,23
HASAN,M,24
MERT,M,25
BURAK,M,26
RÜZGAR,M,27
MUHAMMED EMIN,M,28
YIĞIT,M,29
ABDULLAH,M,30
ARDA,M,31
EMRE,M,32
İSMAIL,M,33
ALPEREN,M,34
EREN,M,35
YASIN,M,36
EFE,M,37
KAAN,M,38
POYRAZ,M,39
BILAL,M,40
TALHA,M,41
BARAN,M,42
MEHMET ALI,M,43
MUHAMMED EMIR,M,44
RAMAZAN,M,45
DENIZ,M,46
BÜNYAMIN,M,47
EGE,M,48
MURAT,M,49
SALIH,M,50
YAĞIZ,M,51
MUHAMMED MUSTAFA,M,52
BERKAY,M,53
OSMAN,M,54
MEHMET EMIN,M,55
YAKUP,M,56
KUZEY,M,57
AYAZ,M,58
BATUHAN,M,59
BEDIRHAN,M,60
HARUN,M,61
ARAS,M,62
MUHAMMED ENES,M,63
MEHMET AKIF,M,64
KADIR,M,65
ERDEM,M,66
FATIH,M,67
METEHAN,M,68
HALIL İBRAHIM,M,69
BARIŞ,M,70
SAMET,M,71
HALIL,M,72
MUHAMMED YUSUF,M,73
SÜLEYMAN,M,74
ABDULKADIR,M,75
MUHAMMET,M,76
MUSA,M,77
ENSAR,M,78
EGEMEN,M,79
KAYRA,M,80
MUHAMMET ALI,M,81
ADEM,M,82
TAHA,M,83
MAHMUT,M,84
EYÜP,M,85
DORUK,M,86
İBRAHIM HALIL,M,87
ONUR,M,88
YAVUZ SELIM,M,89
MEHMET EFE,M,90
SELIM,M,91
YUNUS,M,92
ÖMER ASAF,M,93
İSA,M,94
ALPER,M,95
MELIH,M,96
EBUBEKIR,M,97
SERHAT,M,98
SEMIH,M,99
MUHAMMET EMIN,M,100
ZEYNEP,F,1
ELIF,F,2
ECRIN,F,3
YAĞMUR,F,4
ZEHRA,F,5
AZRA,F,6
NISANUR,F,7
NEHIR,F,8
HIRANUR,F,9
BELINAY,F,10
ELA,F,11
MERYEM,F,12
IRMAK,F,13
EYLÜL,F,14
SÜMEYYE,F,15
CEMRE,F,16
RABIA,F,17
FATMA,F,18
AYŞE,F,19
HATICE,F,20
ESMA,F,21
MERVE,F,22
ELANUR,F,23
DURU,F,24
ESMANUR,F,25
BEREN,F,26
NISA,F,27
TUANA,F,28
DERIN,F,29
DAMLA,F,30
MELEK,F,31
BÜŞRA,F,32
BUĞLEM,F,33
MEDINE,F,34
EMINE,F,35
MELISA,F,36
NISA NUR,F,37
YAREN,F,38
ASYA,F,39
KÜBRA,F,40
BEYZA,F,41
BETÜL,F,42
İREM,F,43
MIRAY,F,44
ESLEM,F,45
EBRAR,F,46
DEFNE,F,47
FEYZA,F,48
ELIF NAZ,F,49
MELIKE,F,50
BERFIN,F,51
ADA,F,52
CEREN,F,53
ERVA,F,54
AYŞEGÜL,F,55
ELIF NUR,F,56
HAYRUNNISA,F,57
BERRA,F,58
ZÜMRA,F,59
DENIZ,F,60
ESILA,F,61
ŞEVVAL,F,62
CEYLIN,F,63
ESRA,F,64
ASMIN,F,65
AYSIMA,F,66
AYŞENUR,F,67
ESMA NUR,F,68
HILAL,F,69
RÜMEYSA,F,70
FATMANUR,F,71
EDANUR,F,72
MINA,F,73
FATMA NUR,F,74
ECE,F,75
HIRA NUR,F,76
EDA,F,77
İLAYDA,F,78
HÜMEYRA,F,79
BAHAR,F,80
HAZAL,F,81
SUDENAZ,F,82
FATMA ZEHRA,F,83
HAVIN,F,84
ASLI,F,85
MELIS,F,86
BERIL,F,87
SEMANUR,F,88
ÖYKÜ,F,89
İPEK,F,90
MIRA,F,91
NAZLI,F,92
HATICE KÜBRA,F,93
ŞEYMA,F,94
RAVZA,F,95
TUĞBA,F,96
GAMZE,F,97
ELIF SU,F,98
ELA NUR,F,99
GIZEM,F,100
