NAME,GENDER,COUNT,PERCENT,PROP100K,ISNOTREALCOUNT
DAWA|ཟླཝ,U,1,0.01%,10,1
DORJI|རྡོ་རྗེ,U,1,0.01%,10,1
JAMYANG|འཇམ་དབྱངས,U,1,0.01%,10,1
LHAMO|ལྷ་མོ,U,1,0.01%,10,1
NORBU|ནོར་བུ,M,1,0.01%,10,1
PEMA|པད་མ,U,1,0.01%,10,1
SONAM|བསོད་ནམས,U,1,0.01%,10,1
TENZIN|བསྟན་འཛིན,U,1,0.01%,10,1
TSERING|ཚེ་རིང,U,1,0.01%,10,1
WANGCHUK|དབང་ཕྱུག,U,1,0.01%,10,1
