NAME,COUNT,PERCENT,PROP100K,ISNOTREALCOUNT
ALEKSANDROV|Александров,1,0.01%,10,1
ANDREEV|Андреев,1,0.01%,10,1
BOGDANOV|Богданов,1,0.01%,10,1
BORISOV|Борисов,1,0.01%,10,1
FEDOROV|Фёдоров,1,0.01%,10,1
FYODOROV|Фёдоров,1,0.01%,10,1
KONSTANTINOV|Константинов,1,0.01%,10,1
KRUPIN|Крупин,1,0.01%,10,1
LAGOUNOV|Лагунов,1,0.01%,10,1
MAKSIMOV|Максимов,1,0.01%,10,1
MATVEEV|Матвеев,1,0.01%,10,1
MIKHAILOV|Михайлов,1,0.01%,10,1
NAUMOV|Наумов,1,0.01%,10,1
ORLOV|Орлов,1,0.01%,10,1
PAVLOV|Павлов,1,0.01%,10,1
POLZIN,1,0.01%,10,1
ROMANOV|Романов,1,0.01%,10,1
SOKOLOVSKY|Соколовский,1,0.01%,10,1
UTKIN|Уткин,1,0.01%,10,1
VASILYEV|Васильев,1,0.01%,10,1
VOLKOV|Волков,1,0.01%,10,1
YAKOVLEV|Яковлев,1,0.01%,10,1
