NAME,GENDER,COUNT,PERCENTAGE,PROP100K
ANDREI,M,13431
ALEXANDRU,M,9920
IONUȚ,M,6708
GABRIEL,M,6626
ȘTEFAN,M,6108
CRISTIAN,M,5324
MIHAI,M,5264
DAVID,M,5024
DANIEL,M,3851
MARIAN,M,3726
FLORIN,M,3665
DARIUS,M,3081
DENIS,M,3071
CONSTANTIN,M,2952
ROBERT,M,2899
ADRIAN,M,2751
IOAN,M,2721
SEBASTIAN,M,2388
LUCA,M,2255
GEORGE,M,2254
EDUARD,M,2194
MARIO,M,2179
MATEI,M,2176
BOGDAN,M,2172
RĂZVAN,M,2160
RAREȘ,M,2135
VALENTIN,M,2078
COSMIN,M,2055
MARIUS,M,1960
NICOLAE,M,1906
RAUL,M,1588
CĂTĂLIN,M,1534
IULIAN,M,1444
VLAD,M,1381
TUDOR,M,1367
VASILE,M,1346
ALIN,M,1219
DRAGOȘ,M,1196
ANTONIO,M,1031
CLAUDIU,M,1015
PAUL,M,975
EMANUEL,M,957
RADU,M,941
TEODOR,M,916
ALEX,M,912
PETRU,M,905
NICOLAS,M,855
LUCIAN,M,848
LAURENȚIU,M,835
DUMITRU,M,781
MARIA,F,21841
ANDREEA,F,7842
ELENA,F,6676
IOANA,F,6554
ALEXANDRA,F,6266
ANA,F,4401
DENISA,F,4387
GABRIELA,F,3902
ȘTEFANIA,F,3561
DARIA,F,3187
MIHAELA,F,3104
BIANCA,F,3006
GEORGIANA,F,2891
NICOLETA,F,2738
CRISTINA,F,2691
TEODORA,F,2227
DIANA,F,2122
ALEXIA,F,2118
IONELA,F,1848
FLORENTINA,F,1512
LARISA,F,1472
SARA,F,1431
DANIELA,F,1412
MIRUNA,F,1333
ROXANA,F,1172
VALENTINA,F,1162
REBECA,F,1149
RALUCA,F,1141
SOFIA,F,1134
MĂDĂLINA,F,1052
NATALIA,F,1051
IRINA,F,1040
IULIA,F,1030
ANAMARIA,F,1026
ADRIANA,F,1000
ANTONIA,F,998
ADELINA,F,983
ANDRA,F,955
ALINA,F,943
DELIA,F,926
FLORINA,F,865
AMALIA,F,860
PATRICIA,F,814
IULIANA,F,793
BEATRICE,F,770
CĂTĂLINA,F,747
LAVINIA,F,726
ALESSIA,F,722
CLAUDIA,F,714
MARA,F,697
