NAME,COUNT,PERCENT,PROP100K,ISNOTREALCOUNT
ABELLO,1,0.01%,10,1
ABELLÓ,1,0.01%,10,1
ALBERT,1,0.01%,10,1
BERNAT,1,0.01%,10,1
BOSCH,1,0.01%,10,1
CARDONA,1,0.01%,10,1
COSTA,1,0.01%,10,1
GREC,1,0.01%,10,1
MARTELL,1,0.01%,10,1
MAS,1,0.01%,10,1
MATEU,1,0.01%,10,1
NOGUERRA,1,0.01%,10,1
ORIOL,1,0.01%,10,1
PICASSO,1,0.01%,10,1
PORRAS,1,0.01%,10,1
QUINTANA,1,0.01%,10,1
ROIG,1,0.01%,10,1
ROMA,1,0.01%,10,1
ROMÀ,1,0.01%,10,1
SALA,1,0.01%,10,1
TOMAS,1,0.01%,10,1
TOMÀS,1,0.01%,10,1
TOSET,1,0.01%,10,1
VILARO,1,0.01%,10,1
VILARÓ,1,0.01%,10,1
VIVES,1,0.01%,10,1
