NAME,COUNT,PERCENT,PROP100K,ISNOTREALCOUNT
HOANG,1,0.01%,10,1
HOÀNG,1,0.01%,10,1
LE,1,0.01%,10,1
LÊ,1,0.01%,10,1
NGO,1,0.01%,10,1
NGÔ,1,0.01%,10,1
NGUYEN,1,0.01%,10,1
PHAN,1,0.01%,10,1
TRAN,1,0.01%,10,1
