NAME,COUNT,PERCENT,PROP100K,ISNOTREALCOUNT
AALTO,1,0.01%,10,1
HEIKKI,1,0.01%,10,1
JARVINEN,1,0.01%,10,1
JOKINEN,1,0.01%,10,1
KORHONEN,1,0.01%,10,1
LAAKKONEN,1,0.01%,10,1
LAHTI,1,0.01%,10,1
LEHTONEN,1,0.01%,10,1
MAKELA,1,0.01%,10,1
MUSTONEN,1,0.01%,10,1
NIKULA,1,0.01%,10,1
NYLUND,1,0.01%,10,1
PARTANEN,1,0.01%,10,1
PENTTI,1,0.01%,10,1
RANTA,1,0.01%,10,1
RINNE,1,0.01%,10,1
RUOTSALAINEN,1,0.01%,10,1
SEPPA,1,0.01%,10,1
TAHTINEN,1,0.01%,10,1
TOIVONEN,1,0.01%,10,1
VENALAINEN,1,0.01%,10,1
