Total births:,383143
Total M:,201053
Total F:,182090
NAME,GENDER,COUNT,PERCENTAGETOTAL,PROP100K
JOÃO,M,9611
RODRIGO,M,9127
MARTIM,M,8866
FRANCISCO,M,8127
SANTIAGO,M,7861
AFONSO,M,7229
TOMÁS,M,7116
MIGUEL,M,6361
GONÇALO,M,6150
GUILHERME,M,6148
TIAGO,M,5864
DUARTE,M,5748
GABRIEL,M,5745
PEDRO,M,5653
DIOGO,M,5411
RAFAEL,M,5053
DINIS,M,4260
SALVADOR,M,3993
GUSTAVO,M,3917
LUCAS,M,3907
DAVID,M,3757
LOURENÇO,M,3751
SIMÃO,M,3521
JOSÉ,M,3482
VICENTE,M,3054
DANIEL,M,2790
DIEGO,M,2667
ANTÓNIO,M,2569
ANDRÉ,M,2469
MANUEL,M,2405
VASCO,M,2347
HENRIQUE,M,2310
MATEUS,M,2164
LEONARDO,M,1997
BERNARDO,M,1974
LUÍS,M,1794
EDUARDO,M,1673
ALEXANDRE,M,1504
LEANDRO,M,1462
RÚBEN,M,1296
ENZO,M,1254
FILIPE,M,1209
RICARDO,M,1168
MATIAS,M,1087
SAMUEL,M,1034
BRUNO,M,962
ISAAC,M,902
NUNO,M,858
XAVIER,M,853
CARLOS,M,771
HUGO,M,751
RUI,M,743
ARTUR,M,659
KEVIN,M,540
SEBASTIÃO,M,517
FÁBIO,M,501
JORGE,M,494
PAULO,M,492
FREDERICO,M,439
DAVI,M,439
MARCO,M,416
RENATO,M,401
VALENTIM,M,387
JOAQUIM,M,374
IVO,M,370
MÁRIO,M,369
MICAEL,M,344
IVAN,M,343
CRISTIANO,M,333
ÂNGELO,M,331
NOAH,M,289
TOMÉ,M,288
SÉRGIO,M,276
JAIME,M,261
FERNANDO,M,258
BENJAMIM,M,251
EDGAR,M,250
GIL,M,238
VÍTOR,M,221
KÉVIM,M,216
WILLIAM,M,215
SANDRO,M,211
JOEL,M,208
LUCA,M,197
CÉSAR,M,196
LISANDRO,M,192
EMANUEL,M,188
BRIAN,M,185
BRYAN,M,181
ALEX,M,169
GASPAR,M,149
IGOR,M,148
MANEL,M,143
RAÚL,M,134
WILSON,M,133
NELSON,M,122
MÁRCIO,M,120
LORENZO,M,111
DENIS,M,104
MAURO,M,77
MARCOS,M,74
CLÁUDIO,M,74
DILAN,M,73
ISAC,M,68
DÁRIO,M,66
MARCELO,M,65
ROMEU,M,39
HÉLDER,M,36
ISMAEL,M,36
ERIC,M,35
YURI,M,34
IAN,M,33
ELIAS,M,32
ÁLVARO,M,32
CAIO,M,32
VICTOR,M,32
FLÁVIO,M,29
ARTHUR,M,29
MARTINHO,M,29
