NAME,GENDER,COUNT,PERCENTAGE,PROP100K
ELIŠKA,F,2322
TEREZA,F,2321
ADÉLA,F,1767
NATÁLIE,F,1741
ANNA,F,1709
KAROLÍNA,F,1581
KATEŘINA,F,1303
LUCIE,F,1293
BARBORA,F,1277
VERONIKA,F,1215
KRISTÝNA,F,1190
NELA,F,1118
SOFIE,F,1003
VIKTORIE,F,934
KLÁRA,F,932
EMA,F,892
ANETA,F,848
NIKOLA,F,788
MICHAELA,F,772
ZUZANA,F,764
JULIE,F,718
MARIE,F,676
SÁRA,F,655
LAURA,F,613
MARKÉTA,F,558
VANESA,F,512
ANEŽKA,F,503
AMÁLIE,F,469
DENISA,F,402
NIKOL,F,380
SIMONA,F,368
GABRIELA,F,364
JANA,F,358
DOMINIKA,F,348
ALŽBĚTA,F,343
EVA,F,330
ANDREA,F,318
EMMA,F,311
HANA,F,295
MONIKA,F,294
MAGDALÉNA,F,287
ELLA,F,285
DANIELA,F,271
VENDULA,F,255
LENKA,F,249
ELEN,F,248
JOHANA,F,243
ADRIANA,F,241
ŠÁRKA,F,240
PETRA,F,238
SABINA,F,236
LINDA,F,230
VANESSA,F,224
ALENA,F,214
ELENA,F,213
MARTINA,F,212
ROZÁLIE,F,211
AGÁTA,F,210
BÁRA,F,197
TEREZIE,F,197
VALERIE,F,195
ŠTĚPÁNKA,F,184
MAGDALENA,F,183
NICOL,F,176
ALICE,F,173
ESTER,F,169
NELLA,F,166
KAMILA,F,162
HELENA,F,156
BEÁTA,F,146
LILIANA,F,143
JUSTÝNA,F,141
PAVLÍNA,F,140
ALEXANDRA,F,135
KLAUDIE,F,129
LEONTÝNA,F,121
JOLANA,F,120
STELLA,F,118
MARIANA,F,113
NINA,F,113
VALENTÝNA,F,106
PATRICIE,F,105
STELA,F,101
DOROTA,F,100
MIA,F,99
IZABELA,F,98
ELA,F,97
VALÉRIE,F,96
ŠARLOTA,F,91
DIANA,F,89
SANDRA,F,88
ELLEN,F,84
AMÉLIE,F,81
NELLY,F,80
SOŇA,F,80
PAVLA,F,77
LEONA,F,76
JOSEFÍNA,F,74
KRISTINA,F,74
VIOLA,F,74
JAKUB,M,2926
JAN,M,2770
TOMÁŠ,M,2356
ADAM,M,2061
LUKÁŠ,M,1907
MATĚJ,M,1820
MATYÁŠ,M,1820
DAVID,M,1812
VOJTĚCH,M,1811
ONDŘEJ,M,1630
DANIEL,M,1574
FILIP,M,1539
MARTIN,M,1479
DOMINIK,M,1248
PETR,M,1179
MICHAL,M,1103
ŠIMON,M,1073
MAREK,M,984
JIŘÍ,M,981
ŠTĚPÁN,M,953
PATRIK,M,824
VÁCLAV,M,775
ANTONÍN,M,716
TADEÁŠ,M,678
JOSEF,M,663
PAVEL,M,655
KRYŠTOF,M,623
TOBIÁŠ,M,573
SAMUEL,M,565
FRANTIŠEK,M,543
RICHARD,M,366
JAROSLAV,M,363
VÍT,M,354
JONÁŠ,M,335
MIROSLAV,M,333
SEBASTIAN,M,331
MIKULÁŠ,M,330
VIKTOR,M,306
MICHAEL,M,299
DENIS,M,290
KAREL,M,284
OLIVER,M,279
MATOUŠ,M,275
RADEK,M,275
JÁCHYM,M,272
RADIM,M,248
ROMAN,M,244
MILAN,M,237
ALEX,M,225
ZDENĚK,M,225
MAX,M,205
NIKOLAS,M,186
ROBIN,M,184
TOBIAS,M,183
KRISTIÁN,M,179
JINDŘICH,M,178
ERIK,M,168
ALEŠ,M,166
ALEXANDR,M,165
LADISLAV,M,153
NICOLAS,M,152
MAXMILIÁN,M,149
MAXIM,M,146
VILÉM,M,131
STANISLAV,M,116
VLADIMÍR,M,115
ELIÁŠ,M,114
VÍTEK,M,107
ROBERT,M,98
SEBASTIÁN,M,97
HYNEK,M,96
EDUARD,M,86
ADRIAN,M,84
ALBERT,M,81
JAROMÍR,M,79
PROKOP,M,75
TEODOR,M,75
DAN,M,66
VINCENT,M,66
GABRIEL,M,63
DAMIÁN,M,62
MATYAS,M,62
VOJTA,M,61
ROSTISLAV,M,59
KEVIN,M,58
OSKAR,M,58
HUGO,M,56
LIBOR,M,51
DALIBOR,M,50
ALEXANDER,M,49
LUBOŠ,M,46
RUDOLF,M,44
KAMIL,M,43
BENJAMIN,M,42
MARIAN,M,40
OLDŘICH,M,40
RENÉ,M,40
THEODOR,M,40
VLASTIMIL,M,40
ANDREJ,M,39
