NAME,COUNT,PERCENT,PROP100K,ISNOTREALCOUNT
ABDULLAH|عبد الله,1,0.01%,10,1
AHMAD|أحمد,1,0.01%,10,1
AJAM|عجم,1,0.01%,10,1
ALI|عليّ,1,0.01%,10,1
BOULOS|بولس,1,0.01%,10,1
EL-AMIN,1,0.01%,10,1
EL-HASHEM,1,0.01%,10,1
HAKIM,1,0.01%,10,1
KADER,1,0.01%,10,1
KARIMI|كريمي,1,0.01%,10,1
MUHAMMAD,1,0.01%,10,1
NEJEM,1,0.01%,10,1
SAMARA,1,0.01%,10,1
SULTAN|سلطان,1,0.01%,10,1
ZAMAN|زمان,1,0.01%,10,1
