Total births:,75809
Total M:,39262
Total F:,36547
NAME,GENDER,COUNT,PERCENTAGETOTAL,PROP100K
LUKA,M,1539
NIK,M,1308
FILIP,M,1166
JAKOB,M,1113
ŽAN,M,1096
MARK,M,1038
JAN,M,951
JAKA,M,924
ŽIGA,M,909
ANŽE,M,903
NEJC,M,891
DAVID,M,885
VID,M,819
MATIC,M,745
TIM,M,723
LOVRO,M,702
MAKS,M,683
ALJAŽ,M,670
GAL,M,642
LAN,M,595
MAJ,M,590
MIHA,M,556
ROK,M,541
PATRIK,M,533
ANEJ,M,523
TILEN,M,505
GAŠPER,M,482
TIAN,M,455
LEON,M,439
MATIJA,M,436
OSKAR,M,432
JURE,M,424
ERIK,M,410
ALEKS,M,408
MATEVŽ,M,398
VAL,M,393
LIAM,M,393
URBAN,M,385
BLAŽ,M,377
MARTIN,M,362
MARKO,M,304
BOR,M,302
ENEJ,M,298
MATEJ,M,290
TINE,M,288
SVIT,M,287
RENE,M,277
ANDRAŽ,M,272
BENJAMIN,M,271
TEO,M,267
DOMEN,M,263
TAI,M,259
TIMOTEJ,M,257
NACE,M,255
LUKAS,M,252
TAJ,M,249
IZAK,M,248
MARCEL,M,247
ALEKSEJ,M,227
BINE,M,226
ALEKSANDER,M,223
JAŠA,M,222
ALEX,M,222
OŽBEJ,M,215
TADEJ,M,213
ALEN,M,205
TRISTAN,M,201
LENART,M,201
JURIJ,M,194
VITO,M,183
ADAM,M,177
JON,M,177
JERNEJ,M,167
DOMINIK,M,165
ANDREJ,M,163
KLEMEN,M,162
BRIN,M,160
ERAZEM,M,159
TEVŽ,M,153
IAN,M,143
AŽBE,M,140
KEVIN,M,134
GABRIEL,M,132
NIKOLA,M,128
JOŠT,M,127
ŽAK,M,125
NIKO,M,124
PETER,M,123
MAX,M,120
LEO,M,119
KRISTJAN,M,118
GABER,M,118
UROŠ,M,110
URH,M,102
TIBOR,M,87
TARIK,M,81
KRIS,M,81
STAŠ,M,79
ADRIAN,M,71
TOMAŽ,M,60
LEV,M,55
NAL,M,53
MAI,M,52
TIJAN,M,51
SAMO,M,50
LIAN,M,48
AMADEJ,M,45
NINO,M,31
SERGEJ,M,30
GREGOR,M,28
STEFAN,M,28
SVEN,M,27
NIKOLAJ,M,27
AMAR,M,26
SIMON,M,25
DENIS,M,25
TJAŠ,M,25
ALEKSANDAR,M,23
OLIVER,M,23
LUCAS,M,23
