Total births:,217661
Total M:,114206
Total F:,103455
NAME,GENDER,COUNT,PERCENTAGETOTAL,PROP100K
EMMA,F,3269
LUCAS,M,3122
LOUIS,M,3108
NOAH,M,2928
LOUISE,F,2843
ARTHUR,M,2811
ADAM,M,2741
NATHAN,M,2564
MOHAMED,M,2448
LIAM,M,2374
ELISE,F,2354
OLIVIA,F,2178
VICTOR,M,2132
JULES,M,2127
MATHIS,M,2126
MARIE,F,2048
LÉA,F,1911
GABRIEL,M,1896
LINA,F,1857
HUGO,M,1856
JULIETTE,F,1786
LUCIE,F,1766
CAMILLE,F,1751
JULIE,F,1747
ALICE,F,1724
THOMAS,M,1684
CHLOÉ,F,1660
MILA,F,1648
ELENA,F,1597
ETHAN,M,1554
ELLA,F,1547
NINA,F,1536
THÉO,M,1515
MAXIME,M,1513
LENA,F,1510
ANNA,F,1472
NOOR,F,1469
CHARLOTTE,F,1450
VINCE,M,1401
ZOÉ,F,1394
RAYAN,M,1390
LAURA,F,1381
MANON,F,1373
SIMON,M,1362
ALEXANDER,M,1362
JADE,F,1344
LARS,M,1340
MATTEO,M,1333
SARAH,F,1328
LISA,F,1328
FINN,M,1309
MILAN,M,1308
LOTTE,F,1303
EVA,F,1295
SOFIA,F,1294
SARA,F,1284
LUCA,M,1265
LEON,M,1252
NORA,F,1245
TOM,M,1242
VICTORIA,F,1218
FIEN,F,1191
LORE,F,1181
CLARA,F,1178
WOUT,M,1170
KOBE,M,1164
SACHA,M,1159
LILY,F,1155
AARON,M,1141
DAAN,M,1114
YANIS,M,1113
SEPPE,M,1111
MATS,M,1087
STAN,M,1087
OSCAR,M,1087
JULIA,F,1070
ALEXANDRE,M,1060
ELISA,F,1052
ELIAS,M,1045
AMÉLIE,F,1040
LUNA,F,1039
ROBIN,M,1037
AYA,F,1030
RAPHAËL,M,1010
LOLA,F,1003
SENNE,M,997
DAVID,M,990
MATHÉO,M,988
MATHIAS,M,984
SAMUEL,M,977
NOA,F,972
VIC,M,939
GIULIA,F,938
AMBER,F,935
NOLAN,M,925
ANAÏS,F,922
TIMÉO,M,916
MAXIM,M,903
WARRE,M,897
FERRE,M,889
SAM,M,871
LOU,F,864
YASMINE,F,860
ELINE,F,852
FLEUR,F,846
LOWIE,M,840
ANTOINE,M,839
TUUR,M,837
ROMAIN,M,834
JASPER,M,827
WILLIAM,M,823
LARA,F,821
HANNE,F,816
ENZO,M,802
NICOLAS,M,801
MIA,F,798
INÈS,F,791
INAYA,F,790
DIEGO,M,774
MATHYS,M,769
MAURO,M,769
MARTIN,M,769
EMILIE,F,768
ALEXIS,M,764
CLÉMENT,M,763
PAULINE,F,753
EMILE,M,745
AXEL,M,745
ALESSIO,M,739
RUBEN,M,735
ALEX,M,734
ROBBE,M,732
HAMZA,M,731
ALICIA,F,725
EDEN,M,722
LÉON,M,718
JAYDEN,M,714
MARGAUX,F,709
CÉLIA,F,696
AXELLE,F,695
BAPTISTE,M,686
JEANNE,F,682
NOÉMIE,F,677
LILOU,F,669
ENORA,F,665
AYOUB,M,661
ILYAS,M,655
INES,F,650
LUKAS,M,644
HELENA,F,633
KATO,F,631
ZOË,F,619
IMRAN,M,615
MAYA,F,603
AMINA,F,584
MONA,F,584
NORE,F,576
JANA,F,572
MARION,F,568
ALIX,F,565
LÉO,M,564
EMIEL,M,544
JACK,M,538
ESTELLE,F,537
MOHAMMED,M,535
LOÏC,M,534
MARGOT,F,530
NOUR,F,527
LIV,F,526
JANNE,F,522
ELSA,F,517
ROOS,F,507
RENÉE,F,488
JONAS,M,483
FEBE,F,482
TESS,F,481
AMIR,M,453
YOUSSEF,M,453
FELIX,M,449
NORAH,F,449
LANDER,M,441
IBRAHIM,M,438
RUNE,M,432
LISE,F,417
GUILLAUME,M,400
CAS,M,397
MILO,M,395
TIAGO,M,378
MARYAM,F,368
OONA,F,366
VALENTINA,F,362
ROSE,F,343
LÉNA,F,339
MALAK,F,333
LEWIS,M,327
LAURE,F,326
SOPHIA,F,320
FENNA,F,310
EMILY,F,305
XANDER,M,298
TRISTAN,M,296
SIEBE,M,290
BENJAMIN,M,275
NAND,M,273
MEHDI,M,256
JULIEN,M,254
RANIA,F,245
FLORIAN,M,243
ALYSSA,F,237
AMIRA,F,237
ROMANE,F,222
ELIF,F,221
MARIA,F,220
ELOÏSE,F,219
CLÉMENCE,F,203
FATIMA,F,201
ANAS,M,142
SEM,M,138
ARNE,M,134
YOUNES,M,130
VALENTIN,M,130
VIKTOR,M,130
MARCEL,M,129
ALI,M,129
DANIEL,M,128
NOÉ,M,126
ADRIEN,M,126
HENRI,M,125
MATTHIAS,M,125
MAXENCE,M,124
GUST,M,119
MAURICE,M,118
BILAL,M,118
DINA,F,116
BO,F,112
JOLIEN,F,112
MIRA,F,112
JUNE,F,110
KAAT,F,108
ALEXIA,F,106
LIEN,F,105
MARWA,F,105
LANA,F,105
NELL,F,105
ALINE,F,102
PAULIEN,F,102
FEMKE,F,102
YANA,F,101
LINDE,F,101
ELÉONORE,F,99
EMILIA,F,98
LEONIE,F,94
