NAME,GENDER,COUNT,PERCENTAGE,PROP100K
EMMA,F,633
LOUISE,F,544
ELISE,F,489
OLIVIA,F,456
MARIE,F,428
LÉA,F,399
LUCIE,F,376
MILA,F,371
LINA,F,357
CAMILLE,F,352
JULIETTE,F,352
JULIE,F,350
ELLA,F,335
CHLOÉ,F,331
ALICE,F,325
LENA,F,312
ELENA,F,296
ANNA,F,283
LAURA,F,274
NOOR,F,274
ZOÉ,F,272
CHARLOTTE,F,270
NINA,F,270
VICTORIA,F,270
SARAH,F,266
LISA,F,265
FIEN,F,262
JADE,F,260
EVA,F,258
LOTTE,F,257
MANON,F,256
SOFIA,F,255
SARA,F,248
LORE,F,238
LILY,F,237
NORA,F,233
JULIA,F,229
ELISA,F,212
AMÉLIE,F,210
CLARA,F,206
AYA,F,191
GIULIA,F,191
LOLA,F,185
LUNA,F,184
AMBER,F,178
ANAÏS,F,178
ELINE,F,171
MARGAUX,F,163
INAYA,F,162
LOU,F,161
FLEUR,F,158
YASMINE,F,158
INÈS,F,157
HANNE,F,155
MIA,F,152
PAULINE,F,151
ALICIA,F,145
LARA,F,145
NOÉMIE,F,144
AXELLE,F,143
JEANNE,F,142
JANNE,F,139
LILOU,F,139
EMILIE,F,138
ZOË,F,138
MAYA,F,137
CÉLIA,F,130
TESS,F,130
AMINA,F,124
JANA,F,124
INES,F,121
NOA,F,121
ROOS,F,121
ESTELLE,F,117
MARGOT,F,117
MONA,F,117
OONA,F,116
VALENTINA,F,115
HELENA,F,114
NORAH,F,114
ALIX,F,113
ELSA,F,113
FEBE,F,112
LIV,F,112
RENÉE,F,112
ROSE,F,111
MARYAM,F,109
FENNA,F,108
KATO,F,108
NOUR,F,106
ALINE,F,102
NORE,F,102
PAULIEN,F,102
LINDE,F,101
MARION,F,101
CLÉMENCE,F,100
ENORA,F,100
EMILY,F,99
MALAK,F,98
SOPHIA,F,98
LOUIS,M,615
LUCAS,M,602
ADAM,M,562
ARTHUR,M,562
NOAH,M,545
NATHAN,M,509
MOHAMED,M,495
LIAM,M,452
JULES,M,445
MATHIS,M,440
VICTOR,M,406
HUGO,M,381
GABRIEL,M,377
THOMAS,M,326
ETHAN,M,314
RAYAN,M,313
VINCE,M,311
MAXIME,M,310
SIMON,M,304
THÉO,M,297
ALEXANDER,M,290
MILAN,M,280
LARS,M,278
FINN,M,276
TOM,M,261
MATTEO,M,256
LEON,M,254
LUCA,M,252
WOUT,M,246
YANIS,M,239
KOBE,M,237
SEPPE,M,232
SACHA,M,230
STAN,M,228
MATS,M,223
ROBIN,M,223
OSCAR,M,222
ALEXANDRE,M,220
ELIAS,M,218
DAAN,M,212
AARON,M,211
JASPER,M,206
TIMÉO,M,204
WARRE,M,204
VIC,M,203
SAMUEL,M,202
SENNE,M,195
MATHÉO,M,194
NOLAN,M,192
MATHIAS,M,186
FERRE,M,185
MAXIM,M,185
ANTOINE,M,180
SAM,M,180
RAPHAËL,M,179
LOWIE,M,176
JACK,M,174
ALEXIS,M,170
MARTIN,M,170
EDEN,M,168
DAVID,M,167
RUBEN,M,167
ALEX,M,165
ENZO,M,163
MATHYS,M,163
ROMAIN,M,163
HAMZA,M,161
AXEL,M,154
CLÉMENT,M,154
MAURO,M,152
JONAS,M,149
NICOLAS,M,149
ROBBE,M,149
ALESSIO,M,147
LÉON,M,146
EMILE,M,143
JAYDEN,M,142
LUKAS,M,142
EMIEL,M,141
TUUR,M,140
BENJAMIN,M,139
IMRAN,M,139
YOUSSEF,M,139
AYOUB,M,138
BAPTISTE,M,138
DIEGO,M,138
AMIR,M,137
MOHAMMED,M,137
LANDER,M,136
NOA,M,135
LÉO,M,134
WILLIAM,M,133
NAND,M,131
FELIX,M,126
ILYAS,M,125
CAS,M,121
BILAL,M,118
RUNE,M,117
FLORIAN,M,116
TIAGO,M,116
