Total births:,109199
Total M:,60343
Total F:,48856
NAME,GENDER,COUNT,PERCENTAGETOTAL,PROP100K
OLIVER,M,1575
JACK,M,1492
OLIVIA,F,1404
WILLIAM,M,1362
CHARLOTTE,F,1361
SOPHIE,F,1340
LIAM,M,1328
JAMES,M,1302
RUBY,F,1271
EMILY,F,1271
MASON,M,1235
LUCAS,M,1221
NOAH,M,1213
SAMUEL,M,1149
JACOB,M,1124
ISABELLA,F,1123
ELLA,F,1117
BENJAMIN,M,1117
AMELIA,F,1099
ISLA,F,1077
CHARLIE,M,1064
ETHAN,M,1058
HUNTER,M,1049
MAX,M,1015
THOMAS,M,1008
JOSHUA,M,1007
COOPER,M,993
GRACE,F,983
AVA,F,982
RYAN,M,982
CHLOE,F,966
DANIEL,M,950
SOPHIA,F,923
MIA,F,914
LILY,F,906
EMMA,F,894
ALEXANDER,M,871
BLAKE,M,863
LUCY,F,843
LACHLAN,M,841
ZOE,F,837
RILEY,M,814
JACKSON,M,803
GEORGE,M,799
LEO,M,798
ELIJAH,M,785
ISAAC,M,771
LEVI,M,767
JAYDEN,M,762
MILA,F,718
HARPER,F,714
LUKE,M,705
GEORGIA,F,688
TYLER,M,674
OSCAR,M,655
CONNOR,M,655
CARTER,M,653
ELI,M,648
PAIGE,F,635
HANNAH,F,633
HENRY,M,628
HARRY,M,625
EVA,F,624
CALEB,M,595
JOSEPH,M,591
BRAXTON,M,585
JESSICA,F,570
MATTHEW,M,562
MADISON,F,558
NATHAN,M,555
XAVIER,M,555
HARRISON,M,554
LUCA,M,537
FINN,M,535
DYLAN,M,534
LOGAN,M,525
SIENNA,F,524
ARIA,F,506
TOBY,M,494
SCARLETT,F,489
BELLA,F,477
MAIA,F,469
FLYNN,M,458
JAXON,M,457
ABIGAIL,F,456
JAKE,M,447
MICHAEL,M,434
WILLOW,F,434
EDEN,F,430
ISABELLE,F,429
RYDER,M,428
HOLLY,F,426
ELIZABETH,F,425
STELLA,F,422
MADDISON,F,420
HAZEL,F,420
ARCHIE,M,418
ALEXIS,F,411
ZARA,F,410
ALEX,M,405
SUMMER,F,403
ZACHARY,M,400
AIDEN,M,394
MACKENZIE,F,389
ALICE,F,383
ASHTON,M,376
CAMERON,M,374
LINCOLN,M,374
AUSTIN,M,370
FELIX,M,364
EVELYN,F,364
DAVID,M,362
JOHN,M,357
JORDAN,M,354
LOUIS,M,346
CHARLES,M,346
SOFIA,F,345
LEAH,F,344
SEBASTIAN,M,344
LILLY,F,343
OLIVE,F,339
ANGUS,M,338
POPPY,F,337
SAMANTHA,F,332
FLETCHER,M,331
IVY,F,328
EDWARD,M,328
PHOENIX,M,325
ADDISON,F,322
AALIYAH,F,322
ADAM,M,321
ANNA,F,320
MOLLY,F,320
VIOLET,F,318
JASMINE,F,317
INDIE,F,315
AYLA,F,311
PEYTON,F,310
ELLIE,F,308
QUINN,M,307
LAYLA,F,306
BEAU,M,303
SARAH,F,303
MILLIE,F,301
HUGO,M,299
AMBER,F,298
PATRICK,M,297
NEVAEH,F,296
ANNABELLE,F,293
PHOEBE,F,284
NINA,F,272
PIPPA,F,263
JADE,F,255
ROSE,F,246
PIPER,F,245
KEIRA,F,240
ROMAN,M,238
MATILDA,F,236
KINGSTON,M,235
BROOKE,F,231
AARON,M,231
BROOKLYN,F,230
ARLO,M,227
EVIE,F,221
THEODORE,M,216
MARCUS,M,212
AIDAN,M,210
KATE,F,210
HAYLEY,F,207
KAYLA,F,202
SAM,M,198
ARCHER,M,195
ISABEL,F,193
JESSE,M,187
ALEXANDRA,F,187
ALYSSA,F,180
MIKAYLA,F,175
ASHER,M,174
VICTORIA,F,173
TAYLOR,F,173
NATHANIEL,M,168
TYSON,M,160
CAITLIN,F,159
FLORENCE,F,155
MADELEINE,F,153
LOLA,F,148
FAITH,F,147
NATALIE,F,144
IMOGEN,F,143
ARIANA,F,142
EZRA,M,140
AURORA,F,138
GRAYSON,M,134
THEO,M,130
MARIA,F,130
JOEL,M,124
ANDREW,M,124
HUDSON,M,123
KAYDEN,M,123
MAXWELL,M,116
ROBERT,M,115
NIXON,M,114
AMY,F,113
THEA,F,111
CHRISTIAN,M,111
ZAC,M,111
ISAIAH,M,109
JASPER,M,109
DECLAN,M,108
DOMINIC,M,107
HARLEY,M,106
SKYLA,F,105
GABRIEL,M,105
ZION,M,104
ARTHUR,M,100
DAISY,F,99
CHRISTOPHER,M,99
VINCENT,M,98
KHLOE,F,98
HARRIET,F,97
SAVANNAH,F,94
KATIE,F,93
LUCIA,F,93
SADIE,F,93
LAUREN,F,92
FREYA,F,87
ISOBEL,F,85
CODY,M,68
ZOEY,F,65
ASHLEY,F,60
FRANKIE,F,60
PENELOPE,F,58
BEN,M,58
SETH,M,56
JONATHAN,M,56
HAYDEN,M,56
NIKAU,M,53
NICHOLAS,M,53
JAMIE,M,53
CHASE,M,52
CRUZ,M,52
ISRAEL,M,52
MANAIA,F,52
HARVEY,M,52
ELSIE,F,51
ELEANOR,F,50
EMILIA,F,50
LEON,M,49
REBECCA,F,48
NATE,M,48
ELISE,F,48
TAYLA,F,48
COHEN,M,47
ANGEL,F,47
MAYA,F,46
ESTHER,F,45
LYDIA,F,45
SASHA,F,44
LEWIS,M,44
CLAIRE,F,43
INDI,F,42
NAOMI,F,39
