NAME,GENDER,COUNT,PERCENTAGE,PROP100K
EMILY,F,626
SOPHIE,F,577
EMMA,F,497
GRACE,F,461
LILY,F,449
MIA,F,446
ELLA,F,445
AVA,F,440
LUCY,F,439
SARAH,F,430
AOIFE,F,426
AMELIA,F,409
HANNAH,F,368
KATIE,F,353
CHLOE,F,345
CAOIMHE,F,334
SAOIRSE,F,317
KATE,F,316
HOLLY,F,312
RUBY,F,302
SOPHIA,F,299
ANNA,F,296
LAUREN,F,290
LEAH,F,287
AMY,F,253
ISABELLE,F,252
MOLLY,F,251
ELLIE,F,250
JESSICA,F,236
OLIVIA,F,230
ROISIN,F,229
CIARA,F,227
KAYLA,F,198
JULIA,F,196
ZOE,F,196
LAURA,F,191
NIAMH,F,185
ABBIE,F,178
ERIN,F,177
RACHEL,F,169
ROBYN,F,166
AISLING,F,165
FAYE,F,163
REBECCA,F,162
EVA,F,160
LAYLA,F,160
ELLEN,F,155
CARA,F,148
FREYA,F,144
ABIGAIL,F,138
EVE,F,138
ISABELLA,F,138
MEGAN,F,135
AINE,F,128
CLODAGH,F,128
AOIBHINN,F,125
MILLIE,F,120
NICOLE,F,116
AOIBHEANN,F,115
MAJA,F,114
SADHBH,F,113
EABHA,F,109
CHARLOTTE,F,106
AMBER,F,105
CAITLIN,F,105
SOFIA,F,105
ALANNAH,F,104
ZARA,F,102
ALICE,F,101
MARIA,F,100
ELIZABETH,F,99
LENA,F,99
MARY,F,99
EMILIA,F,98
AIMEE,F,94
LILLY,F,94
HOLLIE,F,92
AOIBHE,F,88
VICTORIA,F,83
EIMEAR,F,81
MAYA,F,81
ISABEL,F,80
ORLA,F,80
EVIE,F,79
KAYLEIGH,F,78
BROOKE,F,76
CLARA,F,76
MEABH,F,75
LEXI,F,73
TARA,F,71
DAISY,F,70
KATELYN,F,70
AILBHE,F,68
AMELIE,F,68
NATALIA,F,68
SARA,F,68
HANNA,F,66
LAOISE,F,66
RUTH,F,66
MADISON,F,64
JACK,M,831
JAMES,M,773
DANIEL,M,683
SEAN,M,677
CONOR,M,639
ADAM,M,558
HARRY,M,510
RYAN,M,510
DYLAN,M,471
MICHAEL,M,462
LUKE,M,457
CHARLIE,M,432
LIAM,M,427
OISIN,M,407
CIAN,M,406
JAMIE,M,404
THOMAS,M,403
ALEX,M,392
NOAH,M,390
DARRAGH,M,389
PATRICK,M,388
AARON,M,372
CILLIAN,M,341
MATTHEW,M,336
JOHN,M,297
NATHAN,M,295
DAVID,M,292
FIONN,M,292
EVAN,M,278
ETHAN,M,268
JAKE,M,265
KYLE,M,252
RIAN,M,243
BEN,M,232
MAX,M,232
EOIN,M,228
TADHG,M,224
FINN,M,218
CALLUM,M,215
SAMUEL,M,213
JOSHUA,M,210
RORY,M,200
JAYDEN,M,197
JOSEPH,M,196
TYLER,M,195
SAM,M,183
SHANE,M,176
MARK,M,175
ROBERT,M,175
AIDAN,M,172
WILLIAM,M,169
RONAN,M,167
EOGHAN,M,166
ALEXANDER,M,161
LEON,M,161
CATHAL,M,160
MASON,M,159
TOM,M,157
OLIVER,M,155
ANDREW,M,151
OSCAR,M,150
CIARAN,M,143
BOBBY,M,141
JACOB,M,140
SENAN,M,126
RHYS,M,124
SCOTT,M,118
BENJAMIN,M,116
CORMAC,M,116
KEVIN,M,112
LUCAS,M,109
ALAN,M,108
DONNACHA,M,106
JAKUB,M,106
CHRISTOPHER,M,105
FILIP,M,104
KILLIAN,M,104
JOSH,M,103
ALFIE,M,102
TOMMY,M,101
RUAIRI,M,99
ODHRAN,M,98
ORAN,M,97
LEO,M,96
ISAAC,M,95
DARA,M,94
JASON,M,94
ZACH,M,93
MARTIN,M,91
PETER,M,91
BRIAN,M,90
DANNY,M,88
NIALL,M,86
TOMAS,M,86
EDWARD,M,84
STEPHEN,M,84
LOGAN,M,80
KACPER,M,79
ANTHONY,M,77
BILLY,M,76
