NAME,GENDER,COUNT,PERCENT,PROP100K,ISNOTREALCOUNT
ADAM,M,1,0.01%,10,1
ADELINA,F,1,0.01%,10,1
ADINA,F,1,0.01%,10,1
ADRIANA,F,1,0.01%,10,1
ALEX,U,1,0.01%,10,1
ALEXANDRU,M,1,0.01%,10,1
ALINA,F,1,0.01%,10,1
ANA,F,1,0.01%,10,1
ANCA,F,1,0.01%,10,1
ANDRADA,F,1,0.01%,10,1
ANDREI,M,1,0.01%,10,1
ANGELICA,F,1,0.01%,10,1
ANI,F,1,0.01%,10,1
ANTONIA,F,1,0.01%,10,1
ATANASE,M,1,0.01%,10,1
AUREL,M,1,0.01%,10,1
AURORA,F,1,0.01%,10,1
BIANCA,F,1,0.01%,10,1
BOGDANA,F,1,0.01%,10,1
CAMELIA,F,1,0.01%,10,1
CAROL,M,1,0.01%,10,1
CATALINA|CĂTĂLINA,F,1,0.01%,10,1
CECILIA,F,1,0.01%,10,1
CIPRIAN,M,1,0.01%,10,1
CLAUDIA,F,1,0.01%,10,1
CONSTANTA|CONSTANȚA,F,1,0.01%,10,1
CORINA,F,1,0.01%,10,1
CORNELIA,F,1,0.01%,10,1
COSMIN,M,1,0.01%,10,1
COSTACHE,M,1,0.01%,10,1
COSTICA|COSTICĂ,M,1,0.01%,10,1
CRINA,F,1,0.01%,10,1
CRISTIAN,M,1,0.01%,10,1
DACIANA,F,1,0.01%,10,1
DANA,F,1,0.01%,10,1
DANIELA,F,1,0.01%,10,1
DARIA,F,1,0.01%,10,1
DAVID,M,1,0.01%,10,1
DELIA,F,1,0.01%,10,1
DENIS,M,1,0.01%,10,1
DIANA,F,1,0.01%,10,1
DIONISIE,M,1,0.01%,10,1
DORIN,M,1,0.01%,10,1
DORU,M,1,0.01%,10,1
DRAGOS,M,1,0.01%,10,1
DUMITRU,M,1,0.01%,10,1
EDUARD,M,1,0.01%,10,1
ELISABETA,F,1,0.01%,10,1
EMANUELA,F,1,0.01%,10,1
EMILIA,F,1,0.01%,10,1
EUGEN,M,1,0.01%,10,1
FANE,M,1,0.01%,10,1
FELIX,M,1,0.01%,10,1
FLAVIA,F,1,0.01%,10,1
FLORIN,M,1,0.01%,10,1
GABI,U,1,0.01%,10,1
GABRIELA,F,1,0.01%,10,1
GAVRILA,F,1,0.01%,10,1
GEORGETA,F,1,0.01%,10,1
GHENADIE,M,1,0.01%,10,1
GRIGORE,M,1,0.01%,10,1
HORATIU|HORAȚIU,M,1,0.01%,10,1
HORIA,M,1,0.01%,10,1
ILEANA,F,1,0.01%,10,1
ILINCA,F,1,0.01%,10,1
IOANA,F,1,0.01%,10,1
ION,M,1,0.01%,10,1
IONELA,F,1,0.01%,10,1
IOSIF,M,1,0.01%,10,1
ISABELA,F,1,0.01%,10,1
IULIA,F,1,0.01%,10,1
IULIANA,F,1,0.01%,10,1
LARISA,F,1,0.01%,10,1
LAURENTIU|LAURENȚIU,M,1,0.01%,10,1
LENUTA|LENUȚA,F,1,0.01%,10,1
LIDIA,F,1,0.01%,10,1
LIVIA,F,1,0.01%,10,1
LOREDANA,F,1,0.01%,10,1
LUCIA,F,1,0.01%,10,1
LUIZA,F,1,0.01%,10,1
MADALINA|MĂDĂLINA,F,1,0.01%,10,1
MAGDALENA,F,1,0.01%,10,1
MANUELA,F,1,0.01%,10,1
MARCELA,F,1,0.01%,10,1
MARIA,U,1,0.01%,10,1
MARIANA,F,1,0.01%,10,1
MARIN,M,1,0.01%,10,1
MARIUS,M,1,0.01%,10,1
MARTIN,M,1,0.01%,10,1
MIHAELA,F,1,0.01%,10,1
MIHAIL,M,1,0.01%,10,1
MINODORA,F,1,0.01%,10,1
MIRELA,F,1,0.01%,10,1
MIRUNA,F,1,0.01%,10,1
MONICA,F,1,0.01%,10,1
NATALIA,F,1,0.01%,10,1
NELU,M,1,0.01%,10,1
NICOLETA,F,1,0.01%,10,1
NICUSOR|NICUȘOR,M,1,0.01%,10,1
OCTAVIAN,M,1,0.01%,10,1
OLIMPIA,F,1,0.01%,10,1
OVIDIU,M,1,0.01%,10,1
PAULA,F,1,0.01%,10,1
PETRICA|PETRICĂ,M,1,0.01%,10,1
PETRU,M,1,0.01%,10,1
RADU,M,1,0.01%,10,1
RALUCA,F,1,0.01%,10,1
RAZVAN|RĂZVAN,M,1,0.01%,10,1
ROBERT,M,1,0.01%,10,1
ROXANA,F,1,0.01%,10,1
RUXANDRA,F,1,0.01%,10,1
SANDA,F,1,0.01%,10,1
SANDU,M,1,0.01%,10,1
SERAFIM,M,1,0.01%,10,1
SERGIU,M,1,0.01%,10,1
SILVIU,M,1,0.01%,10,1
SIMON,M,1,0.01%,10,1
SOFIA,F,1,0.01%,10,1
SORIN,M,1,0.01%,10,1
STAN,M,1,0.01%,10,1
STEFANIA|ȘTEFANIA,F,1,0.01%,10,1
STELIAN,M,1,0.01%,10,1
TATIANA,F,1,0.01%,10,1
TEODORA,F,1,0.01%,10,1
THEODOR,M,1,0.01%,10,1
TIMOTEI,M,1,0.01%,10,1
TRAIAN,M,1,0.01%,10,1
VALENTIN,M,1,0.01%,10,1
VALERIA,F,1,0.01%,10,1
VALERIU,M,1,0.01%,10,1
VASILE,M,1,0.01%,10,1
VASILICA|VASILICĂ,M,1,0.01%,10,1
VERA,F,1,0.01%,10,1
VICTOR,M,1,0.01%,10,1
VIOLETA,F,1,0.01%,10,1
VIORICA,F,1,0.01%,10,1
VIRGILIU,M,1,0.01%,10,1
VLAD,M,1,0.01%,10,1
