NAME,COUNT,PERCENT,PROP100K
ANTI&#262;,1,0.01%,10
BABI&#262;,1,0.01%,10
BRANKOVI&#262;,1,0.01%,10
CRN&#268;EVI&#262;,1,0.01%,10
DRAGI&#262;,1,0.01%,10
FILIPOVI&#262;,1,0.01%,10
ILI&#262;,1,0.01%,10
JANKOVI&#262;,1,0.01%,10
KASUN,1,0.01%,10
KOVAC,1,0.01%,10
LON&#268;AR,1,0.01%,10
MARKOVI&#262;,1,0.01%,10
MIHAJLOVI&#262;,1,0.01%,10
MILOJEVI&#262;,1,0.01%,10
MILOVANOVI&#262;,1,0.01%,10
NOVAK,1,0.01%,10
PETROVI&#262;,1,0.01%,10
STANKI&#262;,1,0.01%,10
STOJANOVI&#262;,1,0.01%,10
VUKOVI&#262;,1,0.01%,10
ZORI&#262;,1,0.01%,10
