NAME,COUNT,PERCENT,PROP100K
&Aacute;D&Aacute;M,1,0.01%,10
ALBERT,1,0.01%,10
ANTAL,1,0.01%,10
ARANY,1,0.01%,10
BAK&Oacute;,1,0.01%,10
B&Aacute;LINT,1,0.01%,10
BALOGH,1,0.01%,10
BAR&Aacute;TH,1,0.01%,10
BARTA,1,0.01%,10
BARTOS,1,0.01%,10
B&Aacute;TORI,1,0.01%,10
BENES,1,0.01%,10
BODN&Aacute;R,1,0.01%,10
BOGN&Aacute;R,1,0.01%,10
BOKORI,1,0.01%,10
BOROS,1,0.01%,10
BUDAY,1,0.01%,10
CINEGE,1,0.01%,10
CSEH,1,0.01%,10
CSIZMADIA,1,0.01%,10
CSORBA,1,0.01%,10
DOBOS,1,0.01%,10
ERD&#336;S,1,0.01%,10
ESZES,1,0.01%,10
FARAG&Oacute;,1,0.01%,10
FAZEKAS,1,0.01%,10
FEJES,1,0.01%,10
FILEP,1,0.01%,10
F&Uuml;L&Ouml;P,1,0.01%,10
G&Aacute;L,1,0.01%,10
G&Aacute;SP&Aacute;R,1,0.01%,10
G&Ouml;R&Ouml;G,1,0.01%,10
GR&Oacute;SZ,1,0.01%,10
HAJ&Oacute;S,1,0.01%,10
HALMI,1,0.01%,10
HERCZEG,1,0.01%,10
HORV&Aacute;TH,1,0.01%,10
ILL&Eacute;S,1,0.01%,10
JANKOVICS,1,0.01%,10
J&Oacute;N&Aacute;S,1,0.01%,10
JUH&Aacute;SZ,1,0.01%,10
KALM&Aacute;R,1,0.01%,10
K&Aacute;RP&Aacute;THY,1,0.01%,10
K&Aacute;RP&Aacute;TY,1,0.01%,10
KATONA,1,0.01%,10
KEDVES,1,0.01%,10
KELLER,1,0.01%,10
KEREKES,1,0.01%,10
KIR&Aacute;LY,1,0.01%,10
KISS,1,0.01%,10
KOCSIS,1,0.01%,10
KOV&Aacute;CH,1,0.01%,10
KOV&Aacute;TS,1,0.01%,10
KURUCZ,1,0.01%,10
LANTOS,1,0.01%,10
L&Aacute;Z&Aacute;R,1,0.01%,10
LOV&Aacute;SZ,1,0.01%,10
MAGYAR,1,0.01%,10
MARK&Oacute;,1,0.01%,10
MEGGYESFALVI,1,0.01%,10
MOLN&Aacute;R,1,0.01%,10
NEMES,1,0.01%,10
N&Eacute;METH,1,0.01%,10
NYILAS,1,0.01%,10
OLASZ,1,0.01%,10
OROSZ,1,0.01%,10
PAPP,1,0.01%,10
PATAKI,1,0.01%,10
PESTI,1,0.01%,10
P&Eacute;TER,1,0.01%,10
PETHES,1,0.01%,10
PET&#336;CS,1,0.01%,10
POKORNI,1,0.01%,10
PUSK&Aacute;S,1,0.01%,10
RIG&Oacute;,1,0.01%,10
RUZSA,1,0.01%,10
SAMSA,1,0.01%,10
SARKA,1,0.01%,10
S&Aacute;RK&Ouml;ZY,1,0.01%,10
SASS,1,0.01%,10
SIMON,1,0.01%,10
S&Oacute;LYOM,1,0.01%,10
S&Ouml;R&Ouml;S,1,0.01%,10
SV&Eacute;D,1,0.01%,10
SZABOLCSI,1,0.01%,10
SZARKA,1,0.01%,10
SZ&Eacute;KELY,1,0.01%,10
SZ&Eacute;P,1,0.01%,10
SZOMBATHY,1,0.01%,10
TAK&Aacute;CS,1,0.01%,10
TAR,1,0.01%,10
T&Iacute;M&Aacute;R,1,0.01%,10
TOLVAJ,1,0.01%,10
T&Ouml;R&Ouml;K,1,0.01%,10
T&Oacute;TH,1,0.01%,10
V&Aacute;MOS,1,0.01%,10
VARGHA,1,0.01%,10
VASTAG,1,0.01%,10
VENCEL,1,0.01%,10
VERES,1,0.01%,10
VINCZE,1,0.01%,10
V&Ouml;R&Ouml;S,1,0.01%,10
ZOLT&Aacute;NFI,1,0.01%,10
