NAME,COUNT,PERCENT,PROP100K
&#51312;,1,0.01%,10
&#36249;,1,0.01%,10
&#52572;,1,0.01%,10
&#23828;,1,0.01%,10
&#44053;,1,0.01%,10
&#23004;,1,0.01%,10
&#54620;,1,0.01%,10
&#38867;,1,0.01%,10
&#51312;,1,0.01%,10
&#36249;,1,0.01%,10
&#44608;,1,0.01%,10
&#37329;,1,0.01%,10
&#47928;,1,0.01%,10
&#25991;,1,0.01%,10
&#48149;,1,0.01%,10
&#27192;,1,0.01%,10
&#26420;,1,0.01%,10
&#49569;,1,0.01%,10
&#23435;,1,0.01%,10
