NAME,COUNT,PERCENT,PROP100K
&#1329;&#1406;&#1377;&#1379;&#1397;&#1377;&#1398;,1,0.01%,10
&#1330;&#1377;&#1394;&#1380;&#1377;&#1405;&#1377;&#1408;&#1397;&#1377;&#1398;,1,0.01%,10
&#1354;&#1377;&#1408;&#1405;&#1377;&#1396;&#1381;&#1377;&#1398;,1,0.01%,10
&#1332;&#1377;&#1408;&#1378;&#1387;&#1398;&#1397;&#1377;&#1398;,1,0.01%,10
&#1332;&#1377;&#1406;&#1385;&#1397;&#1377;&#1398;,1,0.01%,10
&#1354;&#1377;&#1408;&#1405;&#1377;&#1396;&#1381;&#1377;&#1398;,1,0.01%,10
