Total births: 186461590
Total M: 96598480
Total F: 89863110
MICHAEL,F,2619660
CHRISTOPHER,F,1830797
DAVID,F,1686282
JAMES,F,1630850
JOHN,F,1524456
MATTHEW,F,1476674
ROBERT,F,1380185
JENNIFER,F,1363423
DANIEL,F,1287596
WILLIAM,F,1256054
JOSEPH,F,1223903
JOSHUA,M,1189793
JESSICA,F,1034330
ANDREW,F,1031166
JASON,M,1014531
ANTHONY,F,989916
RYAN,F,934159
BRIAN,F,911174
JACOB,M,864254
ASHLEY,F,852780
KEVIN,F,848670
THOMAS,F,809629
NICHOLAS,F,807537
SARAH,F,799381
ELIZABETH,F,797150
JONATHAN,F,772508
JUSTIN,M,764463
AMANDA,F,753681
BRANDON,F,751398
ERIC,F,738841
EMILY,F,738283
STEVEN,F,699224
MELISSA,F,695130
RICHARD,F,693897
MICHELLE,F,691293
KIMBERLY,F,685634
TIMOTHY,F,674539
STEPHANIE,F,654300
LISA,F,634618
MARK,F,631932
CHARLES,F,625889
BENJAMIN,F,603194
JEFFREY,F,598205
AMY,F,595451
TYLER,F,592961
ALEXANDER,F,587449
NICOLE,F,581491
SAMANTHA,F,564983
ANGELA,F,530125
AARON,F,526542
ZACHARY,M,524646
ADAM,F,516426
HEATHER,F,510072
SCOTT,F,507064
MARY,F,494516
REBECCA,F,492587
NATHAN,F,490848
JORDAN,F,488612
SAMUEL,F,486603
RACHEL,F,475985
KYLE,F,465375
PAUL,F,460914
JOSE,F,454958
LAUREN,F,449763
KELLY,F,446892
LAURA,F,438285
MEGAN,F,432725
JEREMY,F,431628
PATRICK,F,425291
TAYLOR,F,418907
CHRISTINA,F,417144
CHRISTIAN,F,413819
STEPHEN,F,412488
KENNETH,F,408737
SEAN,F,401202
HANNAH,F,400054
ETHAN,M,399138
EMMA,F,396496
ALEXIS,F,391290
AUSTIN,M,389145
OLIVIA,F,384853
GREGORY,F,373802
MADISON,M,370206
KATHERINE,F,366193
AMBER,F,365240
DYLAN,M,362509
DANIELLE,F,361174
ANDREA,F,359238
BRITTANY,F,358823
VICTORIA,F,356576
NOAH,M,346993
ABIGAIL,F,341451
MARIA,F,337311
TIFFANY,F,335672
KAYLA,F,333309
LOGAN,M,326106
BRYAN,F,325847
SHANNON,F,325077
ANNA,F,321602
GABRIEL,F,320918
JAMIE,F,316286
JULIE,F,310243
ERIN,F,308690
NATALIE,F,306162
SARA,F,305478
EDWARD,F,305424
CRYSTAL,F,304257
SHAWN,F,302523
ALYSSA,F,302106
SOPHIA,F,300282
ANGEL,F,299661
KAREN,F,299417
ISABELLA,F,296458
CHRISTINE,F,295513
JESSE,F,287560
CAMERON,F,287074
JUAN,F,284849
CODY,F,283874
TRAVIS,F,283029
ALLISON,F,279137
COURTNEY,F,274221
CALEB,M,267700
RONALD,F,256834
PATRICIA,F,255967
MASON,M,254364
ELIJAH,M,254207
CYNTHIA,F,253622
EVAN,F,249738
DONALD,F,249639
BRIANNA,F,248193
SUSAN,F,247719
PETER,F,243980
MORGAN,F,242990
GEORGE,F,242982
JASMINE,F,242554
BRADLEY,F,241529
LUKE,M,241441
JACK,F,241098
LUIS,F,239730
CARLOS,F,236588
CHAD,M,235253
TRACY,F,232940
ISAAC,M,231192
JULIA,F,230848
HUNTER,M,230498
KEITH,F,229539
ERICA,F,226360
ALEX,F,226140
GRACE,F,226009
LUCAS,M,225138
ALEXANDRA,F,224470
AVA,F,222580
VANESSA,F,220427
ADRIAN,F,219899
DEREK,F,215516
JACQUELINE,F,215435
TAMMY,F,215072
APRIL,F,214188
IAN,F,213120
NATHANIEL,F,211977
JAYDEN,M,211848
KRISTEN,F,211468
JACKSON,M,208795
GARY,F,206382
DUSTIN,M,204866
CATHERINE,F,202783
TODD,F,202186
MIA,F,202150
MARCUS,F,200814
ANTONIO,F,200414
DOUGLAS,F,200063
KATHRYN,F,199946
CONNOR,M,198934
MONICA,F,198672
SANDRA,F,197606
JARED,M,197282
LESLIE,F,195647
MELANIE,F,195587
ISAIAH,M,194162
ALICIA,F,193540
TINA,F,192076
CHLOE,F,191930
HENRY,F,190208
JESUS,F,190004
RAYMOND,F,189990
DAWN,F,189348
BROOKE,F,186639
JOEL,F,186031
AIDEN,M,185521
LEAH,F,185412
COREY,F,184733
SHANE,F,183650
KATIE,F,182302
VINCENT,F,181408
LORI,F,178710
CASEY,F,178110
JEREMIAH,M,177518
VICTOR,F,177246
RILEY,F,176560
PAMELA,F,175988
BRENDA,F,175157
LIAM,M,173814
WENDY,F,173040
BLAKE,F,171507
KATHLEEN,F,171107
DIANA,F,169653
KRISTIN,F,167966
GAVIN,M,166583
JULIAN,F,166518
DANA,F,165742
TARA,F,165439
SYDNEY,F,164372
DEVIN,F,164309
FRANK,F,164226
TERESA,F,162968
LARRY,F,162896
DENISE,F,162850
MARGARET,F,162627
LINDA,F,162291
HOLLY,F,161661
STACY,F,161602
KAITLYN,F,161529
CRAIG,F,160703
CHELSEA,F,158661
TROY,F,158177
CHASE,M,158053
LINDSEY,F,157292
SAVANNAH,F,156085
MIGUEL,F,155493
PHILLIP,F,154747
HALEY,F,154480
TREVOR,F,154336
AVERY,F,154004
DENNIS,F,153545
HAILEY,F,153442
NANCY,F,152643
SETH,M,152574
VALERIE,F,150386
KELSEY,F,149631
CASSANDRA,F,148928
VERONICA,F,148399
DEBORAH,F,148228
JERRY,F,147676
DONNA,F,146750
ALAN,F,146308
TERRY,F,144920
ERIK,F,144417
DESTINY,F,144039
LANDON,M,144030
CAROLINE,F,143867
OWEN,M,143075
JENNA,F,142743
ROBIN,F,142406
STACEY,F,141446
SHARON,F,141261
EVELYN,F,141148
BRETT,F,140190
ELLA,F,138423
DOMINIC,M,138030
CARTER,F,137207
MOLLY,F,137085
SHELBY,F,136081
JEFFERY,F,135495
MICHELE,F,135214
BARBARA,F,134530
WESLEY,F,134263
WYATT,M,134244
CARRIE,F,134044
RANDY,F,133710
PAIGE,F,133385
AUDREY,F,132086
KATELYN,F,130250
SEBASTIAN,M,129822
GABRIELLE,F,129347
LINDSAY,F,129160
CHARLOTTE,F,128926
MACKENZIE,F,128841
COLE,M,128051
KRISTINA,F,127743
DERRICK,F,127144
CORY,F,127051
SABRINA,F,126171
ALEJANDRO,M,124450
XAVIER,M,123873
LILLIAN,F,123739
JILL,F,123531
TONY,F,123202
MARTIN,F,122599
PHILIP,F,122518
GARRETT,M,122203
LILY,F,121539
RODNEY,F,121414
KAYLEE,F,121046
ERIKA,F,120977
AMELIA,F,120582
ADDISON,M,120402
JORGE,F,120260
THERESA,F,120255
JOHNNY,F,119302
MADELINE,F,119206
LEVI,M,119098
ALEXA,F,118241
MARISSA,F,118068
HEIDI,F,116303
CLAIRE,F,115825
AUTUMN,F,115777
COLIN,M,115498
HAYDEN,M,115416
RICARDO,F,115088
SOFIA,F,115036
RUSSELL,F,114944
DAKOTA,F,114559
GINA,F,114029
BAILEY,M,112877
CURTIS,F,112716
CHERYL,F,112372
ZOE,F,112123
MARIO,F,112040
TRISTAN,F,111693
PEYTON,F,111453
CAITLIN,F,111262
COLTON,M,111172
OSCAR,F,110543
MITCHELL,F,109976
BRAYDEN,M,109484
RENEE,F,109079
AIDAN,M,109077
FAITH,F,108887
AUBREY,F,108701
GABRIELLA,F,108311
CARL,F,107879
BRANDY,F,107653
MIRANDA,F,107599
BRYCE,M,107509
JAIME,F,107221
FRANCISCO,F,106659
BRENT,F,106318
PARKER,M,105740
JAKE,M,105703
CINDY,F,105485
KYLIE,F,104930
TONYA,F,104435
SPENCER,M,104055
MANUEL,F,103914
MARIAH,F,103893
ANDRE,F,102940
DANNY,F,102233
BRANDI,F,101492
DEBRA,F,101095
DIEGO,M,99538
MAKAYLA,F,99481
CARSON,M,98249
ELI,M,98091
CAROLYN,F,97636
WHITNEY,F,97459
TANYA,F,97389
ROGER,F,97060
JOCELYN,F,96541
MICAH,F,96521
ALLEN,F,96479
JIMMY,F,96354
GRANT,M,96132
MARC,F,95891
TAMARA,F,95778
ALISON,F,95601
RHONDA,F,95546
SIERRA,F,95260
PAULA,F,94895
KARA,F,94798
BILLY,F,94711
ANNE,F,94604
ALEXANDRIA,F,94537
OLIVER,M,94439
EDUARDO,M,94336
NATASHA,F,94318
IVAN,M,94303
MEGHAN,F,94132
LAWRENCE,F,93976
ANN,F,93730
BROOKLYN,F,93595
BETHANY,F,92983
BOBBY,F,92958
ARIANA,F,92530
JOSIAH,M,92158
BRIANA,F,92141
TANNER,M,91352
KENDRA,F,90395
RICKY,F,90264
KATRINA,F,90237
WALTER,F,90104
JOHNATHAN,M,89864
OMAR,M,89824
LYDIA,F,89663
LEE,F,89429
MELINDA,F,89181
DARREN,F,88835
ANA,F,88496
JAVIER,F,88139
DEANNA,F,87905
JON,F,87634
MAYA,F,87423
CALVIN,F,87028
DEVON,F,86862
ANGELINA,F,86351
MAX,F,86255
JOE,F,86158
ANGELICA,F,86092
BRENDAN,M,85818
EDWIN,F,85335
PRESTON,M,85290
ARIANNA,F,84927
LOUIS,F,84858
ALBERT,F,84719
ADRIANA,F,84656
ROBERTO,F,84565
DIANE,F,84448
JADEN,M,84264
JANET,F,83940
ARTHUR,F,83534
GERALD,F,83319
NAOMI,F,83098
CHRISTY,F,83031
JADE,F,82859
MISTY,F,82727
JAY,F,82604
ASHTON,M,82431
BRADY,M,82345
MAXWELL,M,82129
CLAYTON,M,82090
HECTOR,F,82059
BRITTNEY,F,82015
ARIEL,F,81882
KENDALL,F,81302
FERNANDO,M,81086
SHERRY,F,81058
BREANNA,F,80872
CAROL,F,80772
JILLIAN,F,80565
REGINA,F,80409
MICHEAL,F,79786
CARLA,F,79772
ISABEL,F,79765
BRUCE,F,79712
RANDALL,F,79670
NICOLAS,M,79556
COLLEEN,F,79545
AALIYAH,F,79456
CHRIS,F,79429
NOLAN,M,79376
JOANNA,F,79210
LANCE,F,78178
DAMIAN,M,77958
WILLIE,F,77910
SHEILA,F,77263
JESSIE,F,77196
COOPER,M,77165
TRINITY,F,76748
EVA,F,76646
GABRIELA,F,76584
RACHAEL,F,76180
WAYNE,F,75747
THEODORE,F,75654
SUZANNE,F,75535
EDGAR,M,75508
DESIREE,F,75122
CARMEN,F,74945
SUMMER,F,74856
BETH,F,74757
FELICIA,F,74665
LAYLA,F,74558
SKYLAR,M,74296
ANDRES,M,74291
COLLIN,F,73507
RUBEN,F,73465
DALTON,M,73285
MONIQUE,F,73155
NEVAEH,F,72975
KRYSTAL,F,72898
KALEB,M,72872
BRIDGET,F,72575
DREW,F,72149
RUBY,F,72097
MADELYN,F,71771
PAYTON,M,71758
TRACEY,F,71611
ROY,F,71471
DOMINIQUE,F,71441
KIM,F,71395
ZOEY,F,71322
BIANCA,F,70487
SERGIO,M,70453
DAISY,F,69407
KRISTA,F,68860
DEAN,F,68726
MARIE,F,68615
REBEKAH,F,68550
CHEYENNE,F,68440
EMMANUEL,M,68366
CESAR,F,68316
KENNEDY,F,68137
SHAUN,F,67812
AYDEN,M,67331
VIRGINIA,F,67282
KATHY,F,67222
HOPE,F,66809
ERICK,M,66679
FREDERICK,F,66661
KELLI,F,66519
JENNY,F,66455
SOPHIE,F,66266
LUCY,F,65984
DARRELL,F,65092
MARCO,F,64782
MARTHA,F,64710
JODI,F,64634
GRAYSON,M,64563
MATHEW,M,64391
PEDRO,F,64328
HARPER,M,64138
KRISTI,F,64053
LAURIE,F,64050
RAFAEL,F,63907
KRISTY,F,63635
BRODY,M,63599
ABRAHAM,M,63537
JAXON,M,63479
MEREDITH,F,63440
CLAUDIA,F,63282
KARLA,F,63266
GIOVANNI,M,63203
NICHOLE,F,63118
ALICE,F,63013
JADA,F,62947
STEVE,F,62679
CARLY,F,62488
RUTH,F,62248
YOLANDA,F,62171
ELIAS,M,61752
JONATHON,M,61750
ANDY,F,61731
ISABELLE,F,61721
MELODY,F,61711
DILLON,M,61688
SADIE,F,61608
CRISTIAN,M,61499
GENESIS,F,61401
KATE,F,61364
ROSE,F,61285
MARVIN,F,61213
MILES,M,60864
REGINALD,F,60659
EDDIE,F,60650
DALE,F,60591
RAUL,F,60491
GIANNA,F,60287
KRISTOPHER,M,60189
KRISTINE,F,60027
RONNIE,F,59896
SKYLER,M,59785
MAURICE,F,59619
GLORIA,F,59338
JONAH,M,59147
CANDACE,F,58987
JOY,F,58946
NATALIA,F,58469
PRISCILLA,F,58212
CANDICE,F,58127
KADEN,M,58058
JACE,M,58037
CADEN,M,58003
TOMMY,F,57976
SHELLY,F,57940
NORA,F,57874
NINA,F,57609
CASSIDY,M,57385
MCKENZIE,M,57346
KARINA,F,57335
KAITLIN,F,57016
TABITHA,F,56949
DANIELA,F,56753
ELENA,F,56459
LYNN,F,56455
VIVIAN,F,56282
KERRY,F,56161
GAGE,M,55744
LEONARDO,M,55690
GLENN,F,55530
CAMILA,F,55486
LEO,F,55458
DAMON,M,55389
HARRISON,M,54961
JODY,F,54953
ARMANDO,M,54883
TERRI,F,54825
GUADALUPE,F,54753
ALISHA,F,54562
JORDYN,F,54439
BONNIE,F,54411
CHARLIE,F,54186
ELLEN,F,54105
DAMIEN,M,53985
TRENTON,M,53976
BRYSON,M,53913
QUINN,F,53767
HELEN,F,53755
VALERIA,F,53707
ABBY,F,53527
HAROLD,F,53455
MALLORY,F,53409
CONNIE,F,53240
BRAD,M,53167
ANITA,F,53163
TONI,F,52913
COLBY,F,52753
ROSA,F,52664
TYRONE,F,52590
REAGAN,F,52069
EUGENE,F,51958
KARI,F,51924
MIKAYLA,F,51835
ANNETTE,F,51788
BARRY,F,51772
JANE,F,51647
MYA,F,51563
ISRAEL,M,51553
LEONARD,F,51495
CONNER,M,51461
ESTHER,F,51409
ROMAN,M,51375
CLINTON,M,51374
CAITLYN,F,51350
ERNEST,F,51338
JULIO,M,50731
DONOVAN,M,50573
ALANA,F,50536
LACEY,F,50278
SERENITY,F,50220
RYLEE,F,50200
JEROME,F,50116
AIMEE,F,49910
ELISE,F,49899
LILIANA,F,49869
ELLIE,F,49759
JOSEPHINE,F,49613
SCARLETT,F,49595
KIRSTEN,F,49532
SYLVIA,F,49423
MAGGIE,F,49261
JANICE,F,49181
KAYDEN,M,49166
STELLA,F,49047
ALEC,M,48841
JULIANA,F,48788
SONYA,F,48744
ALEJANDRA,F,48673
ALBERTO,M,48595
FRANCIS,F,48543
MELVIN,F,48532
CECILIA,F,48505
DARIUS,F,48383
HAYLEY,F,47969
MICHAELA,F,47965
CRISTINA,F,47902
ADRIENNE,F,47866
TERRANCE,F,47811
DALLAS,F,47733
HUDSON,M,47715
BELLA,F,47600
GERARDO,M,47306
ALLYSON,F,47141
GRACIE,F,47135
RAMON,F,47121
KIARA,F,47113
JACLYN,F,47092
STANLEY,F,46968
CAMILLE,F,46929
SANTIAGO,M,46893
SONIA,F,46870
DWAYNE,F,46493
ELEANOR,F,46449
ENRIQUE,M,46428
MIRIAM,F,46384
JACKIE,F,46364
KURT,F,46360
KYLEE,F,46122
CLARA,F,46112
JOSUE,M,46045
CHANCE,M,46030
NEIL,M,46021
YVONNE,F,46011
TRENT,F,45978
CARA,F,45977
LATOYA,F,45618
MARISA,F,45370
TRACI,F,45303
DARRYL,F,45285
TESSA,F,45037
RALPH,F,44956
JEAN,F,44712
LORENZO,F,44576
MARCOS,M,44251
JANELLE,F,44233
ASHLYN,F,44167
ROBYN,F,44149
SELENA,F,44130
KELLIE,F,43846
JASMIN,F,43835
ROSS,M,43671
RENE,F,43651
RAQUEL,F,43506
BRADEN,M,43447
FRANCES,F,43398
ASHLEE,F,43359
SAWYER,M,43304
ASHER,M,43097
KASEY,F,43083
LINCOLN,M,43076
ADRIANNA,F,43051
JOYCE,F,42886
TERRENCE,F,42800
ANGELO,F,42691
MALACHI,M,42582
JACQUELYN,F,42582
SHAWNA,F,42502
MALIK,M,42423
ANGIE,F,42412
MIKE,F,42392
REESE,M,42358
SHERRI,F,42349
TY,M,42184
YVETTE,F,42075
JOEY,F,41998
ALEXIA,F,41972
CAMDEN,M,41877
ESMERALDA,F,41793
BRAXTON,M,41683
SIMON,F,41678
WARREN,F,41527
VIOLET,F,41485
DOMINICK,F,41366
MEAGAN,F,41364
JUDITH,F,41278
JERMAINE,F,41222
BRYANT,M,41200
MARSHALL,F,41155
JEANETTE,F,41140
ANNIE,F,41104
BYRON,F,40917
GISELLE,F,40872
FRANKLIN,F,40844
HARRY,F,40843
LEON,F,40812
ARTURO,F,40682
RAVEN,F,40532
JAZMIN,F,40423
TYSON,M,40410
LONDON,F,40375
EASTON,M,40310
KELLEY,F,40297
ABEL,M,40154
DARLENE,F,40062
DOROTHY,F,39990
HOWARD,F,39957
ALFREDO,F,39911
JULIANNA,F,39902
JEFF,F,39832
ZANE,F,39771
NOEL,F,39569
LILLY,F,39471
SHELLEY,F,39438
KARL,F,39423
RYDER,M,39371
BEVERLY,F,39319
HARLEY,M,39307
NADIA,F,39271
ANNABELLE,F,39192
DANTE,M,39179
EBONY,F,39156
ELAINE,F,39121
MARILYN,F,38997
CHARLENE,F,38973
CHANDLER,M,38915
CELESTE,F,38904
RAY,F,38829
MATEO,M,38730
BROCK,M,38600
YESENIA,F,38594
GEOFFREY,M,38583
MAKENZIE,F,38486
BENTLEY,M,38415
PIPER,F,38271
CALLIE,F,38236
KAI,F,38128
WADE,F,38055
DEBBIE,F,37885
PENELOPE,F,37815
KYLA,F,37616
TRISHA,F,37491
JALEN,M,37209
KELVIN,F,37202
JAYLA,F,37148
SIDNEY,F,37124
ARIA,F,37093
ALAINA,F,36920
ALONDRA,F,36904
EZRA,M,36845
CLIFFORD,F,36780
CHRISTIE,F,36771
ALVIN,F,36717
TUCKER,M,36700
WESTON,M,36696
ALISSA,F,36696
CASSIE,F,36605
TREY,M,36514
MANDY,F,36470
SHIRLEY,F,36390
TRICIA,F,36317
FELIX,M,36173
JAXSON,M,36134
GRIFFIN,M,36048
SERENA,F,35958
WANDA,F,35937
ANASTASIA,F,35920
IRENE,F,35869
KEEGAN,M,35753
JAYLEN,F,35708
STACIE,F,35699
MAUREEN,F,35671
ORLANDO,F,35653
BETTY,F,35605
FABIAN,F,35588
AURORA,F,35540
ALIYAH,F,35454
IVY,F,35412
ALFRED,F,35391
RITA,F,35372
IRIS,F,35340
SASHA,F,35324
JOANNE,F,35269
JAZMINE,F,35173
TASHA,F,35160
NIKKI,F,35103
DELANEY,M,35037
MCKENNA,F,35017
KIRK,F,35007
HANNA,F,34995
STEFANIE,F,34982
SANDY,F,34980
EDEN,F,34904
CATHY,F,34861
PABLO,M,34674
TORI,F,34672
MINDY,F,34657
JUDY,F,34583
KHLOE,F,34577
ELLIOT,M,34567
CAROLINA,F,34511
BRITNEY,F,34431
GRAHAM,M,34405
EARL,F,34303
JAIDEN,F,34236
CLARENCE,F,34167
KAMERON,F,34145
EMANUEL,F,34086
DIAMOND,M,34010
NELSON,F,34001
AUBREE,F,33989
CORA,F,33875
ALI,M,33867
EVERETT,F,33779
BECKY,F,33761
PENNY,F,33719
LETICIA,F,33718
DEMETRIUS,F,33695
BELINDA,F,33687
KYRA,F,33655
SHERI,F,33634
GILBERT,F,33606
KRISTIE,F,33581
EZEKIEL,M,33503
MYLES,M,33461
MERCEDES,F,33456
KIRA,F,33424
EILEEN,F,33419
SALVADOR,M,33377
GUSTAVO,M,33213
DUANE,F,33211
LANE,F,33128
MARIANA,F,33053
CIARA,F,33049
ELLIOTT,M,32947
QUENTIN,M,32907
KAIDEN,M,32896
DARYL,F,32826
GENEVIEVE,F,32803
NICKOLAS,M,32700
ERNESTO,M,32696
KERRI,F,32645
PARIS,F,32580
BEAU,M,32577
DAWSON,M,32555
TATIANA,F,32542
CORBIN,M,32474
GEORGIA,F,32453
NORMAN,F,32405
AXEL,M,32392
BRENNAN,F,32377
CEDRIC,F,32330
ELISABETH,F,32277
CLARISSA,F,32262
SALLY,F,32219
JOHANNA,F,32163
ELIANA,F,32096
CAYDEN,M,32057
JUDE,F,31984
LEIGH,F,31983
MAYRA,F,31848
MARISOL,F,31773
NORMA,F,31678
LAILA,F,31617
ASHLEIGH,F,31604
ELISA,F,31568
TIA,F,31524
DRAKE,M,31502
JUSTINE,F,31365
JOSIE,F,31364
JUSTICE,M,31291
KASSANDRA,F,31242
ASIA,F,31236
CHELSEY,F,31133
JAMAL,M,31117
VICKI,F,30874
GWENDOLYN,F,30857
ROXANNE,F,30808
SILAS,M,30803
NOELLE,F,30720
EMILIO,M,30699
BERNARD,F,30583
JULIUS,M,30579
EMERSON,M,30578
JAYSON,M,30525
MALCOLM,M,30455
JUANITA,F,30310
ELIZA,F,30286
SAUL,M,30251
HAZEL,F,30216
LATASHA,F,30210
CHARITY,F,30108
GLEN,F,30075
LUKAS,M,30046
DESMOND,M,30023
TERRELL,F,30008
TOBY,F,29983
KERI,F,29961
GRETCHEN,F,29873
FATIMA,F,29869
ISMAEL,M,29867
ZION,M,29854
RYLAN,M,29772
ZACKARY,M,29758
KYLER,M,29691
LEWIS,M,29604
KATELYNN,F,29569
JAKOB,M,29550
ALLIE,F,29507
MARINA,F,29484
CHRISTA,F,29391
ALLAN,M,29345
LENA,F,29336
SHAYLA,F,29311
GREG,F,29295
SAVANNA,F,29226
DARIN,F,29170
LESLEY,F,29138
KAYLEIGH,F,29121
ZACHERY,M,28997
DELILAH,F,28955
MADELEINE,F,28915
BENNETT,M,28915
JOAN,F,28879
JANA,F,28861
RACHELLE,F,28830
BROOKLYNN,F,28769
LUCIA,F,28740
RODERICK,F,28726
DECLAN,M,28565
MARLENE,F,28530
SHANA,F,28509
LONNIE,F,28449
BOBBIE,F,28416
FRED,F,28345
VALENTINA,F,28233
PAISLEY,F,28150
AMARI,M,28138
CAMRYN,F,28108
LEROY,F,27878
MADDOX,M,27849
ALMA,F,27740
JAMESON,M,27727
AMIR,M,27698
KEIRA,F,27649
ROCHELLE,F,27613
CARISSA,F,27583
ROSEMARY,F,27572
MACY,F,27572
ALINA,F,27543
JOANN,F,27542
BRENNA,F,27510
KENNY,F,27510
BRIELLE,F,27491
HAYLEE,F,27423
ALISA,F,27414
PEGGY,F,27354
DEANDRE,M,27347
LORENA,F,27344
HILLARY,F,27291
DARRIN,F,27259
HEATH,M,27207
BRANDEN,M,27187
CIERRA,F,27170
DANIELLA,F,27071
TRACIE,F,27009
ESTEBAN,M,26999
ROWAN,M,26997
SAM,F,26935
ANGELIQUE,F,26893
KIMBERLEY,F,26798
MAKENNA,F,26774
SHANNA,F,26705
AMAYA,F,26683
KENDRICK,M,26522
DON,F,26448
MILA,F,26287
LEILA,F,26215
ATHENA,F,26207
LANA,F,26174
ALYSON,F,26164
REID,M,26155
DANE,F,26068
LILA,F,26050
TANIA,F,25904
ZACHARIAH,M,25855
FRANCESCA,F,25776
FRANKIE,F,25763
GREYSON,M,25746
CADE,M,25712
KENYA,F,25654
SAGE,F,25558
LEILANI,F,25544
TIANA,F,25511
BILLIE,F,25483
LARA,F,25439
ANTOINETTE,F,25423
GINGER,F,25366
ALIVIA,F,25143
HADLEY,F,25098
EMMETT,M,25088
JARROD,M,25057
GORDON,F,25039
MARLEY,F,25024
CLINT,M,25015
ALAYNA,F,24904
LOREN,F,24845
STUART,M,24843
QUINTON,M,24782
KRISTIAN,F,24724
BRENDEN,M,24694
KAILEY,F,24603
KENT,F,24584
TRINA,F,24577
MARLON,F,24567
TALIA,F,24563
JAYCE,M,24536
TARYN,F,24449
SHAUNA,F,24442
VERNON,M,24432
JOHNATHON,M,24401
RUDY,F,24362
HUGO,M,24265
HEAVEN,F,24219
GUILLERMO,M,24190
MOISES,M,24180
QUINCY,F,24089
STACI,F,24087
LORETTA,F,24061
RORY,F,24037
FIONA,F,24031
ANTOINE,F,23987
CHASITY,F,23813
DWIGHT,F,23711
DAPHNE,F,23704
RANDI,F,23649
KIANA,F,23623
IMANI,F,23487
TRISTEN,F,23443
BEN,F,23426
JOAQUIN,M,23425
ARIELLE,F,23349
LORRAINE,F,23347
PERRY,F,23322
FREDRICK,F,23318
ADAN,M,23302
EMERY,M,23274
RICK,F,23250
IZABELLA,F,23220
WILLOW,F,23184
CLIFTON,M,23107
TIARA,F,23054
LUCA,M,23010
JULISSA,F,22954
MARQUIS,M,22923
LIZBETH,F,22915
LANDEN,M,22910
EMILIA,F,22892
KALI,F,22813
CONSTANCE,F,22793
ANIYAH,F,22793
HARMONY,F,22787
RODOLFO,M,22776
CORINNE,F,22772
EDITH,F,22756
SIENNA,F,22747
TAMIKA,F,22722
DARNELL,F,22696
LYLA,F,22668
JASPER,M,22667
TATUM,F,22656
DEXTER,M,22619
DINA,F,22552
ERICKA,F,22551
XANDER,M,22504
ELISHA,F,22456
CLAY,M,22446
ROLAND,F,22441
KAMRYN,F,22427
MARIBEL,F,22364
KODY,F,22361
ROBERTA,F,22349
KATHARINE,F,22226
LEA,F,22212
ALFONSO,M,22202
ASHLYNN,F,22195
JENIFER,F,22168
FELIPE,F,22155
PAOLA,F,22154
TEAGAN,F,22133
DIANNA,F,22109
LLOYD,M,22070
LAUREL,F,22027
LORA,F,22020
MARSHA,F,21986
JOHNNIE,F,21983
JULIET,F,21900
LARISSA,F,21886
VICKIE,F,21881
MAXIMUS,M,21861
BRYNN,F,21816
KEISHA,F,21810
HERBERT,F,21796
PRESLEY,M,21768
EMILEE,F,21755
REED,M,21725
JEANNE,F,21703
LOLA,F,21697
SIMONE,F,21695
JODIE,F,21574
PHOEBE,F,21554
SHERYL,F,21527
GAIL,F,21501
MARCIA,F,21499
CONOR,M,21490
TIM,F,21470
RYLEIGH,F,21421
RODRIGO,M,21414
DORIAN,F,21411
BRET,M,21403
TAMI,F,21374
JULIANNE,F,21339
JENNIE,F,21329
HILARY,F,21312
JIM,F,21297
LEXI,F,21278
SONJA,F,21269
AUGUST,F,21239
ALONZO,F,21231
JARRETT,M,21224
GUY,F,21210
LAMAR,F,21106
BLAINE,F,21068
AUDRA,F,21051
XIMENA,F,21039
DAVIS,M,21003
LYNETTE,F,20986
SHEENA,F,20961
BLAIR,F,20882
TAMMIE,F,20820
ADELINE,F,20795
DONNIE,F,20779
LATONYA,F,20760
KINGSTON,M,20684
DARIAN,F,20664
AISHA,F,20659
NEAL,F,20619
MALIA,F,20555
NIA,F,20524
MARGARITA,F,20476
ELAINA,F,20461
LEANNE,F,20455
LUZ,F,20392
PHOENIX,M,20332
MARITZA,F,20241
SKYE,F,20186
GILBERTO,M,20165
TERI,F,20165
BRIDGETTE,F,20162
BRIANNE,F,20074
BROOKS,F,20050
NIKOLAS,M,20010
ALANNA,F,19990
JAMI,F,19929
MOSES,M,19918
CORTNEY,F,19880
CADENCE,F,19869
RIVER,M,19853
DAN,F,19809
ROGELIO,M,19806
INDIA,F,19805
KEATON,M,19791
HOLDEN,M,19751
KAYLIE,F,19720
VIVIANA,F,19717
BLANCA,F,19647
EMILIANO,M,19588
JIMMIE,F,19549
JOLENE,F,19518
GRADY,M,19515
LUNA,F,19507
SHARI,F,19500
ARLENE,F,19496
GENE,F,19476
MARION,F,19433
GAEL,F,19420
RICKEY,F,19405
BRANTLEY,M,19386
KIERA,F,19384
ROLANDO,M,19380
MAURICIO,M,19366
DENA,F,19364
KILEY,F,19354
LACY,F,19313
TABATHA,F,19307
KARISSA,F,19249
STERLING,F,19207
TERENCE,M,19201
JANINE,F,19159
BRENDON,M,19149
TANISHA,F,19118
LAURYN,F,19094
HALLIE,F,19076
TOMAS,M,19061
RYKER,M,19052
SOLOMON,M,18977
JONAS,M,18936
BAYLEE,F,18936
CRUZ,F,18881
YASMIN,F,18862
REECE,M,18685
AMIE,F,18683
PATRICE,F,18682
JUNE,F,18628
ALEXUS,M,18623
NATHANAEL,M,18615
WILSON,M,18571
MILTON,F,18495
ANTONIA,F,18491
KELSIE,F,18482
LELAND,M,18470
BRYANNA,F,18452
KINSLEY,F,18433
ZANDER,M,18398
TOM,F,18380
AILEEN,F,18347
PERLA,F,18331
JASE,M,18314
ADEN,M,18305
FORREST,M,18300
LEANNA,F,18276
KATLYN,F,18274
BOBBI,F,18254
ANDERSON,M,18191
LATISHA,F,18167
NOE,M,18126
FREDDIE,F,18028
KASSIDY,F,18014
RAMIRO,M,17959
DEVAN,M,17944
LAMONT,M,17931
WALKER,M,17916
CLARK,M,17904
KAYLIN,F,17903
BERNADETTE,F,17878
JULIETTE,F,17852
MADALYN,F,17851
SHEA,F,17832
MADDISON,F,17816
SHELDON,F,17790
CARLTON,F,17787
TONIA,F,17772
PRECIOUS,F,17749
JAYDA,F,17743
EMELY,F,17740
ISSAC,M,17683
FINLEY,M,17681
RONDA,F,17639
SALVATORE,M,17621
REGAN,F,17603
INGRID,F,17583
DERICK,M,17562
MOLLIE,F,17562
MARLA,F,17522
MIKAELA,F,17487
CAREY,F,17392
CELIA,F,17385
JAMISON,F,17382
KYLEIGH,F,17369
CHERI,F,17360
WAYLON,M,17327
BETSY,F,17313
MYRA,F,17296
RYLIE,F,17277
FLOYD,F,17274
ARACELI,F,17246
EMILIE,F,17234
STEPHAN,F,17206
TATE,M,17146
RAMONA,F,17106
LYRIC,F,17076
BRADFORD,M,17072
MELISA,F,17063
JUDAH,M,17063
NOEMI,F,17057
NORAH,F,17049
ZACKERY,M,17043
DARLA,F,16995
NAYELI,F,16982
STEFAN,M,16972
AYLA,F,16967
DORIS,F,16960
DEANA,F,16957
ALESSANDRA,F,16957
DARCY,F,16951
CAIDEN,M,16942
ISIAH,M,16935
DULCE,F,16929
ROBBIE,F,16893
HELENA,F,16856
LESTER,F,16848
PAXTON,M,16847
JO,F,16800
BEATRICE,F,16799
MARA,F,16740
JAVON,F,16727
ABBEY,F,16723
TOBIAS,M,16691
TED,M,16671
SUSANA,F,16664
ANNIKA,F,16632
CANDY,F,16604
JAYLIN,F,16573
LEANN,F,16532
LIA,F,16527
BILL,M,16506
LEONEL,M,16453
CHRISTI,F,16439
SARAI,F,16395
MARTY,F,16351
NICK,F,16351
KHALIL,M,16337
AHMAD,M,16293
FINN,M,16289
CHANEL,F,16283
ANGELIA,F,16199
TITUS,M,16177
NADINE,F,16170
RAEGAN,F,16166
GLENDA,F,16129
JANAE,F,16127
CASH,M,16112
CHERIE,F,16109
HOLLIE,F,16002
DION,F,15986
VICKY,F,15978
JOSELYN,F,15919
MARJORIE,F,15907
ELSA,F,15897
DESTINEE,F,15883
JAYME,F,15878
DAMION,M,15870
KEENAN,M,15855
HARVEY,M,15845
KATY,F,15838
SHELIA,F,15827
DESHAWN,F,15823
KING,M,15809
MARIANNE,F,15795
BRANDIE,F,15705
MACI,F,15703
GERARD,F,15696
KAITLYNN,F,15695
KENZIE,M,15682
ELYSE,F,15666
KOBE,M,15636
DEJA,F,15635
CARLEY,F,15632
EVE,F,15621
ARMANI,M,15603
JANIE,F,15520
JAN,F,15509
MAVERICK,M,15509
KELLEN,F,15505
SHAYNA,F,15467
DEWAYNE,M,15456
REX,M,15445
ITZEL,F,15437
ANIYA,F,15432
KADE,M,15401
CORNELIUS,F,15400
MADILYN,F,15370
URIEL,M,15364
BARRETT,F,15339
CHANDRA,F,15332
STEVIE,M,15311
PAULINA,F,15286
ADALYN,F,15284
NATHALIE,F,15263
KALEIGH,F,15233
WILL,M,15204
MACIE,F,15199
CALI,F,15171
ARNOLD,F,15159
KIERRA,F,15156
ELLIS,F,15153
LONDYN,F,15148
MELINA,F,15141
ARI,M,15129
SAMMY,F,15121
HERMAN,F,15118
KARIN,F,15116
ANYA,F,15095
CRISTAL,F,15075
CLYDE,F,15055
CLARE,F,15050
KRIS,F,15048
KURTIS,M,15025
TYRELL,M,15021
RASHAD,M,14997
JAMAR,M,14959
SHANIA,F,14950
GILLIAN,F,14945
RHETT,M,14918
EFRAIN,M,14908
DONTE,M,14897
ADA,F,14889
LYNDA,F,14877
ARON,M,14875
LILLIE,F,14832
HAVEN,M,14818
MARCELLA,F,14814
GUNNER,M,14813
KAREEM,M,14810
TIFFANI,F,14796
SILVIA,F,14779
TIERRA,F,14733
JORDON,M,14721
MIRACLE,F,14718
JADYN,F,14712
ZAYDEN,M,14705
JEANNETTE,F,14676
CARINA,F,14663
ISLA,F,14660
CHEYANNE,F,14659
CHANTEL,F,14654
LUCILLE,F,14642
CECELIA,F,14629
JEANNIE,F,14621
LILLIANA,F,14619
AINSLEY,F,14604
DANNA,F,14591
BRAYLON,M,14588
NYLA,F,14582
ANAHI,F,14581
KORY,F,14549
DANICA,F,14544
KAYDENCE,F,14541
CASANDRA,F,14533
NICOLETTE,F,14531
AYANNA,F,14488
ROCKY,F,14481
SELINA,F,14465
CYRUS,M,14457
VICENTE,M,14427
HAILEE,F,14400
COLT,M,14398
NEHEMIAH,M,14396
MADISYN,F,14362
ASPEN,F,14332
REMINGTON,M,14260
KIERSTEN,F,14239
PHYLLIS,F,14200
LYNDSEY,F,14191
FERNANDA,F,14157
JAQUELINE,F,14127
ADDYSON,F,14126
SCOTTY,M,14106
MOHAMED,M,14100
KINLEY,M,14097
GRETA,F,14076
CAMRON,M,14066
DEON,F,14058
MARYANN,F,14056
KOURTNEY,F,14044
KARTER,M,13986
JARVIS,M,13977
TERRA,F,13965
RAPHAEL,M,13958
MEAGHAN,F,13942
MAURA,F,13941
ROCCO,M,13933
PAULINE,F,13929
CECIL,F,13928
BRIA,M,13890
EVANGELINE,F,13889
ROMEO,M,13883
ROSALIE,F,13881
ADALYNN,F,13856
BRAYAN,M,13827
CATALINA,F,13823
SHERRIE,F,13818
FREDDY,M,13817
KAELYN,F,13808
JANETTE,F,13801
RHIANNON,F,13790
BEATRIZ,F,13787
IRMA,F,13784
GREGG,F,13744
DEVYN,F,13739
MAXIMILIAN,M,13717
LESLY,F,13670
ABBIE,F,13653
CHELSIE,F,13644
COLTEN,M,13634
REYNA,F,13622
LIANA,F,13588
HALEIGH,F,13581
VERA,F,13565
ANIKA,F,13562
ELISSA,F,13529
RON,M,13527
KAILA,F,13489
CARY,F,13456
ARABELLA,F,13453
TREVON,M,13438
DIANNE,F,13411
TYRA,F,13407
SAMARA,F,13407
CONRAD,M,13405
LILIAN,F,13363
CHRYSTAL,F,13297
TAYLER,F,13293
BAILEE,F,13278
HUGH,M,13266
TYREE,M,13248
CAMILLA,F,13242
CARLIE,F,13239
GIA,F,13230
STEPHANY,F,13189
JEFFERSON,M,13189
ORION,M,13186
JAELYN,F,13176
KARSON,M,13169
DUSTY,F,13150
DORA,F,13125
BRENTON,M,13124
HALLE,F,13122
BRAEDEN,M,13091
MARCY,F,13091
JARRED,M,13077
REYNALDO,M,13054
AHMED,M,13053
DUNCAN,M,13051
ELSIE,F,13049
JONI,F,13019
JOSH,M,13016
ALVARO,M,13011
RANDOLPH,F,12997
KRYSTLE,F,12982
ROCIO,F,12958
HUMBERTO,M,12947
ESTRELLA,F,12947
KIMBERLEE,F,12925
NATALY,F,12894
MOHAMMAD,M,12889
MADELYNN,F,12875
BRICE,M,12863
KALEY,F,12857
COLETTE,F,12854
DELIA,F,12844
LAKEISHA,F,12834
MILO,M,12831
LIZA,F,12815
OSVALDO,M,12815
WENDELL,F,12811
ABRAM,M,12801
JANESSA,F,12793
GLADYS,F,12788
TAMEKA,F,12768
MYRON,F,12765
TESS,F,12762
THADDEUS,M,12760
LIONEL,M,12760
KIERAN,F,12735
PIERCE,M,12726
ROYCE,F,12722
CHRISTEN,F,12713
JAX,M,12694
SUE,F,12687
CHESTER,M,12674
BRAYDON,M,12653
DAVON,M,12644
MARKUS,M,12642
JOELLE,F,12632
DEMARCUS,M,12627
TIMMY,F,12601
BROOK,F,12591
ADELYN,F,12570
WINSTON,M,12558
KORI,F,12553
MAXIMILIANO,M,12537
KAILYN,F,12533
LOUISE,F,12533
MATTEO,M,12522
LUCINDA,F,12509
JETT,M,12467
REUBEN,M,12459
BENNY,F,12450
GUNNAR,M,12443
DESIRAE,F,12438
CORINA,F,12429
CHADWICK,M,12423
ALEAH,F,12378
ANNMARIE,F,12359
LEXIE,F,12342
TRISTA,F,12339
OLGA,F,12337
TIANNA,F,12331
NIKITA,F,12325
LAKISHA,F,12319
QUINTIN,M,12304
YADIRA,F,12296
PIERRE,M,12291
SHAYNE,F,12264
VANCE,M,12249
CELINA,F,12244
LAYNE,F,12219
ASHANTI,F,12217
MCKAYLA,F,12216
YASMINE,F,12192
KACEY,F,12186
CULLEN,M,12185
BECKETT,F,12180
ISAIAS,M,12168
MOHAMMED,M,12164
MADYSON,F,12162
ELLE,F,12161
MARIAN,F,12144
JACKLYN,F,12098
MARCEL,F,12087
MILAN,M,12087
KENDAL,F,12063
JOURNEY,F,12048
AUBRIE,F,12041
ASA,F,12039
MAIA,F,12026
JAZLYN,F,12026
ALDO,M,12015
AMIRA,F,12012
DAYNA,F,11993
OTIS,M,11992
WENDI,F,11990
MELANY,F,11967
KOREY,F,11949
EZEQUIEL,M,11919
MOSHE,M,11906
LORIE,F,11904
ANTWAN,M,11892
JENA,F,11890
TRISTIN,F,11883
RUSTY,F,11873
KACIE,F,11871
SONNY,M,11867
EDNA,F,11852
IGNACIO,M,11845
ANTON,M,11817
CHRISTIN,F,11784
JEANINE,F,11782
ANISSA,F,11770
MATT,M,11749
JEWEL,F,11742
BRITTANI,F,11739
IRA,F,11734
GARRET,M,11723
TAMIA,F,11700
ANNABELLA,F,11689
KARLEE,F,11675
CORI,F,11656
JAROD,M,11652
GIDEON,M,11614
MUHAMMAD,M,11602
MORIAH,F,11593
RAELYNN,F,11590
AMANI,F,11583
MARICELA,F,11569
KOLTON,M,11563
COHEN,M,11518
DOLORES,F,11515
MONA,F,11513
MCKINLEY,M,11494
MARIAM,F,11485
MICAELA,F,11481
GERALDINE,F,11473
FELICITY,F,11466
ALENA,F,11460
DAVION,M,11429
KEELY,F,11425
KAILEE,F,11411
PRINCESS,F,11397
JANNA,F,11394
SHAINA,F,11393
DEVEN,F,11372
LIBERTY,F,11367
ADOLFO,M,11362
JAMARI,M,11357
MARLEE,F,11356
KRISTAL,F,11356
AGUSTIN,M,11329
GRACIELA,F,11324
JIMENA,F,11281
ABBIGAIL,F,11276
SHILOH,F,11273
LYLE,M,11262
KANE,M,11262
KOLBY,M,11241
ESPERANZA,F,11229
CIERA,F,11224
LILAH,F,11178
ALTON,M,11177
RANDAL,M,11175
KAYLYN,F,11174
SANTOS,F,11173
GEMMA,F,11165
NIGEL,M,11161
TRISTON,M,11148
DAMARIS,F,11140
LIZETTE,F,11139
SUSANNA,F,11133
DARIEN,F,11123
REBECA,F,11123
DAYTON,M,11115
ASHLY,F,11098
ELVIS,M,11091
BRYON,M,11087
BREANA,F,11072
MARANDA,F,11070
CHAYA,F,11070
GENEVA,F,11050
ADELAIDE,F,11046
LYNNE,F,11033
BABY,F,11031
MARTINA,F,11024
MICKEY,F,11017
MILEY,F,11002
TEVIN,M,10977
MALINDA,F,10972
BRIDGETT,F,10971
AMARA,F,10963
CARLEE,F,10939
ADRIEL,M,10928
THALIA,F,10920
MAGDALENA,F,10911
LOIS,F,10904
AMOS,M,10902
PORTER,M,10885
DEANGELO,M,10885
ANAYA,F,10879
JAMEL,M,10877
ISIS,F,10874
CARI,F,10872
VALARIE,F,10836
PRINCE,M,10828
ARYA,M,10820
GIANNI,M,10808
ELMER,M,10800
AMERICA,F,10773
DEVONTE,M,10771
GARRY,F,10768
AMIYAH,F,10768
TRACE,F,10756
STEWART,F,10749
DAYANA,F,10733
DAVE,M,10727
PEARL,F,10723
IRVIN,M,10723
ROSEMARIE,F,10708
DOREEN,F,10705
IBRAHIM,M,10700
ADRIANNE,F,10661
MARCI,F,10651
JARON,M,10647
NASIR,M,10635
KATINA,F,10620
OCTAVIA,F,10568
NAKIA,F,10567
DARA,F,10563
MATTIE,F,10539
CATHLEEN,F,10531
IKER,M,10520
LOURDES,F,10509
ANNALISE,F,10487
VAN,F,10480
KENNEDI,F,10468
LEEANN,F,10467
TALON,M,10457
KADENCE,F,10451
FRANCINE,F,10440
SCARLET,F,10429
MARCIE,F,10420
CRISTOPHER,M,10418
VAUGHN,F,10409
SKYLA,F,10394
CAYLA,F,10390
ANGELINE,F,10388
MAEVE,F,10374
KAYLYNN,F,10360
COLEMAN,M,10339
NICO,M,10339
ILIANA,F,10296
FARRAH,F,10291
DONNELL,F,10288
ELLIANA,F,10282
GIOVANNA,F,10273
JOLIE,F,10269
IZAIAH,M,10264
MARIELA,F,10263
CLAUDE,M,10244
ALECIA,F,10241
RENA,F,10233
JANELL,F,10224
TEDDY,F,10214
MONTANA,F,10202
MESSIAH,M,10197
LEIGHTON,M,10193
DEIDRE,F,10178
BREANNE,F,10177
KEN,M,10176
LASHAWN,F,10174
JANIYAH,F,10173
SHANTEL,F,10168
MARQUISE,F,10162
AMINA,F,10135
PAULETTE,F,10133
MACEY,F,10128
AYLIN,F,10127
KARLI,F,10125
CHARLEE,F,10125
BRYCEN,M,10116
SHAY,F,10115
AYANA,F,10107
ELOISE,F,10076
WALLACE,M,10071
JOVAN,M,10068
KARLY,F,10054
TATYANA,F,10054
JANEL,F,10021
CHANA,F,9997
JUNIOR,M,9995
MORRIS,M,9994
ASHLIE,F,9976
NOVA,F,9976
BO,M,9973
LADONNA,F,9962
DAVIN,M,9949
RIGOBERTO,M,9934
EDMUND,M,9927
LANEY,F,9923
CHARLEY,M,9922
YAHIR,M,9917
JAQUAN,M,9915
KARLIE,F,9893
DEIRDRE,F,9889
SUSIE,F,9888
DALIA,F,9886
JOHAN,M,9876
MANDI,F,9837
VIVIENNE,F,9829
JANIYA,F,9828
SKY,M,9820
MARIANNA,F,9812
LACIE,F,9805
SHERMAN,M,9804
LEONA,F,9803
JAIMIE,F,9794
MEKHI,M,9765
TAMMI,F,9761
SUNNY,F,9757
ULISES,M,9756
JUANA,F,9755
KAY,F,9752
ANSLEY,F,9749
TORY,F,9746
GWEN,F,9720
KALLIE,F,9676
CATRINA,F,9653
IDA,F,9652
MALIYAH,F,9650
DANIKA,F,9626
CHASTITY,F,9626
TOMMIE,F,9608
DEMETRIA,F,9597
PATTY,F,9593
CHERISH,F,9584
JUSTINA,F,9576
HAYLIE,F,9567
KELSI,F,9561
JENSEN,M,9534
DARWIN,M,9532
HANA,F,9531
ANNABEL,F,9531
JADON,M,9526
MARQUITA,F,9510
CHAZ,M,9501
RENAE,F,9500
JAYCEE,F,9485
NATHANIAL,M,9475
VIRGIL,F,9467
SHANICE,F,9465
RACHEAL,F,9461
LINA,F,9449
DIONNE,F,9443
PETE,M,9438
RAINA,F,9425
MYLA,F,9421
BRYNLEE,F,9421
MAXINE,F,9405
ROSALINDA,F,9403
TAMERA,F,9402
ALYCIA,F,9400
KIRBY,F,9397
MARISELA,F,9388
ALIA,F,9382
ROSIE,F,9374
MILDRED,F,9350
JULIEN,M,9346
ROXANA,F,9346
EMORY,F,9340
RYANN,F,9338
SADE,F,9331
ALIJAH,M,9331
LANDYN,M,9325
JAYLON,M,9321
JAIRO,M,9317
JACOBY,M,9313
CHRISTIANA,F,9305
ROHAN,M,9292
KRISTOFER,M,9275
KAMARI,M,9264
GISSELLE,F,9258
GEORGINA,F,9245
PATIENCE,F,9238
RONAN,M,9237
KAMILA,F,9235
LASHONDA,F,9223
ALYSHA,F,9218
JOSLYN,F,9212
EUNICE,F,9199
LORELEI,F,9198
KAIA,F,9185
RAYNA,F,9182
DENZEL,M,9169
ISABELA,F,9161
JERROD,M,9154
SAVANAH,F,9147
KARYN,F,9137
MAEGAN,F,9105
SCOTTIE,F,9099
TERA,F,9091
LACI,F,9087
DARBY,F,9080
MARLENA,F,9056
BRODIE,M,9054
IVORY,F,9041
NASH,M,9041
TISHA,F,9035
BERTHA,F,9032
FALLON,M,9021
KACI,F,9017
ESSENCE,F,9017
SANTANA,M,9016
DAREN,F,8997
LILIA,F,8996
HASSAN,M,8995
BERNICE,F,8984
LUTHER,M,8983
LIBBY,F,8981
JERI,F,8976
KASANDRA,F,8970
TIFFANIE,F,8966
ENZO,M,8961
ALYSIA,F,8957
OCTAVIO,M,8954
REINA,F,8952
JAYLEEN,F,8948
AMYA,F,8938
CORTEZ,M,8931
LATRICE,F,8930
REILLY,M,8927
EARNEST,F,8922
ZOIE,F,8905
NATALEE,F,8905
JESS,F,8903
ZECHARIAH,M,8903
SHYANNE,F,8898
ALONSO,M,8894
ALLY,F,8894
MARGO,F,8876
MARI,F,8870
ARELY,F,8866
EVERLY,F,8861
KATELIN,F,8854
DARREL,M,8849
DAHLIA,F,8848
CARLO,F,8831
IVETTE,F,8824
SUZETTE,F,8812
MONTE,F,8803
OLIVE,F,8795
SLOANE,F,8792
KEAGAN,M,8780
ERICH,M,8777
KENNA,F,8771
TAMRA,F,8764
CHANNING,M,8764
DASHAWN,F,8758
BRAYLEN,M,8747
HANS,M,8739
BRENNEN,M,8738
GIULIANA,F,8732
LUISA,F,8717
DIXIE,F,8691
CAMPBELL,M,8684
REMY,M,8672
JORDEN,M,8653
MIKEL,M,8651
SONDRA,F,8627
BENNIE,F,8625
KASON,M,8620
CELINE,F,8618
LISETTE,F,8595
ARACELY,F,8592
BRYLEE,F,8579
MARTA,F,8576
ARIELLA,F,8576
LUCIANO,M,8561
KAYA,F,8554
MONIKA,F,8550
DEENA,F,8549
ANNEMARIE,F,8544
OMARI,M,8542
RYLAND,M,8532
LATANYA,F,8529
TYRESE,F,8520
HILDA,F,8517
JAMEY,F,8510
COBY,F,8500
KIRSTIN,F,8497
GINO,M,8485
KRISTYN,F,8484
JAZMYN,F,8481
SUSANNE,F,8467
LEIA,F,8467
JAIDA,F,8463
URIAH,M,8462
ZARA,F,8410
VALENCIA,F,8404
HOUSTON,M,8403
JAYDON,M,8391
ROSALYN,F,8377
ALEXANDREA,F,8369
GRACELYN,F,8366
RICO,M,8365
CHRISTAL,F,8359
MACK,M,8359
GERMAN,M,8356
BRAELYN,F,8349
JAYLYNN,F,8345
ROSARIO,F,8340
BREE,F,8330
JERALD,M,8313
FABIOLA,F,8300
TYLOR,M,8299
GAYLE,F,8286
SYLVESTER,M,8271
KELLAN,F,8271
ANTONY,M,8269
GENA,F,8269
SARINA,F,8261
ALEENA,F,8253
YARETZI,F,8243
GRISELDA,F,8228
CARLI,F,8223
ALIYA,F,8221
ZARIA,F,8211
JAMAAL,M,8208
LUCIANA,F,8193
SCOT,M,8191
ROXANNA,F,8189
CAYLEE,F,8184
ERVIN,M,8184
YAZMIN,F,8183
KAMI,F,8182
DENVER,M,8177
LAKESHA,F,8174
THERESE,F,8171
KARRIE,F,8166
MYAH,F,8166
LAWSON,M,8164
AUSTEN,M,8163
WINTER,F,8151
MARLO,F,8142
RAELYN,F,8141
KATARINA,F,8138
DOMINIK,M,8134
KNOX,M,8121
ALDEN,M,8118
HERIBERTO,M,8117
LIZETH,F,8115
AUGUSTUS,M,8108
MINA,F,8107
PALOMA,F,8102
JAIDYN,F,8098
CURT,M,8093
ANABEL,F,8090
DEIDRA,F,8088
SHAKIRA,F,8084
ARCHER,M,8071
MITCHEL,M,8049
ADRIEN,F,8049
AVERIE,F,8046
MIREYA,F,8040
ALIZA,F,8032
ZARIAH,F,8032
CHARMAINE,F,8014
BRADLY,M,8011
JALIYAH,F,8001
JEANNINE,F,7999
MISTI,F,7989
KAMDEN,M,7988
BENITO,M,7978
KAYLEY,F,7953
NESTOR,M,7948
KEON,M,7944
CHAIM,M,7938
KATHRINE,F,7938
ARYANNA,F,7937
FLORENCE,F,7933
BRONSON,M,7926
ATTICUS,M,7926
ROSANNA,F,7923
CHANTAL,F,7902
ADONIS,M,7891
CARYN,F,7890
LAWANDA,F,7883
BELEN,F,7874
ULYSSES,M,7871
INFANT,M,7868
WILLIS,F,7858
BRANT,M,7854
CALE,M,7848
DEANNE,F,7837
SYDNEE,F,7832
ANDRIA,F,7827
CASON,M,7821
RHYS,M,7814
DEMI,F,7807
CORDELL,M,7802
DEVANTE,M,7773
AJA,F,7764
HOLLI,F,7743
HANK,M,7735
AIYANA,F,7733
MARQUES,M,7731
MICHEL,F,7731
JABARI,M,7716
MARYAM,F,7712
THEA,F,7710
ADELE,F,7707
ADDISYN,F,7672
LAINEY,F,7672
DEBORA,F,7669
STEPHON,M,7659
ANNAMARIE,F,7657
KENIA,F,7653
ANABELLE,F,7649
JAYLENE,F,7645
EMMALEE,F,7640
JAYLAH,F,7640
MISAEL,M,7634
KIANNA,F,7630
KALIYAH,F,7628
DEONTE,M,7618
KOLE,M,7615
JACEY,F,7609
RHEA,F,7604
AMALIA,F,7603
SULLIVAN,M,7590
SALMA,F,7586
GIANA,F,7586
JUSTUS,M,7585
BRISA,F,7585
MIRA,F,7576
PATTI,F,7575
RENATA,F,7569
KIA,F,7552
KILLIAN,M,7549
BERNARDO,M,7546
GONZALO,M,7544
DELORES,F,7542
EMBER,F,7531
MARLIN,F,7527
LOUIE,F,7512
DAQUAN,M,7511
DESTINEY,F,7510
ASHA,F,7506
DENIS,F,7504
DARIO,M,7498
KIMORA,F,7488
KALYN,F,7486
SAIGE,F,7479
ESTEVAN,M,7474
DESTINI,F,7468
ALESSANDRO,M,7457
LYNNETTE,F,7453
CAROLE,F,7447
MAJOR,M,7432
IESHA,F,7431
CORRINE,F,7423
FAYE,F,7402
MAE,F,7395
BRUNO,M,7395
ARCHIE,M,7394
SEMAJ,M,7392
ARJUN,M,7380
SAMIR,M,7377
UNIQUE,F,7366
AUSTYN,F,7351
LIDIA,F,7345
AIDA,F,7340
RICHELLE,F,7336
SHANDA,F,7336
DIMITRI,F,7334
ARRON,M,7327
KAYCEE,F,7326
DANGELO,M,7323
HALIE,F,7322
YARELI,F,7315
JESSI,F,7314
BRYN,F,7313
MIAH,F,7304
LORRIE,F,7303
RUDOLPH,M,7297
JAELYNN,F,7295
ALESHA,F,7288
KYRIE,F,7288
KENYATTA,F,7283
TEGAN,F,7279
RUBI,F,7278
JEFFRY,M,7275
JOESPH,M,7270
MILLIE,F,7268
KALA,F,7267
KIAN,M,7265
KAYLEN,F,7264
ABRIL,F,7264
DARRICK,M,7263
JOSEF,M,7262
REGGIE,M,7258
JAYCEON,M,7257
BRODERICK,M,7257
VALENTIN,M,7246
ROOSEVELT,F,7244
IRVING,M,7241
LISSETTE,F,7234
WILFREDO,M,7232
DONAVAN,M,7231
MARCELO,M,7231
SANTINO,M,7228
BART,M,7227
SAMSON,M,7226
KALE,M,7224
ACE,M,7224
DARRIUS,M,7221
AMI,F,7219
LAURENCE,F,7216
MATIAS,M,7216
HATTIE,F,7205
AUDRINA,F,7197
DARION,M,7174
ROBBY,F,7161
MADALYNN,F,7160
URSULA,F,7152
KERRIE,F,7151
YESSENIA,F,7150
XIOMARA,F,7148
GIANCARLO,M,7132
KINSEY,M,7126
JAMILA,F,7120
MARGIE,F,7120
DANDRE,F,7117
JOHNNA,F,7111
DAVINA,F,7101
SELAH,F,7100
LAYTON,M,7096
RODRICK,M,7092
TRISTIAN,M,7091
BOSTON,M,7089
ARIC,M,7084
LANDRY,M,7081
RAHEEM,M,7070
ROSALIND,F,7064
KARLEY,F,7058
STACIA,F,7050
ADELYNN,F,7046
ELANA,F,7030
GALEN,F,7029
SHONDA,F,7020
STORMY,F,7019
JERRI,F,7005
ESTELLA,F,7002
CRISTY,F,6995
MILAGROS,F,6988
JAMIL,M,6985
KEVEN,M,6982
MARCELA,F,6982
BLAKELY,M,6981
NYLAH,F,6976
EDDY,M,6961
KIMBER,F,6953
LENNON,M,6948
MADILYNN,F,6944
EVIE,F,6941
CARMELO,M,6933
SARIAH,F,6931
JEANNA,F,6930
WILLARD,M,6925
KEYLA,F,6922
DOMONIQUE,F,6901
LILYANA,F,6897
SINCERE,M,6896
SIENA,F,6893
DANI,F,6892
DARON,M,6892
KATHERYN,F,6891
SHEREE,F,6891
KYLAN,M,6885
RAE,F,6881
CORRIE,F,6870
NIKO,M,6863
MATILDA,F,6862
SHYLA,F,6861
FIDEL,M,6843
YARITZA,F,6841
JOANA,F,6825
BRINLEY,F,6824
ERYN,F,6821
BRAIDEN,M,6820
RIKKI,F,6820
AMARIS,F,6811
MALISSA,F,6807
EUGENIA,F,6807
YOSEF,M,6805
DILLAN,M,6801
MAREN,F,6798
VINCE,M,6798
AUGUSTINE,F,6795
AKIRA,M,6794
ALYSA,F,6793
DELLA,F,6792
MALAYSIA,F,6786
STARR,F,6783
RIAN,M,6768
NIKOLE,F,6767
MALEAH,F,6767
ADDIE,F,6762
KENYON,M,6758
BERENICE,F,6754
CANNON,M,6743
KENTON,M,6739
KORBIN,M,6736
TALIYAH,F,6733
BRITTON,M,6732
THELMA,F,6721
GARRISON,M,6714
FINNEGAN,M,6714
RAYMUNDO,M,6711
DONNY,M,6711
XZAVIER,M,6709
ROYAL,F,6704
MARGOT,F,6702
LUCERO,F,6700
LOUISA,F,6699
JAYNE,F,6696
TYRON,M,6696
ADELINA,F,6685
BRIGITTE,F,6679
LYNDSAY,F,6678
SHERLYN,F,6674
TOSHA,F,6671
ELYSSA,F,6668
JAYDE,M,6667
RASHAWN,F,6664
DANIA,F,6664
MATTHIAS,M,6656
ELVIN,M,6652
FELECIA,F,6652
MATHIAS,M,6650
ELISEO,M,6644
CATHRYN,F,6634
ANDREAS,M,6625
FLOR,F,6622
VINCENZO,M,6618
JACQUES,M,6616
LEXUS,F,6609
KISHA,F,6604
KAYLI,F,6603
BENSON,M,6576
SHAE,F,6575
BRILEY,F,6555
SHELLIE,F,6554
JAYLYN,F,6553
ASTRID,F,6551
CORAL,F,6543
ASHTYN,F,6543
QUINTEN,M,6533
ALLYSSA,F,6528
SUZANNA,F,6525
ABDULLAH,M,6512
ALYSE,F,6508
BOB,M,6508
DAX,M,6507
ASHELY,F,6506
KRYSTA,F,6498
ANAIS,F,6495
AMIYA,F,6494
YUSUF,M,6482
THEO,M,6477
EBONI,F,6476
EMERALD,F,6472
JEDIDIAH,M,6462
CHANTELLE,F,6455
EVELIN,F,6453
EFREN,M,6452
KASSIE,F,6443
MONSERRAT,F,6442
RIVKA,F,6434
NELLIE,F,6433
EVELYNN,F,6433
LATOSHA,F,6431
DEACON,M,6429
LEIF,M,6428
MICHELL,F,6428
JAMARION,M,6415
ROSELYN,F,6412
ZURI,F,6407
STEFANI,F,6402
KATERINA,F,6396
KAMRON,M,6395
HAMZA,M,6373
FLETCHER,M,6368
KENLEY,M,6367
DENNY,F,6366
REMI,M,6365
SHELTON,M,6355
AZARIAH,M,6349
JORDIN,F,6348
GREGORIO,M,6341
BRITANY,F,6338
CAMREN,M,6331
MIYA,F,6328
ALANI,F,6318
EMELIA,F,6312
BLAISE,M,6312
SHAYLEE,F,6308
KHADIJAH,F,6305
JAYLEE,F,6300
SALINA,F,6293
RYLEY,M,6290
KEILA,F,6283
SEAMUS,M,6280
TRAVON,M,6273
COY,M,6263
SOREN,M,6253
LEYLA,F,6249
DANAE,F,6243
JALYN,F,6242
DOMINQUE,F,6241
DANELLE,F,6222
KANDICE,F,6214
KASH,M,6213
DOMINGO,M,6212
NATHALY,F,6211
MALAKAI,M,6206
MABEL,F,6201
MIKA,F,6200
YAEL,F,6198
MARGUERITE,F,6195
DRAVEN,F,6194
SHAMEKA,F,6191
NIKOLAI,M,6189
EMMY,F,6186
JOSEFINA,F,6181
COTY,F,6177
TREVER,M,6176
RAMSEY,F,6170
REY,M,6161
GIOVANI,M,6159
VANESA,F,6157
ZAIDEN,M,6155
KAELA,F,6154
AMELIE,F,6153
FRANCO,M,6143
SHANIYA,F,6141
WILBERT,F,6137
STAR,F,6133
BRIELLA,F,6124
SLOAN,F,6118
LITZY,F,6117
LEANDRA,F,6116
CECILY,F,6102
ALEXANDRO,M,6102
SIMEON,M,6100
DENISSE,F,6086
THERON,M,6084
KARSYN,F,6084
DAYANARA,F,6081
ESTEFANIA,F,6076
PATSY,F,6074
SHANON,F,6071
BLAZE,M,6070
LIVIA,F,6069
JENELLE,F,6068
BRISTOL,M,6066
OAKLEY,M,6064
JUDSON,M,6062
OTTO,M,6058
SIOBHAN,F,6046
SHYANN,F,6038
ZAYNE,M,6035
ARDEN,F,6034
KAYLEEN,F,6031
FRANCESCO,M,6028
JAKAYLA,F,6026
CHAUNCEY,M,6025
ARYANA,F,6022
ANTWON,M,6019
KAIYA,F,6018
NATALYA,F,6009
SHANTE,F,6006
AMIRAH,F,6003
IVANA,F,6003
NICOLA,F,6000
SAMIRA,F,5998
KAYLAH,F,5998
SANIYA,F,5993
BRITTNI,F,5991
CRISTOBAL,M,5989
RICKIE,F,5981
ALEXZANDER,M,5980
JACKELINE,F,5980
JEANA,F,5977
LINDY,F,5976
SUSANNAH,F,5966
CONSUELO,F,5963
EDMOND,M,5956
JOHANA,F,5949
JED,M,5945
TERRIE,F,5937
LUCIAN,M,5934
CASE,M,5932
DERECK,M,5928
WILLA,F,5927
MARIANO,M,5927
DOUG,M,5925
KASEN,M,5922
JALISA,F,5922
DEMARIO,M,5919
KHALID,M,5919
LEIGHA,F,5917
JOVANI,M,5916
GIOVANNY,M,5910
SARAHI,F,5910
ZAIRE,M,5906
ELIEZER,M,5903
JEROD,M,5895
DANETTE,F,5894
SELENE,F,5893
ARYAN,F,5892
BRYANA,F,5883
NOOR,F,5880
JESSIKA,F,5878
RONNY,F,5868
NIKI,F,5863
LILIANNA,F,5859
DARIA,F,5858
JAZLYNN,F,5840
KESHAWN,M,5838
DOMENIC,M,5835
LAKEN,F,5830
TORREY,F,5828
JESSY,M,5826
CORNELL,M,5823
CHARLI,F,5823
SHAMAR,F,5815
ABIGAYLE,F,5815
RAIDEN,M,5793
YOSELIN,F,5792
TRUDY,F,5788
SOMMER,F,5782
SHAQUILLE,M,5778
PORTIA,F,5778
VENUS,F,5772
MARIEL,F,5771
CHANDA,F,5766
BRANSON,M,5764
SHARONDA,F,5753
ARIAN,F,5751
LORNA,F,5751
FRIDA,F,5746
MONTY,M,5744
MEADOW,F,5743
LUKA,M,5732
KEELEY,F,5726
FELISHA,F,5723
TAMAR,F,5719
RAYNE,F,5719
SHERIDAN,F,5710
BRITT,F,5710
KACY,F,5710
DEANN,F,5707
BREANN,F,5705
DIRK,M,5704
BONITA,F,5703
JASMYN,F,5694
NOELIA,F,5691
CALISTA,F,5690
KORTNEY,F,5690
ISAI,M,5689
DESTIN,M,5688
CEDRICK,M,5686
CARMELA,F,5683
LENORA,F,5681
DELBERT,M,5679
CANDI,F,5679
TANA,F,5678
DANYELLE,F,5677
LELA,F,5674
ALPHONSO,M,5674
AMBERLY,F,5673
TARIQ,M,5672
STARLA,F,5671
AKEEM,M,5662
MAIRA,F,5660
ASHLI,F,5658
ZAIN,M,5651
KRISTAN,F,5647
KENDELL,F,5645
EDISON,M,5644
HARLAN,M,5640
UNKNOWN,F,5638
DEMOND,M,5638
POLLY,F,5633
MITZI,F,5630
JOCELYNN,F,5629
VALENTINO,M,5623
NICOLLE,F,5619
RHIANNA,F,5614
DAXTON,M,5608
CORINNA,F,5607
SHANIKA,F,5601
ADELA,F,5597
JANAY,F,5591
BRANDAN,M,5588
HORACE,M,5587
MEMPHIS,F,5586
HUBERT,M,5586
HAILIE,F,5586
LINNEA,F,5573
MELODIE,F,5566
MARIN,F,5564
DEANDRA,F,5563
JAEDEN,M,5563
FEDERICO,M,5558
FLORA,F,5554
SANIYAH,F,5552
MARYJANE,F,5548
TURNER,M,5540
FRANCISCA,F,5533
TAWANA,F,5531
PETRA,F,5525
ABAGAIL,F,5521
KELSEA,F,5515
ARELI,F,5513
ALANNAH,F,5495
JAMMIE,F,5494
MAKENA,F,5489
ISABELL,F,5482
KARIS,F,5480
IVANNA,F,5478
SANDI,F,5475
TREASURE,F,5461
KATLIN,F,5460
WHITLEY,M,5457
ANABELLA,F,5455
ELVIRA,F,5454
NOLA,F,5454
JOURNEE,F,5453
EMERSYN,F,5453
PRIYA,F,5452
ELTON,M,5449
AVERI,F,5445
LETITIA,F,5443
NATHEN,M,5442
JAIR,M,5441
BRANDEE,F,5438
JEANIE,F,5436
REANNA,F,5433
ANGELITA,F,5433
TRE,M,5428
WESTLEY,M,5427
DONTAE,M,5425
HARRIS,M,5425
ROSLYN,F,5421
BUDDY,M,5417
GALILEA,F,5413
GRACELYNN,F,5411
YAJAIRA,F,5410
KANDACE,F,5408
ABIGALE,F,5407
ISIDRO,M,5407
KARMEN,F,5405
CHYNA,F,5399
DESHAUN,F,5395
JACQUELIN,F,5392
JAVION,M,5391
ALEXI,M,5391
TAYA,F,5385
DARCI,F,5385
NICHELLE,F,5384
SHELBI,F,5382
KATIA,F,5381
LEANDRO,M,5380
ABDUL,M,5378
RIHANNA,F,5374
ANTIONETTE,F,5373
KESHIA,F,5373
JANIS,F,5372
EVANGELINA,F,5371
ADINA,F,5371
TATIANNA,F,5369
KELTON,M,5368
