Total births:,218003
Total M:,119335
Total F:,98668
NAME,GENDER,COUNT,PERCENTAGETOTAL,PROP100K
JACK,M,4234,1.942175108%,1942.175107682
JAMES,M,4007,1.838048100%,1838.048100256
DANIEL,M,3515,1.612363133%,1612.363132617
CONOR,M,3212,1.473374220%,1473.374219621
SEAN,M,3170,1.454108430%,1454.108429701
ADAM,M,2779,1.274753100%,1274.753099728
RYAN,M,2458,1.127507420%,1127.507419623
HARRY,M,2361,1.083012619%,1083.012619092
MICHAEL,M,2320,1.064205538%,1064.205538456
LUKE,M,2286,1.048609423%,1048.609422806
NOAH,M,2238,1.026591377%,1026.591377183
CHARLIE,M,2212,1.014664936%,1014.664935804
DYLAN,M,2132,0.977968193%,977.968193098
THOMAS,M,2116,0.970628845%,970.628844557
ALEX,M,2093,0.960078531%,960.078531029
OISIN,M,2090,0.958702403%,958.702403178
CIAN,M,2003,0.918794695%,918.794695486
LIAM,M,1964,0.900905033%,900.905033417
PATRICK,M,1940,0.889896011%,889.896010605
JAMIE,M,1899,0.871088930%,871.088929969
DARRAGH,M,1887,0.865584419%,865.584418563
CILLIAN,M,1760,0.807328340%,807.328339518
AARON,M,1755,0.805034793%,805.034793099
MATTHEW,M,1697,0.778429655%,778.429654638
DAVID,M,1534,0.703660041%,703.660041376
JOHN,M,1520,0.697238111%,697.238111402
FIONN,M,1514,0.694485856%,694.485855699
JAKE,M,1496,0.686229089%,686.229088591
BEN,M,1372,0.629349137%,629.349137397
NATHAN,M,1358,0.622927207%,622.927207424
ETHAN,M,1286,0.589900139%,589.900138989
FINN,M,1264,0.579808535%,579.808534745
EVAN,M,1221,0.560084036%,560.084035541
OLIVER,M,1165,0.534396316%,534.396315647
KYLE,M,1161,0.532561479%,532.561478512
JOSHUA,M,1132,0.519258909%,519.258909281
CALLUM,M,1118,0.512836979%,512.836979308
MAX,M,1106,0.507332468%,507.332467902
SAMUEL,M,1091,0.500451829%,500.451828645
RIAN,M,1079,0.494947317%,494.947317239
EOIN,M,1076,0.493571189%,493.571189387
JOSEPH,M,1072,0.491736352%,491.736352252
TADHG,M,1029,0.472011853%,472.011853048
ALEXANDER,M,989,0.453663482%,453.663481695
MASON,M,956,0.438526075%,438.526075329
WILLIAM,M,936,0.429351890%,429.351889653
SAM,M,930,0.426599634%,426.599633950
AIDAN,M,928,0.425682215%,425.682215382
JAYDEN,M,897,0.411462228%,411.462227584
JACOB,M,893,0.409627390%,409.627390449
OSCAR,M,891,0.408709972%,408.709971881
TOM,M,885,0.405957716%,405.957716178
RONAN,M,838,0.384398380%,384.398379839
ROBERT,M,820,0.376141613%,376.141612730
SHANE,M,786,0.360545497%,360.545497080
BOBBY,M,785,0.360086788%,360.086787796
LEON,M,780,0.357793241%,357.793241377
CATHAL,M,763,0.349995184%,349.995183553
RORY,M,761,0.349077765%,349.077764985
MARK,M,748,0.343114544%,343.114544295
ANDREW,M,742,0.340362289%,340.362288592
EOGHAN,M,713,0.327059719%,327.059719362
ALFIE,M,711,0.326142301%,326.142300794
LEO,M,700,0.321096499%,321.096498672
CIARAN,M,693,0.317885534%,317.885533685
TYLER,M,672,0.308252639%,308.252638725
SENAN,M,670,0.307335220%,307.335220158
BENJAMIN,M,664,0.304582964%,304.582964455
LUCAS,M,609,0.279353954%,279.353953845
CORMAC,M,607,0.278436535%,278.436535277
ODHRAN,M,595,0.272932024%,272.932023871
TOMMY,M,567,0.260088164%,260.088163924
SCOTT,M,555,0.254583653%,254.583652519
KEVIN,M,547,0.250913978%,250.913978248
DARA,M,542,0.248620432%,248.620431829
CHRISTOPHER,M,535,0.245409467%,245.409466842
LOGAN,M,520,0.238528828%,238.528827585
DONNACHA,M,501,0.229813351%,229.813351192
JOSH,M,490,0.224767549%,224.767549070
KILLIAN,M,477,0.218804328%,218.804328381
ANTHONY,M,448,0.205501759%,205.501759150
ISAAC,M,448,0.205501759%,205.501759150
JAKUB,M,438,0.200914666%,200.914666312
DANNY,M,430,0.197244992%,197.244992041
MARTIN,M,430,0.197244992%,197.244992041
TOMAS,M,425,0.194951446%,194.951445622
RUAIRI,M,423,0.194034027%,194.034027055
RHYS,M,422,0.193575318%,193.575317771
PETER,M,422,0.193575318%,193.575317771
ALAN,M,397,0.182107586%,182.107585675
NIALL,M,381,0.174768237%,174.768237134
KAI,M,336,0.154126319%,154.126319363
BRIAN,M,335,0.153667610%,153.667610079
SEBASTIAN,M,326,0.149539227%,149.539226524
EDWARD,M,322,0.147704389%,147.704389389
SHAY,M,299,0.137154076%,137.154075861
OLLIE,M,297,0.136236657%,136.236657294
JASON,M,294,0.134860529%,134.860529442
STEPHEN,M,272,0.124768925%,124.768925198
ORAN,M,266,0.122016669%,122.016669495
BILLY,M,254,0.116512158%,116.512158090
HENRY,M,223,0.102292170%,102.292170291
LORCAN,M,210,0.096328950%,96.328949602
ZACH,M,209,0.095870240%,95.870240318
DAITHI,M,201,0.092200566%,92.200566047
FILIP,M,200,0.091741857%,91.741856763
HUGO,M,160,0.073393485%,73.393485411
HUGH,M,152,0.069723811%,69.723811140
GEORGE,M,140,0.064219300%,64.219299734
CALUM,M,89,0.040825126%,40.825126260
CALEB,M,88,0.040366417%,40.366416976
KAYDEN,M,82,0.037614161%,37.614161273
PAUL,M,81,0.037155452%,37.155451989
KACPER,M,79,0.036238033%,36.238033422
LUCA,M,78,0.035779324%,35.779324138
SHEA,M,78,0.035779324%,35.779324138
JUDE,M,75,0.034403196%,34.403196286
DAIRE,M,71,0.032568359%,32.568359151
REUBEN,M,65,0.029816103%,29.816103448
LEWIS,M,59,0.027063848%,27.063847745
THEO,M,58,0.026605138%,26.605138461
ARCHIE,M,58,0.026605138%,26.605138461
RILEY,M,56,0.025687720%,25.687719894
JONAH,M,51,0.023394173%,23.394173475
CONAN,M,50,0.022935464%,22.935464191
CAOLAN,M,49,0.022476755%,22.476754907
JAXON,M,47,0.021559336%,21.559336339
AODHAN,M,47,0.021559336%,21.559336339
JACKSON,M,46,0.021100627%,21.100627056
FREDDIE,M,46,0.021100627%,21.100627056
CARTER,M,45,0.020641918%,20.641917772
SETH,M,43,0.019724499%,19.724499204
HARRISON,M,39,0.017889662%,17.889662069
JOEL,M,39,0.017889662%,17.889662069
BLAKE,M,38,0.017430953%,17.430952785
ZACHARY,M,37,0.016972244%,16.972243501
ARTHUR,M,35,0.016054825%,16.054824934
JOE,M,33,0.015137406%,15.137406366
CODY,M,32,0.014678697%,14.678697082
ELI,M,32,0.014678697%,14.678697082
OWEN,M,31,0.014219988%,14.219987798
