NAME,COUNT,PERCENT,PROP100K
NAGY,239310
KOVÁCS,221687
TÓTH,216758
SZABÓ,212586
HORVÁTH,201059
VARGA,139764
KISS,134305
MOLNÁR,109178
NÉMETH,93990
FARKAS,83346
BALOGH,80113
PAPP,53847
TAKÁCS,53402
JUHÁSZ,52495
LAKATOS,45051
MÉSZÁROS,41061
SIMON,38481
OLÁH,38311
FEKETE,35179
RÁCZ,35109
SZILÁGYI,31986
TÖRÖK,27206
FEHÉR,26804
GÁL,25924
BALÁZS,25804
KIS,24613
SZŰCS,24416
PINTÉR,23951
KOCSIS,23911
FODOR,23371
ORSÓS,22366
SZALAI,21826
MAGYAR,21310
SIPOS,21113
LUKÁCS,20473
GULYÁS,20198
BIRÓ,20169
KIRÁLY,18957
KATONA,18856
LÁSZLÓ,17944
FAZEKAS,17634
JAKAB,17583
SÁNDOR,17480
BOROS,17266
KELEMEN,17028
BOGDÁN,16921
SOMOGYI,16853
ANTAL,16596
BALOG,16582
HEGEDŰS,16322
OROSZ,16247
VINCZE,16245
FÜLÖP,16207
VERES,15937
VÁRADI,15598
DEÁK,15328
PAP,15036
BUDAI,14563
BÁLINT,14479
PÁL,14459
ILLÉS,14441
VÖRÖS,14418
BOGNÁR,14382
VASS,14381
SZŐKE,14329
LENGYEL,14293
FÁBIÁN,14142
SZÜCS,14103
BODNÁR,13885
HALÁSZ,13408
HAJDU,13086
KOZMA,12557
PÁSZTOR,12339
BAKOS,12208
MÁTÉ,12187
GÁSPÁR,12121
SZÉKELY,12095
MAJOR,11970
DUDÁS,11908
JÓNÁS,11842
VIRÁG,11576
ORBÁN,11571
NOVÁK,11543
HEGEDÜS,11399
BARNA,11358
SOÓS,11358
NEMES,11094
TAMÁS,10932
BORBÉLY,10702
PATAKI,10672
FARAGÓ,10666
SZEKERES,10646
KEREKES,10599
BALLA,10562
BARTA,10465
VÉGH,10189
DOBOS,10150
CSONKA,10124
KUN,10086
PÉTER,10055
