NAME,COUNT,PERCENT,PROP100K,ISNOTREALCOUNT
ADAMIK,1,0.01%,10,1
ADAMÍK,1,0.01%,10,1
BARTOS,1,0.01%,10,1
BARTOŠ,1,0.01%,10,1
BERAN,1,0.01%,10,1
BERNARD,1,0.01%,10,1
BLAHA,1,0.01%,10,1
BLÁHA,1,0.01%,10,1
BOBAL,1,0.01%,10,1
BURES,1,0.01%,10,1
BUREŠ,1,0.01%,10,1
CERMAK,1,0.01%,10,1
ČERMÁK,1,0.01%,10,1
CERNIK,1,0.01%,10,1
ČERNÍK,1,0.01%,10,1
CERVENKA,1,0.01%,10,1
ČERVENKA,1,0.01%,10,1
CHALUPA,1,0.01%,10,1
CHMELA,1,0.01%,10,1
CIZEK,1,0.01%,10,1
ČÍŽEK,1,0.01%,10,1
DAVID,1,0.01%,10,1
DOUBEK,1,0.01%,10,1
DVORAK,1,0.01%,10,1
DVOŘÁK,1,0.01%,10,1
FILIPEK,1,0.01%,10,1
HAVEL,1,0.01%,10,1
HAVLICEK,1,0.01%,10,1
HAVLÍČEK,1,0.01%,10,1
HLAVACEK,1,0.01%,10,1
HLAVAČEK,1,0.01%,10,1
HORACEK,1,0.01%,10,1
HORAČEK,1,0.01%,10,1
HORAK,1,0.01%,10,1
HORNIK,1,0.01%,10,1
HRUBY,1,0.01%,10,1
HUSTOVI,1,0.01%,10,1
JANDA,1,0.01%,10,1
JANICEK,1,0.01%,10,1
JANIČEK,1,0.01%,10,1
JEHLICKA,1,0.01%,10,1
JEHLIČKA,1,0.01%,10,1
JELINEK,1,0.01%,10,1
JEZEK,1,0.01%,10,1
JEŽEK,1,0.01%,10,1
KADLEC,1,0.01%,10,1
KLADIVO,1,0.01%,10,1
KLIMEK,1,0.01%,10,1
KLÍMEK,1,0.01%,10,1
KOHOUT,1,0.01%,10,1
KOPECKY,1,0.01%,10,1
KOVAC,1,0.01%,10,1
KOVÁČ,1,0.01%,10,1
KOVAR,1,0.01%,10,1
KOVÁŘ,1,0.01%,10,1
KRAMR,1,0.01%,10,1
KREJCI,1,0.01%,10,1
KUCERA,1,0.01%,10,1
KYSELY,1,0.01%,10,1
LASKA,1,0.01%,10,1
LÁSKA,1,0.01%,10,1
MACEK,1,0.01%,10,1
MALY,1,0.01%,10,1
MARTIN,1,0.01%,10,1
MARTINEK,1,0.01%,10,1
MARUSKA,1,0.01%,10,1
MASELNIK,1,0.01%,10,1
MÁSELNÍK,1,0.01%,10,1
MATOUSEK,1,0.01%,10,1
MATOUŠEK,1,0.01%,10,1
MORAVEC,1,0.01%,10,1
MUSIL,1,0.01%,10,1
NAVRATIL,1,0.01%,10,1
NAVRÁTIL,1,0.01%,10,1
NEDVED,1,0.01%,10,1
NEDVĚD,1,0.01%,10,1
NEMECEK,1,0.01%,10,1
NEMEČEK,1,0.01%,10,1
NOVACEK,1,0.01%,10,1
NOVÁČEK,1,0.01%,10,1
NOVOSAD,1,0.01%,10,1
PECHACEK,1,0.01%,10,1
PECHÁČEK,1,0.01%,10,1
PODSEDNIK,1,0.01%,10,1
POLAK,1,0.01%,10,1
POSPISIL,1,0.01%,10,1
POSPÍŠIL,1,0.01%,10,1
PROCHAZKA,1,0.01%,10,1
PROCHÁZKA,1,0.01%,10,1
PULNIK,1,0.01%,10,1
REZNICEK,1,0.01%,10,1
ŘEZNÍČEK,1,0.01%,10,1
RUZICKA,1,0.01%,10,1
RŮŽIČKA,1,0.01%,10,1
SARKA,1,0.01%,10,1
SASHA,1,0.01%,10,1
SEDLACEK,1,0.01%,10,1
SEDLÁČEK,1,0.01%,10,1
SEVCIK,1,0.01%,10,1
SEVČIK,1,0.01%,10,1
SIMON,1,0.01%,10,1
SKALICKY,1,0.01%,10,1
SLEZAK,1,0.01%,10,1
SLEZÁK,1,0.01%,10,1
SLOVAK,1,0.01%,10,1
SOKOL,1,0.01%,10,1
STANEK,1,0.01%,10,1
STAROSTA,1,0.01%,10,1
STRNAD,1,0.01%,10,1
SVOBODA,1,0.01%,10,1
TESAR,1,0.01%,10,1
VACEK,1,0.01%,10,1
VALENTA,1,0.01%,10,1
VANEK,1,0.01%,10,1
VAVRA,1,0.01%,10,1
VESELY,1,0.01%,10,1
VLCEK,1,0.01%,10,1
VLČEK,1,0.01%,10,1
ZAHRADNIK,1,0.01%,10,1
ZEMAN,1,0.01%,10,1
ZITNIK,1,0.01%,10,1
ŽITNIK,1,0.01%,10,1
