NAME,COUNT,PERCENT,PROP100K,ISNOTREALCOUNT
ADAMIC|ADAMIĆ,1,0.01%,10,1
BABIC|BABIĆ,1,0.01%,10,1
BOGDANOVIC|BOGDANOVIĆ,1,0.01%,10,1
BROZ,1,0.01%,10,1
DRAGOVIC|DRAGOVIĆ,1,0.01%,10,1
FRANIC|FRANIĆ,1,0.01%,10,1
HERCEG,1,0.01%,10,1
HORVATINCIC|HORVATINČIĆ,1,0.01%,10,1
IVANOVIC|IVANOVIĆ,1,0.01%,10,1
JURIC|JURIĆ,1,0.01%,10,1
KASUN,1,0.01%,10,1
KOLAR,1,0.01%,10,1
KOVAC,1,0.01%,10,1
LONCAR|LONČAR,1,0.01%,10,1
MARUSIC|MARUŠIĆ,1,0.01%,10,1
MEDVED,1,0.01%,10,1
MLAKAR,1,0.01%,10,1
NOVAK,1,0.01%,10,1
PAVLOVIC|PAVLOVIĆ,1,0.01%,10,1
PETRIC|PETRIĆ,1,0.01%,10,1
RADIC|RADIĆ,1,0.01%,10,1
STJEPANIC|STJEPANIĆ,1,0.01%,10,1
TOMCIC|TOMČIĆ,1,0.01%,10,1
VLAHOVIC|VLAHOVIĆ,1,0.01%,10,1
VUKOJA,1,0.01%,10,1
ZIVKOVIC|ŽIVKOVIĆ,1,0.01%,10,1
ZUPAN|ŽUPAN,1,0.01%,10,1
