Total births:,347845
Total M:,184215
Total F:,163630
NAME,GENDER,COUNT,PERCENTAGETOTAL,PROP100K
WILLIAM,M,4696
ALICE,F,4479
LUCAS,M,4478
OSCAR,M,4317
ELSA,F,3967
HUGO,M,3797
ELIAS,M,3736
OLIVER,M,3712
LIAM,M,3658
MAJA,F,3586
ALEXANDER,M,3415
ELLA,F,3298
CHARLIE,M,3293
JULIA,F,3277
AXEL,M,3217
EBBA,F,3178
VINCENT,M,3149
VIKTOR,M,3092
LEO,M,3040
FILIP,M,3013
WILMA,F,2986
MOLLY,F,2960
AGNES,F,2957
OLIVIA,F,2953
ALVA,F,2898
EMIL,M,2880
LILLY,F,2852
LUDVIG,M,2830
KLARA,F,2829
ARVID,M,2767
ANTON,M,2741
ISABELLE,F,2730
EMMA,F,2687
OLLE,M,2667
FREJA,F,2646
ERIK,M,2644
NOAH,M,2607
SAGA,F,2605
ISAK,M,2603
THEO,M,2596
ALICIA,F,2594
EDVIN,M,2591
NELLIE,F,2577
ELLIOT,M,2572
ELLEN,F,2531
MELVIN,M,2517
STELLA,F,2499
NILS,M,2498
GUSTAV,M,2462
ALFRED,M,2404
ADAM,M,2402
ALMA,F,2348
ALBIN,M,2318
EMILIA,F,2281
LINNEA,F,2279
ASTRID,F,2261
BENJAMIN,M,2216
LEON,M,2197
THEODOR,M,2151
VERA,F,2130
SIXTEN,M,2121
NOVA,F,2098
MAX,M,2034
ELLIE,F,2018
SIGNE,F,2017
VALTER,M,1969
SELMA,F,1950
ESTER,F,1931
ELIN,F,1921
ADRIAN,M,1900
WILMER,M,1891
IDA,F,1886
VIGGO,M,1884
MOA,F,1854
MELKER,M,1810
ALVIN,M,1782
ELVIRA,F,1767
AMANDA,F,1757
ISABELLA,F,1755
SARA,F,1740
GABRIEL,M,1727
MALTE,M,1717
FELICIA,F,1710
LOVE,M,1691
CASPER,M,1672
KEVIN,M,1659
SOFIA,F,1657
TYRA,F,1652
TUVA,F,1642
HARRY,M,1625
JACOB,M,1593
MATILDA,F,1543
SIMON,M,1543
JONATHAN,M,1532
NOEL,M,1515
JOSEF,M,1494
FELIX,M,1491
MEJA,F,1470
NORA,F,1459
LEAH,F,1457
CARL,M,1456
SIRI,F,1455
JACK,M,1452
MILO,M,1444
LOVA,F,1441
HANNA,F,1424
EDITH,F,1417
LOVISA,F,1415
TILDE,F,1385
VILLE,M,1363
THEA,F,1358
ELISE,F,1346
MOHAMED,M,1304
LIV,F,1300
LOKE,M,1291
AUGUST,M,1287
RASMUS,M,1282
EBBE,M,1272
SEBASTIAN,M,1267
INES,F,1239
JUNI,F,1223
SAMUEL,M,1214
LINUS,M,1187
VIDAR,M,1186
SIGRID,F,1170
SIGGE,M,1169
SAM,M,1149
WILHELM,M,1140
DAVID,M,1134
IRIS,F,1132
EMELIE,F,1114
ELTON,M,1087
FRANK,M,1078
MILTON,M,1077
LEIA,F,1077
NATHALIE,F,1075
MELISSA,F,1067
JOEL,M,1060
FILIPPA,F,1041
INGRID,F,1038
VILGOT,M,1035
STINA,F,1033
LIVIA,F,1021
CORNELIA,F,1007
TILDA,F,1002
MÄRTA,F,963
SVEA,F,962
ELIS,M,945
JASMINE,F,940
TINDRA,F,938
DANIEL,M,926
RONJA,F,921
JOHN,M,916
ELVIN,M,900
EDDIE,M,898
MAJKEN,F,887
COLIN,M,887
NEO,M,879
ARON,M,878
TAGE,M,876
EMMY,F,876
IVAR,M,871
MAXIMILIAN,M,863
OTTO,M,857
JOLINE,F,854
ALEX,M,851
MY,F,846
GRETA,F,845
MINNA,F,842
HENRY,M,840
HJALMAR,M,824
MIRA,F,811
LINN,F,796
HILDA,F,793
ELINA,F,756
EDWARD,M,753
LINNÉA,F,720
HAMPUS,M,717
JULIAN,M,692
ANNA,F,691
LISA,F,675
LYKKE,F,673
MIO,M,639
MATTEO,M,618
SVANTE,M,604
ALI,M,598
RUT,F,588
HEDDA,F,570
MARIA,F,568
HILMA,F,557
LOUI,M,524
NOVALIE,F,484
ELLINOR,F,481
TIM,M,463
TOVE,F,443
VILDA,F,440
SALLY,F,424
HEDVIG,F,413
NICOLE,F,394
VICTORIA,F,389
CELINE,F,375
LEA,F,321
JOSEFIN,F,311
HANNES,M,297
INEZ,F,291
LOVIS,F,291
EVELINA,F,287
AMELIA,F,285
LINA,F,285
LEVI,M,280
FRIDA,F,275
ANNIE,F,268
LUNA,F,267
SOFIE,F,267
MOHAMMED,M,248
KIAN,M,174
ROBIN,M,167
LOUIE,M,166
ALGOT,M,166
LO,F,162
FABIAN,M,161
REBECCA,F,152
MÅNS,M,150
DANTE,M,150
TURE,M,147
TOR,M,146
FOLKE,M,145
MARCUS,M,139
JOSEFINE,F,139
JULIE,F,136
BIANCA,F,136
MARIAM,F,135
VIKTORIA,F,130
MELINA,F,125
