NAME,COUNT,PERCENT,PROP100K,ISNOTREALCOUNT
BABIC|BABIČ,1,0.01%,10,1
DRAGIC|DRAGIĆ,1,0.01%,10,1
GERBIC|GERBIĆ,1,0.01%,10,1
JAKOLIN,1,0.01%,10,1
JEZ|JEŽ,1,0.01%,10,1
KASPAR|KAŠPAR,1,0.01%,10,1
KLEMENTS,1,0.01%,10,1
KOLAR,1,0.01%,10,1
KOROSEC|KOROŠEC,1,0.01%,10,1
KOZEL,1,0.01%,10,1
KRIZMAN,1,0.01%,10,1
MEDVED,1,0.01%,10,1
NOVAK,1,0.01%,10,1
PLESEC|PLEŠEC,1,0.01%,10,1
RESNIK,1,0.01%,10,1
STRUNA,1,0.01%,10,1
VLASIC|VLAŠIČ,1,0.01%,10,1
ZUPAN,1,0.01%,10,1
