NAME,COUNT,PERCENT,PROP100K,ISNOTREALCOUNT
BABIČ,1,0.01%,10,1
DRAGIĆ,1,0.01%,10,1
GERBIĆ,1,0.01%,10,1
JEŽ,1,0.01%,10,1
KAŠPAR,1,0.01%,10,1
KOROŠEC,1,0.01%,10,1
PLEŠEC,1,0.01%,10,1
VLAŠIČ,1,0.01%,10,1
