NAME,COUNT,PERCENT,PROP100K,ISNOTREALCOUNT
AARTSMA,1,0.01%,10,1
AGEMA,1,0.01%,10,1
ALKEMA,1,0.01%,10,1
ALSERDA,1,0.01%,10,1
ANJEMA,1,0.01%,10,1
ANTEMA,1,0.01%,10,1
ARKEMA,1,0.01%,10,1
AUKEMA,1,0.01%,10,1
BAARSMA,1,0.01%,10,1
BARWEGEN,1,0.01%,10,1
DIJKSTRA,1,0.01%,10,1
HANSEN,1,0.01%,10,1
HOEKSTRA,1,0.01%,10,1
REIJNDER,1,0.01%,10,1
REINDER,1,0.01%,10,1
REYNDER,1,0.01%,10,1
RIJNDER,1,0.01%,10,1
VAN WIEREN,1,0.01%,10,1
