NAME,COUNT,PERCENT,PROP100K,ISNOTREALCOUNT
BANIK,1,0.01%,10,1
BISKUP,1,0.01%,10,1
CIERNIK,1,0.01%,10,1
HORNICK,1,0.01%,10,1
JAHODA,1,0.01%,10,1
JELEN,1,0.01%,10,1
KOVAC,1,0.01%,10,1
KYSELY,1,0.01%,10,1
MEDVED,1,0.01%,10,1
POKORNY,1,0.01%,10,1
REZNIK,1,0.01%,10,1
SKALICKY,1,0.01%,10,1
STRNAD,1,0.01%,10,1
TESAR,1,0.01%,10,1
ZIMA,1,0.01%,10,1
