Total births:,154317,,,
Total M:,79879,,,
Total F:,74438,,,
NAME,GENDER,COUNT,PERCENT,PROP100K
NOAH,M,2210,1.432117006%,1432.1170059034
LUCA,M,2164,1.402308236%,1402.3082356448
LARA,F,1951,1.264280669%,1264.2806690125
EMMA,F,1815,1.176150392%,1176.1503917261
DAVID,M,1793,1.161894023%,1161.8940233416
MIA,F,1789,1.159301956%,1159.3019563626
LEON,M,1629,1.055619277%,1055.6192772021
SARA,F,1616,1.047195060%,1047.1950595203
LAURA,F,1606,1.040714892%,1040.7148920728
GABRIEL,M,1561,1.011554139%,1011.5541385589
LENA,F,1465,0.949344531%,949.3445310627
LEANDRO,M,1449,0.938976263%,938.9762631466
JULIA,F,1445,0.936384196%,936.3841961676
ANNA,F,1422,0.921479811%,921.4798110383
MATTEO,M,1403,0.909167493%,909.167492888
SAMUEL,M,1363,0.883246823%,883.2468230979
NINA,F,1361,0.881950790%,881.9507896084
ALINA,F,1358,0.880006739%,880.0067393741
LEA,F,1352,0.876118639%,876.1186389056
ELENA,F,1323,0.857326153%,857.3261533078
SOFIA,F,1309,0.848253919%,848.2539188813
NICO,M,1303,0.844365818%,844.3658184127
JONAS,M,1279,0.828813417%,828.8134165387
JULIAN,M,1264,0.819093165%,819.0931653674
LEONIE,F,1244,0.806132830%,806.1328304723
TIM,M,1229,0.796412579%,796.4125793011
LEVIN,M,1219,0.789932412%,789.9324118535
ELIAS,M,1200,0.777620094%,777.6200937032
SOPHIE,F,1185,0.767899843%,767.8998425319
CHIARA,F,1153,0.747163307%,747.1633066998
LIAM,M,1152,0.746515290%,746.5152899551
DIEGO,M,1129,0.731610905%,731.6109048258
JAN,M,1125,0.729018838%,729.0188378468
LINA,F,1110,0.719298587%,719.2985866755
DARIO,M,1105,0.716058503%,716.0585029517
LOUIS,M,1096,0.710226352%,710.2263522489
SIMON,M,1092,0.707634285%,707.6342852699
GIULIA,F,1071,0.694025934%,694.0259336301
GIAN,M,1070,0.693377917%,693.3779168854
LUKAS,M,1052,0.681713615%,681.7136154798
LIA,F,1043,0.675881465%,675.8814647771
SOPHIA,F,1042,0.675233448%,675.2334480323
NORA,F,1036,0.671345348%,671.3453475638
ROBIN,M,1030,0.667457247%,667.4572470953
ELIN,F,1021,0.661625096%,661.6250963925
ALESSIA,F,1020,0.660977080%,660.9770796477
BENJAMIN,M,1013,0.656440962%,656.4409624345
LISA,F,1006,0.651904845%,651.9048452212
SARAH,F,992,0.642832611%,642.8326107947
LIVIA,F,986,0.638944510%,638.9445103261
JANA,F,955,0.618855991%,618.8559912388
BEN,M,939,0.608487723%,608.4877233228
FABIO,M,937,0.607191690%,607.1916898333
LUANA,F,924,0.598767472%,598.7674721515
LIONEL,M,904,0.585807137%,585.8071372564
RAFAEL,M,904,0.585807137%,585.8071372564
LORIS,M,883,0.572198786%,572.1987856166
NICOLAS,M,879,0.569606719%,569.6067186376
ELIA,M,873,0.565718618%,565.7186181691
ALEXANDER,M,872,0.565070601%,565.0706014243
NILS,M,853,0.552758283%,552.758283274
ELISA,F,846,0.548222166%,548.2221660608
LUCAS,M,837,0.542390015%,542.390015358
NATHAN,M,828,0.536557865%,536.5578646552
AMÉLIE,F,827,0.535909848%,535.9098479105
JOEL,M,823,0.533317781%,533.3177809315
LIVIO,M,822,0.532669764%,532.6697641867
ANDRIN,M,813,0.526837613%,526.8376134839
OLIVIA,F,812,0.526189597%,526.1895967392
FABIAN,M,802,0.519709429%,519.7094292917
NOEMI,F,800,0.518413396%,518.4133958021
ZOÉ,F,799,0.517765379%,517.7653790574
ELINA,F,798,0.517117362%,517.1173623126
DANIEL,M,796,0.515821329%,515.8213288231
AARON,M,786,0.509341161%,509.3411613756
EVA,F,783,0.507397111%,507.3971111414
SELINA,F,776,0.502860994%,502.8609939281
LORENA,F,765,0.495732810%,495.7328097358
NEVIO,M,753,0.487956609%,487.9566087988
LEO,M,740,0.479532391%,479.532391117
ALESSIO,M,737,0.477588341%,477.5883408827
MELINA,F,723,0.468516106%,468.5161064562
MATTIA,M,722,0.467868090%,467.8680897114
EMILIA,F,717,0.464628006%,464.6280059877
FINN,M,716,0.463979989%,463.9799892429
LEONARDO,M,715,0.463331972%,463.3319724982
THOMAS,M,714,0.462683956%,462.6839557534
ALICE,F,698,0.452315688%,452.3156878374
VALENTINA,F,690,0.447131554%,447.1315538794
LUIS,M,690,0.447131554%,447.1315538794
FIONA,F,686,0.444539487%,444.5394869003
LAURIN,M,675,0.437411303%,437.4113027081
NINO,M,667,0.432227169%,432.22716875
KEVIN,M,664,0.430283119%,430.2831185158
EMILY,F,663,0.429635102%,429.635101771
JANIS,M,656,0.425098985%,425.0989845578
LARS,M,650,0.421210884%,421.2108840892
MARCO,M,650,0.421210884%,421.2108840892
LENNY,M,646,0.418618817%,418.6188171102
FLORIAN,M,645,0.417970800%,417.9708003655
TIMO,M,635,0.411490633%,411.490632918
ALESSANDRO,M,634,0.410842616%,410.8426161732
EMILIE,F,627,0.406306499%,406.3064989599
ALICIA,F,624,0.404362449%,404.3624487257
ELLA,F,621,0.402418398%,402.4183984914
COLIN,M,619,0.401122365%,401.1223650019
JULIE,F,618,0.400474348%,400.4743482572
RAPHAEL,M,615,0.398530298%,398.5302980229
VALENTIN,M,611,0.395938231%,395.9382310439
LYNN,F,609,0.394642198%,394.6421975544
ALINE,F,596,0.386217980%,386.2179798726
NOÉ,M,595,0.385569963%,385.5699631278
MANUEL,M,593,0.384273930%,384.2739296383
CHLOÉ,F,592,0.383625913%,383.6259128936
CLARA,F,591,0.382977896%,382.9778961488
LEONA,F,591,0.382977896%,382.9778961488
YARA,F,589,0.381681863%,381.6818626593
MAXIMILIAN,M,587,0.380385829%,380.3858291698
MELISSA,F,587,0.380385829%,380.3858291698
JAEL,F,585,0.379089796%,379.0897956803
VANESSA,F,573,0.371313595%,371.3135947433
MAXIME,M,567,0.367425494%,367.4254942748
MARIA,F,565,0.366129461%,366.1294607853
MAX,M,564,0.365481444%,365.4814440405
CHARLOTTE,F,554,0.359001277%,359.001276593
LINUS,M,546,0.353817143%,353.817142635
ARTHUR,M,542,0.351225076%,351.225075656
MARA,F,536,0.347336975%,347.3369751874
NICK,M,530,0.343448875%,343.4488747189
RYAN,M,529,0.342800858%,342.8008579742
NOEL,M,526,0.340856808%,340.8568077399
JESSICA,F,524,0.339560774%,339.5607742504
ADRIAN,M,524,0.339560774%,339.5607742504
ZOE,F,522,0.338264741%,338.2647407609
DYLAN,M,521,0.337616724%,337.6167240161
RONJA,F,518,0.335672674%,335.6726737819
RUBEN,M,509,0.329840523%,329.8405230791
LÉA,F,508,0.329192506%,329.1925063344
MILA,F,505,0.327248456%,327.2484561001
OLIVER,M,504,0.326600439%,326.6004393554
ALEXANDRE,M,503,0.325952423%,325.9524226106
STELLA,F,494,0.320120272%,320.1202719078
LINDA,F,491,0.318176222%,318.1762216736
LADINA,F,481,0.311696054%,311.696054226
LUISA,F,480,0.311048037%,311.0480374813
JOSHUA,M,467,0.302623820%,302.6238197995
HANNA,F,462,0.299383736%,299.3837360757
VICTORIA,F,458,0.296791669%,296.7916690967
CAMILLE,F,443,0.287071418%,287.0714179254
ANAÏS,F,437,0.283183317%,283.1833174569
KILIAN,M,436,0.282535301%,282.5353007122
ANOUK,F,435,0.281887284%,281.8872839674
JONATHAN,M,429,0.277999183%,277.9991834989
JASMIN,F,428,0.277351167%,277.3511667541
SARINA,F,427,0.276703150%,276.7031500094
SILVAN,M,426,0.276055133%,276.0551332646
SINA,F,421,0.272815050%,272.8150495409
EVAN,M,420,0.272167033%,272.1670327961
LUCIE,F,420,0.272167033%,272.1670327961
ETHAN,M,418,0.270870999%,270.8709993066
KIM,F,411,0.266334882%,266.3348820934
LARISSA,F,407,0.263742815%,263.7428151143
THÉO,M,400,0.259206698%,259.2066979011
NOLAN,M,394,0.255318597%,255.3185974326
AMELIE,F,393,0.254670581%,254.6705806878
SORAYA,F,383,0.248190413%,248.1904132403
TIAGO,M,381,0.246894380%,246.8943797508
LÉO,M,378,0.244950330%,244.9503295165
TOBIAS,M,374,0.242358263%,242.3582625375
FELIX,M,374,0.242358263%,242.3582625375
SVEN,M,373,0.241710246%,241.7102457928
ALEX,M,368,0.238470162%,238.470162069
ANGELINA,F,364,0.235878095%,235.87809509
SEBASTIAN,M,358,0.231989995%,231.9899946215
MARIE,F,346,0.224213794%,224.2137936844
ANJA,F,340,0.220325693%,220.3256932159
LIAN,M,333,0.215789576%,215.7895760026
MICHELLE,F,332,0.215141559%,215.1415592579
LEANA,F,329,0.213197509%,213.1975090236
LUNA,F,325,0.210605442%,210.6054420446
AURORA,F,318,0.206069325%,206.0693248314
HANNAH,F,313,0.202829241%,202.8292411076
MALIN,F,313,0.202829241%,202.8292411076
LEANDRA,F,309,0.200237174%,200.2371741286
ENZO,M,296,0.191812956%,191.8129564468
PAUL,M,293,0.189868906%,189.8689062125
MAËL,M,287,0.185980806%,185.980805744
MICHAEL,M,279,0.180796672%,180.796671786
LORENZO,M,275,0.178204605%,178.204604807
YANIS,M,271,0.175612538%,175.612537828
MILENA,F,263,0.170428404%,170.42840387
SAMIRA,F,244,0.158116086%,158.1160857197
MAYA,F,232,0.150339885%,150.3398847826
ANA,F,230,0.149043851%,149.0438512931
MARC,M,213,0.138027567%,138.0275666323
SILAS,M,211,0.136731533%,136.7315331428
ADAM,M,205,0.132843433%,132.8434326743
LEVI,M,189,0.122475165%,122.4751647583
YANNICK,M,183,0.118587064%,118.5870642897
LUAN,M,183,0.118587064%,118.5870642897
MARLON,M,181,0.117291031%,117.2910308002
TOM,M,173,0.112106897%,112.1068968422
JAMIE,M,170,0.110162847%,110.162846608
CÉLINE,F,170,0.110162847%,110.162846608
LILY,F,160,0.103682679%,103.6826791604
MELANIE,F,160,0.103682679%,103.6826791604
DIANA,F,158,0.102386646%,102.3866456709
AMELIA,F,158,0.102386646%,102.3866456709
ENYA,F,157,0.101738629%,101.7386289262
RAHEL,F,154,0.099794579%,99.7945786919
LOU,F,154,0.099794579%,99.7945786919
LANA,F,153,0.099146562%,99.1465619472
ELINE,F,153,0.099146562%,99.1465619472
MANON,F,152,0.098498545%,98.4985452024
ALEA,F,151,0.097850528%,97.8505284577
LILLY,F,147,0.095258461%,95.2584614786
BEATRIZ,F,146,0.094610445%,94.6104447339
VINCENT,M,106,0.068689775%,68.6897749438
JASON,M,98,0.063505641%,63.5056409858
SANDRO,M,96,0.062209607%,62.2096074963
MAEL,M,96,0.062209607%,62.2096074963
MORITZ,M,94,0.060913574%,60.9135740068
RAYAN,M,94,0.060913574%,60.9135740068
RODRIGO,M,92,0.059617541%,59.6175405172
DAMIAN,M,90,0.058321507%,58.3215070277
EMIL,M,89,0.057673490%,57.673490283
LOUISE,F,87,0.056377457%,56.3774567935
HUGO,M,87,0.056377457%,56.3774567935
DOMINIK,M,87,0.056377457%,56.3774567935
JOHANNA,F,86,0.055729440%,55.7294400487
MARTINA,F,85,0.055081423%,55.081423304
LUKA,M,85,0.055081423%,55.081423304
LINO,M,85,0.055081423%,55.081423304
PASCAL,M,84,0.054433407%,54.4334065592
AMY,F,84,0.054433407%,54.4334065592
FYNN,M,83,0.053785390%,53.7853898145
ISABELLA,F,77,0.049897289%,49.897289346
ALENA,F,77,0.049897289%,49.897289346
NICOLE,F,76,0.049249273%,49.2492726012
JADE,F,76,0.049249273%,49.2492726012
VIVIENNE,F,75,0.048601256%,48.6012558565
MATILDE,F,75,0.048601256%,48.6012558565
SALOME,F,75,0.048601256%,48.6012558565
MATHILDE,F,75,0.048601256%,48.6012558565
AMINA,F,74,0.047953239%,47.9532391117
MALEA,F,73,0.047305222%,47.3052223669
ERINA,F,72,0.046657206%,46.6572056222
JARA,F,72,0.046657206%,46.6572056222
JULIETTE,F,71,0.046009189%,46.0091888774
CARLA,F,70,0.045361172%,45.3611721327
NOELIA,F,69,0.044713155%,44.7131553879
HELENA,F,69,0.044713155%,44.7131553879
