NAME,COUNT,PERCENT,PROP100K
Roy,3720
Nadeau,1192
Pelletier,623
Lepage,498
Daigle,468
Michaud,427
Martin,425
Boucher,403
Gagnon,377
Desjardins,356
Bouchard,338
Voisine,315
Cyr,302
Roy dit Desjardins,261
Lausier,238
Ouellette,221
Ouellet,218
Soucy,210
Côté,203
Audette,200
Lévesque,192
Marquis,192
Caron,183
Huot,182
Chassé,179
Gagné,174
Lizotte,173
Roy dit Lauzon,166
Albert,163
Dubé,162
Lacoursiere,156
Paradis,151
Morneault,146
Audet,145
Morneau,140
Noel,135
Plourde,134
Morin,133
Lebel,131
Bélanger,130
Violette,126
Hébert,124
Daigre,117
Thibodeau,117
Miville,115
Saucier,113
Thériault,111
Landry,108
Levasseur,108
Tardif,106
Dionne,103
Arsenault,102
Beaulieu,100
Bérubé,90
Bourgoin,88
Moreau,88
Sirois,85
King,84
Cloutier,84
Raymond,82
Gosselin,82
Fortin,81
Plamondon,78
Milon,78
Fournier,77
LeRoy,76
Bernier,76
Rioux,74
Picard,74
Piuze,72
Patnode,71
Labrie,69
Vaillancourt,68
Chamberland,66
Richard,65
Marceau,64
Langlois,64
Madore,63
Miller,60
Gaudet,60
Roy dit Voisine,60
Lavoie,59
Babin,59
Fouché,58
Charette,57
Parent,57
Lizot,56
Bilodeau,56
Gervais,55
Paré,55
Perrier,52
Le Blanc,52
Dumont,51
Deschaine,51
Leclerc,51
Bourg,51
Chouinard,50
Dubois,49
Martel,48
Lozier,48
Lagacé,48
Miville dit Deschesnes,47
Lauzier,46
Guimond,45
Tardie,44
Gauthier,44
Blanchet,42
Gonon,42
Cormier,42
Thomas,42
Bossé,42
Corbin,41
Girouard,41
Ethier,40
Plante,40
Hudon,40
Remillard,40
Chase,39
Poulin,39
Pavillon,39
Labbé,39
Bureau,37
Voisine-King,37
St Pierre,36
Dufour,36
Blanchard,36
Ringuette,36
Clavette,35
Trahan,35
Godin,34
Corriveau,34
Reopelle,34
Vincent,33
Roy dit Lauzier,33
Dugas,33
Jalbert,33
Labrecque,33
Boucher dit Desrosiers,32
Blanchette,31
Bassaudier,31
Saint-Pierre,30
Asselin,30
Tremblay,30
Shink,30
Terriau,30
Mignier,30
Maguet,29
St Michel,29
Chénard,29
Dumais,29
Racine,28
Drouin,28
White,28
Thibault,28
Simard,28
Johnson,27
Roi,27
Aucoin,27
Lefebvre,27
Royer,27
Doucet,27
Bordelon,27
Couture,26
Perreault,26
Demers,26
Mignau,26
Dufault,26
Collin,26
Soulard,26
Amiot,26
Brousseau,26
Paquet,26
Dion,25
Murray,25
Grondin,25
Dupéré,25
Boudrot,25
Juneau,25
Smith,25
Losier,25
Barat,24
Mercier,24
Denis,24
Maure,24
Holt,23
Deschênes,23
Rodrigue,23
Le Mieux,23
Vallée,23
Guerette,23
unknown,23
Le Jeune,23
Durand,23
Emond,23
Prou,22
Rivard,22
Ayotte,22
Guy,22
Soucie,22
Patenaude,22
Bergeron,22
Nash,22
Migneau,22
Sévenat,22
Létourneau,22
Roberge,22
Rossignol,22
Saint-Laurent,21
Gaudin,21
Poirier,21
Soucier,21
Bourgeois,21
Lapointe,20
Shaw,20
Thompson,20
Thiboutot,20
Dupuis,20
Jones,20
Goulet,20
Godeau,20
Doiron,20
Pinel,19
Michel,19
Houde,19
Rousseau,19
Brown,19
Gendreau,19
Couturier,19
Turgeon,19
Verreau,19
Larson,19
Sasseville,19
Fongemie,19
Fontaine,19
Ratte,19
Guérin,19
Commeau,19
Riendeau,19
Trudel,18
Benoît,18
La Croix,18
Devost,18
Pageau,18
Dancosse,18
Cantin,18
Emery,18
Chevalier,17
Gauterot,17
Castonguay,17
Vasquez,17
Desrosiers,17
Gauvin,17
Schmitz,17
Gerbert,17
Proulx,17
Lemoine,17
Robichaud,17
Renaud,17
Bussiere,17
Lang,16
Zanote,16
Laferriere,16
Chapman,16
Fortier,16
Boutain,16
Choret,16
Frechette,16
Cordeau,16
Thibeault,16
Pepin,16
Frémy,16
Goussery,16
Beaudoin,16
Béchard,16
Violet,16
Terriot,16
Guéret,16
Girard,15
Sheehan,15
Guyon,15
Lasha,15
Hudon dit Beaulieu,15
Carter,15
Tondreau,15
Roy Voisine,15
Bouley,15
Paradise,15
Gilbert,15
Lagassé,15
Swanson,15
Bois,15
Gonthier,15
Laplante,15
Ennis,15
Boutot,15
Charron,14
Lecours,14
Leblanc,14
Brisson,14
Gailliout,14
Pineau,14
Gaudreau,14
Souci,14
Lemieux,14
Walker,14
Vachon,14
Couillard,14
Veilleux,14
Mignot,14
Marchand,14
Pinette,14
Catalano,14
Dumond,14
Chrétien,14
Brouilette,14
Breton,13
Deroy,13
Puisoye,13
Granger,13
Maheu,13
Laberge,13
Lachance,13
Savard,13
Marion,13
Remick,13
Blouin,13
Coulombe,13
Jean,13
Deprey,13
Blais,13
Therrien,13
Le Page,13
Garneau,13
Godbout,13
Hofius,13
Brann,13
Lee,13
Allard,13
Bernard,13
Bard,13
Raclot,12
Roy Desjardins,12
Deneau,12
Garnier,12
Ménard,12
Talbot,12
Lefrançois,12
Gamache,12
Comeau,12
Foran,12
Grenier,12
Bolduc,12
St Germain,12
Savage,12
Trotochaud,12
Autin,12
Fraser,12
Roussin,12
Destroismaisons,12
Lamarre,12
Lessard,12
Ford,12
Charbonneau,12
Bisson,12
Brault,12
Ross,12
Long,12
Hamel,11
Berry,11
Bellefleur,11
Tanguay,11
Couteux,11
Madore dit Laplante,11
Giguère,11
Hudon-Beaulieu,11
Boulay,11
Franken,11
Lynch,11
Calmus,11
Roussel,11
Waters,11
Giroux,11
Bouffard,11
d'Amours,11
Poulet,11
Laporte,11
Casse,11
Yelle,11
Sirois dit Duplessy,11
Patry,11
Dumas,11
Bishop,11
Pescinski,11
Pagé,11
McPherson,11
Ducote,11
Gesseron,11
Bédard,11
Carrier,11
Boutin,11
Guerrette,11
Desjardins-Gardner,11
Delugré,11
Marcil,11
Shevenell,11
Lydick,11
Dodier,11
Forest,10
Le Fournier du Vivier,10
Nason,10
Filteau,10
Vaudrin,10
Baker,10
Blier,10
Jordan,10
Larochelle,10
Doucette,10
Parks,10
Laferrier,10
Tinkham,10
Nolin,10
Reoelle,10
Allen,10
Guéret-Dumont,10
Gremillion,10
Colas,10
Leveque,10
Beauregard,10
Randall,10
Keable,10
Dupont,10
Guerard,10
Jacques,10
Petit,10
Jipson,10
Caubarreaux,10
Chatelain,9
Marois,9
Guay,9
Kennedy,9
Boulanger,9
Newhouse,9
Boivin,9
Bourassa,9
Deshotel,9
Crepeau,9
Quirion,9
Suitter,9
Morrill,9
Nocet,9
Arel,9
Heath,9
LaFrance,9
Sweeney,9
Barbier,9
Clark,9
Guillemet,9
Kolb,9
Sonner,9
La Cassé,9
Morel,9
Grant,9
Chartier,9
Gorneau,9
Pouliot,9
Yarrington,9
Pajot,9
Davis,9
Rice,9
Portneuf,9
St Amand,9
Maindré,9
Brun,9
Doyon,9
Rancourt,9
Adams,9
Lovely,9
Bellavance,9
Bolier,9
Malwitz,9
Dupille,9
Samson,9
Jackson,9
Duffy,9
Nelson,9
Gendron,9
Jobidon,9
Scott,8
Phocas dit Raymond,8
Douaron,8
Meloche,8
Mignault,8
Perron,8
Archambault,8
Grenet,8
Babbin,8
Colinet,8
Ayot,8
Dorval,8
Turcotte,8
Masse,8
Devillaire,8
Ruest,8
Fradet,8
Webber,8
Labreque,8
Clément,8
Ward,8
Lelièvre,8
Otis,8
Bowen,8
Chantal,8
Unnamed,8
Cullen,8
Boyce,8
Chabot,8
Normandin,8
Crawford,8
Moran,8
Lacombe,8
Williams,8
Bazin,8
Gerber,7
Guillerat,7
Thibaut,7
Richardson,7
Langelier,7
Vézina,7
Leroux,7
Wavra,7
McGough,7
Watson,7
Brigault,7
Bourget,7
Lambert,7
Grandmaison,7
St Jean,7
Vanier,7
Jetté,7
Dolbec,7
Boulet,7
Ahumada,7
Isabel,7
Labree,7
Desroches,7
Barker,7
Hanson,7
Jandreau,7
Gaumond,7
Ancelin,7
Loignon,7
Bellanger,7
Mathieu,7
McCarthy,7
Letartre,7
Rondeau,7
Pettigrew,7
Allaire,7
Lajoie,7
Gardner,7
Lambert dit Champagne,7
Demarais,7
Eddins,7
Wallace,7
Bickford,7
Viel,7
Stickel,7
Hayot,7
Aubut,7
Foussé,7
Champagne,7
St. Pierre (St. Peter),7
Fouffé,7
Gravel,7
Steele,7
Micheau,7
Arseneau,7
Badenier,7
Laliberté,7
Mouton,7
Aubert,7
Lafaye,7
Mongeon,7
Hautin,7
Erickson,7
Wright,7
Olson,7
Yates,6
Vaudry,6
Mailhot,6
Huard,6
Guenet,6
Lamontagne,6
Gaignon,6
Toyama,6
Craig,6
Greffard,6
Solava,6
Cannan,6
Carbonneau,6
Le Marquis,6
Duval,6
Harvey,6
Potvin,6
Lemyre,6
Reese,6
Breault,6
Waugh,6
Binet,6
Baillon,6
Foley,6
Hamon,6
Thuot,6
Everson,6
Eloy,6
Goguet,6
Gautron,6
Paulet,6
Cadieu,6
Garon,6
Deschaines,6
Bougault,6
St Laurent,6
Mabille,6
Boullet,6
Simon,6
Belliveau,6
Bousse,6
May,6
St Peter,6
Gray,6
Rogers,6
Mercure,6
Rigolet,6
Lemelin,6
Dennis,6
Mesny,6
Grégoire,6
Scellick,6
Toupin,6
Meneux,6
Scallan,6
Largeot,6
Clouet,6
Prevost,6
Mayeux,6
Andrews,6
Théberge,6
Varry,6
Couvillion,6
Chiasson,6
de Serre,6
Moskalik,6
Boily,6
Normandy,6
Kohler,6
Deslongchamps,6
Fiset,6
Ames,6
Sulière,6
Rochette,6
Gorneault,6
Trudeau,6
Cauchon,6
de Marle,6
Henry,6
Cameron,6
Canuel,6
Chamard,6
Meyer,6
Hall,6
Anderson,6
Oakes,6
Utecht,6
Loftus,6
Breaux,6
McClay,6
Truchon,6
Dévots,6
Pasquier,6
Marcotte,6
Fleury,6
Patterson,6
Adam,5
Fischer,5
Cassavant,5
Chatillon,5
Berger,5
Gagné dit Bellavance,5
Barre,5
Morris,5
Laforge,5
Tibaut,5
Lord,5
Major,5
Kozlowski,5
Dallaire,5
Fillio,5
Cork,5
Bujold,5
Kasprick,5
Wilson,5
Martial,5
Morrison,5
Wolf,5
Lucas,5
Regeas dit Laprade,5
Marin,5
Pulver,5
Delisle,5
Servant,5
Vataire,5
Cureux dit Saint-Germain,5
Cowie,5
Lindsay,5
Guillemette,5
Hlavinka,5
Roi dit Desjardins,5
Quinn,5
Fagnan,5
Poitras,5
Siméon,5
St.Pierre,5
Jeandot,5
Crain,5
Damours,5
Bieber,5
Le Roy,5
Aymard,5
Gromard,5
Joubert,5
Cayler,5
Godard,5
Baudard,5
Malenfant,5
Charest,5
Auclair,5
Gaspard,5
Migneault,5
Lajesse,5
Bourdon,5
Tessier,5
Chenel,5
Riina,5
Caillouet,5
Thibeau,5
Normand,5
Stanley,5
Hautbois,5
La Chance,5
Ledoux,5
Savoie,5
Corey,5
Rouleau,5
Sanfacon,5
Duclos,5
Poliquin,5
Edwards,5
LeGrow,5
Vignola,5
Charpentier,5
Milvae,5
Pierce,5
Lloyd,5
Dechaine,5
McKane,5
Charland,5
Ilardo,5
Murphy,5
Lazore,5
Ménissier,5
Croteau,5
Perrault,5
Maranda,5
Mercereau dit La Savane,5
Boudreau,5
Gilstrap,5
Perrée,5
Baxter,5
Langlais,5
Ambrose,5
Golnon,5
Ireland,5
Sanborn,5
Daniels,5
Duprey,5
Valardi,5
Hogan,5
Gasse,5
Berndt,5
Elie dit Breton,5
Lemarchand,5
Smart,5
Guilbaut,5
Rheault,5
Harrisson,5
Townsend,5
Perrin,5
Veloz,5
Jacob,5
Saint-Amand,5
Hiscoe,5
Cordeau dit Deslauriers,5
Verreault,5
Pierre,5
Querze,5
Audibert,5
L'Espérance,5
Charon,5
Gobeil,5
Houle,5
Roy-Lauzon,5
Beaumer,5
Giertych,5
Mazerolle,5
Drost,5
Hicks,5
Leblond,5
Mondazze,5
Hosteller,5
Cavicchio,4
St-Jean,4
Swim,4
Grier,4
Norenberg,4
Rasmussen,4
Champoux,4
Dessureault,4
Bednarz,4
Lalonde,4
Mimeault,4
Marcoux,4
Jr.,4
Pryor,4
Patenotre,4
Mallet,4
Guyou,4
Melancon,4
Abraham,4
Chalifour,4
Sullivan,4
Moser,4
Latour,4
Mietszel,4
Sadler,4
Boulier,4
Larrivée,4
Bouvier,4
Breau,4
Toulouse,4
Taillon,4
Laverdiere,4
Monet,4
Gagnon dit Belzile,4
Schwenzfeier,4
Le Neuf,4
Bourdages,4
Loubier,4
Barnhart,4
Ouvrard,4
Sévigny,4
Burat,4
Isabelle,4
Saint-Louis,4
Green,4
Morency,4
Hurne,4
Barnes,4
Mailloux,4
Rossi,4
Messer,4
Charrier,4
Burgos,4
Morrow,4
Hervieux dit Lespérance,4
Silvia,4
Ruais,4
Abraham dit Desmarais,4
Baillet,4
Santerre,4
Hazard,4
Ravin,4
Lally,4
Trepanier,4
Despres,4
Myers,4
Cynewski,4
Crené,4
Elverud,4
Hammond,4
Dubois dit LaFrance,4
Gaboury,4
Virgona,4
George,4
Maloney,4
Berz,4
Boucher de Montbrun,4
Hartley,4
Destroismaison,4
Acault,4
Sylvain,4
Sénécal,4
Grado,4
LaFlamme,4
Serré,4
Ludgon,4
de Trépagny,4
Farrington,4
Labrie dit Migneau,4
Desponts,4
Lacroix,4
Dandonneau,4
Durette,4
Heppell,4
Philibert,4
Hill,4
Lacase,4
Noyes,4
Ball,4
Marleau,4
Pilotte,4
Bellot,4
Edmond,4
Sharer,4
Bourque,4
Rodrique,4
Lafontaine,4
Files,4
Cassatt,4
Yeager,4
Vesinat,4
Rhéaume,4
Bourlier,4
Thibaudeau,4
Mineau,4
Terrien,4
Gariepy,4
Pereau,4
McGlinn,4
Niquet dit Poitevin,4
Brochu,4
Nepveu,4
Dow,4
Dupré,4
Kochendorfer,4
Lantagne,4
Powell,4
Coste,4
Campeau,4
Garcia,4
Laverture,4
Lebert,4
de La Saussaye,4
Lesage,4
Germain,4
Aubois,4
Chatigny,4
Pigeon,4
Penfield,4
Lesueur,4
Deschamps,4
Bachand,4
Migneau dit Labrie,4
Lamb,4
Thibodeaux,4
Gaillard,4
Frénette,4
Bachelet,4
Brunet,4
Myhre,4
Phillips,4
Martineau,4
Ledran,4
Ney,4
Bruce,4
Luillier,4
Fildstein,4
Clermont,4
Montcalm,4
Ringuet,4
Massicot,4
Mirande,4
Willette,4
Morisset,4
Salmon,4
Mueller,4
Franck,4
Bossie,4
Coignard,4
Pitre,4
Chasséy,4
Lavoye,4
Brideau,4
Emard,4
Tawyea,4
Leriche,4
Dell'Aquila,4
Gagnér,4
Lereau,4
Monast,4
Laisne,4
Fisher,4
Livingston,4
Guillet,4
dit Beaulieu,4
Juin,4
Greene,4
Guillot,4
Baucher,4
Frécault,4
Dunning,4
Weiss,4
Baril,4
Pedulla,4
Petitpas,4
Etienne,4
Buceola,4
Dufresne,4
Fuller,3
Santere,3
Douglas,3
Schnieder,3
Bastarache,3
Gould,3
Tobin,3
Leonard,3
Duguay,3
Rolland,3
Barbeau,3
Creux,3
Faneuf,3
Pointe,3
Quill,3
Baron,3
Philhower,3
Stone,3
Cooper,3
Sire,3
Chaloux,3
Anctil dit Saint-Jean,3
Mecek,3
Peter,3
Laborde,3
Rachel,3
Durépos,3
Gavin,3
Baillargeon,3
Gifford,3
Grivois,3
Neys,3
Deshaies,3
Marston,3
Froendt,3
Newman,3
Lisotte,3
Lefebvre dit Boulanger,3
Boisvert,3
Swenton,3
Thomaston,3
Bruneau,3
Garcet,3
l'Italien,3
Belou,3
Trotier,3
Kafka,3
Messier,3
Yurchick,3
Toussaint,3
Mercereau,3
Meunier,3
Lemirse,3
Guéret dit Dumont,3
Brabant,3
Markie,3
Bellisle,3
Coquard,3
Le Claire,3
Washington,3
Leinbough,3
Kanzler,3
Paillant dit Saint-Onge,3
Colin,3
Labourliere,3
Jobin,3
Manning,3
Testu,3
Norris,3
Briais,3
Plan,3
Roy-Voisine,3
LaBonté,3
Berthelot,3
Broussard,3
Gareman,3
Lafond,3
Despatis,3
Juchereau,3
Desjardin,3
Cadrin,3
Smyth,3
Pelkey,3
Francoeur,3
Hodge,3
Lebrun,3
Fouquereau,3
Alexandre,3
O'Driscoll,3
Schoenike,3
Bailey,3
Letertre,3
Jenkins,3
d'Amours dit Louvières,3
Gravois,3
Kupisiewicz,3
Rabalais,3
Hodgson,3
Boyd,3
St John,3
de Maillard,3
Pitié,3
Maugis,3
Deliere,3
Lamothe,3
Sénéchal,3
Jannot dit Belhumeur,3
Leach,3
Whiting,3
Abram,3
Phocas,3
Pruneau,3
Trembley,3
Châteauneuf dit Sieur de Montel,3
Hinton,3
Rivet,3
Dauphin,3
Morin dit Valcourt,3
Gross,3
Réhel,3
Couet,3
Derainville,3
Cadron dit Saint-Pierre,3
Correau,3
Guignard,3
Rolet,3
Schiavo,3
Parker,3
D'Ascanio,3
Bissot,3
Guere,3
Pipes,3
Maurois,3
Delage,3
Gagnier,3
Doyle,3
Knobel,3
Steffen,3
Blagdon,3
Largay,3
Sevestre,3
Longo,3
Hubou,3
de Lessard,3
Merlin,3
Mouflet,3
Beaulier,3
Beaumont,3
Collins,3
Leger,3
Desmarais,3
Doré,3
Huet,3
St. Amant,3
Saindon,3
Pelletret,3
Mosher,3
Regeas,3
Jensen,3
Pichette,3
Jollet,3
Purvis,3
d'Astous,3
Massy,3
Parenteau,3
Potier,3
Paulhus,3
Welker,3
Obert,3
Godfrey,3
Peterson,3
Magnan,3
Boilard,3
Lattimore,3
Hynes,3
Cliche,3
Garber,3
Suprenant,3
Nessier,3
Evans,3
Bachmeier,3
Lavergne,3
Vigue,3
Hewitt,3
Dutartre,3
Swendra,3
Picoron,3
des Troismaisons dit Picard,3
Brennick,3
Caouette,3
Chollet,3
Millet,3
Mazoue,3
Bouvette,3
Carroll,3
Endrick,3
Harmon,3
Zimmer,3
Colburn,3
Bailly,3
Chandelier,3
Perras,3
L'Etoile dit L'Italien,3
Turcot,3
Moore,3
Lenfestey,3
Albright,3
Crevier,3
St. Pierre,3
Cibois,3
Jarry,3
Fillé,3
Bastille,3
Sumner,3
Wildes,3
Foucher,3
Latendresse,3
Mims,3
Gandillon,3
Belleau,3
Trudelle,3
Roy-Voisine-King,3
Lane,3
Burns,3
Baugis,3
Gingras,3
Lamoreau,3
Généreux,3
Robitaille,3
Monti,3
Beaudry,3
de La Voye,3
Rivera,3
Maynard,3
Brodeur,3
Motes,3
Russell,3
Duquet,3
Robert,3
Joseph,3
Mazzerella,3
Joly,3
Le Maire,3
Gendet,3
Prater,3
Gasnier,3
McKechnie,3
Chapados,3
Costanzo,3
Lalande,3
(Infant),3
Le Houx,3
Barrette,3
Thibodaux,3
Pépin dit Laforce,3
Putois,3
Euston,3
de Morvilliers,3
Brillard,3
Bourdois,3
Cardinal,3
Jablinske,3
Anctil,3
Lavertu,3
Chrestien,3
Sylvestre,3
Beyer,3
Bidet,3
Michau,3
des Portes,3
Pranger,3
Mongeau,3
Mallette,3
Saulnier,3
Ducharme,3
Sinclair,3
Ricard,3
Lamy,3
Bornetun,3
de Ghistelles,3
Melanson,3
Marcel,3
Crete,3
Loutre,3
Bertrand,3
Cunningham,3
Guilbeau,3
Willard,3
Bayer,3
Beaupré,3
Lafosse,3
Danjou,3
Braque,3
Striech,3
Gravelle,3
Petersik,3
Gaucher,3
Gendron dit Lapoussière,3
Bénard,3
Bonenfant,3
Grandmaitre,3
Diotte,3
Roethle,3
Morgan,3
Poirer,3
Sauvage,3
Lavigne,3
Perry,3
Ayers,3
Desjarlais dit Saint-Amant,3
Bourcier,3
Norwood,3
Craon,3
Lafrenière,3
Delaunay,3
Parrish,3
Judware,3
Coquet,3
Housley,3
Parant,3
Ingersol,3
de Chabot,3
Bond,3
Daigneau,3
Ziminski,3
Letellier de Saint-Just,3
London,3
McLean,3
April,3
Barrett,3
Berardinelli,3
Bizet,3
Duret,3
Crossman,3
Frechet,3
Gaigé,3
Legris,3
Achim,3
Forbes,2
Brindamour,2
d'Ailleboust,2
Payette,2
Riverin,2
McPhee,2
Veillon,2
Gagné Or Gasnier,2
Michel dit LeTardif et Taillon,2
Califoire,2
Armand,2
Legare,2
Frusquet,2
Tibbitts,2
McMahon,2
Pineault,2
Deblois,2
Grignon,2
O'Connell,2
Morancy,2
Frank,2
Griggs,2
Gerrish,2
Neburka,2
Wiesemann,2
Petitclerc,2
Gadois dit Mogé,2
Dorange,2
Roy,,2
Clavet,2
Gervais dit Talbot,2
Bétourné,2
Letard,2
Arpin,2
Kerin,2
LeBouteiller,2
Jolin,2
Rochefort,2
Duford,2
Myszka,2
Courcy,2
Mellanson,2
Firmin,2
Church,2
Besnard,2
Barillot,2
Audet-Lapointe,2
Chesnay,2
Bruslé,2
Duchesne,2
Truchy,2
Panégeon,2
Country,2
Porter,2
Antoirick,2
Gehrig,2
Banville,2
Noirault,2
Lacross,2
Kelley,2
Whalen,2
Sergerie,2
Desjordy,2
Saint-Jean,2
Robin,2
Grenon,2
Hoopaugh,2
Taupier,2
Chambon,2
Lanade,2
Delair,2
l'Espinay,2
Jacquot,2
Daigrepont,2
Arcular,2
Morton,2
Garnot,2
Chase Jr.,2
Goodwin,2
Beland,2
Lisot,2
Jutras,2
Lejeune,2
Alain,2
Audet dit Lapointe,2
Hely,2
Gauthier dit Landreville,2
Morrisette,2
Havey,2
Weldon,2
Julien,2
Portelance,2
Miville-Deschênes,2
Gaultier,2
Byot,2
England,2
Maraud,2
dit Lamontagne,2
Ducasse,2
Matte,2
Desranlot,2
David,2
Thibeaut,2
Sendek,2
Isoir,2
Darling,2
Seixo,2
Raimbault,2
Féneux,2
Cairns,2
Lennon,2
Crosnier,2
Languedoc,2
Davois,2
Heroux,2
Sawyer,2
Le Clerc,2
Chapelier,2
Murdock,2
Label,2
Brouillette,2
Fillion,2
Guiot,2
Garner,2
Harel,2
Marsolet,2
Coons,2
Belzile,2
Quéret dit La Tulipe,2
Villeneuve,2
Joyner,2
Trotin,2
Potet,2
Laperle,2
Bardin,2
Riton,2
Danielewiez,2
Menert dit Saint-Louis,2
Pasquerault,2
Douairon,2
Blain,2
Lusignan,2
Blair,2
Faure,2
Alarie,2
Bouthot,2
Chevillon,2
Abbott,2
Buckminster,2
Blinn,2
Matherwe,2
Micheaux,2
Hervieux,2
Genaple,2
Wisniewski,2
Tibeaudeau,2
Carlson,2
Gallimard,2
Verieul,2
Morse,2
Charet,2
Gauvreau,2
Cadieux,2
Schnell,2
Boisgarnier,2
Therien,2
Gezeron,2
Beaugrand,2
Gates,2
Vigné,2
Brule,2
Jahan,2
Daragon,2
Bombard,2
Laine,2
Hayes,2
Rate,2
LeSeigneur,2
Piquette,2
Roquand,2
Day,2
Gibbs,2
Young,2
Dionne dit Sansoucy,2
Jannot,2
Lairot,2
Visinat,2
Roy dit Lausier,2
Coutancineau,2
Desfosses,2
Roby,2
Belhumeur,2
Anselin,2
Duplessis,2
Aymes,2
Chauvet,2
Lauzon,2
Pellerin,2
Woodbury,2
St-Germain,2
Carreau,2
Nepveu dit Lanoraye,2
Poisson,2
Thion,2
Littlefield,2
Fontaine dit Marion,2
St Aubin,2
Nicholson,2
Part,2
Horry,2
Menard-Bellerose,2
Costa,2
Ogden,2
Neptune,2
Champion,2
Lyons,2
Lhuillier,2
Ferguson,2
Tougard,2
Paquet dit Pasquiers,2
Kaminski,2
Boyer,2
Poupard,2
Lueneburg,2
Viger,2
Mills,2
Gaulin,2
Greenwood,2
Rogan,2
Duperré,2
Cadron,2
Jannotte,2
Schneider,2
Frichet,2
Daniau,2
Maxwell,2
d'Anjou,2
Introna,2
Lerouge,2
Beckman,2
Trut,2
Guimont,2
Donais,2
Stratton,2
Barriault,2
Furmanik,2
Vidal,2
Porteous,2
Darisse,2
Dralle,2
Curran,2
Byrnes,2
Opay,2
Maillard,2
Couvillon,2
Le Fourier,2
Talon,2
Savatier dit Laroche,2
Boucquenier,2
Perrot,2
Beaulieu dit Hudon,2
Sommereaux,2
Verrier,2
Winters,2
unkown,2
Jeansonne,2
Turpin,2
Macneill,2
Hughes,2
de Baillon,2
Bougard,2
Bodin,2
Califour,2
Legault,2
Pinteau,2
Poulain,2
Boule,2
Howze,2
Faustin,2
Ronseray,2
Doore,2
Campion,2
Nestier,2
Vignault,2
Sommer,2
Lachaîne,2
Sherman,2
Hurette,2
Marsan dit Lapierre,2
Montgomery,2
Martin dit Saint-Martin,2
Godeby,2
Munier dit Lapierre,2
Cazeau,2
Thivierge,2
Evenson,2
Gontier,2
McHatten,2
Déry,2
Hillman,2
Graves,2
Rodrigues,2
Kirby,2
Bergerat,2
Delorme,2
Voyer,2
Rochon,2
Achon,2
La Vallée,2
Bonnet,2
Drapeau,2
Merand,2
Methot,2
Mazet,2
Delauriers,2
Rousselat,2
Mcguire,2
Joanne,2
Luben,2
Conville,2
Dastous,2
Frazier,2
Roger,2
Bouillon,2
Jonquest,2
Aubry,2
Knott,2
Van Emmerick,2
L'Escuyer,2
Settlemeyer,2
Vaillancour,2
Bennett,2
Sussie,2
Taillefer,2
Caillé,2
Miklas,2
Fievre,2
Lasante,2
Ruel,2
Grosnier,2
Lodge,2
Gerard,2
LeBorgne de Belle-Isle,2
Marle,2
Syron,2
Ramirez,2
Letourte,2
Jarnac,2
Devin,2
Theodore,2
Field,2
French,2
Egan,2
Faucher,2
Lamiot,2
Skillings,2
Lemaitre,2
Goux,2
Jourdain,2
Pion dit Lafontaine,2
Quimper,2
Dumets,2
Dagneau,2
Devoe,2
Graham,2
Flemming,2
Sherwin,2
Gaillardet,2
Poitevin,2
Desotel,2
Janneau,2
Fleming,2
Trahant,2
Dean,2
Désy,2
Dubéau,2
St Denis,2
O'Donnell,2
Regnier,2
Picoron dit Descosteau,2
Sauvenier,2
Daniaux,2
Ouimet,2
Longhenry,2
McNichol,2
Vaultier,2
Priest,2
Meneux dit Châteauneuf,2
Bidault,2
Blouard,2
Bacon,2
Bidwell,2
Descoteaux,2
Ramsay,2
Paysant,2
Rableau,2
Vallière,2
Robertson,2
Aube,2
Deforrest,2
Mailly,2
Fair,2
Mateau,2
Pierresse de Chéverisse,2
Ferland,2
d'Auteuil,2
Goalier,2
Mahar,2
Coco,2
Lebret dit Saint-Amant,2
Niquet,2
Foster,2
Ferrecoq,2
Curieux,2
Duquette,2
Skilling,2
Rebours,2
Sommereux,2
de Liercourt,2
D'Orange,2
Corneau,2
Gageut,2
Saphran,2
Papineau,2
Lanteigne,2
Schroter,2
Lancognard dit Santerre,2
Baillargeon dit Bocage,2
Mercer,2
Calvano,2
Denommé,2
Tennan,2
Odin,2
Baldwin,2
Durant,2
Tru,2
Germain dit Bélisle,2
Sarrazin,2
Quevillon,2
Lo Presti,2
Roché,2
L'Heureux,2
Dussault,2
Cummings,2
Roger,2
Knott,2
Van Emmerick,2
Schiedel,2
Culver,2
L'Escuyer,2
Astrom,2
Vaillancour,2
Lebourdais,2
Charron dit Ducharme,2
Sussie,2
Renteria,2
Fievre,2
La Rue,2
Thury,2
Coladon,2
Geoffrion,2
Lasante,2
Grosnier,2
Bouchard de Serre,2
Guyot,2
Carr,2
Reynolds,2
Gerard,2
LeBorgne de Belle-Isle,2
Marle,2
Syron,2
Huppé dit Lagrois,2
Ramirez,2
Letourte,2
Jarnac,2
Devin,2
Veillette,2
Theodore,2
Ladoué,2
Trottin,2
Petitou,2
Dumets,2
Dagneau,2
Graham,2
Gaillardet,2
Desotel,2
Parson,2
Janneau,2
Rabouin,2
Trahant,2
Mainguy,2
Michon,2
Funk,2
Dubéau,2
Mainguy,2
Michon,2
Funk,2
Gass,2
Geffray,2
Chevallot,2
Jacobs,2
Launay,2
Loret,2
Bergevin,2
Jardis,2
Lebrasseur,2
Garry,2
Konopacky,2
Griffey,2
Manacier,2
Alléluya,2
Brunelle,2
LaViolette,2
Racicot,2
Busque,2
Renault,2
Jeanniot,2
Dreux,2
Wenters,2
Mornet,2
O'Regan,2
Péloquin,2
Leupold,2
Birkford,2
Conan,2
Deslauriers,2
Harnois,2
Secrétin,2
Cusumano,2
Butler,2
Chaput,2
Jodoin,2
Rosée,2
Ponlot,2
McCormick,2
Rouzee,2
Chavagny,2
Havard,2
Prudhomme,2
Neal,2
Bourdereau,2
Garinet,2
Bocage,2
Papin,2
Genovese,2
Colleson,2
Thuillant,2
La Pointe,2
Rancour,2
Chauniere,2
Tavernier,2
McNally,2
Millouer,2
Cholard,2
Quintal,2
Leclerc dit Francoeur,2
Lamiette,2
Tibierge,2
Boissonneault,2
Langellier,2
Tilley,2
de Gavre,2
Coyrard,2
Dubord,2
Arbecque,2
Perreau,2
Samples,2
Johnson-Berz,2
Provost,2
Derflinger,2
Pérot,2
Sauvageau,2
Goodhue,2
Bournel,2
Therion,2
Perkins,2
Navarre,2
Boisdon,2
Labranche,2
Nolet,2
Perault,2
Laurent,2
Brooks,2
Buteau,2
Pierresse,2
Stevens,2
Enny,2
Varcoe,2
Maurais,2
Brouillet,2
L'Heureau,2
Russo,2
Guichard,2
Delgadillo,2
Lombart,2
Ondoyer,2
Minet,2
Casgrain,2
Donais-Freniere,2
Byron,2
Bourq,2
Loyer,2
Séguin,2
Bériau,2
Pichereau,2
Holland,2
LaCasse,2
Verret,2
Wheeler,2
Servais,2
Chalet,2
LeBouteillier,2
Griffen,2
Delouaye,2
Amedee,2
Gabouriau,2
Chalifoux,2
Landri,2
Juillet,2
Englehard,2
Bouquet,2
Orr,2
Sherry,2
Belzil,2
Mousseau,2
Laroche,2
Dévau,2
McClusky,2
Janvrin dit Dufresne,2
Dubay,2
Rousselot,2
Trangsrud,2
Hard,2
Cheney,2
Markowicz,2
Bourbeau,2
Lepele,2
Triot,2
Enard,2
Whipple,2
Lavye,2
Turpin Tupin,2
Falardeau,2
Hubout dit Deslongchamps,2
Jacque,2
Flandre,2
Tardiff,2
Howard,2
Doane,2
Bijottey,1
Ladienne,1
Bizeux,1
de Hutenay,1
Tessier dit Laplante,1
Maltais,1
Maufils,1
LaMarche,1
Layden,1
Oconnell,1
Chevrier,1
Inman,1
Dionne Jr.,1
Briggs,Voisine-King,1
D'Entremont-Latour,1
Daignault dit Laprise,1
Skijo,1
dit Desjardins-Gardner,1
Ivory,1
Cailleteau,1
Fardel,1
Steward,1
Gaumont,1
Digé,1
Diagneault,1
Dutrain,1
Lacomble,1
Transgrud,1
Kutcher,1
Legaud-Legault,1
Whitten,1
Brosseau,1
Cointal,1
Sigrest  II,1
Jonquist,1
Coston,1
Trépagny,1
Doucet Or Lavend,1
Connell,1
Butterfield,1
Bidet or Deroussel,1
Besse,1
Lechin,1
St Pere,1
Leet,1
Dubaut,1
Clarke,1
Peters,1
Gosri,1
Buisson,1
Cadot,1
Paillant,1
Neuhauser,1
Blackmon,1
Stains,1
Chamberlant,1
LaSalle,1
Glass,1
Robidoux,1
Johanneck,1
Marsil,1
Saylor,1
Campbell,1
Lawyarson,1
Bates,1
Miranda,1
McGrotty,1
Rigoulet,1
Amelot,1
Aymond,1
Matout,1
Medore,1
Perthuis,1
Manson,1
d'Allaire,1
Froschet,1
Jr,1
Bourg dit Bellehumeur,1
Holman,1
Nusse,1
dit Dumont,1
Griswold,1
Baies,1
Daigneault,1
Montminy,1
Vinar,1
Charleson,1
des Varieux,1
Legaud,1
Dubrule,1
Schaefer,1
Dostie,1
Sigrest III,1
Kirk,1
Rvreon,1
Villencourt,1
Asselinne,1
Renaudet,1
de Nezement,1
Coulon,1
Pirie,1
de La Marre,1
Clément or LaBonte,1
Trouillet,1
Mauny,1
Pistch,1
Thunay-Dufresne,1
Miron,1
Heiser,1
Patoine,1
Bruder,1
Hottot,1
Houart,1
Brasselette,1
Dennever,1
Charlot,1
Thessereyne,1
Hudon (Beaulieu),1
Valet,1
Shink\gingras,1
Marx,1
Dupuy,1
Thorton,1
Vicque,1
Pinard,1
Dampierre,1
Bouquin,1
Turmel,1
Kendall,1
Anfinson,1
Rode,1
Collier,1
Whettengal,1
McIninch,1
Hewes,1
Vernas or Dufresne,1
Glennon,1
Rommel,1
Mayheur,1
Imbeault,1
Morille,1
Desvaux,1
Vigneux,1
Dahle,1
Duarté,1
Manley,1
Rebarchik,1
Reau (Rot),1
Muszynski,1
Knight,1
Raimon,1
dit Roy,1
Carvalho,1
Roi dit Desjardin,1
Hrncirik,1
de Carpentier,1
Austin,1
Beaupied,1
Le Pelé,1
Bouchard dit Dubé,1
Warner,1
Roysel,1
Chainé,1
Morse, Jr.,1
Montpart,1
Orberg,1
Glynn,1
Sigrest,1
LeMaistre,1
Pappin,1
de Beaupre,1
Beauclair,1
Bacco,1
Wozniak,1
Joudain,1
Ares,1
Ablon,1
Pierron,1
Dutaut,1
Boutheiller,1
Boutlier,1
Engstrom-Clarke,1
Page.,1
Guimon,1
Cauchon dit Lamotte,1
Joncas,1
Maisonneuve,1
Lineham,1
Chagnot,1
Guiet,1
Gagnard,1
Verneuil,1
Imaizumi,1
Douin,1
Swabia,1
Proteau,1
Arundel,1
Derosier,1
Valiquet,1
Soper,1
Pomfrey,1
Bear,1
Soumande,1
Kimball,1
Paul,1
Olbering,1
Elliott,1
Costigan,1
Desjardins-Proulx,1
Hale,1
Tompie,1
Bromage,1
Govin,1
Gastonier,1
Caiolle,1
Joffrion,1
Mignau dit Labrie,1
La Boissoniere,1
Lemley,1
Kim,1
Dorion,1
Geopford,1
Aasen,1
Chalette-Chalet,1
Burt,1
Boydston,1
Kishimoto,1
Maloy,1
Or St. Germain,1
Guyet,1
Baudart,1
Dauzat,1
Le Tellier,1
Weitzel,1
Godillon,1
Archer,1
LaCherer,1
Lamoureux,1
Dusaussoy,1
Reine,1
Dempsey,1
Moulton,1
Bataille,1
Ceasar,1
Marguerie,1
Lebreton,1
Lebœuf,1
Lollar,1
Boulogne-Alsace,1
Vaudenay,1
Boisbrillant,1
Neilson,1
Herr,1
Bounier,1
Holder,1
Eldridge,1
Fain,1
Colbert,1
Chantel,1
Graton,1
Able,1
McCue,1
Mazzerolle,1
Liboiron,1
Mayhew,1
Bardon,1
Gagnon-Gagné,1
Pellet,1
Gasseau,1
Rivieres,1
Longest,1
Weher,1
Mishio,1
Jeannin,1
Jolly,1
de Baubuse,1
Cholette,1
Rametta,1
Buzzel,1
Paschall,1
Faye Fagnan,1
LeCler,1
Gullo,1
LeBond,1
Gellison,1
Wyant,1
Rotreau,1
Despatie,1
Guichon,1
des Sauteux,1
Chagnon,1
Nutter,1
Hyarden,1
McKenna,1
Telmosse,1
Desvarieux,1
Trabilsy,1
Laneau,1
Kavanaugh,1
Davison,1
de Beauvillier,1
Ducotte,1
Coin,1
Pacquet,1
Legere,1
Stein,1
Trask,1
Joannes,1
Lorbertor,1
Halle',1
Brien-Deroucher,1
Flaherty,1
Conner,1
Athanase,1
Garity,1
Migneron,1
Tassin,1
Desrosiers dit Dutremble,1
Lis\l'esperance,1
Boisbrillant dit La Durantaye,1
Woodrum,1
Blicht,1
Pilon,1
Weise,1
Desgagners,1
Vion,1
Lavrich,1
Nau-Labrie,1
Gagné-Mocci,1
Pounds,1
Lynes Jr,1
Bozeman,1
Mallock,1
Boutet,1
Deselle,1
Labrie dit Mignot,1
L'Etoile,1
Lewis,1
Grindeland,1
Demes,1
Holley,1
St Jorre,1
Deatrick,1
de Thiembronne,1
Aaron,1
Gay,1
Guinguen,1
Bidet dit Desroussels,1
Levensollor,1
Rouillard,1
Huck,1
Le Moyen,1
de Beloeil,1
Sherrie,1
Benit,1
Garnache,1
Baudin,1
Gosslin,1
O'Quinn,1
Gyon,1
Brandes,1
Lachaussée,1
Lunt,1
Vienneau,1
Rousseliere,1
Kalbakdalen,1
Guindon,1
Deroucher,1
Damone,1
Garrity,1
Legardeur,1
Allison,1
Wellington,1
Bastard,1
Wilmont,1
Branche,1
Lecourt,1
Francis,1
Payheur,1
Duhaine,1
Planchet,1
Raguenier,1
Roquan,1
Ann,1
Gagné-Belanger,1
Lynes Sr.,1
Trevilet,1
McCowan,1
Mauroes,1
Jamin,1
Judd,1
Babain,1
Abalan,1
Waite,1
Lalandre,1
Kairns,1
Aldrich,1
Hyardin,1
Courmet,1
Hubbard,1
Dwyer,1
Assaf,1
Trantham,1
Voland,1
Hafford,1
Montmeny,1
P,1
Poete,1
Wilbur,1
Gamroth,1
Lepreuvier,1
Dubs,1
Denys-Roy,1
Moutardier,1
Leech,1
St Simon,1
Amyot,1
de La Ponte,1
Donna,1
Manseau,1
Frost,1
Carson,1
Viette,1
Houlet,1
St Jarre,1
Gautreau,1
Guillory,1
Jourdain dit Lafrance,1
Gunn,1
Hardy,1
Barnecut,1
Clemenceau,1
Spah,1
Goetz,1
Coderre,1
Guilmet,1
Ridlon,1
Rosignold,1
Lefay,1
de St Germain,1
Froget or Despatis,1
Freehart,1
LaFlam,1
Riopel,1
Doty,1
Loury,1
Philippot,1
Raudor,1
Cosset,1
Klutts-Voisine,1
Burroughs,1
Cantito,1
Catchot,1
Targer,1
Meniux,1
Clayton,1
Kolosky,1
Ollier,1
Johansen,1
Hince,1
Martineau dit St. Onge Lormiere,1
Paillant dit Saintonge,1
McAulley,1
Freeman,1
Debowska,1
Laure,1
Dupeux,1
Filibato,1
Chovin,1
Salicki,1
Marks,1
Desnoyers,1
Bourguoin,1
Zimitsch,1
Weston,1
Vanessa,1
Boigeou,1
Roi dit Lausier,1
Judkins,1
Raison,1
Bineau,1
Bugaret,1
Riche,1
Fayande,1
Fueilleteau,1
Pinault,1
Mainville,1
Reed,1
Cyr dit Croc,1
Schuster,1
Skinner,1
Gillet,1
Bayol,1
Socia,1
Radulf,1
Birmingham,1
Clouart des Groselliers,1
Collette,1
Weber,1
Bernard dit Chamberland,1
Sheltra,1
Lawyer,1
Cory,1
Bernatchez,1
Land,1
Kotseropolos,1
Bijaux,1
Messer Jr,1
Hollingsworth,1
Pauthier,1
Milliouer,1
Tenney,1
Willet,1
Bouthote,1
Gosseline,1
Shallinor,1
Pelchat,1
Kahler,1
Demers dit Dumais,1
Clut,1
Brau,1
Reardon,1
Burwell,1
Brossard,1
Shaffer,1
Gloria,1
de La Batte,1
Brust,1
Scherrer,1
Oudet,1
Lacoste,1
Steimann,1
Mason,1
Texier,1
Brilland,1
Ouene,1
Aubertin,1
de Rufin,1
Sahf,1
Vavasseur,1
St Romain,1
Robicheau,1
Burger,1
Renty,1
Pion,1
Belisle,1
Hodgdon,1
Charles,1
Swidler,1
Ryan,1
Wisotzkey,1
Bignon,1
LaForest,1
Liger,1
Bidon,1
St Clair,1
Jardin,1
Kinery,1
Badin,1
Rathé,1
Saint-Hilaire,1
Frambroise,1
Saint-Jorre dit Sergerie,1
McCrum,1
Messer Sr.,1
Mizell,1
Bedeau,1
Péraud,1
Lirette,1
Adamski,1
Folhurst,1
Baquet,1
Lacour,1
Genereau,1
Ellingboe,1
Saint-Jacques,1
Parisien,1
Clute (Roy),1
Neau,1
Combo,1
Campagna,1
Arrington,1
Chesnet,1
Carrel,1
Mauger,1
Brechet,1
Elie,1
Ringrose,1
Loyo,1
Chalut,1
Keith,1
Glorier,1
Mitchel,1
Lamphier,1
Marsille,1
Raquoat,1
Caussade,1
Dutremblay,1
Fellows,1
Marot,1
Bergeront dit Damboise,1
Parmentier,1
Guill,1
Brassette,1
Lamaudais,1
Gautrond,1
Gallard,1
Kalman,1
McCluskey,1
Doustou,1
Douru,1
Louffe,1
Cassavan,1
Darbagon,1
Cepili,1
Taylor,1
Cole,1
Colletti,1
Abelin,1
Gaufrenau,1
Call,1
Lontine,1
Thebedeau,1
Sudois,1
Jamain,1
Dyon,1
Sommier,1
Coyer,1
Friebold,1
Denote,1
Downing,1
Lacomb,1
Askew,1
Gonsoulin,1
Sambiges,1
Lavoix,1
Lefranc,1
Beebe,1
Morand,1
Bayeur,1
Carmoux,1
Feyerabend,1
Joyelle,1
Denmark,1
Gestray,1
Remond,1
Hout,1
Coquibus,1
Fien,1
Storm,1
Nazoue,1
Houde dit Houle,1
Richer,1
Atwood,1
Tourault,1
Drusynska,1
Bellem,1
Quirlet,1
Lanoue,1
Kelone,1
Schwartzott,1
Fitzherbert,1
Besnée,1
Ruiz,1
Blair-Evans,1
Lowenstein,1
Pederson,1
Douzon,1
Knaeble,1
Owens,1
Duperon,1
Gigot,1
Bandelli,1
Delmonico,1
Despins,1
Ash,1
de L'Epiny,1
Ray,1
LeBrochu,1
Lestoric,1
Slate,1
Hartt,1
Godreau,1
Dominé,1
Reguindeau,1
Bourgerie,1
Jonet,1
Feeney,1
DeGroat,1
Andrick.,1
Perthius,1
Wolfe,1
Lavve,1
Fahey,1
Faure dit Planchet,1
Sossier,1
Dubois dit Morel,1
Blauvert,1
Hilaret,1
Dealzel,1
Mogen,1
Digidis,1
Chaisson,1
Pell,1
Galaska,1
Aderhold,1
Lesher,1
Gaude,1
Sevien dit Langlois,1
Corbineau,1
Rabalis,1
Robida,1
Sarapas,1
Rapineau,1
Cizinski,1
Bonnema,1
Madeux,1
Baugy,1
Dunn,1
Gaboret,1
Bieszcad,1
Bonaut,1
Castro de Burgos,1
Querillon,1
Juneman,1
Tetard,1
Veronneau,1
Kirkland,1
Vernon,1
Greenleaf,1
Talua,1
Vaccaroni,1
Kistner,1
Rustad,1
Garley,1
Avice,1
Bluteau,1
Costello,1
Cappadocio,1
La Mirande,1
da Cruz,1
Godwin,1
Guerineau,1
Gunterman,1
Savaria,1
Lechone,1
Cliffe,1
Boussumier,1
Thibert,1
Laizeau,1
Saint-Gelais,1
Bertin,1
Crook,1
Engrand,1
Keenan,1
Marcou,1
Gillespie,1
Lissegais,1
Pele,1
Jeamme,1
Thraser,1
Dumas dit Marin,1
Beauvais,1
Robinson,1
Vardamis,1
Lucia,1
Halpin,1
de La Boyssiere,1
Chevery,1
Doucet dit La Verdure,1
Eschete,1
Corbeil,1
Lindgren,1
Richaume,1
Malcheson,1
Mlachnir,1
Chowen,1
Crowell (Lepley),1
Jeannet,1
Daley,1
Brennan,1
Bugnel,1
Rubel,1
Boisseau,1
Calpis,1
Pozanac,1
Swift,1
Thunell,1
Martell,1
Rose,1
Krueger,1
Wilkes,1
Helie,1
Hauk,1
Boutotte,1
Cleranceau,1
Alford,1
Vernier,1
Bidet\deroussel,1
Nassham,1
Brien,1
Aton,1
Michels,1
Valley,1
Drepeau,1
Robert Dit Lafontaine,1
Goulette,1
Cartagena,1
Mc Gloughlin,1
Soomaroosing,1
Poitraud,1
Fahy,1
Garaut,1
Asher,1
Myrick,1
Kraulis,1
Everett,1
Chabat,1
Morreau,1
Pariset,1
Parrington,1
Mcferran,1
Mann,1
Kiersereau,1
Servignan,1
Stagnitti,1
Ludgon-Tesseo,1
Richter,1
Lavoi,1
Millardot,1
D'Amato,1
Bosche,1
Petit dit Saint-Pierre,1
Ketulak,1
Wyporek,1
Trual,1
Godefroy,1
Kellerman,1
Bègue,1
Masqueda,1
Griffiths,1
Manitouabewich,1
Thibault dit St. Louis,1
Dickey,1
Kicher,1
Goreau,1
Rainville,1
Bibon,1
Brasseau Dit Mat,1
Preves,1
Pourciau,1
Védy,1
DeGroot,1
Talua dit Vendamont,1
Saudois,1
Grantham,1
Strong,1
Riemann,1
Marius,1
Aguirre,1
Lesczynski,1
Testard,1
Leveille,1
Anger,1
Joannet,1
Street,1
Herault,1
Desselle,1
Tolisano,1
Zellars,1
Lowe,1
Carrouère,1
Quimine,1
Cournia,1
Frenchette,1
Paine,1
Marshall,1
Krulewich,1
Paquets,1
Arseneault,1
Gosgrove,1
René,1
Lefebvre Boulang,1
Russel,1
Jarais dit Beauregard,1
Roper,1
de Billy,1
Richards,1
Dessellier,1
Little,1
Travelly,1
Riina Jr.,1
Headd,1
Vassar,1
de La Ruelle,1
Gigot,1
Delmonico,1
Despins,1
Lalandre,1
de L'Epiny,1
Lestoric,1
Hubbard,1
Slate,1
Dwyer,1
Hartt,1
Trantham,1
Godreau,1
Voland,1
Montmeny,1
Reguindeau,1
P,1
Bourgerie,1
Jonet,1
DeGroat,1
Perthius,1
Dubs,1
Lavve,1
Moutardier,1
Faure dit Planchet,1
Sossier,1
Amyot,1
Donna,1
Lontine,1
Thebedeau,1
Frost,1
Sudois,1
Mogen,1
Digidis,1
Riche,1
Fueilleteau,1
Chaisson,1
Mainville,1
Galaska,1
Cyr dit Croc,1
Aderhold,1
Gillet,1
Gaude,1
Corbineau,1
Robida,1
Sarapas,1
Socia,1
Cizinski,1
Birmingham,1
Bonnema,1
Collette,1
Casey,1
Lavanier,1
Lefebure,1
Lefrenay,1
Shank,1
Roger dit Latouche,1
Hersey,1
Sauvegrin,1
Vaugh,1
Blakley,1
McCallister,1
La Ruelle,1
O'Brien,1
Suzanne,1
Levassuer,1
Crowley,1
Troye,1
Hout dit St. Laurent,1
Merrin,1
Tripp,1
Parslow,1
Moffitt,1
Disjardin,1
Guerre,1
Michelet,1
Le Maistre,1
Turnage,1
Labelle,1
Copponex,1
Oliveira,1
Bragdon,1
Biennais,1
Payment,1
Bainbridge,1
Quenneville,1
Scheett,1
Duperry,1
Skidgell,1
Peret,1
Cadorette,1
Iarrobino,1
Côté dit Lefrise,1
Giles,1
Gautron Larochel,1
St Onge,1
Lautelle,1
Ellsworth,1
Grigas,1
Provencher,1
Betourney,1
Dyer,1
Drinkwater,1
Le Blanc dit Sailor,1
Baillargon,1
Lagacé dit Mignier,1
Bourgouin,1
Croply,1
Harpin,1
Deutch,1
Guilbod,1
Lagotiere,1
Cummins,1
Serie,1
Guenette,1
Belot,1
Letende,1
Kelly,1
Gignard,1
Maheut,1
Prichard,1
Giasson,1
Hinkley,1
Henaut,1
Suchecki,1
Caillat,1
Sinsebox,1
Lonergan,1
Sanguinet,1
Boiselle,1
Cotton,1
Regourde,1
Gaudry dit Bourbonnière,1
Le Roux,1
Brilliant,1
Westcott,1
Rapin,1
Morineau,1
Bariot,1
Holden,1
Angatti,1
Chorest,1
Tacey,1
Seavey,1
Granero,1
Haviland,1
Thode,1
Bentson,1
Pejsa,1
Beauchene,1
Tetreault,1
Brazeau,1
Leroix,1
Bjork-Dahl,1
Targe,1
Geoffroi,1
Sidol,1
Gaudet Dit Le Vi,1
Lebourgeos,1
Moncy,1
Hull,1
Beauchamp,1
Gawler,1
Périgord,1
McDonagh,1
Choiniere,1
Tribout,1
LaVache,1
Gotchy,1
Vigi,1
Mishoe,1
de Viame,1
Masson,1
Willick,1
Tétreau,1
Taschereau,1
Kopycinski,1
Lemaine,1
Gaindet,1
Naudot,1
Shiel,1
Poissant,1
Fillmen,1
Sturdivant,1
Chidville,1
Nute,1
Daggett,1
Holton,1
Le Bachelet,1
Thout,1
DeKubber,1
Mosny,1
Desportes,1
Bell,1
Coignet,1
Chaline,1
Cholet,1
Kubley,1
Brisset,1
Klimasewiski,1
Garsauld,1
Paillard,1
La Lande,1
Molinet,1
Bezier Or Touin,1
Neck,1
Giguere dit Despins,1
Faniel,1
Stramel,1
Legacy,1
Dauer,1
Tessiere,1
Mathias,1
Prior,1
Nolan,1
Leone,1
Beechin,1
Menu,1
Touchet,1
O'Leary,1
Thibeaudeau,1
Fayette,1
Gaudet Elizabeth,1
Jarais,1
Lavasseur,1
Huneau,1
Gordon,1
Mollison,1
Lareau,1
Griffin,1
Gault,1
Pettitt,1
du Vignan,1
Barteau,1
Potter,1
Munier,1
Babillote,1
Matthieu,1
des Troismaisons,1
Rehm,1
Martinez,1
Chamberlain,1
Maty,1
Minke,1
Varin,1
Wojciehowski,1
Webber II,1
de Saint-Étienne de Latour,1
Reckords,1
Baron Le Baron,1
du Montmirel,1
Courchaine,1
Loupe,1
Stamas,1
Desgagne,1
Behzer dit Piuze,1
Boucher de Boucherville,1
Letarte,1
Pathier,1
Simmoneau,1
Beltran,1
Moisan-Lemoyne,1
Croughwell, III,1
Kraus,1
Bibaut,1
Hargreaves,1
Chauré,1
Sargent,1
Quellet,1
Menert,1
Goyet,1
Bongini,1
Shea,1
Junot,1
Dourdet,1
Skramstand,1
Chatel,1
Terbeest,1
Sharkley,1
Laine',1
Montigny,1
Wyatts,1
Batchelder,1
Hostain,1
Guéret dit Dumond,1
Topsan,1
Farreta,1
Ducombe,1
LaVallee,1
McKenty,1
Mancuso,1
Bourassat,1
Head,1
Le Tourneau,1
Rouiller,1
Germaine,1
Laviné,1
Skraugstad,1
Letang,1
Vateau,1
Owen,1
Miray,1
Spinney,1
Labby,1
Arsenau,1
Milliat,1
Cabas,1
Raby,1
de Forest,1
Poisonnier,1
McCloskie,1
Kamel,1
Hryhorka,1
Chardonnet,1
Saint-Jorre,1
Rabie,1
Damour,1
Roncelay,1
Magne,1
King\Desjardins\Gardner,1
Carré,1
Donato,1
Seward,1
de Brie,1
Vraber,1
Circe,1
Deguise,1
Mador,1
Bird,1
Nodi,1
Cruger,1
Hart,1
de La Russiere,1
Croughwell, Jr.,1
Plumereau,1
Ludlum,1
Bibeau,1
Rometelli,1
Willis,1
Regaud,1
Desloges,1
Menart,1
McNamara,1
Duplisis,1
LaHoussay,1
Scramstad,1
Dondoneau,1
Alden,1
Guinament,1
Paulin,1
Conley,1
Clairer,1
Ogle,1
Galareau,1
Bourguignon,1
Diamond,1
Kovall,1
Esmard,1
Raffel,1
Lovett,1
Rouer,1
Templet,1
Gibault,1
Toothaker,1
Legrain,1
Schroder,1
Aurray,1
Labraye,1
Boissonneau,1
Savoy,1
Roebuck,1
Feuillard,1
Bellefontaine,1
Kivlen,1
Nodreau,1
Shurlett,1
Fredette,1
Lesave,1
Hamilton,1
Tean,1
Pilet,1
Hilton,1
Gorman,1
Gahagan,1
Coinne,1
Le Clercq,1
Balanger,1
Gauche,1
Tancredi,1
Pamerleau,1
Davenport,1
Antibella,1
de Lafond,1
Barette,1
Boussuat,1
Caspette,1
Desgagnés,1
D'Aragon,1
Croughwell,1
?roy,1
Shain,1
Vernas,1
House,1
Aucair,1
Allair,1
Rachal,1
Martain,1
Valcourt,1
Regan,1
Dubuc,1
Queret,1
Tupin,1
Ristau,1
Loiselle,1
Johnston,1
O'Day,1
Darveau,1
Goodnough,1
LeSenechal,1
Wall,1
Panet,1
Ellert,1
Espling,1
Fouquet,1
Galbois,1
Merrel,1
Rezabek,1
Worchester,1
des Landes,1
McDermott,1
Hutchins,1
Desnaguets,1
Messie,1
Collella,1
La Boissonniere,1
Payandey,1
Hedderly,1
Strassner,1
Wamsley,1
Merra,1
Robert dit Breton,1
Rafe,1
Legendre,1
Bourke,1
Cumbie,1
McKinnon,1
Roux,1
Chalifous,1
True,1
Denevers,1
Voisinat,1
Cappel,1
Yatch,1
d'Amours dit Desplaines,1
Caillard,1
Telmose,1
Ratay,1
Sielbeck,1
Boisbriant,1
Starkin,1
Desbiens,1
Gilles,1
Stancik,1
Noireau,1
Wakefield,1
Niver,1
Stitt,1
Pinkham,1
Glidden,1
de Leugré,1
Desgouttins,1
Benjamin,1
Pitee,1
Libby,1
Isarel,1
Solas,1
Paige,1
Kincholoe,1
Faust,1
Macard,1
Moccio,1
Patin,1
Pitts,1
Sophie,1
Hayden,1
Connors,1
Imschweiler,1
Beau,1
Hastings,1
Gougeon,1
Yenne,1
Gaguet,1
Morencie,1
Hamelin,1
Landers,1
de La Porte,1
Viau,1
Pendule,1
Proia,1
Kleaver,1
Quentin,1
Spearrin,1
Clach,1
Chaslut,1
Sheridan,1
Deloge,1
Lagoue,1
Canel,1
Rolandeau,1
Gregg,1
Nyeulle,1
Paquerot,1
Jurzyniec,1
Bellivan,1
Harrelson,1
Fitzback,1
Gazaille,1
Grossin,1
Kenyon,1
Pekoske,1
de Venois,1
Riviere,1
Couillard-Dupuis,1
Joy,1
Levert,1
Manzer,1
Junak,1
Lockhart,1
Beaulaurier,1
Fradeux,1
Connelly,1
Guvou,1
Scutella,1
Doribeau,1
McDonough,1
(Child),1
Vigoureux,1
Prejean,1
Barriere,1
Devoissy (Roussy,1
Vosine,1
McAvay,1
Chamerland,1
Barbotin,1
Dana,1
Vachon dit Laminée,1
McLaughlan,1
Haineault,1
Tanner,1
Neron,1
Tozier,1
de Cleves,1
West,1
Lainee,1
Creste,1
Coltart,1
Allain,1
Baronne,1
Poitiers,1
Ballard,1
Paris,1
Monsoft,1
Canatonquins,1
Carpenter,1
Mae,1
Morel dit Durantaye,1
Du Mont,1
Barr,1
Camire,1
Populardo,1
St Michael,1
Jornal,1
Voorhies,1
Blasczyk,1
Bidary,1
Stoddard,1
Hume,1
Sherwood,1
Lory,1
Yon,1
Buczcke,1
Daunait-Freniere,1
McKinley,1
Heitmann,1
Soussis,1
Bernardi,1
Lombardi,1
Le Preuvier,1
Landaiche,1
Dochin,1
Emie,1
Roy dit Desjardin,1
Dubreuil,1
Brasselet,1
Guzze,1
Coffelt,1
Wold,1
Heidmann,1
Noyer,1
Robillard,1
Haby,1
Malsheske,1
Abrams,1
Soussy,1
Matt,1
Clairet,1
Auffrey,1
Piché,1
Rossiter,1
Donneville dit Belleau,1
Betting,1
Morier,1
Dahl,1
Fitzgerald,1
Belair,1
Willett,1
Theoret,1
Spiess,1
Lamour,1
Lagnel,1
Tracy,1
Geister,1
Petipas,1
Jacomette,1
Gantnier,1
Galipeau,1
Pichard,1
Thierry,1
Issacson,1
Tvedt,1
Cobb,1
Souillard,1
Bachelet dit Cassista,1
Ostiquy,1
Farr,1
Rountree,1
Petiot,1
Forgues,1
Bébubé,1
Garrett,1
Ytier,1
deMehernc,1
Suronne,1
Smallen,1
Messant,1
Grady,1
Purcell,1
McQueeny,1
Bisonnette,1
Gourd,1
Chaineau,1
McDougal,1
Seemann,1
Borbeau,1
Balthazar,1
Bensley,1
Stepina,1
Pickering,1
Allingham,1
Delarosbil,1
Butault,1
Dutremble,1
Paigne,1
Moynihan,1
Canady,1
Diubac,1
Tronier,1
Dulinski,1
Drainville,1
Kaiser,1
Chase II,1
Richard(Michaud?),1
Brikford,1
Boyle,1
Guere dit Dumont,1
Michaux,1
Barnett,1
De Lomelle,1
Manuele,1
Cabozon dit Rocheville,1
Sears,1
Byers,1
de La Houssaye,1
Montenat,1
Raiche,1
Triolet,1
Galvin,1
Normandeau,1
de Ghistelle,1
Bonnette,1
Babineaux,1
Kidd,1
Coscia,1
Carney,1
Gaherty,1
Åkerlind,1
Choiniere dit Sabourin,1
Corporon,1
Radabough,1
Hertaut,1
Legrande,1
Hudon dit Beaulieru,1
Choquet,1
St. Louis,1
Heaney,1
Morneaux,1
McLaughlin,1
Barillau,1
Doyle-Hill,1
Updike,1
Guerey,1
Scierra,1
Meurier,1
Guibord,1
Malin,1
Gromek,1
Grindle,1
Drolet,1
Pringle,1
Chuinard,1
Beaulieur,1
Biron,1
Bertineau,1
Brière,1
Sentilles,1
Havelick,1
Millard,1
Fregot,1
Campo,1
Michot,1
Blizzard,1
Crosby,1
Bowtruczyk,1
Gautero,1
Ellis,1
Chor,1
Pichon,1
Nettleton,1
Archambeault,1
Cook,1
Byram,1
Rollet,1
Buissiere,1
Brice,1
Otto,1
Michaud II,1
Cacioppo,1
Theoret-Triolet,1
Lundin,1
de Haverskerke,1
Coffin,1
Guilbeault,1
Mullard,1
Beliveau,1
Broderick,1
de la Vauzelle,1
Drew,1
Thorn,1
Hilliard,1
Boisbrillant de La Durantaye,1
Masselot,1
Rutherford,1
Becker,1
Sivadier,1
Burke,1
Bondemer,1
Simonneau,1
Gardiner,1
Ploude,1
Stephens,1
Blanc,1
Underhill,1
Bare,1
Gros,1
Le Barbier,1
Babulski,1
Pain,1
Diaz,1
Morra,1
Bonnotte,1
Letetu,1
Evrat,1
Eisenmenger,1
Lemoureaux,1
Desmaret,1
Speyer,1
Dunys,1
Frye,1
Dusol,1
Lecouffe,1
Ferrande,1
Beaver,1
Meddleton,1
Mathe,1
Verllow,1
Soussi,1
Millot dit Laval,1
Balick,1
Ferron,1
McNeil,1
Pelissier,1
Ligneri-Ligny,1
Boone,1
Canty,1
Veval,1
Blackledge,1
Guillon,1
Gallant,1
Tourvion,1
Drill,1
Locat,1
Morinville,1
Beuf,1
Schutte,1
Bloquin,1
Mitchell,1
Calderwood,1
Chalou,1
Carol,1
Kalosky,1
Le Parc,1
Bangle,1
Pinguet,1
Hutchinson,1
Darios,1
Panineau,1
Goupil,1
Bujeau,1
Behzer,1
Diers,1
Gagnon dit Belisle,1
Oaks,1
Gauer,1
Guitart,1
Tarangelo,1
Ridgeway,1
Gillebert,1
Bonnett,1
Herrmann,1
Christiana,1
Lara,1
Croy,1
Lemonde,1
Boisbriand,1
Poutre,1
Gunderson,1
Convent,1
Delarosbile,1
Valin,1
Laveway,1
Longpre,1
Lumina,1
Riley,1
Hui,1
Tousigant,1
Louineau,1
Gousse,1
Bissonet,1
Ebert,1
Strouse,1
McDonald,1
Earls,1
Derivage,1
Dumont-Gueret,1
Palasko,1
Perryman,1
Deschesnes,1
Mignaux,1
Meillet,1
Guarnieri,1
Félix,1
Halle,1
Miles,1
Lajuenesse,1
Gauchere,1
Conant,1
de Dudzeele,1
Le Mercier,1
Chalumel,1
Comtée,1
Liebeskind,1
Pipette,1
Brand,1
Monalam,1
Greslon,1
de Lisle,1
Pilote,1
Lebeuf,1
Mckeogh,1
Coulcombe,1
Senel,1
Leathers,1
Train,1
Fox,1
Bielkiwieicz,1
Chabot-Souville,1
Sroboda,1
Boivert,1
Cry,1
Sangrene,1
Letellier,1
McCracken,1
Cachy,1
Means,1
Legacé,1
Cointerel,1
Le Blond,1
Warren,1
Hogkins,1
Bailleur,1
Peltier,1
Bigouette,1
Pahl,1
Barton,1
Catherine,1
Waters-Voisine,King,1
Laforrest,1
Welch,1
de La Haye,1
Damboise,1
Levrauld,1
Latulippe,1
Bourg Or Bourque,1
Lavertue,1
Dechamplain,1
Novick,1
Le Bannois,1
Sturgeon,1
Jeremie,1
Christianson,1
St Marie,1
Edge,1
Stoneouse,1
Hernon,1
Hilaire,1
Price,1
Gentile,1
Faulk,1
Stitham,1
de Cueilly,1
Harris,1
Badeau,1
Moresma,1
Pelle,1
Romano,1
Latial,1
du Bournais,1
Shink or Gingras,1
Babize,1
Cinq-Mars,1
Aurrde,1
Columbe,1
Patte,1
Jaundreau,1
Vienne,1
Weeks,1
Le Chasséur,1
Olivier,1
Monhay,1
de Lessart,1
Poret,1
Weiler,1
Putnam,1
Ste Marie,1
Walsh,1
St Martin,1
Stackhouse,1
Dill,1
Crevette,1
Snow,1
Dozois,1
Greenier,1
Rocheron,1
Derome,1
Vien,1
Ouelette,1
Gautrot,1
Sibilau,1
Soullet,1
Robbilard,1
Cammeaux,1
Dustin,1
Kerpalski,1
Thessareyne,1
Anticosti,1
Polleret,1
Blank,1
Hoffman,1
Dugallet,1
Mcgraw,1
Shuler,1
Roberts,1
Tourneur,1
Henderschott,1
Morhier,1
Savoreau,1
Claude de Boisan,1
Herbert,1
de Belle Isle,1
Oxley,1
Surgis,1
Dart,1
Mitch,1
Colbeth,1
Rattier,1
Pollart,1
Lecoq,1
St Pierre dit Dessainte,1
MacIsaac,1
Biville,1
Burot,1
Reckner,1
Pinet,1
McFarland,1
Saint-John,1
Menee,1
Jubert,1
Nunn,1
Gulenchy,1
Schultz,1
Chasse Jr.,1
Burd,1
Reid,1
Quérêt dit Latulipe,1
Dumont dit Guéret,1
Horlays,1
Siddall,1
Haubois,1
Lemaire,1
Bertsch,1
Larouche,1
Catanozaro,1
Wood,1
Billon,1
Schmidt,1
Lechasseur,1
Fornowski,1
Nyeuille,1
Boudreau(Boudrot,1
Voisine-King Jr,1
Bourdage,1
Dévot,1
Mackin,1
Crevet,1
Berthoulme,1
Salle,1
Lariviere,1
Carrière,1
Caumont,1
Merieux,1
Erath,1
Farley,1
Rooney,1
O'Connor,1
Auvry,1
Baillou,1
Amirault,1
Miliard,1
Desprey,1
Gouley,1
Jubinville,1
Quadrain,1
Bourgoin dit Bourguignon,1
Viviers,1
Benoist,1
Lagrave-Chene,1
Bouthillier,1
Desavis,1
Hudson,1
Margot,1
Springer,1
Enman,1
Rimbault,1
Levraux,1
Voisin,1
Miranbeau,1
Guittot Guytaux,1
Siekert,1
Coffey,1
Lenda,1
Brittany,1
Thuillard,1
Pietou,1
Frantz,1
Antoine,1
Pothier,1
Fleurisson,1
Verdon,1
Lermusier,1
Bednary,1
Cohouron,1
Zullo,1
Oliviera,1
Riberdy,1
Francillon,1
Iverson,1
Hornsby,1
Mathisen,1
Jacquet,1
Sr.,1
Seavy,1
Goodfriend,1
dit Desjardins,1
Berthon,1
Naudin,1
Li Pavlantonic,1
Jian,1
Deroche,1
Van der Hayden,1
Scorman,1
Hultin,1
McCann,1
Lavender,1
Jr.Chapman,1
Cochon,1
Bahere,1
Venet,1
Trépagné,1
Mott,1
Daveluy,1
Damon,1
Hédouin,1
Foisy,1
Robineau,1
Brenda,1
de Berre,1
Ledet,1
Grass,1
Pfeil,1
La Roche,1
Hautecloche,1
Kerber,1
Losie,1
Filipinski,1
Campagnat,1
Rochfort,1
