NAME,GENDER,COUNT,PERCENTAGE,PROP100K
ALICE,F,985
MAJA,F,743
ELSA,F,723
JULIA,F,723
LINNÉA,F,720
ELLA,F,712
EBBA,F,683
MOLLY,F,675
WILMA,F,657
EMMA,F,641
NELLIE,F,633
ALVA,F,618
ISABELLE,F,597
OLIVIA,F,578
AGNES,F,571
KLARA,F,567
ELIN,F,514
EMILIA,F,511
FREJA,F,506
ELLEN,F,503
LILLY,F,502
NOVA,F,474
MOA,F,462
IDA,F,459
STELLA,F,459
ALMA,F,458
SAGA,F,436
AMANDA,F,431
ALICIA,F,419
ASTRID,F,418
VERA,F,400
TUVA,F,394
ISABELLA,F,389
FELICIA,F,376
ELVIRA,F,367
SARA,F,366
SELMA,F,365
SIGNE,F,362
MATILDA,F,356
HANNA,F,348
ESTER,F,347
ELLIE,F,342
THEA,F,341
TYRA,F,333
TILDE,F,326
LOVA,F,323
LEA,F,321
MINNA,F,311
SOFIA,F,310
MEJA,F,309
NORA,F,305
LOVISA,F,299
INEZ,F,291
SIRI,F,287
FILIPPA,F,273
EMELIE,F,251
NATHALIE,F,251
EDITH,F,248
LIV,F,246
TINDRA,F,238
TILDA,F,235
STINA,F,228
LEIA,F,215
MÄRTA,F,212
INGRID,F,205
LIVIA,F,199
EMMY,F,198
CORNELIA,F,197
IRIS,F,197
JASMINE,F,196
JUNI,F,193
MELISSA,F,186
MY,F,185
TOVE,F,185
ELISE,F,180
LINN,F,179
LISA,F,177
SVEA,F,176
JOLINE,F,172
RONJA,F,170
ELINA,F,165
MIRA,F,164
JOSEFIN,F,163
ANNA,F,161
EVELINA,F,161
HILDA,F,154
REBECCA,F,152
VILDA,F,148
FRIDA,F,147
LINA,F,147
SIGRID,F,147
GRETA,F,140
NICOLE,F,140
HEDDA,F,137
MAJKEN,F,137
SOFIE,F,135
ANNIE,F,133
VICTORIA,F,131
HEDVIG,F,128
HILMA,F,126
WILLIAM,M,1035
LUCAS,M,973
OSCAR,M,957
HUGO,M,863
ELIAS,M,837
OLIVER,M,758
LIAM,M,748
ALEXANDER,M,740
VIKTOR,M,731
EMIL,M,700
AXEL,M,685
ANTON,M,655
ERIK,M,649
LEO,M,642
FILIP,M,614
VINCENT,M,610
OLLE,M,602
ARVID,M,566
LUDVIG,M,565
THEO,M,565
CHARLIE,M,562
ISAK,M,560
EDVIN,M,544
ALBIN,M,525
GUSTAV,M,525
ELLIOT,M,496
NILS,M,483
ADAM,M,479
MELVIN,M,471
WILMER,M,462
MAX,M,461
VIGGO,M,453
NOAH,M,449
BENJAMIN,M,447
ALFRED,M,431
ALVIN,M,416
LEON,M,412
KEVIN,M,400
SIMON,M,395
THEODOR,M,390
CASPER,M,385
JONATHAN,M,383
MELKER,M,382
SIXTEN,M,369
VILLE,M,358
RASMUS,M,354
GABRIEL,M,342
CARL,M,335
LINUS,M,329
JACOB,M,328
MALTE,M,327
NOEL,M,326
LOVE,M,317
FELIX,M,316
MILO,M,304
ADRIAN,M,299
SEBASTIAN,M,293
NEO,M,289
VALTER,M,282
JOSEF,M,271
DAVID,M,260
JACK,M,260
SAMUEL,M,257
JOEL,M,250
HARRY,M,249
MOHAMMED,M,248
WILHELM,M,232
LOKE,M,231
HAMPUS,M,210
VILGOT,M,198
AUGUST,M,197
VIDAR,M,197
SAM,M,190
EDDIE,M,188
SIGGE,M,185
MILTON,M,184
ELTON,M,182
FRANK,M,182
DANIEL,M,181
ELIS,M,174
ALEX,M,172
TIM,M,169
ROBIN,M,167
MAXIMILIAN,M,165
JOHN,M,163
FABIAN,M,161
HJALMAR,M,160
MIO,M,159
HANNES,M,157
ELVIN,M,155
TAGE,M,155
MÅNS,M,150
ARON,M,149
IVAR,M,145
ALI,M,144
OTTO,M,142
SVANTE,M,142
MARCUS,M,139
EBBE,M,134
EDWARD,M,131
