NAME,COUNT,PERCENT,PROP100K,ISNOTREALCOUNT
ABARCA,1,0.01%,10,1
ABASCAL,1,0.01%,10,1
ABEL,1,0.01%,10,1
ABRAHAM,1,0.01%,10,1
ACOSTA,1,0.01%,10,1
AGUA,1,0.01%,10,1
AIZA,1,0.01%,10,1
ALBERT,1,0.01%,10,1
ALFARO,1,0.01%,10,1
ALVAREZ|ÁLVAREZ,1,0.01%,10,1
ANDRES|ANDRÉS,1,0.01%,10,1
ANTUNEZ|ANTÚNEZ,1,0.01%,10,1
ARAUJO,1,0.01%,10,1
ARCE,1,0.01%,10,1
ARENAS,1,0.01%,10,1
ARMANDO,1,0.01%,10,1
ARRIOLA,1,0.01%,10,1
ASTURIAS,1,0.01%,10,1
BANDERAS,1,0.01%,10,1
BASURTO,1,0.01%,10,1
BELLO,1,0.01%,10,1
BENGOCHEA,1,0.01%,10,1
BENGOETXEA,1,0.01%,10,1
BERMUDEZ|BERMÚDEZ,1,0.01%,10,1
BLANCO,1,0.01%,10,1
BOLIVAR|BOLÍVAR,1,0.01%,10,1
BOSQUE,1,0.01%,10,1
BUSTILLO,1,0.01%,10,1
BUSTOS,1,0.01%,10,1
CABRERA,1,0.01%,10,1
CAMPO,1,0.01%,10,1
CANTU|CANTÚ,1,0.01%,10,1
CARDOSO,1,0.01%,10,1
CARO,1,0.01%,10,1
CASALES,1,0.01%,10,1
CASTELLANO,1,0.01%,10,1
CASTILLO,1,0.01%,10,1
CATALAN|CATALÁN,1,0.01%,10,1
CHAVES,1,0.01%,10,1
COLON|COLÓN,1,0.01%,10,1
CRESPO,1,0.01%,10,1
CUELLAR|CUÉLLAR,1,0.01%,10,1
CUEVAS,1,0.01%,10,1
DE LA CRUZ,1,0.01%,10,1
DEL BOSQUE,1,0.01%,10,1
DELGADO,1,0.01%,10,1
DE SANTIAGO,1,0.01%,10,1
DOMINGUEZ|DOMÍNGUEZ,1,0.01%,10,1
ECHEVARRIA|ECHEVARRÍA,1,0.01%,10,1
ELIZONDO,1,0.01%,10,1
ESCARCEGA|ESCÁRCEGA,1,0.01%,10,1
ESPARZA,1,0.01%,10,1
ESPINO,1,0.01%,10,1
ESPINOZA,1,0.01%,10,1
ETXEBARRIA,1,0.01%,10,1
FELIX|FÉLIX,1,0.01%,10,1
FERRER,1,0.01%,10,1
FLORES,1,0.01%,10,1
FRANCO,1,0.01%,10,1
GALLEGO,1,0.01%,10,1
GARCIA|GARCÍA,1,0.01%,10,1
GARZA,1,0.01%,10,1
GEBARA,1,0.01%,10,1
GONZALES,1,0.01%,10,1
GREC,1,0.01%,10,1
GUERRA,1,0.01%,10,1
GUTIERREZ|GUTIÉRREZ,1,0.01%,10,1
HERNANDEZ|HERNÁNDEZ,1,0.01%,10,1
HERRERO,1,0.01%,10,1
HOLGUIN|HOLGUÍN,1,0.01%,10,1
IBANEZ|IBÁÑEZ,1,0.01%,10,1
INIGUEZ|IÑÍGUEZ,1,0.01%,10,1
JASO,1,0.01%,10,1
JIMENEZ,1,0.01%,10,1
JUAREZ|JUÁREZ,1,0.01%,10,1
LOPEZ,1,0.01%,10,1
LOYOLA,1,0.01%,10,1
MACHADO,1,0.01%,10,1
MARADONA,1,0.01%,10,1
MARINO,1,0.01%,10,1
MARTELL,1,0.01%,10,1
MARTINEZ|MARTÍNEZ,1,0.01%,10,1
MAS,1,0.01%,10,1
MATEU,1,0.01%,10,1
MELENDEZ,1,0.01%,10,1
MENDOZA,1,0.01%,10,1
MERLO,1,0.01%,10,1
MINGO,1,0.01%,10,1
MOLINA,1,0.01%,10,1
MORALES,1,0.01%,10,1
MORENO,1,0.01%,10,1
NIEVES,1,0.01%,10,1
NUNEZ|NÚÑEZ,1,0.01%,10,1
OCHOA,1,0.01%,10,1
OLA,1,0.01%,10,1
OLGUIN,1,0.01%,10,1
OLMO,1,0.01%,10,1
OQUENDO,1,0.01%,10,1
ORIOL,1,0.01%,10,1
ORTIZ,1,0.01%,10,1
PAREDES,1,0.01%,10,1
PELAEZ|PELÁEZ,1,0.01%,10,1
PEREZ|PÉREZ,1,0.01%,10,1
PETIT,1,0.01%,10,1
PORRA,1,0.01%,10,1
PRIETO,1,0.01%,10,1
PUGA,1,0.01%,10,1
QUINONES,1,0.01%,10,1
QUIROS|QUIRÓS,1,0.01%,10,1
RAMOS,1,0.01%,10,1
RENDON|RENDÓN,1,0.01%,10,1
REYES,1,0.01%,10,1
RIVERA,1,0.01%,10,1
ROBLEDO,1,0.01%,10,1
ROCHA,1,0.01%,10,1
RODRIQUEZ,1,0.01%,10,1
ROJAS,1,0.01%,10,1
ROLDAN|ROLDÁN,1,0.01%,10,1
ROMA|ROMÀ,1,0.01%,10,1
ROSA,1,0.01%,10,1
RUBIO,1,0.01%,10,1
SALA,1,0.01%,10,1
SALAZAR,1,0.01%,10,1
SALINAS,1,0.01%,10,1
SANDOVAL,1,0.01%,10,1
SANTANA,1,0.01%,10,1
SANTILLIAN,1,0.01%,10,1
SASTRE,1,0.01%,10,1
SIERRA,1,0.01%,10,1
SOLER,1,0.01%,10,1
SOLOS,1,0.01%,10,1
SUAREZ|SUÁREZ,1,0.01%,10,1
TAPIA,1,0.01%,10,1
TOMAS|TOMÀS,1,0.01%,10,1
TOS,1,0.01%,10,1
TOSET,1,0.01%,10,1
TRUJILLO,1,0.01%,10,1
URBINA,1,0.01%,10,1
VALDEZ,1,0.01%,10,1
VARELA,1,0.01%,10,1
VASQUEZ|VÁSQUEZ,1,0.01%,10,1
VEGA,1,0.01%,10,1
VELA,1,0.01%,10,1
VENTURA,1,0.01%,10,1
VILARO|VILARÓ,1,0.01%,10,1
VILLALOBOS,1,0.01%,10,1
VILLAVERDE,1,0.01%,10,1
VITERI,1,0.01%,10,1
VIVES,1,0.01%,10,1
ZABALA,1,0.01%,10,1
ZAMORANO,1,0.01%,10,1
ZAVALA,1,0.01%,10,1
ZUNIGA|ZUÑIGA,1,0.01%,10,1
