NAME,GENDER,COUNT,PERCENT,PROP100K,ISNOTREALCOUNT
ABENA,F,1,0.01%,10,1
ABERASH,F,1,0.01%,10,1
ABIMBOLA,U,1,0.01%,10,1
ABIOYE,M,1,0.01%,10,1
ABUBAKAR,M,1,0.01%,10,1
ADAEZE,F,1,0.01%,10,1
ADANNAYA,F,1,0.01%,10,1
ADEBAYO,M,1,0.01%,10,1
ADEBOWALE,U,1,0.01%,10,1
ADEGOKE,M,1,0.01%,10,1
ADHIAMBO,F,1,0.01%,10,1
ADJOA,F,1,0.01%,10,1
AFIA,F,1,0.01%,10,1
AFUA,F,1,0.01%,10,1
AKINYI,F,1,0.01%,10,1
AKPOFURE,U,1,0.01%,10,1
AKUCHI,U,1,0.01%,10,1
ALEMAYEHU,U,1,0.01%,10,1
AMA,F,1,0.01%,10,1
AMADI,M,1,0.01%,10,1
AMARA,F,1,0.01%,10,1
AMEQRAN,M,1,0.01%,10,1
ANDILE,U,1,0.01%,10,1
ASHA,F,1,0.01%,10,1
AWITI,F,1,0.01%,10,1
AYO,U,1,0.01%,10,1
AYOKUNLE,M,1,0.01%,10,1
AYOTUNDE,U,1,0.01%,10,1
BAAKO,U,1,0.01%,10,1
BABATUNDE,M,1,0.01%,10,1
BAMIDELE,M,1,0.01%,10,1
BERKO,M,1,0.01%,10,1
BOITUMELO,U,1,0.01%,10,1
BONGANI,M,1,0.01%,10,1
CHARLIZE,F,1,0.01%,10,1
CHI,U,1,0.01%,10,1
CHIBUEZE,U,1,0.01%,10,1
CHIBUZO,U,1,0.01%,10,1
CHIDI,U,1,0.01%,10,1
CHIDIEBUBE,U,1,0.01%,10,1
CHIDIKE,M,1,0.01%,10,1
CHIDUBEM,M,1,0.01%,10,1
CHIFUNDO,U,1,0.01%,10,1
CHIJINDUM,U,1,0.01%,10,1
CHIKE,U,1,0.01%,10,1
CHIKERE,U,1,0.01%,10,1
CHIKUMBUTSO,U,1,0.01%,10,1
CHIMWEMWE,U,1,0.01%,10,1
CHINEDU,U,1,0.01%,10,1
CHINWE,U,1,0.01%,10,1
CHINWENDU,U,1,0.01%,10,1
CHINYELU,F,1,0.01%,10,1
CHIOMA,U,1,0.01%,10,1
CHISOMO,U,1,0.01%,10,1
CHIYEMBEKEZO,U,1,0.01%,10,1
CHUKS,M,1,0.01%,10,1
CHUKWUEMEKA,M,1,0.01%,10,1
DADA,F,1,0.01%,10,1
DALITSO,U,1,0.01%,10,1
DEJEN,M,1,0.01%,10,1
DIKELEDI,F,1,0.01%,10,1
DUMISANI,U,1,0.01%,10,1
EFE,U,1,0.01%,10,1
EFUA,F,1,0.01%,10,1
EJIROGHENE,U,1,0.01%,10,1
EKENEDILICHUKWU,U,1,0.01%,10,1
EKUNDAYO,U,1,0.01%,10,1
EMEKA,M,1,0.01%,10,1
ENIOLA,U,1,0.01%,10,1
ENU,U,1,0.01%,10,1
ESEOGHENE,U,1,0.01%,10,1
ESI,F,1,0.01%,10,1
FARAJI,M,1,0.01%,10,1
FEMI,M,1,0.01%,10,1
FOLAMI,U,1,0.01%,10,1
FUNANYA,F,1,0.01%,10,1
FURAHA,F,1,0.01%,10,1
GBEMISOLA,F,1,0.01%,10,1
HIWOT,F,1,0.01%,10,1
IBRAHIMA,M,1,0.01%,10,1
IDOWU,U,1,0.01%,10,1
IGE,F,1,0.01%,10,1
IMAMU,M,1,0.01%,10,1
IME,U,1,0.01%,10,1
ITRI,M,1,0.01%,10,1
IZEM,M,1,0.01%,10,1
JENGO,M,1,0.01%,10,1
KAGISO,U,1,0.01%,10,1
KAMARIA,F,1,0.01%,10,1
KATO,M,1,0.01%,10,1
KAYODE,M,1,0.01%,10,1
KGOSI,M,1,0.01%,10,1
KIBWE,M,1,0.01%,10,1
KOBINA,M,1,0.01%,10,1
KOJO,M,1,0.01%,10,1
KUMBUKANI,U,1,0.01%,10,1
KWABENA,M,1,0.01%,10,1
KWAKU,M,1,0.01%,10,1
KWASI,M,1,0.01%,10,1
KWESI,M,1,0.01%,10,1
LEKAN,M,1,0.01%,10,1
LESEDI,F,1,0.01%,10,1
LIMBIKANI,U,1,0.01%,10,1
LUMUSI,F,1,0.01%,10,1
MADALITSO,U,1,0.01%,10,1
MAMADOU,M,1,0.01%,10,1
MARJANI,F,1,0.01%,10,1
MASEGO,F,1,0.01%,10,1
MAVUTO,U,1,0.01%,10,1
MAYESO,U,1,0.01%,10,1
MCHUMBA,F,1,0.01%,10,1
MELISIZWE,M,1,0.01%,10,1
MOJISOLA,F,1,0.01%,10,1
MOSI,M,1,0.01%,10,1
MPHO,U,1,0.01%,10,1
MUDIWA,U,1,0.01%,10,1
MWANAJUMA,F,1,0.01%,10,1
NAKATO,F,1,0.01%,10,1
NEO,U,1,0.01%,10,1
NIA,F,1,0.01%,10,1
NKECHINYERE,F,1,0.01%,10,1
NKIRU,F,1,0.01%,10,1
NKOSANA,M,1,0.01%,10,1
NKRUMA,U,1,0.01%,10,1
NNEKA,F,1,0.01%,10,1
NNENNE,F,1,0.01%,10,1
NONTLE,F,1,0.01%,10,1
NOSIZWE,F,1,0.01%,10,1
NSONOWA,U,1,0.01%,10,1
NTOMBI,F,1,0.01%,10,1
NWANNEKA,F,1,0.01%,10,1
NYARAI,F,1,0.01%,10,1
OCHIENG,M,1,0.01%,10,1
OGECHI,F,1,0.01%,10,1
OGHENEKARO,U,1,0.01%,10,1
OGHENERO,U,1,0.01%,10,1
OLABODE,M,1,0.01%,10,1
OLAMILEKAN,M,1,0.01%,10,1
OLAYINKA,F,1,0.01%,10,1
OLUCHI,U,1,0.01%,10,1
OLUFUNKE,U,1,0.01%,10,1
OLUFUNMILOLA,U,1,0.01%,10,1
OLUKAYODE,M,1,0.01%,10,1
OLUWAFEMI,M,1,0.01%,10,1
OLUWAKANYINSOLA,U,1,0.01%,10,1
OLUWASEUN,U,1,0.01%,10,1
OLUWATOYIN,U,1,0.01%,10,1
OMOBOLANLE,U,1,0.01%,10,1
ONI,F,1,0.01%,10,1
ONYEKACHI,U,1,0.01%,10,1
OPEYEMI,U,1,0.01%,10,1
OYIBO,U,1,0.01%,10,1
PEMPHERO,U,1,0.01%,10,1
REFILWE,U,1,0.01%,10,1
RUDO,U,1,0.01%,10,1
RUMBIDZAI,F,1,0.01%,10,1
SANAA,F,1,0.01%,10,1
SEBLE,F,1,0.01%,10,1
SEKAI,F,1,0.01%,10,1
SIBONAKALISO,F,1,0.01%,10,1
SIMBA,M,1,0.01%,10,1
SIPHO,M,1,0.01%,10,1
SIZWE,M,1,0.01%,10,1
SUBIRA,F,1,0.01%,10,1
TAFADZWA,U,1,0.01%,10,1
TAJEDDIGT,F,1,0.01%,10,1
TAMANDANI,U,1,0.01%,10,1
TAONGA,U,1,0.01%,10,1
TARIRO,F,1,0.01%,10,1
TAU,M,1,0.01%,10,1
TENDAI,U,1,0.01%,10,1
TEWODROS,M,1,0.01%,10,1
THANDIWE,F,1,0.01%,10,1
THEMBA,U,1,0.01%,10,1
THOKOZANI,U,1,0.01%,10,1
THULILE,F,1,0.01%,10,1
TIDIR,F,1,0.01%,10,1
TINASHE,U,1,0.01%,10,1
TITRIT,F,1,0.01%,10,1
TSHOLOFELO,F,1,0.01%,10,1
UDO,U,1,0.01%,10,1
UFUOMA,U,1,0.01%,10,1
UNATHI,U,1,0.01%,10,1
UZOMA,U,1,0.01%,10,1
WEKESA,M,1,0.01%,10,1
WORKNESH,F,1,0.01%,10,1
YAA,F,1,0.01%,10,1
YARED,M,1,0.01%,10,1
YEJIDE,F,1,0.01%,10,1
ZEPHANIA,M,1,0.01%,10,1
ZUBERI,M,1,0.01%,10,1
