NAME,GENDER,COUNT,PERCENT,PROP100K,ISNOTREALCOUNT
ACA|Аца,M,1,0.01%,10,1
ADAM|Адам,M,1,0.01%,10,1
AGATA|Агата,F,1,0.01%,10,1
ALEKSANDAR|Александар,M,1,0.01%,10,1
ANA|Ана,F,1,0.01%,10,1
ANĐA|Анђа,F,1,0.01%,10,1
ANDJELA|Анђела,F,1,0.01%,10,1
ANDREJ|Андреј,M,1,0.01%,10,1
ANDRIJA|Андрија,M,1,0.01%,10,1
ANICA|Аница,F,1,0.01%,10,1
ANKA|Анка,F,1,0.01%,10,1
ANTONIJA|Антонија,F,1,0.01%,10,1
ATANASIJA|Атанасија,F,1,0.01%,10,1
BILJANA|Биљана,F,1,0.01%,10,1
BLAGOJE|Благоје,M,1,0.01%,10,1
BOGDAN|Богдан,M,1,0.01%,10,1
BOJANA|Бојана,F,1,0.01%,10,1
BORISLAV|Борислав,M,1,0.01%,10,1
BORKO|Борко,M,1,0.01%,10,1
BOSKO|BOŠKO|Бошко,M,1,0.01%,10,1
BOZENA|BOŽENA|Божена,F,1,0.01%,10,1
BOZIDARKA|BOŽIDARKA|Божидарка,F,1,0.01%,10,1
BRANIMIR|Бранимир,M,1,0.01%,10,1
BRANISLAV|Бранислав,M,1,0.01%,10,1
BRANKA|Бранка,F,1,0.01%,10,1
BRANKO|Бранко,M,1,0.01%,10,1
BRATISLAVA|Братислава,F,1,0.01%,10,1
CVETA|Цвета,F,1,0.01%,10,1
DAJANA|Дајана,F,1,0.01%,10,1
DALIBORKA|Далиборка,F,1,0.01%,10,1
DAMJAN|Дамјан,M,1,0.01%,10,1
DANICA|Даница,F,1,0.01%,10,1
DANIJELA|Данијела,F,1,0.01%,10,1
DANKA|Данка,F,1,0.01%,10,1
DARIJA|Дарија,F,1,0.01%,10,1
DAVID|Давид,M,1,0.01%,10,1
DAVORKA|Даворка,F,1,0.01%,10,1
DEJANA|Дејана,F,1,0.01%,10,1
DIMITRIJE|Димитрије,M,1,0.01%,10,1
DJORDJE|Ђорђе,M,1,0.01%,10,1
DJURADJA|Ђурађа,F,1,0.01%,10,1
DMITAR|Дмитар,M,1,0.01%,10,1
DORA|Дора,F,1,0.01%,10,1
DOROTEJA|Доротеја,F,1,0.01%,10,1
DRAGAN|Драган,M,1,0.01%,10,1
DRAGICA|Драгица,F,1,0.01%,10,1
DRAGOMIR|Драгомир,M,1,0.01%,10,1
DRAGOSLAVA|Драгослава,F,1,0.01%,10,1
DRASKO|DRAŠKO|Драшко,M,1,0.01%,10,1
DUBRAVKA|Дубравка,F,1,0.01%,10,1
DUNJA|Дуња,F,1,0.01%,10,1
ĐURAĐA|Ђурађа,F,1,0.01%,10,1
DUSAN|DUŠAN|Душан,M,1,0.01%,10,1
DUSANKA|DUŠANKA|Душана,F,1,0.01%,10,1
DUSKO|DUŠKO|Душко,M,1,0.01%,10,1
EMILIJA|Емилија,F,1,0.01%,10,1
FRANJO|Фрањо,M,1,0.01%,10,1
GORAN|Горан,M,1,0.01%,10,1
GORDAN|Гордан,M,1,0.01%,10,1
HRISTINA|Христина,F,1,0.01%,10,1
ILIJA|Илија,M,1,0.01%,10,1
IRENA|Ирена,F,1,0.01%,10,1
ISIDORA|Исидора,F,1,0.01%,10,1
IVA|Ива,F,1,0.01%,10,1
IVANA|Ивана,F,1,0.01%,10,1
IVICA|Ивица,M,1,0.01%,10,1
JADRAN|Јадран,M,1,0.01%,10,1
JADRANKO|Јадранко,M,1,0.01%,10,1
JAGODA|Јагода,F,1,0.01%,10,1
JANA|Јана,F,1,0.01%,10,1
JANKO|Јанко,M,1,0.01%,10,1
JASNA|Јасна,F,1,0.01%,10,1
JEFIMIJA|Јефимија,F,1,0.01%,10,1
JELENA|Јелена,F,1,0.01%,10,1
JELISAVETA|Јелисавета,F,1,0.01%,10,1
JEVREM|Јеврем,M,1,0.01%,10,1
JOSIF|Јосиф,M,1,0.01%,10,1
JOVANA|Јована,F,1,0.01%,10,1
JULIJANA|Јулијана,F,1,0.01%,10,1
KONSTANTIN|Константин,M,1,0.01%,10,1
KRISTIJAN|Кристијан,M,1,0.01%,10,1
KSENIJA|Ксенија,F,1,0.01%,10,1
LANA|Лана,F,1,0.01%,10,1
LIDIJA|Лидија,F,1,0.01%,10,1
LJILJA|Љиља,F,1,0.01%,10,1
LJUBA|Љуба,F,1,0.01%,10,1
LJUBICA|Љубица,F,1,0.01%,10,1
LJUBOMIR|Љубомир,M,1,0.01%,10,1
MAGDALENA|Магдалена,F,1,0.01%,10,1
MAJA|Маја,F,1,0.01%,10,1
MANDA|Манда,F,1,0.01%,10,1
MARICA|Марица,F,1,0.01%,10,1
MARIJANA|Маријана,F,1,0.01%,10,1
MARINA|Марина,F,1,0.01%,10,1
MARJAN|Марјан,M,1,0.01%,10,1
MARTA|Марта,F,1,0.01%,10,1
MATIJA|Матија,U,1,0.01%,10,1
MIHAILO|Михаило,M,1,0.01%,10,1
MIJO|Мијо,M,1,0.01%,10,1
MILAN|Милан,M,1,0.01%,10,1
MILANKA|Миланка,F,1,0.01%,10,1
MILENA|Милена,F,1,0.01%,10,1
MILICA|Милица,F,1,0.01%,10,1
MILJANA|Миљана,F,1,0.01%,10,1
MILOJE|Милоје,M,1,0.01%,10,1
MILORAD|Милорад,M,1,0.01%,10,1
MILOVAN|Милован,M,1,0.01%,10,1
MIRA|Мира,F,1,0.01%,10,1
MIRKO|Мирко,M,1,0.01%,10,1
MIROSLAV|Мирослав,M,1,0.01%,10,1
MISA|MIŠA|Миша,U,1,0.01%,10,1
MLADEN|Младен,M,1,0.01%,10,1
NADA|Нада,F,1,0.01%,10,1
NADICA|Надица,F,1,0.01%,10,1
NATASA|NATAŠA|Наташа,F,1,0.01%,10,1
NEDA|Неда,F,1,0.01%,10,1
NEDELJKO|Недељко,M,1,0.01%,10,1
NENAD|Ненад,M,1,0.01%,10,1
NEVEN|Невен,M,1,0.01%,10,1
NEVENKA|Невенка,F,1,0.01%,10,1
NIKOLA|Никола,M,1,0.01%,10,1
NINA|Нина,F,1,0.01%,10,1
NOVAK|Новак,M,1,0.01%,10,1
OGNJAN|Огњан,M,1,0.01%,10,1
OLGA|Олга,F,1,0.01%,10,1
OLIVER|Оливер,M,1,0.01%,10,1
OLJA|Оља,F,1,0.01%,10,1
PEDJA|Пеђа,M,1,0.01%,10,1
PERICA|Перица,M,1,0.01%,10,1
PETAR|Петар,M,1,0.01%,10,1
PREDRAG|Предраг,M,1,0.01%,10,1
RADE|Раде,M,1,0.01%,10,1
RADMILO|Радмило,M,1,0.01%,10,1
RADOMIRA|Радомира,F,1,0.01%,10,1
RADOSLAVA|Радослава,F,1,0.01%,10,1
RAHELA|Рахела,F,1,0.01%,10,1
RATKO|Ратко,M,1,0.01%,10,1
RUZA|RUŽA|Ружа,F,1,0.01%,10,1
SANJA|Сања,F,1,0.01%,10,1
SASA|SAŠA|Саша,U,1,0.01%,10,1
SENKA|Сенка,F,1,0.01%,10,1
SIMO|Симо,M,1,0.01%,10,1
SLAĐANA|Слађана,F,1,0.01%,10,1
SLAVEN|Славен,M,1,0.01%,10,1
SLAVKO|Славко,M,1,0.01%,10,1
SLOBODAN|Слободан,M,1,0.01%,10,1
SMILJANA|Смиљана,F,1,0.01%,10,1
SNJEZANA|SNJEŽANA|Сњежана,F,1,0.01%,10,1
SONJA|Соња,F,1,0.01%,10,1
SRECKO|SREĆKO|Срећко,M,1,0.01%,10,1
STANIMIR|Станимир,M,1,0.01%,10,1
STANISLAVA|Станислава,F,1,0.01%,10,1
STASA|STAŠA|Сташа,F,1,0.01%,10,1
STEVAN|Стеван,M,1,0.01%,10,1
STJEPAN|Стјепан,M,1,0.01%,10,1
SUZANA|Сузана,F,1,0.01%,10,1
SVETOMIR|Светомир,M,1,0.01%,10,1
TAJANA|Тајана,F,1,0.01%,10,1
TANJA|Тања,F,1,0.01%,10,1
TEODOR|Теодор,M,1,0.01%,10,1
TEODOSIJA|Теодосија,F,1,0.01%,10,1
TIHOMIR|Тихомир,M,1,0.01%,10,1
TODOR|Тодор,M,1,0.01%,10,1
TOMISLAV|Томислав,M,1,0.01%,10,1
UROS|Урош,M,1,0.01%,10,1
VALERIJA|Валерија,F,1,0.01%,10,1
VARTOLOMEJ|Вартоломеј,M,1,0.01%,10,1
VASILIJE|Василије,M,1,0.01%,10,1
VECA|Веца,F,1,0.01%,10,1
VEDRANA|Ведрана,F,1,0.01%,10,1
VELIMIR|Велимир,M,1,0.01%,10,1
VERA|Вера,F,1,0.01%,10,1
VESELIN|Веселин,M,1,0.01%,10,1
VESNA|Весна,F,1,0.01%,10,1
VIKTOR|Виктор,M,1,0.01%,10,1
VIOLETA|Виолета,F,1,0.01%,10,1
VITOMIR|Витомир,M,1,0.01%,10,1
VLADAN|Владан,M,1,0.01%,10,1
VLADISLAV|Владислав,M,1,0.01%,10,1
VLASTA|Власта,F,1,0.01%,10,1
VLATKO|Влатко,M,1,0.01%,10,1
VUKASIN|VUKAŠIN|Вукашин,M,1,0.01%,10,1
ZARKO|ŽARKO|Жарко,M,1,0.01%,10,1
ZDRAVKO|Здравко,M,1,0.01%,10,1
ZELJKA|ŽELJKA|Жељка,F,1,0.01%,10,1
ZIVKA|ŽIVKA|Живка,F,1,0.01%,10,1
ZLATA|Злата,F,1,0.01%,10,1
ZLATKO|Златко,M,1,0.01%,10,1
ZORAN|Зоран,M,1,0.01%,10,1
ZORICA|Зорица,F,1,0.01%,10,1
ZVEZDANA|Звездана,F,1,0.01%,10,1
