NAME,GENDER,COUNT,PERCENT,PROP100K,ISNOTREALCOUNT
AALI|عالي,M,1,0.01%,10,1
AAMINA|آمنة,F,1,0.01%,10,1
'AAMIR|عامر,M,1,0.01%,10,1
'ABBAS|عبّاس,M,1,0.01%,10,1
ABD AL-AZIZ|عبد العزيز,M,1,0.01%,10,1
ABD AL-KADER|عبد القادر,M,1,0.01%,10,1
ABD ALLAH|عبد الله,M,1,0.01%,10,1
ABD AL-MALIK|عبد الملك,M,1,0.01%,10,1
ABD AL-RAHMAN|عبد الرحمن|عبد الرحمان,M,1,0.01%,10,1
ABD AL-WALI|عبد الولِي,M,1,0.01%,10,1
ABDUL-AZIZ|عبد العزيز,M,1,0.01%,10,1
ABDULLAH|عبد الله,M,1,0.01%,10,1
ABDUR-RAHMAN|عبد الرحمن|عبد الرحمان,M,1,0.01%,10,1
'ABLA|عبلة,F,1,0.01%,10,1
ABU AL-FADL|أبو الفضل,M,1,0.01%,10,1
ABUL-FAZL|أبو الفضل,M,1,0.01%,10,1
ADEL|عادل,M,1,0.01%,10,1
ADILA|عادلة,F,1,0.01%,10,1
AFAF|عفاف,F,1,0.01%,10,1
AFRA|عفرا,F,1,0.01%,10,1
AHMAD|أحمد,M,1,0.01%,10,1
AIDA|عائدة,F,1,0.01%,10,1
A'ISHA|عائشة,F,1,0.01%,10,1
AISHAH|عائشة,F,1,0.01%,10,1
AKILAH|عاقلة,F,1,0.01%,10,1
ALA|علاء,M,1,0.01%,10,1
AL-AMIR|الآمر,M,1,0.01%,10,1
ALI|عليّ,M,1,0.01%,10,1
ALIM|عليم,M,1,0.01%,10,1
ALIYAH|عليّة,F,1,0.01%,10,1
ALIYYAH|عليّة,F,1,0.01%,10,1
ALYA|علياء,F,1,0.01%,10,1
AMAL|أمل,U,1,0.01%,10,1
AMEL|أمال,F,1,0.01%,10,1
AMINA|آمنة|أمينة,F,1,0.01%,10,1
AMINAH|أمينة,F,1,0.01%,10,1
AMIRA|أميرة,F,1,0.01%,10,1
AMJAD|أمجد,M,1,0.01%,10,1
AMMAR|عمّار,M,1,0.01%,10,1
ANAS|أنس,M,1,0.01%,10,1
ANIS|أنيس,M,1,0.01%,10,1
ANWAR|أنور,M,1,0.01%,10,1
AQIL|عاقل,M,1,0.01%,10,1
ARIF|عارف,M,1,0.01%,10,1
ARWA|أروى,F,1,0.01%,10,1
ASAD|أسد,M,1,0.01%,10,1
ASHRAQAT|أشراقات,F,1,0.01%,10,1
ASIM|عاسم,M,1,0.01%,10,1
ASMAA|أسماء,F,1,0.01%,10,1
ATA|عطاء,M,1,0.01%,10,1
ATAULLAH|عطاء الله,M,1,0.01%,10,1
ATIFA|عاطفه,F,1,0.01%,10,1
ATUF|عطوف,M,1,0.01%,10,1
AYESHA|عائشة,F,1,0.01%,10,1
AYMAN|أيمن,M,1,0.01%,10,1
AZHAR|أزهر,M,1,0.01%,10,1
AZIZ|عزيز,M,1,0.01%,10,1
BADR|بدر,U,1,0.01%,10,1
BAHADUR|بهادر,M,1,0.01%,10,1
BAHIJ|بهيج,M,1,0.01%,10,1
BAHIYYA|بهيّة,F,1,0.01%,10,1
BAKR|بكر,M,1,0.01%,10,1
BAQIR|باقر,M,1,0.01%,10,1
BARAK|باراك,M,1,0.01%,10,1
BASIL|باسل,M,1,0.01%,10,1
BASIMA|باسمة,F,1,0.01%,10,1
BASIRA|بصيرة,F,1,0.01%,10,1
BASMA|بسمة,F,1,0.01%,10,1
BASSEM|باسم,M,1,0.01%,10,1
BILAL|بلال,M,1,0.01%,10,1
BOTROS|بطرس,M,1,0.01%,10,1
BOUTROS|بطرس,M,1,0.01%,10,1
BULUS|بولس,M,1,0.01%,10,1
BUTRUS|بطرس,M,1,0.01%,10,1
DANA|دانا,U,1,0.01%,10,1
DANIYAH|دانية,F,1,0.01%,10,1
DANYAL|دانيال,M,1,0.01%,10,1
DAWOOD|داود,M,1,0.01%,10,1
DEMA|ديمة,F,1,0.01%,10,1
DIYA|ضياء,M,1,0.01%,10,1
DUA|دعاء,F,1,0.01%,10,1
EBRAHIM|إبراهيم,M,1,0.01%,10,1
ESSA|عيسى,M,1,0.01%,10,1
FADIA|فادية,F,1,0.01%,10,1
FADILA|فاضلة,F,1,0.01%,10,1
FAHD|فهد,M,1,0.01%,10,1
FAHIMA|فهمة,F,1,0.01%,10,1
FAIZ|فائز,M,1,0.01%,10,1
FAIZEL|فيصل,M,1,0.01%,10,1
FAKHRI|فخريّ,M,1,0.01%,10,1
FARAG|فرج,M,1,0.01%,10,1
FARAJ|فرج,M,1,0.01%,10,1
FAREEHA|فرحة,F,1,0.01%,10,1
FARHANA|فرحانة,F,1,0.01%,10,1
FARIDA|فريدة,F,1,0.01%,10,1
FARIS|فارس,M,1,0.01%,10,1
FAROUK|فاروق,M,1,0.01%,10,1
FARUK|فاروق,M,1,0.01%,10,1
FATHI|فتحيّ,M,1,0.01%,10,1
FATIMA|فاطمة,F,1,0.01%,10,1
FATIN|فاتن,F,1,0.01%,10,1
FATMA|فاطمة,F,1,0.01%,10,1
FAWZIYA|فوزيّة,F,1,0.01%,10,1
FAYIZ|فايز,M,1,0.01%,10,1
FAYSAL|فيصل,M,1,0.01%,10,1
FAZL|فضل,M,1,0.01%,10,1
FIHR|فهر,M,1,0.01%,10,1
FIKRIYYA|فكريّة,F,1,0.01%,10,1
FIRDOS|فردوس,M,1,0.01%,10,1
FOUAD|فؤاد,M,1,0.01%,10,1
GABIR|جابر,M,1,0.01%,10,1
GAFAR|جعفر,M,1,0.01%,10,1
GALILA|جليلة,F,1,0.01%,10,1
GAMIL|جميل,M,1,0.01%,10,1
GATHBIYYA|جاذبيّة,F,1,0.01%,10,1
GAWAHIR|جواهر,F,1,0.01%,10,1
GAZBIYYA|جاذبيّة,F,1,0.01%,10,1
GHADIR|غدير,F,1,0.01%,10,1
GHALIYA|غالية,F,1,0.01%,10,1
GHAYTH|غيث,M,1,0.01%,10,1
GHULAM|غلام,M,1,0.01%,10,1
HAAMID|حامد,M,1,0.01%,10,1
HABIBA|حبيبة,F,1,0.01%,10,1
HADI|هادي,M,1,0.01%,10,1
HADIL|هديل,F,1,0.01%,10,1
HADIYYA|هديّة,F,1,0.01%,10,1
HAFEEZ|حفيظ,M,1,0.01%,10,1
HAFSA|حفصة,F,1,0.01%,10,1
HAFZA|حفصة,F,1,0.01%,10,1
HAIDAR|حيدر,M,1,0.01%,10,1
HAIFA|هيفاء,F,1,0.01%,10,1
HAKEEM|حكيم,M,1,0.01%,10,1
HALA|هالة,F,1,0.01%,10,1
HALIMA|حليمة,F,1,0.01%,10,1
HAMEED|حميد,M,1,0.01%,10,1
HAMID|حامد,M,1,0.01%,10,1
HAMZA|حمزة,M,1,0.01%,10,1
HANAA|هناء,F,1,0.01%,10,1
HANI|هانئ,M,1,0.01%,10,1
HANIF|حنيف,M,1,0.01%,10,1
HANIYAH|هنيّة,F,1,0.01%,10,1
HARIS|حارث,M,1,0.01%,10,1
HAROUN|هارون,M,1,0.01%,10,1
HASAN|حسن,M,1,0.01%,10,1
HASIB|حسيب,M,1,0.01%,10,1
HASNA|حسناء,F,1,0.01%,10,1
HATIM|حاتم,M,1,0.01%,10,1
HAYDER|حيدر,M,1,0.01%,10,1
HAYTHAM|هيثم,M,1,0.01%,10,1
HIBA|هبة,F,1,0.01%,10,1
HIKMAT|حكمة,U,1,0.01%,10,1
HISEIN|حسين,M,1,0.01%,10,1
HOODA|هدى,F,1,0.01%,10,1
HOSSAM|حسام,M,1,0.01%,10,1
HOUSSAM|حسام,M,1,0.01%,10,1
HUMAIRA|حميراء,F,1,0.01%,10,1
HUSAIN|حسين,M,1,0.01%,10,1
HUSAYN|حسين,M,1,0.01%,10,1
HUSNI|حسني,U,1,0.01%,10,1
HUSSAIN|حسين,M,1,0.01%,10,1
HYDER|حيدر,M,1,0.01%,10,1
IBRAHIM|إبراهيم,M,1,0.01%,10,1
IBTISAM|إبتسام,F,1,0.01%,10,1
IHAB|إيهاب,U,1,0.01%,10,1
IKRAAM|إكرام,U,1,0.01%,10,1
ILHAM|إلهام,U,1,0.01%,10,1
IMAD|عماد,M,1,0.01%,10,1
IMAN|إيمان,U,1,0.01%,10,1
IMRAM|عمرام,M,1,0.01%,10,1
IMTIYAZ|إمتياز,M,1,0.01%,10,1
INAS|إيناس,F,1,0.01%,10,1
IRFAN|عرفان,M,1,0.01%,10,1
'ISAM|عصام,M,1,0.01%,10,1
ISMA'IL|إسماعيل,M,1,0.01%,10,1
'ISMAT|عصمة,U,1,0.01%,10,1
ISRAA|إسراء,F,1,0.01%,10,1
I'TIDAL|اعتدال,F,1,0.01%,10,1
IZDIHAR|إزدهار,F,1,0.01%,10,1
IZZ UD-DIN|عزّ الدين,M,1,0.01%,10,1
JABIR|جابر,M,1,0.01%,10,1
JABRIL|جبريل,M,1,0.01%,10,1
JAFFAR|جعفر,M,1,0.01%,10,1
JALAL|جلال,M,1,0.01%,10,1
JALILA|جليلة,F,1,0.01%,10,1
JAMAL|جمال,M,1,0.01%,10,1
JAMEELA|جميلة,F,1,0.01%,10,1
JAMILA|جميلة,F,1,0.01%,10,1
JANAN|جنان,F,1,0.01%,10,1
JATHIBIYYA|جاذبيّة,F,1,0.01%,10,1
JAWDAT|جودت,U,1,0.01%,10,1
JINAN|جنان,U,1,0.01%,10,1
JUMANA|جمانة,F,1,0.01%,10,1
JUNAID|جنيد,M,1,0.01%,10,1
KADER|قدير,M,1,0.01%,10,1
KAMIL|كامل,M,1,0.01%,10,1
KAREEM|كريم,M,1,0.01%,10,1
KARIMA|كريمة,F,1,0.01%,10,1
KHADIJA|خديجة,F,1,0.01%,10,1
KHALEEL|خليل,M,1,0.01%,10,1
KHALIDA|خالدة,F,1,0.01%,10,1
KHALIL|خليل,M,1,0.01%,10,1
KHALIQ|خليق,M,1,0.01%,10,1
KHAYRAT|خيرات,U,1,0.01%,10,1
KHAYRIYYA|خيريّة,F,1,0.01%,10,1
LAILA|ليلى,F,1,0.01%,10,1
LAMIS|لميس,F,1,0.01%,10,1
LATEEFAH|لطيفة,F,1,0.01%,10,1
LATIFA|لطيفة,F,1,0.01%,10,1
LAWAHIZ|لَواحظ,F,1,0.01%,10,1
LEILA|ليلى,F,1,0.01%,10,1
LINA|لينا,F,1,0.01%,10,1
LUJAYN|لجين,F,1,0.01%,10,1
LUTFI|لطفيّ,M,1,0.01%,10,1
MAHA|مهاة,F,1,0.01%,10,1
MAHFUZ|محفوظ,M,1,0.01%,10,1
MAHMOOD|محمود,M,1,0.01%,10,1
MAHMUD|محمود,M,1,0.01%,10,1
MAHOMETUS,M,1,0.01%,10,1
MAKRAM|مكرم,M,1,0.01%,10,1
MALAK|ملك,U,1,0.01%,10,1
MALIKA|ملكة,F,1,0.01%,10,1
MAMUN|مأمون,M,1,0.01%,10,1
MANSUR|منصور,M,1,0.01%,10,1
MAQSUD|مقصود,M,1,0.01%,10,1
MARIAM|مريم,F,1,0.01%,10,1
MARWA|مروة,F,1,0.01%,10,1
MASOOD|مسعود,M,1,0.01%,10,1
MAS'UD|مسعود,M,1,0.01%,10,1
MAZIN|مازن,M,1,0.01%,10,1
MIDHA|مدحة,F,1,0.01%,10,1
MIHAMMAD|محمّد,M,1,0.01%,10,1
MIRAJ|معراج,M,1,0.01%,10,1
MIS'ID|مسعد,M,1,0.01%,10,1
MOHAMMAD|محمّد,M,1,0.01%,10,1
MONA|منى,F,1,0.01%,10,1
MOUNA|منى,F,1,0.01%,10,1
MUBINA|مبينة,F,1,0.01%,10,1
MUHAMMAD|محمّد,M,1,0.01%,10,1
MUHSIN|محسن,M,1,0.01%,10,1
MUKHTAR|مختار,M,1,0.01%,10,1
MUMINA|مؤمنة,F,1,0.01%,10,1
MUNA|منى,F,1,0.01%,10,1
MUNIRA|منيرة,F,1,0.01%,10,1
MURAD|مراد,M,1,0.01%,10,1
MURTAZA|مرتضى,M,1,0.01%,10,1
MUS'AD|مسعد,M,1,0.01%,10,1
MUSTAPHA|مصطفى,M,1,0.01%,10,1
MU'TASIM|معتصم,M,1,0.01%,10,1
NABILA|نبيلة,F,1,0.01%,10,1
NADEEM|نديم,M,1,0.01%,10,1
NADIA|نديّة,F,1,0.01%,10,1
NADIR|نادر,M,1,0.01%,10,1
NADIYYA|نديّة,F,1,0.01%,10,1
NADYA|نديّة,F,1,0.01%,10,1
NAGIB|نجيب,M,1,0.01%,10,1
NAILA|نائلة,F,1,0.01%,10,1
NA'IMA|نعيمة,F,1,0.01%,10,1
NAJIB|نجيب,M,1,0.01%,10,1
NASEEM|نسيم,U,1,0.01%,10,1
NASHWA|نشوى,F,1,0.01%,10,1
NASIM|نسيم,U,1,0.01%,10,1
NASIRA|ناصرة|نصيرة,F,1,0.01%,10,1
NASSIM|نسيم,U,1,0.01%,10,1
NAVID|نويد,M,1,0.01%,10,1
NAWRA|نورة,F,1,0.01%,10,1
NAZIHA|نزيهة,F,1,0.01%,10,1
NIDA|نداع,F,1,0.01%,10,1
NIMAT|نعمات,U,1,0.01%,10,1
NIZAR|نزار,M,1,0.01%,10,1
NOUR|نور,U,1,0.01%,10,1
NUH|نوح,M,1,0.01%,10,1
NUR|نور,U,1,0.01%,10,1
NUR AD-DIN|نور الدين,M,1,0.01%,10,1
NURUL|نور ال,U,1,0.01%,10,1
OMAR|عمر,M,1,0.01%,10,1
OSAMA|أسامة,M,1,0.01%,10,1
QAMAR|قمر,U,1,0.01%,10,1
QISMAT|قسمة,M,1,0.01%,10,1
RAABI'A|رابعة,F,1,0.01%,10,1
RABI|ربيع,M,1,0.01%,10,1
RA'D|رعد,M,1,0.01%,10,1
RAFIQA|رفيقة,F,1,0.01%,10,1
RAHEEM|رحيم,M,1,0.01%,10,1
RAHMAN|رحمان,M,1,0.01%,10,1
RAISA|رئيسة,F,1,0.01%,10,1
RAJAB|رجب,M,1,0.01%,10,1
RAJYA|رجية,F,1,0.01%,10,1
RAMLA|رملة,F,1,0.01%,10,1
RANA|رنا,F,1,0.01%,10,1
RANIYA|رانية,F,1,0.01%,10,1
RASHA|رشا,F,1,0.01%,10,1
RASHED|راشد,M,1,0.01%,10,1
RASHID|رشيد|راشد,M,1,0.01%,10,1
RASIM|راسم,M,1,0.01%,10,1
RASUL|رسول,M,1,0.01%,10,1
RAWIYA|راوية,F,1,0.01%,10,1
RAYAN|ريّان,U,1,0.01%,10,1
RAYYAN|ريّان,U,1,0.01%,10,1
REEM|ريم,F,1,0.01%,10,1
RIAZ|رياض,M,1,0.01%,10,1
RIDHA|رضاء,M,1,0.01%,10,1
RIDWANA|رضوانة,F,1,0.01%,10,1
RIHANNA|رَيحانة,F,1,0.01%,10,1
RIZWAN|رضوان,M,1,0.01%,10,1
RUBA|ربى,F,1,0.01%,10,1
RUH|روح,M,1,0.01%,10,1
RUQAYYAH|رقيّة,F,1,0.01%,10,1
RUWA|رواء,F,1,0.01%,10,1
SA'ADAT|سعادة,F,1,0.01%,10,1
SABAH UD-DIN|عزّ الدين,M,1,0.01%,10,1
SABRIYYA|صبريّة,F,1,0.01%,10,1
SADAF|صدف,F,1,0.01%,10,1
SA'DI|سعدي,M,1,0.01%,10,1
SAFI|صفيّ,M,1,0.01%,10,1
SAFIYYAH|صفيّة,F,1,0.01%,10,1
SA'ID|سعيد,M,1,0.01%,10,1
SAIF|سيف,M,1,0.01%,10,1
SAIFUL|سيف ال,M,1,0.01%,10,1
SAJJAD|سجّاد,M,1,0.01%,10,1
SAKINA|سكينة,F,1,0.01%,10,1
SALAH AL-DIN|صلاح الدين,M,1,0.01%,10,1
SALEH|صالح,M,1,0.01%,10,1
SALIH|صالح,M,1,0.01%,10,1
SALIL|سليل,M,1,0.01%,10,1
SALIMA|سليمة,F,1,0.01%,10,1
SALMAN|سلمان,M,1,0.01%,10,1
SAMAD|صمد,M,1,0.01%,10,1
SAMEER|سمير,M,1,0.01%,10,1
SAMI|سامي,M,1,0.01%,10,1
SAMINA|ثمينة,F,1,0.01%,10,1
SAMIRA|سميرة,F,1,0.01%,10,1
SANA|سناء,F,1,0.01%,10,1
SANI|سنيّ,M,1,0.01%,10,1
SANYA|سنيّة,F,1,0.01%,10,1
SARAH|سارة,F,1,0.01%,10,1
SAYYID|سيّد,M,1,0.01%,10,1
SELIMA|سليمة,F,1,0.01%,10,1
SHADI|شادي,M,1,0.01%,10,1
SHADYA|شادية,F,1,0.01%,10,1
SHAFIQ|شفيق,M,1,0.01%,10,1
SHAHD|شهد,F,1,0.01%,10,1
SHAHIRA|شهيرة,F,1,0.01%,10,1
SHAHRAZAD|شهرزاد,F,1,0.01%,10,1
SHAHZAD|شهزاد,M,1,0.01%,10,1
SHAKEEL|شكيل,M,1,0.01%,10,1
SHAKILA|شكيلة,F,1,0.01%,10,1
SHAKIRA|شاكرة,F,1,0.01%,10,1
SHAKURA|شكورة,F,1,0.01%,10,1
SHAMS AL-DIN|شَمس الدين,M,1,0.01%,10,1
SHAREEF|شريف,M,1,0.01%,10,1
SHARIF|شريف,M,1,0.01%,10,1
SHARIFAH|شريفة,F,1,0.01%,10,1
SHAZI|شذيّ,F,1,0.01%,10,1
SHIHAB|شهاب,M,1,0.01%,10,1
SHUKRIYA|شكريّة,F,1,0.01%,10,1
SHULA|شعلة,F,1,0.01%,10,1
SUHAIL|سهيل,M,1,0.01%,10,1
SUHAYL|سهيل,M,1,0.01%,10,1
SULAYMAN|سليمان,M,1,0.01%,10,1
SULTANA|سلطانة,F,1,0.01%,10,1
SURAYA|ثريّة|ثريّا,F,1,0.01%,10,1
TABASSUM|تبسّم,U,1,0.01%,10,1
TAHIR|طاهر,M,1,0.01%,10,1
TAHMID|تحميد,M,1,0.01%,10,1
TALAAT|طَلعَت,M,1,0.01%,10,1
TALIB|طالب,M,1,0.01%,10,1
TAMID|تمد,M,1,0.01%,10,1
TARIK|طارق,M,1,0.01%,10,1
TASNIM|تسنيم,F,1,0.01%,10,1
TAYEB|طيّب,M,1,0.01%,10,1
THAMINA|ثمينة,F,1,0.01%,10,1
THANA|ثناء,F,1,0.01%,10,1
TOUFIK|توفيق,M,1,0.01%,10,1
TUFAYL|طفيل,M,1,0.01%,10,1
UMRAN|عمران,M,1,0.01%,10,1
USMAN|عثمان,M,1,0.01%,10,1
UZMA|عظمى,F,1,0.01%,10,1
WAFAI|وفائي,M,1,0.01%,10,1
WAFIYA|وفيّة,F,1,0.01%,10,1
WAHEEDA|وحيدة,F,1,0.01%,10,1
WAHIDA|وحيدة,F,1,0.01%,10,1
WAQAR|وقار,M,1,0.01%,10,1
WASIM|وسيم,M,1,0.01%,10,1
WIDAD|وداد,F,1,0.01%,10,1
YAKUB|يعقوب,M,1,0.01%,10,1
YAQUB|يعقوب,M,1,0.01%,10,1
YASIN|ياسين,M,1,0.01%,10,1
YASMEEN|يسمين,F,1,0.01%,10,1
YASMINE|يسمين,F,1,0.01%,10,1
YOUSEF|يوسف,M,1,0.01%,10,1
YUHANNA|يوحنّا,M,1,0.01%,10,1
YUSEF|يوسف,M,1,0.01%,10,1
YUSRA|يسرى,F,1,0.01%,10,1
ZAAHIR|زاهر,M,1,0.01%,10,1
ZAAHIRA|زاهرة,F,1,0.01%,10,1
ZAHIA|زاهية,F,1,0.01%,10,1
ZAHIDA|زاهدة,F,1,0.01%,10,1
ZAHIRA|ظهيرة,F,1,0.01%,10,1
ZAHRAH|زهرة,F,1,0.01%,10,1
ZAIDA|زايدة,F,1,0.01%,10,1
ZAINA|زينة,F,1,0.01%,10,1
ZAKARIA|زَكَرِيّا,M,1,0.01%,10,1
ZAKARIYYA|زَكَرِيّا,M,1,0.01%,10,1
ZAKIAH|ذكيّة,F,1,0.01%,10,1
ZAKIYYA|ذكيّة,F,1,0.01%,10,1
ZARAY,F,1,0.01%,10,1
ZAYN|زين,M,1,0.01%,10,1
ZAYNAB|زينب,F,1,0.01%,10,1
ZIAD|زياد,M,1,0.01%,10,1
ZINAT|زينة,F,1,0.01%,10,1
ZIYA AL-DIN|ضياء الدين,M,1,0.01%,10,1
ZUBAIDA|زبيدة,F,1,0.01%,10,1
ZULEKHA|زليخا,F,1,0.01%,10,1
ZULFIKAR|ذو الفقار,M,1,0.01%,10,1
