NAME,COUNT,PERCENT,PROP100K,ISNOTREALCOUNT
ABANO,1,0.01%,10,1
ABATANTUONO,1,0.01%,10,1
ABATEGIOVANNI,1,0.01%,10,1
ABBA|ABBÀ,1,0.01%,10,1
ABBANDONATO,1,0.01%,10,1
ABBATANGELO,1,0.01%,10,1
ABBATE,1,0.01%,10,1
ABBATICCHIO,1,0.01%,10,1
ABELLI,1,0.01%,10,1
ABRAMO,1,0.01%,10,1
ACCARDI,1,0.01%,10,1
ACCIAI,1,0.01%,10,1
ACCIAIOLI,1,0.01%,10,1
ACCONCIO,1,0.01%,10,1
ACCORSO,1,0.01%,10,1
ACERBI,1,0.01%,10,1
ACQUA,1,0.01%,10,1
ACQUARONE,1,0.01%,10,1
ADAMI,1,0.01%,10,1
ADAMOLI,1,0.01%,10,1
ADELARDI,1,0.01%,10,1
ADIMARI,1,0.01%,10,1
AFFINI,1,0.01%,10,1
AFRICANO,1,0.01%,10,1
AGGIO,1,0.01%,10,1
AGNELLI,1,0.01%,10,1
AGNUSDEI,1,0.01%,10,1
AGOSTINI,1,0.01%,10,1
AGRICOLA,1,0.01%,10,1
AIOLFI,1,0.01%,10,1
AIRO|AIRÒ,1,0.01%,10,1
AJELLO,1,0.01%,10,1
ALAMANNI,1,0.01%,10,1
ALBANI,1,0.01%,10,1
ALBERGHI,1,0.01%,10,1
ALBERICI,1,0.01%,10,1
ALBERO,1,0.01%,10,1
ALBRICCI,1,0.01%,10,1
ALDEBRANDI,1,0.01%,10,1
ALDUINO,1,0.01%,10,1
ALEPPO,1,0.01%,10,1
ALESCIO,1,0.01%,10,1
ALESINI,1,0.01%,10,1
ALESSANDRI,1,0.01%,10,1
ALFERO,1,0.01%,10,1
ALINARI,1,0.01%,10,1
ALLEGRI,1,0.01%,10,1
ALO|ALÒ,1,0.01%,10,1
ALOIA,1,0.01%,10,1
ALTAMURA,1,0.01%,10,1
ALTOVITI,1,0.01%,10,1
AMADEI,1,0.01%,10,1
AMALBERTI,1,0.01%,10,1
AMATO,1,0.01%,10,1
AMBROGI,1,0.01%,10,1
AMERIGHI,1,0.01%,10,1
ANGIOLI,1,0.01%,10,1
ANSELMETTI,1,0.01%,10,1
ANTONELLI,1,0.01%,10,1
ANTONINO,1,0.01%,10,1
AQUINO,1,0.01%,10,1
ARDICCIONI,1,0.01%,10,1
ARDOVINI,1,0.01%,10,1
ARLOTTI,1,0.01%,10,1
ARMANI,1,0.01%,10,1
ARNOLFI,1,0.01%,10,1
ARRIGHETTI,1,0.01%,10,1
ARRIGUCCI,1,0.01%,10,1
BAGGI,1,0.01%,10,1
BAGLIO,1,0.01%,10,1
BAGNOLI,1,0.01%,10,1
BALDI,1,0.01%,10,1
BALDINOTTI,1,0.01%,10,1
BANDINI,1,0.01%,10,1
BARBIERI,1,0.01%,10,1
BARSOTTI,1,0.01%,10,1
BARTOLOMEI,1,0.01%,10,1
BARZETTI,1,0.01%,10,1
BASSANELLI,1,0.01%,10,1
BASSI,1,0.01%,10,1
BATTAGLIA,1,0.01%,10,1
BELLANDI,1,0.01%,10,1
BELLINCIONI,1,0.01%,10,1
BELLO,1,0.01%,10,1
BELLOMO,1,0.01%,10,1
BELLUOMO,1,0.01%,10,1
BENCIVENNI,1,0.01%,10,1
BENENATI,1,0.01%,10,1
BENINI,1,0.01%,10,1
BERARDI,1,0.01%,10,1
BERTI,1,0.01%,10,1
BIAGI,1,0.01%,10,1
BIANCHI,1,0.01%,10,1
BICCHIERI,1,0.01%,10,1
BIONDO,1,0.01%,10,1
BOLOGNA,1,0.01%,10,1
BONACCORSO,1,0.01%,10,1
BONDESAN,1,0.01%,10,1
BORGHI,1,0.01%,10,1
BORGOGNI,1,0.01%,10,1
BOVE,1,0.01%,10,1
BRAMBILLA,1,0.01%,10,1
BRIOSCHI,1,0.01%,10,1
BRUNETTI,1,0.01%,10,1
BUFFONE,1,0.01%,10,1
BULGARI,1,0.01%,10,1
BUSTO,1,0.01%,10,1
CAITO,1,0.01%,10,1
CALABRESE,1,0.01%,10,1
CAMPANA,1,0.01%,10,1
CANTU|CANTÙ,1,0.01%,10,1
CAPELLO,1,0.01%,10,1
CARBONE,1,0.01%,10,1
CARIDEO,1,0.01%,10,1
CARNEVALE,1,0.01%,10,1
CARRARA,1,0.01%,10,1
CASALE,1,0.01%,10,1
CATALANO,1,0.01%,10,1
CAVALCANTE,1,0.01%,10,1
CINGOLANI,1,0.01%,10,1
CIPRIANI,1,0.01%,10,1
COIRO,1,0.01%,10,1
COLOMBERA,1,0.01%,10,1
COLUMBO,1,0.01%,10,1
COMO,1,0.01%,10,1
CONTI,1,0.01%,10,1
CORRA|CORRÀ,1,0.01%,10,1
CORVI,1,0.01%,10,1
COSTANTINI,1,0.01%,10,1
CRACCHIOLO,1,0.01%,10,1
CREMONA,1,0.01%,10,1
CRESPI,1,0.01%,10,1
CROCE,1,0.01%,10,1
CUCINOTTA,1,0.01%,10,1
CUOCO,1,0.01%,10,1
DAMIANI,1,0.01%,10,1
D'ANGELO,1,0.01%,10,1
DE ANGELIS,1,0.01%,10,1
DE FELICE,1,0.01%,10,1
DE FIORE,1,0.01%,10,1
DE LORENZO,1,0.01%,10,1
DE PALMA,1,0.01%,10,1
DE SANTIS,1,0.01%,10,1
DE VITO,1,0.01%,10,1
DI CAPRIO,1,0.01%,10,1
DI NAPOLI,1,0.01%,10,1
DIOLI,1,0.01%,10,1
DI PIETRO,1,0.01%,10,1
DONATI,1,0.01%,10,1
DRAGO,1,0.01%,10,1
ELENA,1,0.01%,10,1
ERMACORA,1,0.01%,10,1
EVANGELISTA,1,0.01%,10,1
FABBRO,1,0.01%,10,1
FARALDO,1,0.01%,10,1
FARRO,1,0.01%,10,1
FAUSTI,1,0.01%,10,1
FAVERO,1,0.01%,10,1
FERRARA,1,0.01%,10,1
FERRARO,1,0.01%,10,1
FERRO,1,0.01%,10,1
FILIPPI,1,0.01%,10,1
FIORE,1,0.01%,10,1
FISCELLA,1,0.01%,10,1
FONTANA,1,0.01%,10,1
FRANCO,1,0.01%,10,1
FURLAN,1,0.01%,10,1
GAGLIARDI,1,0.01%,10,1
GANZA,1,0.01%,10,1
GAROFALO,1,0.01%,10,1
GATTI,1,0.01%,10,1
GENTILE,1,0.01%,10,1
GIANNINO,1,0.01%,10,1
GIORDANO,1,0.01%,10,1
GIUGOVAZ|GIÙGOVAZ,1,0.01%,10,1
GORETTI,1,0.01%,10,1
GRECO,1,0.01%,10,1
GRIMALDI,1,0.01%,10,1
GROSSI,1,0.01%,10,1
GUARNERI,1,0.01%,10,1
GUERRIERO,1,0.01%,10,1
GUTTUSO,1,0.01%,10,1
INNOCENTI,1,0.01%,10,1
LACONI|LÀCONI,1,0.01%,10,1
LAGOMARSINO|LAGOMARSÌNO,1,0.01%,10,1
LAGUARDIA,1,0.01%,10,1
LAMBERTI,1,0.01%,10,1
LANDI,1,0.01%,10,1
LANDOLFI,1,0.01%,10,1
LAURITO,1,0.01%,10,1
LECCE,1,0.01%,10,1
LEGGIERI|LEGGIÈRI,1,0.01%,10,1
LEONE,1,0.01%,10,1
LIPPI,1,0.01%,10,1
LOMBARDI,1,0.01%,10,1
LUPO,1,0.01%,10,1
MAESTRI,1,0.01%,10,1
MANCINI,1,0.01%,10,1
MANCUSO,1,0.01%,10,1
MANFREDONIA,1,0.01%,10,1
MARCHEGIANO,1,0.01%,10,1
MARCHETTI,1,0.01%,10,1
MARCONI,1,0.01%,10,1
MARIA,1,0.01%,10,1
MARINO,1,0.01%,10,1
MARTELLI,1,0.01%,10,1
MASI,1,0.01%,10,1
MAZZA,1,0.01%,10,1
MESSANA,1,0.01%,10,1
MILANI,1,0.01%,10,1
MODUGNO,1,0.01%,10,1
MONDO,1,0.01%,10,1
MONTANA,1,0.01%,10,1
MONTE,1,0.01%,10,1
MORANDI,1,0.01%,10,1
MORETTI,1,0.01%,10,1
MOSCHELLA,1,0.01%,10,1
MOTTA,1,0.01%,10,1
MURARO,1,0.01%,10,1
MURTAS,1,0.01%,10,1
NAGGI,1,0.01%,10,1
NALDI,1,0.01%,10,1
NANI,1,0.01%,10,1
NANNINI,1,0.01%,10,1
NAPOLETANI,1,0.01%,10,1
NAPOLIELLO,1,0.01%,10,1
NARDO,1,0.01%,10,1
NASATO,1,0.01%,10,1
NASCIMBENI,1,0.01%,10,1
NAVE,1,0.01%,10,1
NECCHI,1,0.01%,10,1
NEGRINI,1,0.01%,10,1
NENCI,1,0.01%,10,1
NERI,1,0.01%,10,1
NERVETTI,1,0.01%,10,1
NESPOLA,1,0.01%,10,1
NICCHI,1,0.01%,10,1
NICOLAI,1,0.01%,10,1
NICOSIA,1,0.01%,10,1
NIEDDU,1,0.01%,10,1
NIGRO,1,0.01%,10,1
NIZZOLA,1,0.01%,10,1
NOTARO,1,0.01%,10,1
OBERTI,1,0.01%,10,1
ONGARO,1,0.01%,10,1
ORSINI,1,0.01%,10,1
PADOVAN,1,0.01%,10,1
PAGANI,1,0.01%,10,1
PALLADINO,1,0.01%,10,1
PALUMBO,1,0.01%,10,1
PARISI,1,0.01%,10,1
PARODI,1,0.01%,10,1
PARRINO,1,0.01%,10,1
PASTORE,1,0.01%,10,1
PAVESI,1,0.01%,10,1
PAVONI,1,0.01%,10,1
PEDROTTI,1,0.01%,10,1
PERUGIA,1,0.01%,10,1
PESARO,1,0.01%,10,1
PETRI,1,0.01%,10,1
PIAZZA,1,0.01%,10,1
PICCOLI,1,0.01%,10,1
PIETRI,1,0.01%,10,1
PIOVENE,1,0.01%,10,1
PISANI,1,0.01%,10,1
POGGI,1,0.01%,10,1
POLETTI,1,0.01%,10,1
PORTELLI,1,0.01%,10,1
PORTOGHESE,1,0.01%,10,1
POZZI,1,0.01%,10,1
PROSDOCIMI,1,0.01%,10,1
PROVENZANO,1,0.01%,10,1
QUARANTA,1,0.01%,10,1
RAGNO,1,0.01%,10,1
RAIS,1,0.01%,10,1
RANERI,1,0.01%,10,1
RAPALLINO,1,0.01%,10,1
RAVENNA,1,0.01%,10,1
RICCHETTI,1,0.01%,10,1
RIGGI,1,0.01%,10,1
RINALDI,1,0.01%,10,1
RIZZO,1,0.01%,10,1
ROCCA,1,0.01%,10,1
ROCCO,1,0.01%,10,1
ROMA,1,0.01%,10,1
ROMAGNOLI,1,0.01%,10,1
ROMANO,1,0.01%,10,1
RONCALLI,1,0.01%,10,1
ROSA,1,0.01%,10,1
ROSSINI,1,0.01%,10,1
ROVIGATTI,1,0.01%,10,1
RUSSO,1,0.01%,10,1
RUZZIER,1,0.01%,10,1
SACCO,1,0.01%,10,1
SALUCCI,1,0.01%,10,1
SALVAI,1,0.01%,10,1
SALVATICI,1,0.01%,10,1
SANNA,1,0.01%,10,1
SANTINI,1,0.01%,10,1
SANTORO,1,0.01%,10,1
SARNO,1,0.01%,10,1
SARTINI,1,0.01%,10,1
SAVONA,1,0.01%,10,1
SCARSI,1,0.01%,10,1
SCIACCA,1,0.01%,10,1
SCIARRA,1,0.01%,10,1
SCOTTI,1,0.01%,10,1
SEBASTIANI,1,0.01%,10,1
SEGRETI,1,0.01%,10,1
SELVAGGIO,1,0.01%,10,1
SERAFINI,1,0.01%,10,1
SESSA,1,0.01%,10,1
SIENA,1,0.01%,10,1
SINAGRA,1,0.01%,10,1
SOLDATI,1,0.01%,10,1
SORDI,1,0.01%,10,1
SORRENTINO,1,0.01%,10,1
SPANO|SPANÒ,1,0.01%,10,1
SPEZIALE,1,0.01%,10,1
STABILE,1,0.01%,10,1
STILO,1,0.01%,10,1
TAMARO|TAMÀRO,1,0.01%,10,1
TANZI,1,0.01%,10,1
TAVERNA,1,0.01%,10,1
TERRANOVA,1,0.01%,10,1
TESSARO,1,0.01%,10,1
TIRABOSCHI,1,0.01%,10,1
TODARO,1,0.01%,10,1
TORNINCASA,1,0.01%,10,1
TOSETTI,1,0.01%,10,1
TOSTO,1,0.01%,10,1
TRAVERSA,1,0.01%,10,1
TRAVERSINI,1,0.01%,10,1
TRUCCO,1,0.01%,10,1
TUMICELLI,1,0.01%,10,1
TURCHI,1,0.01%,10,1
UCCELLO,1,0.01%,10,1
UGHI,1,0.01%,10,1
UNGARO,1,0.01%,10,1
VACCARO,1,0.01%,10,1
VALENTINI,1,0.01%,10,1
VARANO,1,0.01%,10,1
VENTURA,1,0.01%,10,1
VERONESI,1,0.01%,10,1
VESPA,1,0.01%,10,1
VICARIO,1,0.01%,10,1
VIGO,1,0.01%,10,1
VINCI,1,0.01%,10,1
VIOLA,1,0.01%,10,1
VITERI,1,0.01%,10,1
ZANETTI,1,0.01%,10,1
ZAPPA,1,0.01%,10,1
ZINI,1,0.01%,10,1
ZUNINO,1,0.01%,10,1
