NAME,COUNT,PERCENT,PROP100K,ISNOTREALCOUNT
CHO|조|趙,1,0.01%,10,1
CHOI|최|崔,1,0.01%,10,1
GANG|강|姜,1,0.01%,10,1
HAN|한|韓,1,0.01%,10,1
JO|조|趙,1,0.01%,10,1
KIM|김|金,1,0.01%,10,1
MOON|문|文,1,0.01%,10,1
PARK|박|樸|朴,1,0.01%,10,1
SONG|송|宋,1,0.01%,10,1
