NAME,COUNT,PERCENT,PROP100K
AAFJES,1,0.01%,10
AAKSTER,1,0.01%,10
AALDERS,1,0.01%,10
AALMERS,1,0.01%,10
AARDEN,1,0.01%,10
AARLE,1,0.01%,10
AARTS,1,0.01%,10
ABBES,1,0.01%,10
ABBINGH,1,0.01%,10
ABELEN,1,0.01%,10
ABEN,1,0.01%,10
ABRAHAMS,1,0.01%,10
ACHTERBERG,1,0.01%,10
ACHTEROP,1,0.01%,10
ADDENS,1,0.01%,10
ADMIRAAL,1,0.01%,10
ADRIAANS,1,0.01%,10
ADRICHEM,1,0.01%,10
AGTHOVEN,1,0.01%,10
AKKERMAN,1,0.01%,10
AKKERSDIJK,1,0.01%,10
ALBERDINGK,1,0.01%,10
ALBERS,1,0.01%,10
ALBRING,1,0.01%,10
ALDENBERG,1,0.01%,10
ALDERLIESTEN,1,0.01%,10
ALDERSHOF,1,0.01%,10
ALFONS,1,0.01%,10
ALINK,1,0.01%,10
ALTENA,1,0.01%,10
ALTING,1,0.01%,10
AMSING,1,0.01%,10
ANDELA,1,0.01%,10
ANDRIESSEN,1,0.01%,10
ANGENENT,1,0.01%,10
ANKER,1,0.01%,10
ANTONIS,1,0.01%,10
APELDOORN,1,0.01%,10
APPELHOF,1,0.01%,10
APPERLO,1,0.01%,10
ARBEIDER,1,0.01%,10
ARENDS,1,0.01%,10
ARENTS,1,0.01%,10
ARIESEN,1,0.01%,10
ARKES,1,0.01%,10
ARNTZEN,1,0.01%,10
ARTS,1,0.01%,10
ARTZ,1,0.01%,10
ASJES,1,0.01%,10
ASSELMAN,1,0.01%,10
ASSENDORP,1,0.01%,10
ASSINK,1,0.01%,10
AVERESCH,1,0.01%,10
BAAIMAN,1,0.01%,10
BAANDERS,1,0.01%,10
BAARDWIJK,1,0.01%,10
BAART,1,0.01%,10
BAKHUIZEN,1,0.01%,10
BARENDS,1,0.01%,10
BERG,1,0.01%,10
BERNARD,1,0.01%,10
BEULENS,1,0.01%,10
BEUMERS,1,0.01%,10
BOELENS,1,0.01%,10
BOER,1,0.01%,10
BOON,1,0.01%,10
BOSCH,1,0.01%,10
BRAAM,1,0.01%,10
BULLE,1,0.01%,10
BUNSCHOTEN,1,0.01%,10
CLAASEN,1,0.01%,10
CLOET,1,0.01%,10
COEMANS,1,0.01%,10
COLIJN,1,0.01%,10
COUMANS,1,0.01%,10
CRUYSSEN,1,0.01%,10
CUIJPERS,1,0.01%,10
CUYPERS,1,0.01%,10
DAALMANS,1,0.01%,10
DAELMANS,1,0.01%,10
DAM,1,0.01%,10
DE GROOT,1,0.01%,10
DE JONKER,1,0.01%,10
DE KLOET,1,0.01%,10
DE LANGE,1,0.01%,10
DE VEEN,1,0.01%,10
DE VRIES,1,0.01%,10
DE VROOME,1,0.01%,10
DE WITH,1,0.01%,10
DE WITTE,1,0.01%,10
DIRCHS,1,0.01%,10
DIRCKSENS,1,0.01%,10
DIRIX,1,0.01%,10
DIRKSE,1,0.01%,10
DIRKX,1,0.01%,10
DREESEN,1,0.01%,10
DREESSEN,1,0.01%,10
DRIESSEN,1,0.01%,10
EIKENBOOM,1,0.01%,10
ERCKENS,1,0.01%,10
EVERS,1,0.01%,10
FLIPSEN,1,0.01%,10
FORTUYN,1,0.01%,10
FRANKE,1,0.01%,10
GEELENS,1,0.01%,10
GELEN,1,0.01%,10
GLAS,1,0.01%,10
HAAK,1,0.01%,10
HAANRAADTS,1,0.01%,10
HAAS,1,0.01%,10
HANRAETS,1,0.01%,10
HAUMANN,1,0.01%,10
HEIJMAN,1,0.01%,10
HEIMAN,1,0.01%,10
HENDRIKS,1,0.01%,10
HENDRIX,1,0.01%,10
HERMAN,1,0.01%,10
HEYMANS,1,0.01%,10
HOEDEMAEKERS,1,0.01%,10
HOEDEMAKERS,1,0.01%,10
HOLST,1,0.01%,10
HOLTMAN,1,0.01%,10
HOUTKOOPER,1,0.01%,10
HUMMEL,1,0.01%,10
JACOBS,1,0.01%,10
JANS,1,0.01%,10
JANSENS,1,0.01%,10
JANSINGH,1,0.01%,10
JANSON,1,0.01%,10
JANSSENS,1,0.01%,10
JONCKERS,1,0.01%,10
JONKERS,1,0.01%,10
JOOSSENS,1,0.01%,10
KAPPEL,1,0.01%,10
KLAASEN,1,0.01%,10
KLERK,1,0.01%,10
KLERKS,1,0.01%,10
KLERKX,1,0.01%,10
KLOET,1,0.01%,10
KOEMAN,1,0.01%,10
KOLEN,1,0.01%,10
KOLLEN,1,0.01%,10
KOOL,1,0.01%,10
KOOLEN,1,0.01%,10
KOOPMAN,1,0.01%,10
KRANTZ,1,0.01%,10
KRUSEN,1,0.01%,10
KUIPER,1,0.01%,10
LANGBROEK,1,0.01%,10
LAUWERS,1,0.01%,10
LUCAS,1,0.01%,10
MAAS,1,0.01%,10
MAESSEN,1,0.01%,10
MARQUERINK,1,0.01%,10
MEEUWE,1,0.01%,10
MEEUWESSEN,1,0.01%,10
MEEUWIS,1,0.01%,10
MEEUWSEN,1,0.01%,10
MERCKX,1,0.01%,10
MICHEL,1,0.01%,10
MOOREN,1,0.01%,10
MUYSKENS,1,0.01%,10
NELISSEN,1,0.01%,10
NIFTERIK,1,0.01%,10
OFFERMANS,1,0.01%,10
OOMEN,1,0.01%,10
OTTEN,1,0.01%,10
PANDERS,1,0.01%,10
PAULIS,1,0.01%,10
PEERENBOOM,1,0.01%,10
PENDER,1,0.01%,10
PENNDERS,1,0.01%,10
PENNERS,1,0.01%,10
PEUSEN,1,0.01%,10
PRINSEN,1,0.01%,10
RADEMAKERS,1,0.01%,10
RAMAKER,1,0.01%,10
RAMECKER,1,0.01%,10
RASKE,1,0.01%,10
REIJNDERS,1,0.01%,10
REINDERS,1,0.01%,10
REYNDERS,1,0.01%,10
RIETVELD,1,0.01%,10
RIJNDERS,1,0.01%,10
ROGGEVEEN,1,0.01%,10
ROIJACKERS,1,0.01%,10
ROIJAKKERS,1,0.01%,10
ROMEIJNDERS,1,0.01%,10
ROMIJN,1,0.01%,10
ROMIJNSEN,1,0.01%,10
ROOIAKKER,1,0.01%,10
ROOIJAKKER,1,0.01%,10
ROOSA,1,0.01%,10
RUTTEN,1,0.01%,10
SAMSON,1,0.01%,10
SCHENCK,1,0.01%,10
SCHNEIDERS,1,0.01%,10
SCHOONENBURG,1,0.01%,10
SCHOOREL,1,0.01%,10
SCHOREL,1,0.01%,10
SCHUYLER,1,0.01%,10
SEEGERS,1,0.01%,10
SEGERS,1,0.01%,10
SEVERIJNS,1,0.01%,10
SEVRIENS,1,0.01%,10
SIMONIS,1,0.01%,10
SMEETS,1,0.01%,10
SMIT,1,0.01%,10
SNAAIJER,1,0.01%,10
SNEIDERS,1,0.01%,10
SNEIJDERS,1,0.01%,10
SNEIJERS,1,0.01%,10
SNIJDER,1,0.01%,10
SPECHT,1,0.01%,10
SPIJKER,1,0.01%,10
TER AVEST,1,0.01%,10
THEUNISSEN,1,0.01%,10
TILLENS,1,0.01%,10
VAN AALSBURG,1,0.01%,10
VAN AARLE,1,0.01%,10
VAN ACHTHOVEN,1,0.01%,10
VAN AGGELEN,1,0.01%,10
VAN AGTHOVEN,1,0.01%,10
VAN ALLER,1,0.01%,10
VAN ALST,1,0.01%,10
VAN ALTHUIS,1,0.01%,10
VAN AMERSVOORT,1,0.01%,10
VAN ANDEL,1,0.01%,10
VAN ANTWERP,1,0.01%,10
VAN APELDOORN,1,0.01%,10
VAN AS,1,0.01%,10
VAN ASSEN,1,0.01%,10
VAN BOKHOVEN,1,0.01%,10
VAN BUEREN,1,0.01%,10
VAN BUREN,1,0.01%,10
VAN CANN,1,0.01%,10
VAN DAALEN,1,0.01%,10
VAN DAELE,1,0.01%,10
VANDALE,1,0.01%,10
VAN DE LAAR,1,0.01%,10
VAN DEN ANDEL,1,0.01%,10
VAN DER AART,1,0.01%,10
VAN DER BERG,1,0.01%,10
VAN DER LAAR,1,0.01%,10
VAN DER VEEN,1,0.01%,10
VAN DER VENNE,1,0.01%,10
VAN DER ZEE,1,0.01%,10
VAN DONK,1,0.01%,10
VAN HASSEL,1,0.01%,10
VAN HEEL,1,0.01%,10
VAN HOFWEGEN,1,0.01%,10
VAN HOUT,1,0.01%,10
VAN HOUTEM,1,0.01%,10
VAN HOUTTUM,1,0.01%,10
VAN KAN,1,0.01%,10
VAN LAAR,1,0.01%,10
VAN LEEUWENHOEK,1,0.01%,10
VAN MIDDLESWORTH,1,0.01%,10
VAN NIFTERICK,1,0.01%,10
VAN NIFTRIK,1,0.01%,10
VAN OIRSCHOT,1,0.01%,10
VAN OPHOVEN,1,0.01%,10
VAN PEY,1,0.01%,10
VAN ROMPAEY,1,0.01%,10
VAN ROMPAYE,1,0.01%,10
VAN ROMPUY,1,0.01%,10
VAN ROSSUM,1,0.01%,10
VAN SCHOORL,1,0.01%,10
VAN VEEN,1,0.01%,10
VAN WEGBERG,1,0.01%,10
VAN WILLIGEN,1,0.01%,10
VERBOOM,1,0.01%,10
VERHOEVEN,1,0.01%,10
VERVERS,1,0.01%,10
VISSCHER,1,0.01%,10
VOSSEN,1,0.01%,10
VROOMEN,1,0.01%,10
WATERMAN,1,0.01%,10
WESTENBERG,1,0.01%,10
WILLEMSE,1,0.01%,10
WILMS,1,0.01%,10
WOUTERS,1,0.01%,10
YONKER,1,0.01%,10
ZAAL,1,0.01%,10
ZEELEN,1,0.01%,10
ZUIDERDUIN,1,0.01%,10
