NAME,COUNT,PERCENT,PROP100K,ISNOTREALCOUNT
BAI,1,0.01%,10,1
白,1,0.01%,10,1
CHEN,1,0.01%,10,1
陈,1,0.01%,10,1
CHONG,1,0.01%,10,1
张,1,0.01%,10,1
CHOW,1,0.01%,10,1
周,1,0.01%,10,1
DU,1,0.01%,10,1
杜,1,0.01%,10,1
GUAN,1,0.01%,10,1
关,1,0.01%,10,1
HAN,1,0.01%,10,1
韩,1,0.01%,10,1
HSU,1,0.01%,10,1
徐,1,0.01%,10,1
HUANG,1,0.01%,10,1
黄,1,0.01%,10,1
JIANG,1,0.01%,10,1
姜,1,0.01%,10,1
KUANG,1,0.01%,10,1
邝,1,0.01%,10,1
KWOK,1,0.01%,10,1
郭,1,0.01%,10,1
LAU,1,0.01%,10,1
刘,1,0.01%,10,1
LI,1,0.01%,10,1
李,1,0.01%,10,1
LIAO,1,0.01%,10,1
廖,1,0.01%,10,1
LIN,1,0.01%,10,1
林,1,0.01%,10,1
LU,1,0.01%,10,1
吕,1,0.01%,10,1
MAH,1,0.01%,10,1
马,1,0.01%,10,1
NG,1,0.01%,10,1
吴,1,0.01%,10,1
RUAN,1,0.01%,10,1
阮,1,0.01%,10,1
SUN,1,0.01%,10,1
孙,1,0.01%,10,1
TAN,1,0.01%,10,1
陈,1,0.01%,10,1
WANG,1,0.01%,10,1
王,1,0.01%,10,1
WONG,1,0.01%,10,1
王,1,0.01%,10,1
WU,1,0.01%,10,1
吴,1,0.01%,10,1
XUN,1,0.01%,10,1
荀,1,0.01%,10,1
YEUNG,1,0.01%,10,1
杨,1,0.01%,10,1
YU,1,0.01%,10,1
余,1,0.01%,10,1
YU,1,0.01%,10,1
虞,1,0.01%,10,1
ZHANG,1,0.01%,10,1
张,1,0.01%,10,1
ZHENG,1,0.01%,10,1
郑,1,0.01%,10,1
ZHU,1,0.01%,10,1
朱,1,0.01%,10,1
