NAME,COUNT,PERCENT,PROP100K
ABEL,1,0.01%,10
ABRAHAM,1,0.01%,10
ACHILLES,1,0.01%,10
ACKER,1,0.01%,10
ADAM,1,0.01%,10
ADLER,1,0.01%,10
ALBERT,1,0.01%,10
ALESHIRE,1,0.01%,10
ALTHAUS,1,0.01%,10
ANDREAS,1,0.01%,10
ARBEIT,1,0.01%,10
ARMBRUSTER,1,0.01%,10
AUER,1,0.01%,10
AUST,1,0.01%,10
BACH,1,0.01%,10
BACHMANN,1,0.01%,10
B&Auml;CKER,1,0.01%,10
B&Auml;HR,1,0.01%,10
BAMBACH,1,0.01%,10
BAUERS,1,0.01%,10
BAUMANN,1,0.01%,10
BAUMER,1,0.01%,10
BAUMG&Auml;RTNER,1,0.01%,10
BAUMHAUER,1,0.01%,10
BECK,1,0.01%,10
BECKE,1,0.01%,10
BECKER,1,0.01%,10
BEHREND,1,0.01%,10
BEHRINGER,1,0.01%,10
BELTZ,1,0.01%,10
BERGER,1,0.01%,10
BERNHARD,1,0.01%,10
BEUTEL,1,0.01%,10
BEYERSDORF,1,0.01%,10
BIERMANN,1,0.01%,10
BLAU,1,0.01%,10
BLEIER,1,0.01%,10
BLUMENTHAL,1,0.01%,10
BOEHLER,1,0.01%,10
B&Ouml;HLER,1,0.01%,10
B&Ouml;HME,1,0.01%,10
BOHN,1,0.01%,10
BORCHARDT,1,0.01%,10
B&Ouml;SCH,1,0.01%,10
B&Ouml;TTCHER,1,0.01%,10
BRAHMS,1,0.01%,10
BRANDT,1,0.01%,10
BRAUER,1,0.01%,10
BRAUNE,1,0.01%,10
BREISACHER,1,0.01%,10
BRETZ,1,0.01%,10
BRODBECK,1,0.01%,10
BROTZ,1,0.01%,10
BRUN,1,0.01%,10
BUCHHOLZ,1,0.01%,10
BUHR,1,0.01%,10
BURGSTALLER,1,0.01%,10
CARL,1,0.01%,10
DANIEL,1,0.01%,10
DENZEL,1,0.01%,10
DIEFENBACH,1,0.01%,10
DIETRICH,1,0.01%,10
DIRKSEN,1,0.01%,10
DOHMAN,1,0.01%,10
DREHER,1,0.01%,10
DRESCHNER,1,0.01%,10
DRESSLER,1,0.01%,10
DUERR,1,0.01%,10
DUNST,1,0.01%,10
EBERHARDT,1,0.01%,10
EBNER,1,0.01%,10
EGGER,1,0.01%,10
EILERTS,1,0.01%,10
ENNS,1,0.01%,10
ESSERT,1,0.01%,10
FABEL,1,0.01%,10
FALK,1,0.01%,10
F&Auml;RBER,1,0.01%,10
FAUST,1,0.01%,10
FELD,1,0.01%,10
FENSTERMACHER,1,0.01%,10
FIEDLER,1,0.01%,10
FLATER,1,0.01%,10
FOERSTNER,1,0.01%,10
F&Ouml;RSTNER,1,0.01%,10
FRANK,1,0.01%,10
FREI,1,0.01%,10
FREUDENBERGER,1,0.01%,10
FRIED,1,0.01%,10
FROMM,1,0.01%,10
FUCHS,1,0.01%,10
F&Uuml;RST,1,0.01%,10
GABLER,1,0.01%,10
GARB,1,0.01%,10
G&Auml;RTNER,1,0.01%,10
GASS,1,0.01%,10
GEHRING,1,0.01%,10
GEIGER,1,0.01%,10
GEI&szlig;LER,1,0.01%,10
GEISZLER,1,0.01%,10
GERBER,1,0.01%,10
GERHARDT,1,0.01%,10
GERST,1,0.01%,10
GERVER,1,0.01%,10
GIESE,1,0.01%,10
GLASS,1,0.01%,10
GOEBEL,1,0.01%,10
GORMAN,1,0.01%,10
GOTTI,1,0.01%,10
GOTTSCHALK,1,0.01%,10
GREENBERG,1,0.01%,10
GROSS,1,0.01%,10
GRO&szlig;E,1,0.01%,10
GR&Ouml;&szlig;EL,1,0.01%,10
GRO&szlig;ER,1,0.01%,10
GR&Uuml;NEWALD,1,0.01%,10
GUNTHER,1,0.01%,10
GWERDER,1,0.01%,10
HAASE,1,0.01%,10
HABICH,1,0.01%,10
HAFNER,1,0.01%,10
HALL,1,0.01%,10
HARMAN,1,0.01%,10
HASE,1,0.01%,10
HASENKAMP,1,0.01%,10
HAUER,1,0.01%,10
HAUSLER,1,0.01%,10
HEIDRICH,1,0.01%,10
HEINRICHS,1,0.01%,10
HELLEWEGE,1,0.01%,10
HERBERT,1,0.01%,10
HERRMANN,1,0.01%,10
HERTZ,1,0.01%,10
HILDEBRAND,1,0.01%,10
HINTZEN,1,0.01%,10
HOCH,1,0.01%,10
HOEFLER,1,0.01%,10
HOFFMAN,1,0.01%,10
H&Ouml;FLER,1,0.01%,10
HOFMEISTER,1,0.01%,10
HOLTZER,1,0.01%,10
HOLZER,1,0.01%,10
HOLZMANN,1,0.01%,10
HORN,1,0.01%,10
HOROWITZ,1,0.01%,10
H&Uuml;BER,1,0.01%,10
HUFF,1,0.01%,10
HUFFMANN,1,0.01%,10
HUMMEL,1,0.01%,10
INGERSLEBEN,1,0.01%,10
J&Auml;GER,1,0.01%,10
JANS,1,0.01%,10
JANZ,1,0.01%,10
JORDAN,1,0.01%,10
JUNG,1,0.01%,10
KAHLER,1,0.01%,10
KALB,1,0.01%,10
KAPPEL,1,0.01%,10
KASPAR,1,0.01%,10
K&Auml;STNER,1,0.01%,10
KAUBE,1,0.01%,10
KAUFER,1,0.01%,10
KAUFMAN,1,0.01%,10
KELLER,1,0.01%,10
KERNER,1,0.01%,10
KERWAR,1,0.01%,10
KIEFER,1,0.01%,10
KIRCHNER,1,0.01%,10
KISTNER,1,0.01%,10
KLEIN,1,0.01%,10
KNEF,1,0.01%,10
KNELLER,1,0.01%,10
KNOCHENMUS,1,0.01%,10
KNOPP,1,0.01%,10
KOCK,1,0.01%,10
KOENIGSMANN,1,0.01%,10
KOHL,1,0.01%,10
KOHLER,1,0.01%,10
K&Ouml;NIG,1,0.01%,10
KOPP,1,0.01%,10
KR&Auml;MER,1,0.01%,10
KRANTZ,1,0.01%,10
KRAUS,1,0.01%,10
KRAUSS,1,0.01%,10
KREBS,1,0.01%,10
KRON,1,0.01%,10
KR&Uuml;GER,1,0.01%,10
KRUGER,1,0.01%,10
KRUSE,1,0.01%,10
KUHN,1,0.01%,10
KUNKEL,1,0.01%,10
KUNTZ,1,0.01%,10
KURZMANN,1,0.01%,10
LAFRENTZ,1,0.01%,10
LANDAU,1,0.01%,10
LANGE,1,0.01%,10
LANGER,1,0.01%,10
LAURENZ,1,0.01%,10
LAWERENZ,1,0.01%,10
LEHMANN,1,0.01%,10
LEITNER,1,0.01%,10
LEITZKE,1,0.01%,10
LEVERENZ,1,0.01%,10
LEWERENZ,1,0.01%,10
LIEBERENZ,1,0.01%,10
LOEWE,1,0.01%,10
LORENTZ,1,0.01%,10
LORENZEN,1,0.01%,10
LORITZ,1,0.01%,10
LUDWIG,1,0.01%,10
MAAS,1,0.01%,10
MANDEL,1,0.01%,10
MARKWARDT,1,0.01%,10
MARQUERING,1,0.01%,10
MARTELL,1,0.01%,10
MARTZ,1,0.01%,10
MAURER,1,0.01%,10
MAYER,1,0.01%,10
MEIN,1,0.01%,10
MEINHARDT,1,0.01%,10
MEISSNER,1,0.01%,10
MENDEL,1,0.01%,10
MENDELSSOHN,1,0.01%,10
MESSER,1,0.01%,10
MESSMANN,1,0.01%,10
METZ,1,0.01%,10
METZGER,1,0.01%,10
MICHEL,1,0.01%,10
M&Ouml;LLER,1,0.01%,10
MOSER,1,0.01%,10
MUHLFELD,1,0.01%,10
NAGEL,1,0.01%,10
NEUMANN,1,0.01%,10
NUSSBAUM,1,0.01%,10
OBERST,1,0.01%,10
OHME,1,0.01%,10
OPPENHEIMER,1,0.01%,10
OTTO,1,0.01%,10
PABST,1,0.01%,10
PAPKE,1,0.01%,10
PATERNOSTER,1,0.01%,10
PAULIS,1,0.01%,10
PENZIG,1,0.01%,10
PETERS,1,0.01%,10
PFENNING,1,0.01%,10
PLETCHER,1,0.01%,10
PORTNER,1,0.01%,10
PROTZ,1,0.01%,10
RADEMAKER,1,0.01%,10
RASKE,1,0.01%,10
RASKOP,1,0.01%,10
REGENBOGEN,1,0.01%,10
REIHER,1,0.01%,10
RETTIG,1,0.01%,10
REUTER,1,0.01%,10
RICHTER,1,0.01%,10
RIESE,1,0.01%,10
ROSE,1,0.01%,10
ROSENBERGER,1,0.01%,10
ROT,1,0.01%,10
ROTHBAUER,1,0.01%,10
ROTHSCHILD,1,0.01%,10
SALLER,1,0.01%,10
SALZWEDEL,1,0.01%,10
SANDER,1,0.01%,10
SCH&Auml;FER,1,0.01%,10
SCHEINBERG,1,0.01%,10
SCHERMER,1,0.01%,10
SCHIRMER,1,0.01%,10
SCHLIMME,1,0.01%,10
SCHMELING,1,0.01%,10
SCHMIDT,1,0.01%,10
SCHMITZ,1,0.01%,10
SCHNOOR,1,0.01%,10
SCHOETTMER,1,0.01%,10
SCHRADER,1,0.01%,10
SCHREIER,1,0.01%,10
SCHR&Ouml;DER,1,0.01%,10
SCHROETER,1,0.01%,10
SCHUBERT,1,0.01%,10
SCHUCHARDT,1,0.01%,10
SCHUHART,1,0.01%,10
SCHULER,1,0.01%,10
SCHULTE,1,0.01%,10
SCHULTHEIS,1,0.01%,10
SCHULTHEI&szlig;,1,0.01%,10
SCHULTZE,1,0.01%,10
SCHULZE,1,0.01%,10
SCHUSTER,1,0.01%,10
SCHWANGAU,1,0.01%,10
SCHWARZ,1,0.01%,10
SCHWENKE,1,0.01%,10
SEEGER,1,0.01%,10
SEIDEL,1,0.01%,10
SENFT,1,0.01%,10
SHRIVER,1,0.01%,10
SIEGEL,1,0.01%,10
SIEKERT,1,0.01%,10
SILVERSTEIN,1,0.01%,10
SIMMON,1,0.01%,10
SIMONS,1,0.01%,10
SISKIND,1,0.01%,10
SITZ,1,0.01%,10
SOLBERG,1,0.01%,10
SOMMER,1,0.01%,10
SOMMER,1,0.01%,10
SORG,1,0.01%,10
SPANNAGEL,1,0.01%,10
SPELLMEYER,1,0.01%,10
SPONAUGLE,1,0.01%,10
STAUSS,1,0.01%,10
STEFFEN,1,0.01%,10
STEINMANN,1,0.01%,10
STERNBERG,1,0.01%,10
STEUBEN,1,0.01%,10
STOPPELBEIN,1,0.01%,10
STRAND,1,0.01%,10
STROBEL,1,0.01%,10
STROMAN,1,0.01%,10
STUECK,1,0.01%,10
STURM,1,0.01%,10
SULZBACH,1,0.01%,10
SWITZER,1,0.01%,10
TANZER,1,0.01%,10
TEUFEL,1,0.01%,10
TIFFT,1,0.01%,10
TOBIAS,1,0.01%,10
TRESLER,1,0.01%,10
TRUMBAUER,1,0.01%,10
UNKLE,1,0.01%,10
UNTERBRINK,1,0.01%,10
VANN,1,0.01%,10
VIETH,1,0.01%,10
VOGT,1,0.01%,10
VOIGT,1,0.01%,10
VOLK,1,0.01%,10
VON BRANDT,1,0.01%,10
VON GRIMMELSHAUSEN,1,0.01%,10
VONNEGUT,1,0.01%,10
VOSS,1,0.01%,10
W&Auml;GNER,1,0.01%,10
W&Auml;HNER,1,0.01%,10
WALKENHORST,1,0.01%,10
WALTHER,1,0.01%,10
WANG,1,0.01%,10
WARNER,1,0.01%,10
WEBER,1,0.01%,10
WEDEKIND,1,0.01%,10
WEGENER,1,0.01%,10
WEHNER,1,0.01%,10
WEHUNT,1,0.01%,10
WEIMANN,1,0.01%,10
WEISS,1,0.01%,10
WELTER,1,0.01%,10
WENDELL,1,0.01%,10
WERNHER,1,0.01%,10
WETZEL,1,0.01%,10
WIEGAND,1,0.01%,10
WINTER,1,0.01%,10
WIRNHIER,1,0.01%,10
WIRTH,1,0.01%,10
WOLFF,1,0.01%,10
W&Ouml;RNER,1,0.01%,10
WRUCK,1,0.01%,10
YOUNT,1,0.01%,10
ZIMMERMAN,1,0.01%,10
