NAME,COUNT,PERCENT,PROP100K
ABRAHAMSEN,1,0.01%,10
ADAMSEN,1,0.01%,10
ALBERTSEN,1,0.01%,10
AMUNDSEN,1,0.01%,10
ANKER,1,0.01%,10
ANTONSEN,1,0.01%,10
&Aring;RUD,1,0.01%,10
BAARDSEN,1,0.01%,10
BERG,1,0.01%,10
CHRISTIANSEN,1,0.01%,10
DANIELSEN,1,0.01%,10
FALK,1,0.01%,10
GULBRANDSEN,1,0.01%,10
HAGEBAK,1,0.01%,10
HANSEN,1,0.01%,10
HAUGEN,1,0.01%,10
HOLGERSEN,1,0.01%,10
HORN,1,0.01%,10
HUMMEL,1,0.01%,10
JAKOBSEN,1,0.01%,10
JOHANSEN,1,0.01%,10
KRISTIANSEN,1,0.01%,10
LANDVIK,1,0.01%,10
LANGE,1,0.01%,10
LOSNEDAHL,1,0.01%,10
N&AElig;SS,1,0.01%,10
NASS,1,0.01%,10
NILSEN,1,0.01%,10
OLIVERSEN,1,0.01%,10
OSTBERG,1,0.01%,10
OVESEN,1,0.01%,10
PREBENSEN,1,0.01%,10
RASMUSSEN,1,0.01%,10
RUUD,1,0.01%,10
SIMONSEN,1,0.01%,10
SOLBERG,1,0.01%,10
SPILLUM,1,0.01%,10
STORSTRAND,1,0.01%,10
SVENDSEN,1,0.01%,10
TENNFJORD,1,0.01%,10
VANG,1,0.01%,10
VOLL,1,0.01%,10
WANG,1,0.01%,10
