NAME,GENDER,COUNT,PERCENT,PROP100K,ISNOTREALCOUNT
BLEJAN,F,1,0.01%,10,1
ELOWEN,F,1,0.01%,10,1
JAGO,M,1,0.01%,10,1
JORY,M,1,0.01%,10,1
MARGH,M,1,0.01%,10,1
MERRYN,F,1,0.01%,10,1
MORWENNA,F,1,0.01%,10,1
PASCO,M,1,0.01%,10,1
STEREN,F,1,0.01%,10,1
