NAME,COUNT,PERCENT,PROP100K,ISNOTREALCOUNT
ADAMIC,1,0.01%,10,1
BABIC,1,0.01%,10,1
BOGDANOVIC,1,0.01%,10,1
BROZ,1,0.01%,10,1
DRAGOVIC,1,0.01%,10,1
FRANIC,1,0.01%,10,1
HERCEG,1,0.01%,10,1
HORVATINCIC,1,0.01%,10,1
IVANOVIC,1,0.01%,10,1
JURIC,1,0.01%,10,1
KASUN,1,0.01%,10,1
KOLAR,1,0.01%,10,1
KOVAC,1,0.01%,10,1
LONCAR,1,0.01%,10,1
MARUSIC,1,0.01%,10,1
MEDVED,1,0.01%,10,1
MLAKAR,1,0.01%,10,1
NOVAK,1,0.01%,10,1
PAVLOVIC,1,0.01%,10,1
PETRIC,1,0.01%,10,1
RADIC,1,0.01%,10,1
STJEPANIC,1,0.01%,10,1
TOMCIC,1,0.01%,10,1
VLAHOVIC,1,0.01%,10,1
VUKOJA,1,0.01%,10,1
ZIVKOVIC,1,0.01%,10,1
ZUPAN,1,0.01%,10,1
