Total:,178062,,
NAME,COUNT,PERCENT,PROP100K
SMITH,2719,1.526996215%,1526.9962148016
BROWN,1970,1.106356213%,1106.3562130045
WILSON,1886,1.059181633%,1059.1816333637
ROBERTSON,1796,1.008637441%,1008.6374408914
CAMPBELL,1749,0.982242140%,982.2421403781
STEWART,1675,0.940683582%,940.6835821231
THOMSON,1658,0.931136346%,931.1363457672
ANDERSON,1511,0.848580831%,848.5808313958
SCOTT,1194,0.670552953%,670.5529534656
MACDONALD,1146,0.643596051%,643.5960508138
REID,1115,0.626186385%,626.1863845178
MURRAY,1114,0.625624782%,625.6247823792
CLARK,1042,0.585189428%,585.1894284013
TAYLOR,1016,0.570587773%,570.5877727982
ROSS,946,0.531275623%,531.2756230976
YOUNG,904,0.507688333%,507.6883332772
PATERSON,903,0.507126731%,507.1267311386
WATSON,888,0.498702699%,498.7026990599
MITCHELL,869,0.488032258%,488.0322584268
FRASER,852,0.478485022%,478.485022071
MORRISON,845,0.474553807%,474.5538071009
WALKER,833,0.467814581%,467.8145814379
MCDONALD,827,0.464444969%,464.4449686064
GRAHAM,810,0.454897732%,454.8977322506
MILLER,796,0.447035302%,447.0353023104
JOHNSTON,788,0.442542485%,442.5424852018
HENDERSON,785,0.440857679%,440.857678786
CAMERON,780,0.438049668%,438.0496680931
DUNCAN,778,0.436926464%,436.926463816
GRAY,758,0.425694421%,425.6944210444
KERR,746,0.418955195%,418.9551953814
HAMILTON,742,0.416708787%,416.7087868271
HUNTER,706,0.396491110%,396.4911098381
DAVIDSON,705,0.395929508%,395.9295076996
FERGUSON,694,0.389751884%,389.7518841752
BELL,691,0.388067078%,388.0670777594
MACKENZIE,680,0.381889454%,381.889454235
MARTIN,677,0.380204648%,380.2046478193
SIMPSON,670,0.376273433%,376.2734328492
GRANT,668,0.375150229%,375.1502285721
ALLAN,650,0.365041390%,365.0413900776
KELLY,627,0.352124541%,352.1245408903
MACLEOD,621,0.348754928%,348.7549280588
BLACK,613,0.344262111%,344.2621109501
MACKAY,590,0.331345262%,331.3452617628
WALLACE,558,0.313373993%,313.3739933282
MCLEAN,529,0.297087531%,297.0875313093
KENNEDY,524,0.294279521%,294.2795206164
GIBSON,520,0.292033112%,292.0331120621
RUSSELL,520,0.292033112%,292.0331120621
MARSHALL,517,0.290348306%,290.3483056463
GORDON,513,0.288101897%,288.101897092
BURNS,502,0.281924274%,281.9242735676
STEVENSON,487,0.273500241%,273.5002414889
MILNE,486,0.272938639%,272.9386393503
CRAIG,472,0.265076209%,265.0762094102
WOOD,465,0.261144994%,261.1449944401
WRIGHT,458,0.257213779%,257.2137794701
MUNRO,457,0.256652177%,256.6521773315
JOHNSTONE,454,0.254967371%,254.9673709157
RITCHIE,453,0.254405769%,254.4057687772
SINCLAIR,453,0.254405769%,254.4057687772
WATT,449,0.252159360%,252.1593602228
MCKENZIE,448,0.251597758%,251.5977580843
MUIR,441,0.247666543%,247.6665431142
MURPHY,440,0.247104941%,247.1049409756
SUTHERLAND,440,0.247104941%,247.1049409756
MCMILLAN,439,0.246543339%,246.543338837
WHITE,421,0.236434500%,236.4345003426
MCKAY,419,0.235311296%,235.3112960654
MILLAR,418,0.234749694%,234.7496939268
HUGHES,402,0.225764060%,225.7640597095
CRAWFORD,391,0.219586436%,219.5864361851
WILLIAMSON,388,0.217901630%,217.9016297694
DOCHERTY,383,0.215093619%,215.0936190765
MACLEAN,380,0.213408813%,213.4088126608
FLEMING,375,0.210600802%,210.6008019679
CUNNINGHAM,374,0.210039200%,210.0391998293
DICKSON,365,0.204984781%,204.984780582
BOYLE,364,0.204423178%,204.4231784435
DOUGLAS,362,0.203299974%,203.2999741663
MCINTOSH,359,0.201615168%,201.6151677506
BRUCE,352,0.197683953%,197.6839527805
SHAW,351,0.197122351%,197.1223506419
MCGREGOR,350,0.196560749%,196.5607485033
LINDSAY,346,0.194314340%,194.314339949
JAMIESON,343,0.192629534%,192.6295335333
HAY,342,0.192067931%,192.0679313947
CHRISTIE,334,0.187575114%,187.575114286
BOYD,333,0.187013512%,187.0135121475
AITKEN,328,0.184205501%,184.2055014546
RAE,321,0.180274286%,180.2742864845
HILL,311,0.174658265%,174.6582650987
MCCALLUM,311,0.174658265%,174.6582650987
ALEXANDER,307,0.172411857%,172.4118565444
MCINTYRE,307,0.172411857%,172.4118565444
CURRIE,302,0.169603846%,169.6038458514
RAMSAY,302,0.169603846%,169.6038458514
MACKIE,301,0.169042244%,169.0422437129
WEIR,300,0.168480642%,168.4806415743
JONES,299,0.167919039%,167.9190394357
CAIRNS,298,0.167357437%,167.3574372971
WHYTE,297,0.166795835%,166.7958351585
MCLAUGHLIN,296,0.166234233%,166.23423302
JACKSON,294,0.165111029%,165.1110287428
FINDLAY,288,0.161741416%,161.7414159113
FORBES,285,0.160056609%,160.0566094956
KING,285,0.160056609%,160.0566094956
DONALDSON,281,0.157810201%,157.8102009412
HUTCHISON,279,0.156686997%,156.6869966641
MCCULLOCH,278,0.156125395%,156.1253945255
MCLEOD,275,0.154440588%,154.4405881098
MCFARLANE,274,0.153878986%,153.8789859712
NICOL,271,0.152194180%,152.1941795554
BUCHANAN,269,0.151070975%,151.0709752783
PATON,267,0.149947771%,149.9477710011
MOORE,266,0.149386169%,149.3861688625
DUFFY,264,0.148262965%,148.2629645854
REILLY,264,0.148262965%,148.2629645854
RENNIE,264,0.148262965%,148.2629645854
TAIT,263,0.147701362%,147.7013624468
IRVINE,258,0.144893352%,144.8933517539
O'NEILL,258,0.144893352%,144.8933517539
THOMPSON,258,0.144893352%,144.8933517539
GREEN,255,0.143208545%,143.2085453381
MCEWAN,253,0.142085341%,142.085341061
QUINN,253,0.142085341%,142.085341061
HENDRY,252,0.141523739%,141.5237389224
BAIN,248,0.139277330%,139.2773303681
BEATTIE,247,0.138715728%,138.7157282295
CHALMERS,245,0.137592524%,137.5925239523
HALL,244,0.137030922%,137.0309218138
HOGG,244,0.137030922%,137.0309218138
WILLIAMS,244,0.137030922%,137.0309218138
STRACHAN,243,0.136469320%,136.4693196752
TURNER,243,0.136469320%,136.4693196752
LOGAN,242,0.135907718%,135.9077175366
COOK,240,0.134784513%,134.7845132594
ARMSTRONG,239,0.134222911%,134.2229111208
BUCHAN,239,0.134222911%,134.2229111208
COWAN,237,0.133099707%,133.0997068437
GALLAGHER,237,0.133099707%,133.0997068437
BARCLAY,236,0.132538105%,132.5381047051
WELSH,236,0.132538105%,132.5381047051
BARR,234,0.131414900%,131.4149004279
GALLACHER,234,0.131414900%,131.4149004279
GILMOUR,234,0.131414900%,131.4149004279
MURDOCH,232,0.130291696%,130.2916961508
BLAIR,231,0.129730094%,129.7300940122
FORSYTH,231,0.129730094%,129.7300940122
ADAMS,230,0.129168492%,129.1684918736
COOPER,230,0.129168492%,129.1684918736
DONNELLY,229,0.128606890%,128.606889735
DICK,228,0.128045288%,128.0452875965
NELSON,228,0.128045288%,128.0452875965
O'DONNELL,228,0.128045288%,128.0452875965
WARD,228,0.128045288%,128.0452875965
JACK,223,0.125237277%,125.2372769036
MACPHERSON,223,0.125237277%,125.2372769036
DONALD,221,0.124114073%,124.1140726264
BAIRD,218,0.122429266%,122.4292662106
MCLAREN,215,0.120744460%,120.7444597949
PARK,215,0.120744460%,120.7444597949
DRUMMOND,214,0.120182858%,120.1828576563
INNES,214,0.120182858%,120.1828576563
GILLESPIE,213,0.119621256%,119.6212555177
LAWSON,212,0.119059653%,119.0596533792
DUNN,210,0.117936449%,117.936449102
MAXWELL,210,0.117936449%,117.936449102
MCPHERSON,206,0.115690041%,115.6900405477
COLLINS,205,0.115128438%,115.1284384091
SPENCE,204,0.114566836%,114.5668362705
HIGGINS,201,0.112882030%,112.8820298548
ROBERTS,201,0.112882030%,112.8820298548
DUFF,198,0.111197223%,111.197223439
MCGOWAN,196,0.110074019%,110.0740191619
MCGUIRE,196,0.110074019%,110.0740191619
MOFFAT,196,0.110074019%,110.0740191619
MORGAN,196,0.110074019%,110.0740191619
BAXTER,195,0.109512417%,109.5124170233
MACFARLANE,195,0.109512417%,109.5124170233
MCBRIDE,195,0.109512417%,109.5124170233
MCDOUGALL,195,0.109512417%,109.5124170233
INGLIS,194,0.108950815%,108.9508148847
RICHARDSON,193,0.108389213%,108.3892127461
STEPHEN,193,0.108389213%,108.3892127461
SHARP,192,0.107827611%,107.8276106075
MACKINNON,190,0.106704406%,106.7044063304
MCALLISTER,190,0.106704406%,106.7044063304
GILLIES,189,0.106142804%,106.1428041918
LAIRD,189,0.106142804%,106.1428041918
RODGER,189,0.106142804%,106.1428041918
GREIG,188,0.105581202%,105.5812020532
LAING,188,0.105581202%,105.5812020532
MORTON,188,0.105581202%,105.5812020532
SWEENEY,188,0.105581202%,105.5812020532
ADAM,187,0.105019600%,105.0195999146
MONTGOMERY,187,0.105019600%,105.0195999146
MORRIS,187,0.105019600%,105.0195999146
TODD,187,0.105019600%,105.0195999146
CASSIDY,186,0.104457998%,104.4579977761
ROBB,186,0.104457998%,104.4579977761
STIRLING,186,0.104457998%,104.4579977761
WEBSTER,184,0.103334793%,103.3347934989
STUART,183,0.102773191%,102.7731913603
KANE,182,0.102211589%,102.2115892217
MCKENNA,182,0.102211589%,102.2115892217
FALCONER,181,0.101649987%,101.6499870832
GIBB,181,0.101649987%,101.6499870832
MCNEILL,181,0.101649987%,101.6499870832
TURNBULL,181,0.101649987%,101.6499870832
HOUSTON,179,0.100526783%,100.526782806
HARVEY,178,0.099965181%,99.9651806674
DOWNIE,177,0.099403579%,99.4035785288
COCHRANE,176,0.098841976%,98.8419763902
LITTLE,176,0.098841976%,98.8419763902
MCARTHUR,176,0.098841976%,98.8419763902
POLLOCK,176,0.098841976%,98.8419763902
MACMILLAN,174,0.097718772%,97.7187721131
ORR,173,0.097157170%,97.1571699745
STEELE,170,0.095472364%,95.4723635588
HARRIS,169,0.094910761%,94.9107614202
LYNCH,169,0.094910761%,94.9107614202
DUNLOP,168,0.094349159%,94.3491592816
LOW,168,0.094349159%,94.3491592816
MCMAHON,168,0.094349159%,94.3491592816
NICHOLSON,168,0.094349159%,94.3491592816
ALLISON,167,0.093787557%,93.787557143
MCCANN,166,0.093225955%,93.2259550044
SNEDDON,166,0.093225955%,93.2259550044
GALLOWAY,164,0.092102751%,92.1027507273
CARR,163,0.091541149%,91.5411485887
CUMMING,162,0.090979546%,90.9795464501
GARDNER,162,0.090979546%,90.9795464501
COWIE,161,0.090417944%,90.4179443115
JOHNSON,161,0.090417944%,90.4179443115
LESLIE,161,0.090417944%,90.4179443115
ROBINSON,161,0.090417944%,90.4179443115
FORREST,160,0.089856342%,89.856342173
HARDIE,160,0.089856342%,89.856342173
LEE,157,0.088171536%,88.1715357572
MILLIGAN,157,0.088171536%,88.1715357572
O'BRIEN,157,0.088171536%,88.1715357572
RANKIN,157,0.088171536%,88.1715357572
NOBLE,156,0.087609934%,87.6099336186
KNOX,155,0.087048331%,87.04833148
MULLEN,155,0.087048331%,87.04833148
URQUHART,155,0.087048331%,87.04833148
BAILLIE,154,0.086486729%,86.4867293415
HARRISON,154,0.086486729%,86.4867293415
BENNETT,153,0.085925127%,85.9251272029
LAW,153,0.085925127%,85.9251272029
DEVINE,152,0.085363525%,85.3635250643
HANNAH,152,0.085363525%,85.3635250643
MOIR,152,0.085363525%,85.3635250643
BURNETT,151,0.084801923%,84.8019229257
MCGHEE,151,0.084801923%,84.8019229257
DOHERTY,150,0.084240321%,84.2403207871
MACRAE,150,0.084240321%,84.2403207871
MCCORMACK,150,0.084240321%,84.2403207871
SMART,150,0.084240321%,84.2403207871
ADAMSON,149,0.083678719%,83.6787186486
GILCHRIST,149,0.083678719%,83.6787186486
MACLENNAN,149,0.083678719%,83.6787186486
LAMB,147,0.082555514%,82.5555143714
MALCOLM,147,0.082555514%,82.5555143714
CLARKE,146,0.081993912%,81.9939122328
FISHER,146,0.081993912%,81.9939122328
MCGILL,146,0.081993912%,81.9939122328
EVANS,145,0.081432310%,81.4323100942
GEDDES,145,0.081432310%,81.4323100942
GRIEVE,145,0.081432310%,81.4323100942
GUNN,145,0.081432310%,81.4323100942
LOVE,145,0.081432310%,81.4323100942
CONNELLY,144,0.080870708%,80.8707079557
MAIN,143,0.080309106%,80.3091058171
SHIELDS,143,0.080309106%,80.3091058171
CALDER,142,0.079747504%,79.7475036785
LANG,142,0.079747504%,79.7475036785
NISBET,142,0.079747504%,79.7475036785
WILKIE,142,0.079747504%,79.7475036785
COYLE,141,0.079185902%,79.1859015399
MAIR,141,0.079185902%,79.1859015399
MCINNES,141,0.079185902%,79.1859015399
NEIL,141,0.079185902%,79.1859015399
PEARSON,141,0.079185902%,79.1859015399
PORTER,141,0.079185902%,79.1859015399
KIRK,140,0.078624299%,78.6242994013
CARMICHAEL,139,0.078062697%,78.0626972628
LIVINGSTONE,139,0.078062697%,78.0626972628
MACGREGOR,139,0.078062697%,78.0626972628
PATTERSON,139,0.078062697%,78.0626972628
HARPER,138,0.077501095%,77.5010951242
SIM,138,0.077501095%,77.5010951242
BEATON,137,0.076939493%,76.9394929856
EDWARDS,137,0.076939493%,76.9394929856
STEEL,137,0.076939493%,76.9394929856
THOMAS,137,0.076939493%,76.9394929856
COUTTS,136,0.076377891%,76.377890847
SHEPHERD,136,0.076377891%,76.377890847
BRYCE,135,0.075816289%,75.8162887084
MCLELLAN,135,0.075816289%,75.8162887084
PHILLIPS,135,0.075816289%,75.8162887084
DEVLIN,134,0.075254687%,75.2546865698
MASON,134,0.075254687%,75.2546865698
CALDWELL,133,0.074693084%,74.6930844313
DAWSON,133,0.074693084%,74.6930844313
HART,133,0.074693084%,74.6930844313
PARKER,133,0.074693084%,74.6930844313
LAMONT,131,0.073569880%,73.5698801541
MATHIESON,131,0.073569880%,73.5698801541
MENZIES,131,0.073569880%,73.5698801541
SHEARER,131,0.073569880%,73.5698801541
GARDINER,130,0.073008278%,73.0082780155
CRUICKSHANK,129,0.072446676%,72.4466758769
HUTTON,129,0.072446676%,72.4466758769
DAVIES,128,0.071885074%,71.8850737384
BRADY,126,0.070761869%,70.7618694612
GOURLAY,126,0.070761869%,70.7618694612
HENRY,126,0.070761869%,70.7618694612
MILLS,126,0.070761869%,70.7618694612
PETRIE,126,0.070761869%,70.7618694612
SWAN,126,0.070761869%,70.7618694612
BRADLEY,125,0.070200267%,70.2002673226
DOYLE,125,0.070200267%,70.2002673226
WYLIE,125,0.070200267%,70.2002673226
HALLIDAY,124,0.069638665%,69.638665184
LEITCH,124,0.069638665%,69.638665184
MCPHEE,124,0.069638665%,69.638665184
ARCHIBALD,123,0.069077063%,69.0770630455
BRODIE,123,0.069077063%,69.0770630455
MCCORMICK,123,0.069077063%,69.0770630455
MCKINLAY,123,0.069077063%,69.0770630455
HOLMES,122,0.068515461%,68.5154609069
NEILSON,122,0.068515461%,68.5154609069
KAY,121,0.067953859%,67.9538587683
MCCABE,121,0.067953859%,67.9538587683
MCLACHLAN,121,0.067953859%,67.9538587683
DEWAR,120,0.067392257%,67.3922566297
SPEIRS,120,0.067392257%,67.3922566297
WOODS,120,0.067392257%,67.3922566297
CONNOR,119,0.066830654%,66.8306544911
GLEN,119,0.066830654%,66.8306544911
HOOD,119,0.066830654%,66.8306544911
NICOLSON,119,0.066830654%,66.8306544911
RUTHERFORD,119,0.066830654%,66.8306544911
CARROLL,118,0.066269052%,66.2690523526
EASTON,118,0.066269052%,66.2690523526
FINLAYSON,118,0.066269052%,66.2690523526
FITZPATRICK,118,0.066269052%,66.2690523526
HOWIE,118,0.066269052%,66.2690523526
REYNOLDS,118,0.066269052%,66.2690523526
FULTON,117,0.065707450%,65.707450214
PIRIE,117,0.065707450%,65.707450214
FARRELL,116,0.065145848%,65.1458480754
LAWRIE,116,0.065145848%,65.1458480754
MCKINNON,115,0.064584246%,64.5842459368
MIDDLETON,115,0.064584246%,64.5842459368
SLOAN,115,0.064584246%,64.5842459368
MELVILLE,113,0.063461042%,63.4610416596
PAUL,113,0.063461042%,63.4610416596
ROSE,113,0.063461042%,63.4610416596
WADDELL,113,0.063461042%,63.4610416596
ELLIOTT,112,0.062899440%,62.8994395211
IRVING,112,0.062899440%,62.8994395211
MCDOWALL,112,0.062899440%,62.8994395211
CHISHOLM,111,0.062337837%,62.3378373825
DOW,111,0.062337837%,62.3378373825
HEPBURN,111,0.062337837%,62.3378373825
COLQUHOUN,110,0.061776235%,61.7762352439
FARQUHAR,110,0.061776235%,61.7762352439
FORD,110,0.061776235%,61.7762352439
KIDD,110,0.061776235%,61.7762352439
PENMAN,109,0.061214633%,61.2146331053
BYRNE,108,0.060653031%,60.6530309667
LEWIS,108,0.060653031%,60.6530309667
MANSON,108,0.060653031%,60.6530309667
BALLANTYNE,107,0.060091429%,60.0914288282
BREMNER,107,0.060091429%,60.0914288282
KEENAN,107,0.060091429%,60.0914288282
CULLEN,106,0.059529827%,59.5298266896
FREW,106,0.059529827%,59.5298266896
MCCONNELL,106,0.059529827%,59.5298266896
BRYSON,105,0.058968225%,58.968224551
NICOLL,105,0.058968225%,58.968224551
OLIVER,105,0.058968225%,58.968224551
CHAPMAN,104,0.058406622%,58.4066224124
KIRKWOOD,104,0.058406622%,58.4066224124
MCNEIL,104,0.058406622%,58.4066224124
CALLAGHAN,103,0.057845020%,57.8450202738
CRICHTON,103,0.057845020%,57.8450202738
LEES,103,0.057845020%,57.8450202738
MACAULAY,103,0.057845020%,57.8450202738
MOONEY,103,0.057845020%,57.8450202738
DAVIS,102,0.057283418%,57.2834181353
MCCAFFERTY,102,0.057283418%,57.2834181353
MCCALL,102,0.057283418%,57.2834181353
MUIRHEAD,102,0.057283418%,57.2834181353
BEVERIDGE,101,0.056721816%,56.7218159967
FINLAY,101,0.056721816%,56.7218159967
GEMMELL,101,0.056721816%,56.7218159967
JEFFREY,101,0.056721816%,56.7218159967
JENKINS,101,0.056721816%,56.7218159967
LOWE,101,0.056721816%,56.7218159967
MONAGHAN,101,0.056721816%,56.7218159967
RIDDELL,101,0.056721816%,56.7218159967
CURRAN,99,0.055598612%,55.5986117195
ELLIS,99,0.055598612%,55.5986117195
FOSTER,99,0.055598612%,55.5986117195
KEMP,99,0.055598612%,55.5986117195
MCKECHNIE,99,0.055598612%,55.5986117195
ANGUS,98,0.055037010%,55.0370095809
BARRIE,98,0.055037010%,55.0370095809
EDGAR,98,0.055037010%,55.0370095809
LAIDLAW,98,0.055037010%,55.0370095809
SKINNER,98,0.055037010%,55.0370095809
CARSON,97,0.054475407%,54.4754074424
CONNELL,97,0.054475407%,54.4754074424
MACINNES,97,0.054475407%,54.4754074424
MATHESON,97,0.054475407%,54.4754074424
MCCOLL,97,0.054475407%,54.4754074424
MCMANUS,97,0.054475407%,54.4754074424
FOWLER,96,0.053913805%,53.9138053038
HUME,96,0.053913805%,53.9138053038
DALY,95,0.053352203%,53.3522031652
EWING,95,0.053352203%,53.3522031652
FYFE,95,0.053352203%,53.3522031652
MARR,95,0.053352203%,53.3522031652
FRAME,94,0.052790601%,52.7906010266
MACINTYRE,94,0.052790601%,52.7906010266
MACKINTOSH,94,0.052790601%,52.7906010266
AITCHISON,93,0.052228999%,52.228998888
BARNES,93,0.052228999%,52.228998888
ELDER,93,0.052228999%,52.228998888
GALBRAITH,93,0.052228999%,52.228998888
KEITH,93,0.052228999%,52.228998888
MCCARTNEY,93,0.052228999%,52.228998888
STARK,93,0.052228999%,52.228998888
BLYTH,92,0.051667397%,51.6673967494
FORRESTER,92,0.051667397%,51.6673967494
GUTHRIE,92,0.051667397%,51.6673967494
ROONEY,92,0.051667397%,51.6673967494
SMALL,92,0.051667397%,51.6673967494
KIRKPATRICK,91,0.051105795%,51.1057946109
CONNOLLY,90,0.050544192%,50.5441924723
FLYNN,90,0.050544192%,50.5441924723
MACDOUGALL,90,0.050544192%,50.5441924723
PRENTICE,90,0.050544192%,50.5441924723
SHAND,90,0.050544192%,50.5441924723
WHITELAW,90,0.050544192%,50.5441924723
WILKINSON,90,0.050544192%,50.5441924723
COX,89,0.049982590%,49.9825903337
FLETCHER,89,0.049982590%,49.9825903337
MCFADYEN,89,0.049982590%,49.9825903337
NEILL,89,0.049982590%,49.9825903337
OGILVIE,89,0.049982590%,49.9825903337
RAFFERTY,89,0.049982590%,49.9825903337
THOM,89,0.049982590%,49.9825903337
CUTHBERT,88,0.049420988%,49.4209881951
DUNBAR,88,0.049420988%,49.4209881951
DUTHIE,88,0.049420988%,49.4209881951
WALSH,88,0.049420988%,49.4209881951
BURKE,87,0.048859386%,48.8593860565
GOW,87,0.048859386%,48.8593860565
KILPATRICK,87,0.048859386%,48.8593860565
MCNAB,87,0.048859386%,48.8593860565
MCQUEEN,87,0.048859386%,48.8593860565
PEACOCK,87,0.048859386%,48.8593860565
ELLIOT,86,0.048297784%,48.297783918
JARDINE,86,0.048297784%,48.297783918
KYLE,86,0.048297784%,48.297783918
SHANKS,86,0.048297784%,48.297783918
LYON,85,0.047736182%,47.7361817794
MCDERMOTT,85,0.047736182%,47.7361817794
SOMERVILLE,85,0.047736182%,47.7361817794
ARTHUR,84,0.047174580%,47.1745796408
COCKBURN,84,0.047174580%,47.1745796408
GOLDIE,84,0.047174580%,47.1745796408
MEIKLE,84,0.047174580%,47.1745796408
DICKIE,83,0.046612978%,46.6129775022
DOIG,83,0.046612978%,46.6129775022
O'HARA,83,0.046612978%,46.6129775022
BARBOUR,82,0.046051375%,46.0513753636
MCCLUSKEY,82,0.046051375%,46.0513753636
ROY,82,0.046051375%,46.0513753636
WAUGH,82,0.046051375%,46.0513753636
MCALPINE,81,0.045489773%,45.4897732251
MCHUGH,81,0.045489773%,45.4897732251
ROBSON,81,0.045489773%,45.4897732251
BORTHWICK,80,0.044928171%,44.9281710865
FOX,80,0.044928171%,44.9281710865
NIMMO,80,0.044928171%,44.9281710865
LOCKHART,79,0.044366569%,44.3665689479
MACIVER,79,0.044366569%,44.3665689479
MANN,79,0.044366569%,44.3665689479
MCGRATH,79,0.044366569%,44.3665689479
MELDRUM,79,0.044366569%,44.3665689479
ALLEN,78,0.043804967%,43.8049668093
CANNON,78,0.043804967%,43.8049668093
CARRUTHERS,78,0.043804967%,43.8049668093
COULL,78,0.043804967%,43.8049668093
CUTHBERTSON,78,0.043804967%,43.8049668093
PALMER,78,0.043804967%,43.8049668093
SEMPLE,78,0.043804967%,43.8049668093
WISHART,78,0.043804967%,43.8049668093
ANDREW,77,0.043243365%,43.2433646707
BALFOUR,77,0.043243365%,43.2433646707
BERRY,77,0.043243365%,43.2433646707
FINNIE,77,0.043243365%,43.2433646707
MALONE,77,0.043243365%,43.2433646707
WYLLIE,77,0.043243365%,43.2433646707
CAIRNEY,76,0.042681763%,42.6817625322
CORMACK,76,0.042681763%,42.6817625322
GORMAN,76,0.042681763%,42.6817625322
HORNE,76,0.042681763%,42.6817625322
MCDADE,76,0.042681763%,42.6817625322
MCNICOL,76,0.042681763%,42.6817625322
MCPHAIL,76,0.042681763%,42.6817625322
NAPIER,76,0.042681763%,42.6817625322
PRINGLE,76,0.042681763%,42.6817625322
RAMAGE,76,0.042681763%,42.6817625322
SLATER,76,0.042681763%,42.6817625322
WEST,76,0.042681763%,42.6817625322
BINNIE,75,0.042120160%,42.1201603936
BRAND,75,0.042120160%,42.1201603936
BURGESS,75,0.042120160%,42.1201603936
MCNALLY,75,0.042120160%,42.1201603936
MORAN,75,0.042120160%,42.1201603936
BOOTH,74,0.041558558%,41.558558255
DEANS,74,0.041558558%,41.558558255
LUMSDEN,74,0.041558558%,41.558558255
MCGUINNESS,74,0.041558558%,41.558558255
MCKEOWN,74,0.041558558%,41.558558255
RODGERS,74,0.041558558%,41.558558255
ANDREWS,73,0.040996956%,40.9969561164
BARRON,73,0.040996956%,40.9969561164
DODDS,73,0.040996956%,40.9969561164
MCGOVERN,73,0.040996956%,40.9969561164
MCNAUGHTON,73,0.040996956%,40.9969561164
O'CONNOR,73,0.040996956%,40.9969561164
RICHMOND,73,0.040996956%,40.9969561164
DEMPSTER,72,0.040435354%,40.4353539778
GARDEN,72,0.040435354%,40.4353539778
MCCLURE,72,0.040435354%,40.4353539778
MCCREADIE,72,0.040435354%,40.4353539778
BOWMAN,71,0.039873752%,39.8737518392
CONWAY,71,0.039873752%,39.8737518392
CROMBIE,71,0.039873752%,39.8737518392
HERON,71,0.039873752%,39.8737518392
MCKEE,71,0.039873752%,39.8737518392
MCKIE,71,0.039873752%,39.8737518392
MCLENNAN,71,0.039873752%,39.8737518392
PATRICK,71,0.039873752%,39.8737518392
HASTIE,70,0.039312150%,39.3121497007
PHILIP,70,0.039312150%,39.3121497007
RYAN,70,0.039312150%,39.3121497007
BLACKWOOD,69,0.038750548%,38.7505475621
BUTLER,69,0.038750548%,38.7505475621
DRYSDALE,69,0.038750548%,38.7505475621
GILLAN,69,0.038750548%,38.7505475621
HOPE,69,0.038750548%,38.7505475621
MASSON,69,0.038750548%,38.7505475621
MCCRACKEN,69,0.038750548%,38.7505475621
STEVEN,69,0.038750548%,38.7505475621
BOWIE,68,0.038188945%,38.1889454235
INGRAM,68,0.038188945%,38.1889454235
MCAULAY,68,0.038188945%,38.1889454235
TEMPLETON,68,0.038188945%,38.1889454235
TRAYNOR,68,0.038188945%,38.1889454235
ARNOTT,67,0.037627343%,37.6273432849
DAVIE,67,0.037627343%,37.6273432849
LAURIE,67,0.037627343%,37.6273432849
LIDDELL,67,0.037627343%,37.6273432849
MCFADDEN,67,0.037627343%,37.6273432849
MCLEISH,67,0.037627343%,37.6273432849
O'ROURKE,67,0.037627343%,37.6273432849
RICE,67,0.037627343%,37.6273432849
SUMMERS,67,0.037627343%,37.6273432849
BANKS,66,0.037065741%,37.0657411463
BRENNAN,66,0.037065741%,37.0657411463
GILL,66,0.037065741%,37.0657411463
KNIGHT,66,0.037065741%,37.0657411463
PRATT,66,0.037065741%,37.0657411463
PRICE,66,0.037065741%,37.0657411463
YULE,66,0.037065741%,37.0657411463
CUMMINGS,65,0.036504139%,36.5041390078
HODGE,65,0.036504139%,36.5041390078
MCMASTER,65,0.036504139%,36.5041390078
BAKER,64,0.035942537%,35.9425368692
EWEN,64,0.035942537%,35.9425368692
HERD,64,0.035942537%,35.9425368692
HOLLAND,64,0.035942537%,35.9425368692
MCAULEY,64,0.035942537%,35.9425368692
MCGUIGAN,64,0.035942537%,35.9425368692
MCLELLAND,64,0.035942537%,35.9425368692
NIVEN,64,0.035942537%,35.9425368692
PURDIE,64,0.035942537%,35.9425368692
BISSET,63,0.035380935%,35.3809347306
CROSSAN,63,0.035380935%,35.3809347306
LAWRENCE,63,0.035380935%,35.3809347306
MAGUIRE,63,0.035380935%,35.3809347306
MCINALLY,63,0.035380935%,35.3809347306
MCWILLIAM,63,0.035380935%,35.3809347306
O'NEIL,63,0.035380935%,35.3809347306
AGNEW,62,0.034819333%,34.819332592
CARGILL,62,0.034819333%,34.819332592
COPLAND,62,0.034819333%,34.819332592
DEMPSEY,62,0.034819333%,34.819332592
GOODWIN,62,0.034819333%,34.819332592
HAMILL,62,0.034819333%,34.819332592
IRELAND,62,0.034819333%,34.819332592
JAMES,62,0.034819333%,34.819332592
LAFFERTY,62,0.034819333%,34.819332592
MUTCH,62,0.034819333%,34.819332592
BARRETT,61,0.034257730%,34.2577304534
CORBETT,61,0.034257730%,34.2577304534
MCLAUCHLAN,61,0.034257730%,34.2577304534
NEWLANDS,61,0.034257730%,34.2577304534
PRESTON,61,0.034257730%,34.2577304534
TULLOCH,61,0.034257730%,34.2577304534
BRUNTON,60,0.033696128%,33.6961283149
DILLON,60,0.033696128%,33.6961283149
DIXON,60,0.033696128%,33.6961283149
FAIRBAIRN,60,0.033696128%,33.6961283149
LENNOX,60,0.033696128%,33.6961283149
MACPHEE,60,0.033696128%,33.6961283149
MCLAUGHLAN,60,0.033696128%,33.6961283149
POTTER,60,0.033696128%,33.6961283149
PURVES,60,0.033696128%,33.6961283149
ATKINSON,59,0.033134526%,33.1345261763
CROSS,59,0.033134526%,33.1345261763
DOLAN,59,0.033134526%,33.1345261763
DUGUID,59,0.033134526%,33.1345261763
LYONS,59,0.033134526%,33.1345261763
MATTHEWS,59,0.033134526%,33.1345261763
MULHOLLAND,59,0.033134526%,33.1345261763
RATTRAY,59,0.033134526%,33.1345261763
DOBBIE,58,0.032572924%,32.5729240377
MCADAM,58,0.032572924%,32.5729240377
MCGARRY,58,0.032572924%,32.5729240377
MCKELLAR,58,0.032572924%,32.5729240377
MCKNIGHT,58,0.032572924%,32.5729240377
MCVEY,58,0.032572924%,32.5729240377
BIRRELL,57,0.032011322%,32.0113218991
CARTER,57,0.032011322%,32.0113218991
GRIFFIN,57,0.032011322%,32.0113218991
LORIMER,57,0.032011322%,32.0113218991
LYALL,57,0.032011322%,32.0113218991
MCCUTCHEON,57,0.032011322%,32.0113218991
MCGINLEY,57,0.032011322%,32.0113218991
MCRAE,57,0.032011322%,32.0113218991
MORRICE,57,0.032011322%,32.0113218991
SAUNDERS,57,0.032011322%,32.0113218991
SMYTH,57,0.032011322%,32.0113218991
BEGG,56,0.031449720%,31.4497197605
CASEY,56,0.031449720%,31.4497197605
GLASS,56,0.031449720%,31.4497197605
HARKINS,56,0.031449720%,31.4497197605
HARKNESS,56,0.031449720%,31.4497197605
MACARTHUR,56,0.031449720%,31.4497197605
MCBAIN,56,0.031449720%,31.4497197605
SHARKEY,56,0.031449720%,31.4497197605
SMILLIE,56,0.031449720%,31.4497197605
TELFER,56,0.031449720%,31.4497197605
WATTERS,56,0.031449720%,31.4497197605
DARROCH,55,0.030888118%,30.888117622
KEIR,55,0.030888118%,30.888117622
MCCONNACHIE,55,0.030888118%,30.888117622
MCQUADE,55,0.030888118%,30.888117622
NESS,55,0.030888118%,30.888117622
THORBURN,55,0.030888118%,30.888117622
WILL,55,0.030888118%,30.888117622
AIRD,54,0.030326515%,30.3265154834
BROOKS,54,0.030326515%,30.3265154834
BURT,54,0.030326515%,30.3265154834
ERSKINE,54,0.030326515%,30.3265154834
HARLEY,54,0.030326515%,30.3265154834
HYSLOP,54,0.030326515%,30.3265154834
KENNY,54,0.030326515%,30.3265154834
MADDEN,54,0.030326515%,30.3265154834
MCCUE,54,0.030326515%,30.3265154834
MCGEE,54,0.030326515%,30.3265154834
MOWAT,54,0.030326515%,30.3265154834
NIXON,54,0.030326515%,30.3265154834
OWENS,54,0.030326515%,30.3265154834
SANDERSON,54,0.030326515%,30.3265154834
TORRANCE,54,0.030326515%,30.3265154834
VALENTINE,54,0.030326515%,30.3265154834
BORLAND,53,0.029764913%,29.7649133448
BRANNAN,53,0.029764913%,29.7649133448
BROWNLIE,53,0.029764913%,29.7649133448
CLARKSON,53,0.029764913%,29.7649133448
COUPER,53,0.029764913%,29.7649133448
FOTHERINGHAM,53,0.029764913%,29.7649133448
GILBERT,53,0.029764913%,29.7649133448
JARVIE,53,0.029764913%,29.7649133448
MASSIE,53,0.029764913%,29.7649133448
MCCAIG,53,0.029764913%,29.7649133448
MCIVOR,53,0.029764913%,29.7649133448
MCLUCKIE,53,0.029764913%,29.7649133448
MEECHAN,53,0.029764913%,29.7649133448
O'HARE,53,0.029764913%,29.7649133448
TIERNEY,53,0.029764913%,29.7649133448
WELLS,53,0.029764913%,29.7649133448
BENNIE,52,0.029203311%,29.2033112062
BIRNIE,52,0.029203311%,29.2033112062
BOYCE,52,0.029203311%,29.2033112062
CARLIN,52,0.029203311%,29.2033112062
DINGWALL,52,0.029203311%,29.2033112062
GILFILLAN,52,0.029203311%,29.2033112062
GRIERSON,52,0.029203311%,29.2033112062
HASTINGS,52,0.029203311%,29.2033112062
LENNON,52,0.029203311%,29.2033112062
MCKENDRICK,52,0.029203311%,29.2033112062
RILEY,52,0.029203311%,29.2033112062
ROGERS,52,0.029203311%,29.2033112062
SANGSTER,52,0.029203311%,29.2033112062
SAVAGE,52,0.029203311%,29.2033112062
SINGH,52,0.029203311%,29.2033112062
BARNETT,51,0.028641709%,28.6417090676
FAIRLEY,51,0.028641709%,28.6417090676
PORTEOUS,51,0.028641709%,28.6417090676
STODDART,51,0.028641709%,28.6417090676
WOTHERSPOON,51,0.028641709%,28.6417090676
BROGAN,50,0.028080107%,28.080106929
CROSBIE,50,0.028080107%,28.080106929
DOUGAN,50,0.028080107%,28.080106929
DYER,50,0.028080107%,28.080106929
FLETT,50,0.028080107%,28.080106929
HISLOP,50,0.028080107%,28.080106929
HUTCHESON,50,0.028080107%,28.080106929
IMRIE,50,0.028080107%,28.080106929
MATTHEW,50,0.028080107%,28.080106929
MAY,50,0.028080107%,28.080106929
MCNAUGHT,50,0.028080107%,28.080106929
MORROW,50,0.028080107%,28.080106929
PHILP,50,0.028080107%,28.080106929
SOUTER,50,0.028080107%,28.080106929
STEVENS,50,0.028080107%,28.080106929
STRANG,50,0.028080107%,28.080106929
TOWNSLEY,50,0.028080107%,28.080106929
AULD,49,0.027518505%,27.5185047905
CHAMBERS,49,0.027518505%,27.5185047905
COLEMAN,49,0.027518505%,27.5185047905
COPELAND,49,0.027518505%,27.5185047905
FARMER,49,0.027518505%,27.5185047905
FULLERTON,49,0.027518505%,27.5185047905
HYND,49,0.027518505%,27.5185047905
MACK,49,0.027518505%,27.5185047905
MYLES,49,0.027518505%,27.5185047905
PETERS,49,0.027518505%,27.5185047905
RAEBURN,49,0.027518505%,27.5185047905
SAMSON,49,0.027518505%,27.5185047905
STOTT,49,0.027518505%,27.5185047905
STRUTHERS,49,0.027518505%,27.5185047905
TOUGH,49,0.027518505%,27.5185047905
WISEMAN,49,0.027518505%,27.5185047905
BLAKE,48,0.026956903%,26.9569026519
DORAN,48,0.026956903%,26.9569026519
FRIEL,48,0.026956903%,26.9569026519
LAMBIE,48,0.026956903%,26.9569026519
MCNAIR,48,0.026956903%,26.9569026519
ROWAN,48,0.026956903%,26.9569026519
SCOBIE,48,0.026956903%,26.9569026519
SCULLION,48,0.026956903%,26.9569026519
ARMOUR,47,0.026395301%,26.3953005133
CHEYNE,47,0.026395301%,26.3953005133
COULTER,47,0.026395301%,26.3953005133
DALGLEISH,47,0.026395301%,26.3953005133
DALZIEL,47,0.026395301%,26.3953005133
DEAN,47,0.026395301%,26.3953005133
GAULD,47,0.026395301%,26.3953005133
GRACIE,47,0.026395301%,26.3953005133
LEASK,47,0.026395301%,26.3953005133
MACLACHLAN,47,0.026395301%,26.3953005133
MICHIE,47,0.026395301%,26.3953005133
QUIGLEY,47,0.026395301%,26.3953005133
SWANSON,47,0.026395301%,26.3953005133
SYME,47,0.026395301%,26.3953005133
VEITCH,47,0.026395301%,26.3953005133
BIRD,46,0.025833698%,25.8336983747
HEALY,46,0.025833698%,25.8336983747
KEARNEY,46,0.025833698%,25.8336983747
LECKIE,46,0.025833698%,25.8336983747
LEITH,46,0.025833698%,25.8336983747
LEONARD,46,0.025833698%,25.8336983747
LIVINGSTON,46,0.025833698%,25.8336983747
MACGILLIVRAY,46,0.025833698%,25.8336983747
MCCARTHY,46,0.025833698%,25.8336983747
MCCUSKER,46,0.025833698%,25.8336983747
MEARNS,46,0.025833698%,25.8336983747
MEEK,46,0.025833698%,25.8336983747
PAGE,46,0.025833698%,25.8336983747
QUEEN,46,0.025833698%,25.8336983747
TENNANT,46,0.025833698%,25.8336983747
WALLS,46,0.025833698%,25.8336983747
HEWITT,45,0.025272096%,25.2720962361
KIRKLAND,45,0.025272096%,25.2720962361
LOUDON,45,0.025272096%,25.2720962361
MCNULTY,45,0.025272096%,25.2720962361
MCSHANE,45,0.025272096%,25.2720962361
MCWILLIAMS,45,0.025272096%,25.2720962361
MELROSE,45,0.025272096%,25.2720962361
MORE,45,0.025272096%,25.2720962361
NAIRN,45,0.025272096%,25.2720962361
NOLAN,45,0.025272096%,25.2720962361
SULLIVAN,45,0.025272096%,25.2720962361
WARREN,45,0.025272096%,25.2720962361
ADDISON,44,0.024710494%,24.7104940976
BURTON,44,0.024710494%,24.7104940976
EADIE,44,0.024710494%,24.7104940976
FAULDS,44,0.024710494%,24.7104940976
FITZSIMMONS,44,0.024710494%,24.7104940976
GEORGE,44,0.024710494%,24.7104940976
HADDOW,44,0.024710494%,24.7104940976
HANLON,44,0.024710494%,24.7104940976
LAMOND,44,0.024710494%,24.7104940976
LAVERY,44,0.024710494%,24.7104940976
LEISHMAN,44,0.024710494%,24.7104940976
MAITLAND,44,0.024710494%,24.7104940976
MCCOURT,44,0.024710494%,24.7104940976
MCEWEN,44,0.024710494%,24.7104940976
MCGHIE,44,0.024710494%,24.7104940976
MCKILLOP,44,0.024710494%,24.7104940976
MELVIN,44,0.024710494%,24.7104940976
NEWTON,44,0.024710494%,24.7104940976
OGG,44,0.024710494%,24.7104940976
OSBORNE,44,0.024710494%,24.7104940976
PAXTON,44,0.024710494%,24.7104940976
SHORT,44,0.024710494%,24.7104940976
YATES,44,0.024710494%,24.7104940976
ADAIR,43,0.024148892%,24.148891959
BISHOP,43,0.024148892%,24.148891959
COSGROVE,43,0.024148892%,24.148891959
DOBSON,43,0.024148892%,24.148891959
DONNACHIE,43,0.024148892%,24.148891959
FARQUHARSON,43,0.024148892%,24.148891959
FEENEY,43,0.024148892%,24.148891959
FERRIE,43,0.024148892%,24.148891959
FRENCH,43,0.024148892%,24.148891959
GALL,43,0.024148892%,24.148891959
KNOWLES,43,0.024148892%,24.148891959
LONG,43,0.024148892%,24.148891959
MCCUBBIN,43,0.024148892%,24.148891959
MCLAY,43,0.024148892%,24.148891959
MILTON,43,0.024148892%,24.148891959
NICHOL,43,0.024148892%,24.148891959
PROCTOR,43,0.024148892%,24.148891959
PRYDE,43,0.024148892%,24.148891959
RALSTON,43,0.024148892%,24.148891959
STENHOUSE,43,0.024148892%,24.148891959
CLELAND,42,0.023587290%,23.5872898204
DARLING,42,0.023587290%,23.5872898204
DIAMOND,42,0.023587290%,23.5872898204
FENTON,42,0.023587290%,23.5872898204
FERRIER,42,0.023587290%,23.5872898204
GAULT,42,0.023587290%,23.5872898204
GAVIN,42,0.023587290%,23.5872898204
HEGGIE,42,0.023587290%,23.5872898204
MCTAGGART,42,0.023587290%,23.5872898204
PROVAN,42,0.023587290%,23.5872898204
RENDALL,42,0.023587290%,23.5872898204
ROLLO,42,0.023587290%,23.5872898204
SOMMERVILLE,42,0.023587290%,23.5872898204
TONNER,42,0.023587290%,23.5872898204
CORRIGAN,41,0.023025688%,23.0256876818
DOWIE,41,0.023025688%,23.0256876818
FAIRLIE,41,0.023025688%,23.0256876818
FLANAGAN,41,0.023025688%,23.0256876818
GAFFNEY,41,0.023025688%,23.0256876818
GLOVER,41,0.023025688%,23.0256876818
GREER,41,0.023025688%,23.0256876818
LAMBERT,41,0.023025688%,23.0256876818
LYLE,41,0.023025688%,23.0256876818
MCGOLDRICK,41,0.023025688%,23.0256876818
MOYES,41,0.023025688%,23.0256876818
PETTIGREW,41,0.023025688%,23.0256876818
SHANNON,41,0.023025688%,23.0256876818
SOUTAR,41,0.023025688%,23.0256876818
THORNTON,41,0.023025688%,23.0256876818
CALDERWOOD,40,0.022464086%,22.4640855432
CANNING,40,0.022464086%,22.4640855432
HAGGARTY,40,0.022464086%,22.4640855432
HENDRIE,40,0.022464086%,22.4640855432
JORDAN,40,0.022464086%,22.4640855432
KEDDIE,40,0.022464086%,22.4640855432
LINTON,40,0.022464086%,22.4640855432
MACCALLUM,40,0.022464086%,22.4640855432
MCCRINDLE,40,0.022464086%,22.4640855432
MCGLYNN,40,0.022464086%,22.4640855432
MCILROY,40,0.022464086%,22.4640855432
MCKINNEY,40,0.022464086%,22.4640855432
MOODIE,40,0.022464086%,22.4640855432
MULLIGAN,40,0.022464086%,22.4640855432
PERRY,40,0.022464086%,22.4640855432
REDPATH,40,0.022464086%,22.4640855432
SHERIDAN,40,0.022464086%,22.4640855432
STORRIE,40,0.022464086%,22.4640855432
TELFORD,40,0.022464086%,22.4640855432
ALI,39,0.021902483%,21.9024834047
BENSON,39,0.021902483%,21.9024834047
BRYDEN,39,0.021902483%,21.9024834047
CAREY,39,0.021902483%,21.9024834047
CLELLAND,39,0.021902483%,21.9024834047
COWE,39,0.021902483%,21.9024834047
DAY,39,0.021902483%,21.9024834047
DUNSMORE,39,0.021902483%,21.9024834047
GIRVAN,39,0.021902483%,21.9024834047
GRIFFITHS,39,0.021902483%,21.9024834047
HOPKINS,39,0.021902483%,21.9024834047
LYNN,39,0.021902483%,21.9024834047
MCCLYMONT,39,0.021902483%,21.9024834047
MCGINTY,39,0.021902483%,21.9024834047
MCGRORY,39,0.021902483%,21.9024834047
MCGURK,39,0.021902483%,21.9024834047
MCKEAN,39,0.021902483%,21.9024834047
TAGGART,39,0.021902483%,21.9024834047
THAIN,39,0.021902483%,21.9024834047
AUSTIN,38,0.021340881%,21.3408812661
BONNAR,38,0.021340881%,21.3408812661
GOODALL,38,0.021340881%,21.3408812661
GORMLEY,38,0.021340881%,21.3408812661
HUNT,38,0.021340881%,21.3408812661
KINNEAR,38,0.021340881%,21.3408812661
LOGUE,38,0.021340881%,21.3408812661
MCANDREW,38,0.021340881%,21.3408812661
MCWHINNIE,38,0.021340881%,21.3408812661
RANKINE,38,0.021340881%,21.3408812661
ROGERSON,38,0.021340881%,21.3408812661
STURROCK,38,0.021340881%,21.3408812661
WEBB,38,0.021340881%,21.3408812661
WIGHT,38,0.021340881%,21.3408812661
BONE,37,0.020779279%,20.7792791275
CONROY,37,0.020779279%,20.7792791275
DALRYMPLE,37,0.020779279%,20.7792791275
DENHOLM,37,0.020779279%,20.7792791275
DOUGALL,37,0.020779279%,20.7792791275
GOWANS,37,0.020779279%,20.7792791275
HAYES,37,0.020779279%,20.7792791275
LIDDLE,37,0.020779279%,20.7792791275
MACINTOSH,37,0.020779279%,20.7792791275
MACNEIL,37,0.020779279%,20.7792791275
MAGEE,37,0.020779279%,20.7792791275
MCARDLE,37,0.020779279%,20.7792791275
MCGINLAY,37,0.020779279%,20.7792791275
MCGINN,37,0.020779279%,20.7792791275
MCKELVIE,37,0.020779279%,20.7792791275
MONTEITH,37,0.020779279%,20.7792791275
SHIELS,37,0.020779279%,20.7792791275
SPALDING,37,0.020779279%,20.7792791275
WINTON,37,0.020779279%,20.7792791275
BURNSIDE,36,0.020217677%,20.2176769889
FOLEY,36,0.020217677%,20.2176769889
JOLLY,36,0.020217677%,20.2176769889
JOYCE,36,0.020217677%,20.2176769889
KILGOUR,36,0.020217677%,20.2176769889
MACPHAIL,36,0.020217677%,20.2176769889
MCCONVILLE,36,0.020217677%,20.2176769889
MCGILLIVRAY,36,0.020217677%,20.2176769889
MCMENEMY,36,0.020217677%,20.2176769889
POWELL,36,0.020217677%,20.2176769889
SPENCER,36,0.020217677%,20.2176769889
WILLOX,36,0.020217677%,20.2176769889
BYERS,35,0.019656075%,19.6560748503
CARSWELL,35,0.019656075%,19.6560748503
COLE,35,0.019656075%,19.6560748503
COLL,35,0.019656075%,19.6560748503
COMBE,35,0.019656075%,19.6560748503
CROWE,35,0.019656075%,19.6560748503
DUNSMUIR,35,0.019656075%,19.6560748503
HARVIE,35,0.019656075%,19.6560748503
JARVIS,35,0.019656075%,19.6560748503
KELMAN,35,0.019656075%,19.6560748503
LAUDER,35,0.019656075%,19.6560748503
LITTLEJOHN,35,0.019656075%,19.6560748503
MCNEE,35,0.019656075%,19.6560748503
ROXBURGH,35,0.019656075%,19.6560748503
TRACEY,35,0.019656075%,19.6560748503
TWEEDIE,35,0.019656075%,19.6560748503
BATHGATE,34,0.019094473%,19.0944727118
BISSETT,34,0.019094473%,19.0944727118
BRADFORD,34,0.019094473%,19.0944727118
CALLANDER,34,0.019094473%,19.0944727118
DRYBURGH,34,0.019094473%,19.0944727118
ELRICK,34,0.019094473%,19.0944727118
HUDSON,34,0.019094473%,19.0944727118
KEAN,34,0.019094473%,19.0944727118
MCMULLAN,34,0.019094473%,19.0944727118
MCMURDO,34,0.019094473%,19.0944727118
MCMURRAY,34,0.019094473%,19.0944727118
OWEN,34,0.019094473%,19.0944727118
PROUDFOOT,34,0.019094473%,19.0944727118
RENTON,34,0.019094473%,19.0944727118
SUTTIE,34,0.019094473%,19.0944727118
TROTTER,34,0.019094473%,19.0944727118
BARTON,33,0.018532871%,18.5328705732
BECK,33,0.018532871%,18.5328705732
BOLTON,33,0.018532871%,18.5328705732
BULLOCH,33,0.018532871%,18.5328705732
COOKE,33,0.018532871%,18.5328705732
CRUICKSHANKS,33,0.018532871%,18.5328705732
FAGAN,33,0.018532871%,18.5328705732
FERNIE,33,0.018532871%,18.5328705732
FLOCKHART,33,0.018532871%,18.5328705732
HODGSON,33,0.018532871%,18.5328705732
KINNAIRD,33,0.018532871%,18.5328705732
MACLELLAN,33,0.018532871%,18.5328705732
MALLON,33,0.018532871%,18.5328705732
MCCARRON,33,0.018532871%,18.5328705732
MCCRAE,33,0.018532871%,18.5328705732
MCVICAR,33,0.018532871%,18.5328705732
MUNN,33,0.018532871%,18.5328705732
PAYNE,33,0.018532871%,18.5328705732
PEDEN,33,0.018532871%,18.5328705732
PRITCHARD,33,0.018532871%,18.5328705732
RENWICK,33,0.018532871%,18.5328705732
SLAVEN,33,0.018532871%,18.5328705732
STRAIN,33,0.018532871%,18.5328705732
BAILEY,32,0.017971268%,17.9712684346
CALLAN,32,0.017971268%,17.9712684346
CRAIGIE,32,0.017971268%,17.9712684346
DALE,32,0.017971268%,17.9712684346
DUNDAS,32,0.017971268%,17.9712684346
FINNIGAN,32,0.017971268%,17.9712684346
GERRARD,32,0.017971268%,17.9712684346
GIBBONS,32,0.017971268%,17.9712684346
GLENNIE,32,0.017971268%,17.9712684346
GOODFELLOW,32,0.017971268%,17.9712684346
HADDEN,32,0.017971268%,17.9712684346
HORSBURGH,32,0.017971268%,17.9712684346
HUTCHINSON,32,0.017971268%,17.9712684346
MACASKILL,32,0.017971268%,17.9712684346
MASTERTON,32,0.017971268%,17.9712684346
MCDAID,32,0.017971268%,17.9712684346
MCROBBIE,32,0.017971268%,17.9712684346
MERCER,32,0.017971268%,17.9712684346
NORRIS,32,0.017971268%,17.9712684346
NUGENT,32,0.017971268%,17.9712684346
PEAT,32,0.017971268%,17.9712684346
STEEDMAN,32,0.017971268%,17.9712684346
TRAVERS,32,0.017971268%,17.9712684346
WYPER,32,0.017971268%,17.9712684346
BALL,31,0.017409666%,17.409666296
BRYAN,31,0.017409666%,17.409666296
CHERRY,31,0.017409666%,17.409666296
CLEMENTS,31,0.017409666%,17.409666296
DALLAS,31,0.017409666%,17.409666296
FAIRGRIEVE,31,0.017409666%,17.409666296
GLENDINNING,31,0.017409666%,17.409666296
GOVAN,31,0.017409666%,17.409666296
HAINING,31,0.017409666%,17.409666296
LLOYD,31,0.017409666%,17.409666296
LOWRIE,31,0.017409666%,17.409666296
MCGIBBON,31,0.017409666%,17.409666296
MCHARDY,31,0.017409666%,17.409666296
MCNIVEN,31,0.017409666%,17.409666296
MILROY,31,0.017409666%,17.409666296
NEWMAN,31,0.017409666%,17.409666296
REEKIE,31,0.017409666%,17.409666296
SKENE,31,0.017409666%,17.409666296
STONE,31,0.017409666%,17.409666296
TONER,31,0.017409666%,17.409666296
TROUP,31,0.017409666%,17.409666296
WALES,31,0.017409666%,17.409666296
WARDROP,31,0.017409666%,17.409666296
ARCHER,30,0.016848064%,16.8480641574
BARKER,30,0.016848064%,16.8480641574
BATCHELOR,30,0.016848064%,16.8480641574
BATES,30,0.016848064%,16.8480641574
BUIST,30,0.016848064%,16.8480641574
CRIGHTON,30,0.016848064%,16.8480641574
DELANEY,30,0.016848064%,16.8480641574
DRENNAN,30,0.016848064%,16.8480641574
ENGLISH,30,0.016848064%,16.8480641574
GILLON,30,0.016848064%,16.8480641574
HARROWER,30,0.016848064%,16.8480641574
HONEYMAN,30,0.016848064%,16.8480641574
HORN,30,0.016848064%,16.8480641574
HOWARD,30,0.016848064%,16.8480641574
IRWIN,30,0.016848064%,16.8480641574
LISTER,30,0.016848064%,16.8480641574
MATHER,30,0.016848064%,16.8480641574
MCCLELLAND,30,0.016848064%,16.8480641574
MCCOLM,30,0.016848064%,16.8480641574
MCFADZEAN,30,0.016848064%,16.8480641574
MCNAMEE,30,0.016848064%,16.8480641574
MCSHERRY,30,0.016848064%,16.8480641574
MOLLOY,30,0.016848064%,16.8480641574
MULLAN,30,0.016848064%,16.8480641574
SANDS,30,0.016848064%,16.8480641574
SPIERS,30,0.016848064%,16.8480641574
STANLEY,30,0.016848064%,16.8480641574
STEIN,30,0.016848064%,16.8480641574
WATERS,30,0.016848064%,16.8480641574
BANNERMAN,29,0.016286462%,16.2864620188
BROADLEY,29,0.016286462%,16.2864620188
CANT,29,0.016286462%,16.2864620188
CARNEGIE,29,0.016286462%,16.2864620188
COLVIN,29,0.016286462%,16.2864620188
CUTHILL,29,0.016286462%,16.2864620188
DONACHIE,29,0.016286462%,16.2864620188
FORDYCE,29,0.016286462%,16.2864620188
GLANCY,29,0.016286462%,16.2864620188
GOUDIE,29,0.016286462%,16.2864620188
HAIG,29,0.016286462%,16.2864620188
HALDANE,29,0.016286462%,16.2864620188
HEANEY,29,0.016286462%,16.2864620188
HUSSAIN,29,0.016286462%,16.2864620188
JENNINGS,29,0.016286462%,16.2864620188
LEIPER,29,0.016286462%,16.2864620188
LOCHRIE,29,0.016286462%,16.2864620188
LOGIE,29,0.016286462%,16.2864620188
MACLAREN,29,0.016286462%,16.2864620188
MCAVOY,29,0.016286462%,16.2864620188
MCDONAGH,29,0.016286462%,16.2864620188
REDMOND,29,0.016286462%,16.2864620188
RIACH,29,0.016286462%,16.2864620188
SMELLIE,29,0.016286462%,16.2864620188
TOSH,29,0.016286462%,16.2864620188
URE,29,0.016286462%,16.2864620188
WALTON,29,0.016286462%,16.2864620188
WHITEFORD,29,0.016286462%,16.2864620188
BONNER,28,0.015724860%,15.7248598803
BRIGGS,28,0.015724860%,15.7248598803
CARRICK,28,0.015724860%,15.7248598803
CLUBB,28,0.015724860%,15.7248598803
COLLIE,28,0.015724860%,15.7248598803
CONNER,28,0.015724860%,15.7248598803
COONEY,28,0.015724860%,15.7248598803
DEY,28,0.015724860%,15.7248598803
DOBIE,28,0.015724860%,15.7248598803
DONAGHY,28,0.015724860%,15.7248598803
DREVER,28,0.015724860%,15.7248598803
DUFFIN,28,0.015724860%,15.7248598803
DYKES,28,0.015724860%,15.7248598803
EMSLIE,28,0.015724860%,15.7248598803
EWART,28,0.015724860%,15.7248598803
FREEMAN,28,0.015724860%,15.7248598803
GRUBB,28,0.015724860%,15.7248598803
LOTHIAN,28,0.015724860%,15.7248598803
MACNAB,28,0.015724860%,15.7248598803
MCCRORIE,28,0.015724860%,15.7248598803
MCILWRAITH,28,0.015724860%,15.7248598803
MOSS,28,0.015724860%,15.7248598803
MULDOON,28,0.015724860%,15.7248598803
NAISMITH,28,0.015724860%,15.7248598803
RICHARDS,28,0.015724860%,15.7248598803
SCRIMGEOUR,28,0.015724860%,15.7248598803
STAFFORD,28,0.015724860%,15.7248598803
TOMLINSON,28,0.015724860%,15.7248598803
TRAINER,28,0.015724860%,15.7248598803
WARDLAW,28,0.015724860%,15.7248598803
WESTON,28,0.015724860%,15.7248598803
ALLARDYCE,27,0.015163258%,15.1632577417
BAYNE,27,0.015163258%,15.1632577417
BLACKLEY,27,0.015163258%,15.1632577417
BRAID,27,0.015163258%,15.1632577417
BREEN,27,0.015163258%,15.1632577417
BRESLIN,27,0.015163258%,15.1632577417
CONN,27,0.015163258%,15.1632577417
EDMOND,27,0.015163258%,15.1632577417
FIRTH,27,0.015163258%,15.1632577417
GOLD,27,0.015163258%,15.1632577417
GOULD,27,0.015163258%,15.1632577417
GREGORY,27,0.015163258%,15.1632577417
GUILD,27,0.015163258%,15.1632577417
HAGGART,27,0.015163258%,15.1632577417
HAGGERTY,27,0.015163258%,15.1632577417
HETHERINGTON,27,0.015163258%,15.1632577417
HOWAT,27,0.015163258%,15.1632577417
HUTCHEON,27,0.015163258%,15.1632577417
LEARMONTH,27,0.015163258%,15.1632577417
LENNIE,27,0.015163258%,15.1632577417
LONIE,27,0.015163258%,15.1632577417
MARSH,27,0.015163258%,15.1632577417
MATHERS,27,0.015163258%,15.1632577417
MCIVER,27,0.015163258%,15.1632577417
MCLINTOCK,27,0.015163258%,15.1632577417
MCMINN,27,0.015163258%,15.1632577417
PEEBLES,27,0.015163258%,15.1632577417
STOKES,27,0.015163258%,15.1632577417
WIGHTMAN,27,0.015163258%,15.1632577417
YEATS,27,0.015163258%,15.1632577417
YUILL,27,0.015163258%,15.1632577417
BLACKBURN,26,0.014601656%,14.6016556031
BONAR,26,0.014601656%,14.6016556031
BROUGH,26,0.014601656%,14.6016556031
COLVILLE,26,0.014601656%,14.6016556031
CRAIK,26,0.014601656%,14.6016556031
CRANSTON,26,0.014601656%,14.6016556031
DRYDEN,26,0.014601656%,14.6016556031
FAIRWEATHER,26,0.014601656%,14.6016556031
FERGUSSON,26,0.014601656%,14.6016556031
FERNS,26,0.014601656%,14.6016556031
HERBERT,26,0.014601656%,14.6016556031
KELSO,26,0.014601656%,14.6016556031
LETHAM,26,0.014601656%,14.6016556031
MCATEER,26,0.014601656%,14.6016556031
MCNAMARA,26,0.014601656%,14.6016556031
MCQUILLAN,26,0.014601656%,14.6016556031
MCWHIRTER,26,0.014601656%,14.6016556031
MELLON,26,0.014601656%,14.6016556031
METHVEN,26,0.014601656%,14.6016556031
NICHOLLS,26,0.014601656%,14.6016556031
O'REILLY,26,0.014601656%,14.6016556031
OLIPHANT,26,0.014601656%,14.6016556031
PENDER,26,0.014601656%,14.6016556031
POWER,26,0.014601656%,14.6016556031
RONALD,26,0.014601656%,14.6016556031
SHARPE,26,0.014601656%,14.6016556031
SIBBALD,26,0.014601656%,14.6016556031
SYKES,26,0.014601656%,14.6016556031
TRAILL,26,0.014601656%,14.6016556031
WARNOCK,26,0.014601656%,14.6016556031
WILLIS,26,0.014601656%,14.6016556031
ARBUCKLE,25,0.014040053%,14.0400534645
BARRY,25,0.014040053%,14.0400534645
BLACKIE,25,0.014040053%,14.0400534645
BUCKLEY,25,0.014040053%,14.0400534645
BUTCHART,25,0.014040053%,14.0400534645
CARNIE,25,0.014040053%,14.0400534645
CARTY,25,0.014040053%,14.0400534645
CAVANAGH,25,0.014040053%,14.0400534645
CHAN,25,0.014040053%,14.0400534645
COMRIE,25,0.014040053%,14.0400534645
CREE,25,0.014040053%,14.0400534645
DEAS,25,0.014040053%,14.0400534645
DIVERS,25,0.014040053%,14.0400534645
DONOGHUE,25,0.014040053%,14.0400534645
DOWNS,25,0.014040053%,14.0400534645
FALLON,25,0.014040053%,14.0400534645
FERRIS,25,0.014040053%,14.0400534645
FOY,25,0.014040053%,14.0400534645
FRANCIS,25,0.014040053%,14.0400534645
GREENAN,25,0.014040053%,14.0400534645
GRIBBEN,25,0.014040053%,14.0400534645
HAIR,25,0.014040053%,14.0400534645
HOSIE,25,0.014040053%,14.0400534645
KAUR,25,0.014040053%,14.0400534645
LANGLANDS,25,0.014040053%,14.0400534645
LIGHTBODY,25,0.014040053%,14.0400534645
MCDIARMID,25,0.014040053%,14.0400534645
PARRY,25,0.014040053%,14.0400534645
PATTISON,25,0.014040053%,14.0400534645
PENNY,25,0.014040053%,14.0400534645
SANDISON,25,0.014040053%,14.0400534645
SIME,25,0.014040053%,14.0400534645
STEPHENSON,25,0.014040053%,14.0400534645
TOAL,25,0.014040053%,14.0400534645
WATKINS,25,0.014040053%,14.0400534645
WELCH,25,0.014040053%,14.0400534645
WHEELER,25,0.014040053%,14.0400534645
WHITEHEAD,25,0.014040053%,14.0400534645
WHITTON,25,0.014040053%,14.0400534645
AHMED,24,0.013478451%,13.4784513259
BERTRAM,24,0.013478451%,13.4784513259
BEST,24,0.013478451%,13.4784513259
BOWES,24,0.013478451%,13.4784513259
BROADFOOT,24,0.013478451%,13.4784513259
BROCK,24,0.013478451%,13.4784513259
CATTO,24,0.013478451%,13.4784513259
COLLIER,24,0.013478451%,13.4784513259
CROZIER,24,0.013478451%,13.4784513259
DANIEL,24,0.013478451%,13.4784513259
DODD,24,0.013478451%,13.4784513259
EWAN,24,0.013478451%,13.4784513259
FERRY,24,0.013478451%,13.4784513259
GARRETT,24,0.013478451%,13.4784513259
GREENWOOD,24,0.013478451%,13.4784513259
HOEY,24,0.013478451%,13.4784513259
HOGGAN,24,0.013478451%,13.4784513259
KENT,24,0.013478451%,13.4784513259
KERRIGAN,24,0.013478451%,13.4784513259
LAVERTY,24,0.013478451%,13.4784513259
LEIGHTON,24,0.013478451%,13.4784513259
LOCHHEAD,24,0.013478451%,13.4784513259
LOUDEN,24,0.013478451%,13.4784513259
LUKE,24,0.013478451%,13.4784513259
MCCREADY,24,0.013478451%,13.4784513259
MCDERMID,24,0.013478451%,13.4784513259
MCGARRIGLE,24,0.013478451%,13.4784513259
MCGEACHY,24,0.013478451%,13.4784513259
MCHALE,24,0.013478451%,13.4784513259
MCMULLEN,24,0.013478451%,13.4784513259
MOAR,24,0.013478451%,13.4784513259
MULGREW,24,0.013478451%,13.4784513259
NOTMAN,24,0.013478451%,13.4784513259
PARSONS,24,0.013478451%,13.4784513259
PENNYCOOK,24,0.013478451%,13.4784513259
PERT,24,0.013478451%,13.4784513259
POLSON,24,0.013478451%,13.4784513259
ROSIE,24,0.013478451%,13.4784513259
SANDILANDS,24,0.013478451%,13.4784513259
SEATON,24,0.013478451%,13.4784513259
SNEDDEN,24,0.013478451%,13.4784513259
TOD,24,0.013478451%,13.4784513259
TOLMIE,24,0.013478451%,13.4784513259
VAUGHAN,24,0.013478451%,13.4784513259
WADE,24,0.013478451%,13.4784513259
WARK,24,0.013478451%,13.4784513259
WARRENDER,24,0.013478451%,13.4784513259
WESTWOOD,24,0.013478451%,13.4784513259
WINTER,24,0.013478451%,13.4784513259
WONG,24,0.013478451%,13.4784513259
AKHTAR,23,0.012916849%,12.9168491874
BARTLETT,23,0.012916849%,12.9168491874
BLUE,23,0.012916849%,12.9168491874
BRIDGES,23,0.012916849%,12.9168491874
BROWNLEE,23,0.012916849%,12.9168491874
BURROWS,23,0.012916849%,12.9168491874
CASSELLS,23,0.012916849%,12.9168491874
COYNE,23,0.012916849%,12.9168491874
DALGARNO,23,0.012916849%,12.9168491874
ESSLEMONT,23,0.012916849%,12.9168491874
GARRITY,23,0.012916849%,12.9168491874
GODFREY,23,0.012916849%,12.9168491874
HAINEY,23,0.012916849%,12.9168491874
HAUGHEY,23,0.012916849%,12.9168491874
HOLT,23,0.012916849%,12.9168491874
MCCOMBIE,23,0.012916849%,12.9168491874
MCDOWELL,23,0.012916849%,12.9168491874
MCTAVISH,23,0.012916849%,12.9168491874
MCVEIGH,23,0.012916849%,12.9168491874
NEISH,23,0.012916849%,12.9168491874
O'KANE,23,0.012916849%,12.9168491874
OSWALD,23,0.012916849%,12.9168491874
PEARCE,23,0.012916849%,12.9168491874
POOLE,23,0.012916849%,12.9168491874
POTTS,23,0.012916849%,12.9168491874
RODDEN,23,0.012916849%,12.9168491874
SCOBBIE,23,0.012916849%,12.9168491874
SHERRY,23,0.012916849%,12.9168491874
STIRTON,23,0.012916849%,12.9168491874
TWADDLE,23,0.012916849%,12.9168491874
WINNING,23,0.012916849%,12.9168491874
WINTERS,23,0.012916849%,12.9168491874
YOUNGSON,23,0.012916849%,12.9168491874
ARNOLD,22,0.012355247%,12.3552470488
BATEMAN,22,0.012355247%,12.3552470488
BENZIE,22,0.012355247%,12.3552470488
BLAIN,22,0.012355247%,12.3552470488
BRADSHAW,22,0.012355247%,12.3552470488
BRYDON,22,0.012355247%,12.3552470488
BUDGE,22,0.012355247%,12.3552470488
CAIN,22,0.012355247%,12.3552470488
CARBERRY,22,0.012355247%,12.3552470488
CARLYLE,22,0.012355247%,12.3552470488
CARTWRIGHT,22,0.012355247%,12.3552470488
CLAYTON,22,0.012355247%,12.3552470488
COSTELLO,22,0.012355247%,12.3552470488
COURTNEY,22,0.012355247%,12.3552470488
CREIGHTON,22,0.012355247%,12.3552470488
DUFFUS,22,0.012355247%,12.3552470488
DUNNE,22,0.012355247%,12.3552470488
ECCLES,22,0.012355247%,12.3552470488
FITZGERALD,22,0.012355247%,12.3552470488
FROST,22,0.012355247%,12.3552470488
GREENE,22,0.012355247%,12.3552470488
GUY,22,0.012355247%,12.3552470488
HANCOCK,22,0.012355247%,12.3552470488
HARE,22,0.012355247%,12.3552470488
HERRON,22,0.012355247%,12.3552470488
HILLHOUSE,22,0.012355247%,12.3552470488
HOGARTH,22,0.012355247%,12.3552470488
KINGHORN,22,0.012355247%,12.3552470488
LACEY,22,0.012355247%,12.3552470488
LUCAS,22,0.012355247%,12.3552470488
MALLOY,22,0.012355247%,12.3552470488
MCBETH,22,0.012355247%,12.3552470488
MCCAFFREY,22,0.012355247%,12.3552470488
MCCLUNG,22,0.012355247%,12.3552470488
MCCLUSKIE,22,0.012355247%,12.3552470488
MCCOLGAN,22,0.012355247%,12.3552470488
MCKINLEY,22,0.012355247%,12.3552470488
MCKIRDY,22,0.012355247%,12.3552470488
MCLATCHIE,22,0.012355247%,12.3552470488
MCMURTRIE,22,0.012355247%,12.3552470488
NASH,22,0.012355247%,12.3552470488
NORMAN,22,0.012355247%,12.3552470488
NORRIE,22,0.012355247%,12.3552470488
PATE,22,0.012355247%,12.3552470488
PATTON,22,0.012355247%,12.3552470488
PRIMROSE,22,0.012355247%,12.3552470488
REES,22,0.012355247%,12.3552470488
RONALDSON,22,0.012355247%,12.3552470488
SANDERS,22,0.012355247%,12.3552470488
SHEDDEN,22,0.012355247%,12.3552470488
STRONACH,22,0.012355247%,12.3552470488
STURGEON,22,0.012355247%,12.3552470488
SYMINGTON,22,0.012355247%,12.3552470488
VALLANCE,22,0.012355247%,12.3552470488
WEMYSS,22,0.012355247%,12.3552470488
ABBOTT,21,0.011793645%,11.7936449102
AIKMAN,21,0.011793645%,11.7936449102
AINSLIE,21,0.011793645%,11.7936449102
BERWICK,21,0.011793645%,11.7936449102
BINGHAM,21,0.011793645%,11.7936449102
BOND,21,0.011793645%,11.7936449102
BROCKIE,21,0.011793645%,11.7936449102
BURR,21,0.011793645%,11.7936449102
BURRELL,21,0.011793645%,11.7936449102
CAULFIELD,21,0.011793645%,11.7936449102
CHARLES,21,0.011793645%,11.7936449102
CLIFFORD,21,0.011793645%,11.7936449102
COVENTRY,21,0.011793645%,11.7936449102
CRAWLEY,21,0.011793645%,11.7936449102
CURTIS,21,0.011793645%,11.7936449102
DAILLY,21,0.011793645%,11.7936449102
DOOLAN,21,0.011793645%,11.7936449102
EDMISTON,21,0.011793645%,11.7936449102
EGAN,21,0.011793645%,11.7936449102
FLANNIGAN,21,0.011793645%,11.7936449102
FLOOD,21,0.011793645%,11.7936449102
FORMAN,21,0.011793645%,11.7936449102
FORTUNE,21,0.011793645%,11.7936449102
GREENSHIELDS,21,0.011793645%,11.7936449102
GRIER,21,0.011793645%,11.7936449102
HALLEY,21,0.011793645%,11.7936449102
HARDING,21,0.011793645%,11.7936449102
HARTLEY,21,0.011793645%,11.7936449102
HOWIESON,21,0.011793645%,11.7936449102
LAPSLEY,21,0.011793645%,11.7936449102
LARKIN,21,0.011793645%,11.7936449102
LONGMUIR,21,0.011793645%,11.7936449102
MACFADYEN,21,0.011793645%,11.7936449102
MACRITCHIE,21,0.011793645%,11.7936449102
MACVICAR,21,0.011793645%,11.7936449102
MCALEER,21,0.011793645%,11.7936449102
MCGAVIN,21,0.011793645%,11.7936449102
MCGLASHAN,21,0.011793645%,11.7936449102
MCGLONE,21,0.011793645%,11.7936449102
MCGONIGLE,21,0.011793645%,11.7936449102
MCMICHAEL,21,0.011793645%,11.7936449102
MCSORLEY,21,0.011793645%,11.7936449102
NEVILLE,21,0.011793645%,11.7936449102
O'MALLEY,21,0.011793645%,11.7936449102
PEDDIE,21,0.011793645%,11.7936449102
PICKEN,21,0.011793645%,11.7936449102
PICKERING,21,0.011793645%,11.7936449102
PURDON,21,0.011793645%,11.7936449102
RATCLIFFE,21,0.011793645%,11.7936449102
REED,21,0.011793645%,11.7936449102
SCALLY,21,0.011793645%,11.7936449102
SIMMONS,21,0.011793645%,11.7936449102
SKELTON,21,0.011793645%,11.7936449102
STALKER,21,0.011793645%,11.7936449102
SUTTON,21,0.011793645%,11.7936449102
TUCKER,21,0.011793645%,11.7936449102
WHELAN,21,0.011793645%,11.7936449102
AMOS,20,0.011232043%,11.2320427716
BALLANTINE,20,0.011232043%,11.2320427716
BARBER,20,0.011232043%,11.2320427716
BARROWMAN,20,0.011232043%,11.2320427716
BEEDIE,20,0.011232043%,11.2320427716
BERNARD,20,0.011232043%,11.2320427716
BIRSE,20,0.011232043%,11.2320427716
BOLAND,20,0.011232043%,11.2320427716
BRYCELAND,20,0.011232043%,11.2320427716
BUNYAN,20,0.011232043%,11.2320427716
CARRIE,20,0.011232043%,11.2320427716
CARRIGAN,20,0.011232043%,11.2320427716
COGHILL,20,0.011232043%,11.2320427716
CORDINER,20,0.011232043%,11.2320427716
DUDGEON,20,0.011232043%,11.2320427716
DUNNETT,20,0.011232043%,11.2320427716
EASSON,20,0.011232043%,11.2320427716
EDWARD,20,0.011232043%,11.2320427716
FENWICK,20,0.011232043%,11.2320427716
GAY,20,0.011232043%,11.2320427716
GILMARTIN,20,0.011232043%,11.2320427716
GORRIE,20,0.011232043%,11.2320427716
GOUGH,20,0.011232043%,11.2320427716
HAMMOND,20,0.011232043%,11.2320427716
HOWDEN,20,0.011232043%,11.2320427716
HOWE,20,0.011232043%,11.2320427716
IRONSIDE,20,0.011232043%,11.2320427716
MACCOLL,20,0.011232043%,11.2320427716
MACNEILL,20,0.011232043%,11.2320427716
MASTERSON,20,0.011232043%,11.2320427716
MCCARROLL,20,0.011232043%,11.2320427716
MCCRONE,20,0.011232043%,11.2320427716
MCGRAW,20,0.011232043%,11.2320427716
MCNICOLL,20,0.011232043%,11.2320427716
MCROBERTS,20,0.011232043%,11.2320427716
MEIKLEJOHN,20,0.011232043%,11.2320427716
MONCUR,20,0.011232043%,11.2320427716
MOODY,20,0.011232043%,11.2320427716
MORTIMER,20,0.011232043%,11.2320427716
NEWALL,20,0.011232043%,11.2320427716
PATIENCE,20,0.011232043%,11.2320427716
PLENDERLEITH,20,0.011232043%,11.2320427716
POW,20,0.011232043%,11.2320427716
REGAN,20,0.011232043%,11.2320427716
ROWE,20,0.011232043%,11.2320427716
SAWERS,20,0.011232043%,11.2320427716
SCHOFIELD,20,0.011232043%,11.2320427716
SCOULAR,20,0.011232043%,11.2320427716
WYNNE,20,0.011232043%,11.2320427716
YOUNGER,20,0.011232043%,11.2320427716
ABERCROMBIE,19,0.010670441%,10.670440633
BLAIKIE,19,0.010670441%,10.670440633
BRITTON,19,0.010670441%,10.670440633
CHRYSTAL,19,0.010670441%,10.670440633
CLINTON,19,0.010670441%,10.670440633
COCHRAN,19,0.010670441%,10.670440633
CRAW,19,0.010670441%,10.670440633
CURLEY,19,0.010670441%,10.670440633
DOUGAL,19,0.010670441%,10.670440633
FIELD,19,0.010670441%,10.670440633
FLORENCE,19,0.010670441%,10.670440633
FYFFE,19,0.010670441%,10.670440633
GALT,19,0.010670441%,10.670440633
GAUGHAN,19,0.010670441%,10.670440633
GLASGOW,19,0.010670441%,10.670440633
GOOD,19,0.010670441%,10.670440633
GRADY,19,0.010670441%,10.670440633
GRAINGER,19,0.010670441%,10.670440633
HEEPS,19,0.010670441%,10.670440633
HOLDEN,19,0.010670441%,10.670440633
HUGHSON,19,0.010670441%,10.670440633
JESS,19,0.010670441%,10.670440633
KINLOCH,19,0.010670441%,10.670440633
MACQUEEN,19,0.010670441%,10.670440633
MACSWEEN,19,0.010670441%,10.670440633
MALEY,19,0.010670441%,10.670440633
MCCALLION,19,0.010670441%,10.670440633
MCCAULEY,19,0.010670441%,10.670440633
MCCLEARY,19,0.010670441%,10.670440633
MCCRORY,19,0.010670441%,10.670440633
MCELHINNEY,19,0.010670441%,10.670440633
MCGARVEY,19,0.010670441%,10.670440633
MCLARTY,19,0.010670441%,10.670440633
MCMENAMIN,19,0.010670441%,10.670440633
MCPAKE,19,0.010670441%,10.670440633
MCSKIMMING,19,0.010670441%,10.670440633
MILL,19,0.010670441%,10.670440633
MOHAMMED,19,0.010670441%,10.670440633
MULLIN,19,0.010670441%,10.670440633
MURISON,19,0.010670441%,10.670440633
PETERSON,19,0.010670441%,10.670440633
PURVIS,19,0.010670441%,10.670440633
RALPH,19,0.010670441%,10.670440633
SANDFORD,19,0.010670441%,10.670440633
SCOTLAND,19,0.010670441%,10.670440633
SELLAR,19,0.010670441%,10.670440633
SHANKLAND,19,0.010670441%,10.670440633
VANCE,19,0.010670441%,10.670440633
WARDROPE,19,0.010670441%,10.670440633
WILLS,19,0.010670441%,10.670440633
AIRLIE,18,0.010108838%,10.1088384945
BENNET,18,0.010108838%,10.1088384945
BOAG,18,0.010108838%,10.1088384945
BRAY,18,0.010108838%,10.1088384945
CAIRD,18,0.010108838%,10.1088384945
CANAVAN,18,0.010108838%,10.1088384945
CONVERY,18,0.010108838%,10.1088384945
CORR,18,0.010108838%,10.1088384945
CROLL,18,0.010108838%,10.1088384945
DALL,18,0.010108838%,10.1088384945
DON,18,0.010108838%,10.1088384945
DOWDS,18,0.010108838%,10.1088384945
FINDLATER,18,0.010108838%,10.1088384945
FORSTER,18,0.010108838%,10.1088384945
FULLARTON,18,0.010108838%,10.1088384945
GARVIE,18,0.010108838%,10.1088384945
GEBBIE,18,0.010108838%,10.1088384945
HEATH,18,0.010108838%,10.1088384945
HEGARTY,18,0.010108838%,10.1088384945
HUMPHREY,18,0.010108838%,10.1088384945
KEANE,18,0.010108838%,10.1088384945
KEAY,18,0.010108838%,10.1088384945
LAPPIN,18,0.010108838%,10.1088384945
LOVIE,18,0.010108838%,10.1088384945
MABON,18,0.010108838%,10.1088384945
MACKIN,18,0.010108838%,10.1088384945
MALONEY,18,0.010108838%,10.1088384945
MCALISTER,18,0.010108838%,10.1088384945
MCBURNIE,18,0.010108838%,10.1088384945
MCGARRITY,18,0.010108838%,10.1088384945
MCGARVA,18,0.010108838%,10.1088384945
MCGAW,18,0.010108838%,10.1088384945
MCKENDRY,18,0.010108838%,10.1088384945
MCLEMAN,18,0.010108838%,10.1088384945
MCROBERT,18,0.010108838%,10.1088384945
MCTURK,18,0.010108838%,10.1088384945
MIDDLEMASS,18,0.010108838%,10.1088384945
O'HAGAN,18,0.010108838%,10.1088384945
O'SULLIVAN,18,0.010108838%,10.1088384945
OGSTON,18,0.010108838%,10.1088384945
ORMISTON,18,0.010108838%,10.1088384945
PAGAN,18,0.010108838%,10.1088384945
PARIS,18,0.010108838%,10.1088384945
PLATT,18,0.010108838%,10.1088384945
PURCELL,18,0.010108838%,10.1088384945
QUIN,18,0.010108838%,10.1088384945
RENFREW,18,0.010108838%,10.1088384945
RHIND,18,0.010108838%,10.1088384945
RINTOUL,18,0.010108838%,10.1088384945
ROBBIE,18,0.010108838%,10.1088384945
ROWLEY,18,0.010108838%,10.1088384945
RUSH,18,0.010108838%,10.1088384945
SAMUEL,18,0.010108838%,10.1088384945
SMAIL,18,0.010108838%,10.1088384945
SMEATON,18,0.010108838%,10.1088384945
STABLES,18,0.010108838%,10.1088384945
SYMON,18,0.010108838%,10.1088384945
TOCHER,18,0.010108838%,10.1088384945
TRAIL,18,0.010108838%,10.1088384945
WATERSTON,18,0.010108838%,10.1088384945
WESTWATER,18,0.010108838%,10.1088384945
ALLARDICE,17,0.009547236%,9.5472363559
ANNAND,17,0.009547236%,9.5472363559
ANTHONY,17,0.009547236%,9.5472363559
BAULD,17,0.009547236%,9.5472363559
BREBNER,17,0.009547236%,9.5472363559
BROTHERSTON,17,0.009547236%,9.5472363559
BURGOYNE,17,0.009547236%,9.5472363559
CARLTON,17,0.009547236%,9.5472363559
CASSIE,17,0.009547236%,9.5472363559
CLAPPERTON,17,0.009547236%,9.5472363559
CLEARY,17,0.009547236%,9.5472363559
CLEMENT,17,0.009547236%,9.5472363559
CLUNIE,17,0.009547236%,9.5472363559
COATS,17,0.009547236%,9.5472363559
COIA,17,0.009547236%,9.5472363559
CUSICK,17,0.009547236%,9.5472363559
DALTON,17,0.009547236%,9.5472363559
DANIELS,17,0.009547236%,9.5472363559
DORNAN,17,0.009547236%,9.5472363559
DUGGAN,17,0.009547236%,9.5472363559
DUNCANSON,17,0.009547236%,9.5472363559
DURIE,17,0.009547236%,9.5472363559
EATON,17,0.009547236%,9.5472363559
EDDIE,17,0.009547236%,9.5472363559
FERGUS,17,0.009547236%,9.5472363559
GILROY,17,0.009547236%,9.5472363559
GIRDWOOD,17,0.009547236%,9.5472363559
GRIGOR,17,0.009547236%,9.5472363559
HALKETT,17,0.009547236%,9.5472363559
HAMPTON,17,0.009547236%,9.5472363559
HANLEY,17,0.009547236%,9.5472363559
HANNIGAN,17,0.009547236%,9.5472363559
HAWTHORN,17,0.009547236%,9.5472363559
HICKS,17,0.009547236%,9.5472363559
HOOPER,17,0.009547236%,9.5472363559
HUMPHREYS,17,0.009547236%,9.5472363559
HUSBAND,17,0.009547236%,9.5472363559
INKSTER,17,0.009547236%,9.5472363559
JAFFRAY,17,0.009547236%,9.5472363559
JOSS,17,0.009547236%,9.5472363559
KEEGAN,17,0.009547236%,9.5472363559
KEOGH,17,0.009547236%,9.5472363559
KHAN,17,0.009547236%,9.5472363559
KIERNAN,17,0.009547236%,9.5472363559
LATTO,17,0.009547236%,9.5472363559
LEGGATE,17,0.009547236%,9.5472363559
MACTAGGART,17,0.009547236%,9.5472363559
MCINDOE,17,0.009547236%,9.5472363559
MCLEARY,17,0.009547236%,9.5472363559
MCPHILLIPS,17,0.009547236%,9.5472363559
MONCRIEFF,17,0.009547236%,9.5472363559
PERKINS,17,0.009547236%,9.5472363559
POLLARD,17,0.009547236%,9.5472363559
REITH,17,0.009547236%,9.5472363559
RIGBY,17,0.009547236%,9.5472363559
ROGER,17,0.009547236%,9.5472363559
SALMOND,17,0.009547236%,9.5472363559
SERVICE,17,0.009547236%,9.5472363559
SKILLING,17,0.009547236%,9.5472363559
SLAVIN,17,0.009547236%,9.5472363559
SPOWART,17,0.009547236%,9.5472363559
STIRRAT,17,0.009547236%,9.5472363559
STORIE,17,0.009547236%,9.5472363559
TEMPLE,17,0.009547236%,9.5472363559
TULLY,17,0.009547236%,9.5472363559
WASON,17,0.009547236%,9.5472363559
ARNOT,16,0.008985634%,8.9856342173
ASHER,16,0.008985634%,8.9856342173
BARLOW,16,0.008985634%,8.9856342173
BLACKLOCK,16,0.008985634%,8.9856342173
BOYES,16,0.008985634%,8.9856342173
BRAIDWOOD,16,0.008985634%,8.9856342173
BRISBANE,16,0.008985634%,8.9856342173
BROWNE,16,0.008985634%,8.9856342173
BUICK,16,0.008985634%,8.9856342173
CATTANACH,16,0.008985634%,8.9856342173
CHARLTON,16,0.008985634%,8.9856342173
CLOSE,16,0.008985634%,8.9856342173
CORCORAN,16,0.008985634%,8.9856342173
CROOKS,16,0.008985634%,8.9856342173
DEVANEY,16,0.008985634%,8.9856342173
DRAIN,16,0.008985634%,8.9856342173
EARL,16,0.008985634%,8.9856342173
FAICHNEY,16,0.008985634%,8.9856342173
FIDDES,16,0.008985634%,8.9856342173
GELLATLY,16,0.008985634%,8.9856342173
GIFFORD,16,0.008985634%,8.9856342173
GILLEN,16,0.008985634%,8.9856342173
GREENHILL,16,0.008985634%,8.9856342173
HANRATTY,16,0.008985634%,8.9856342173
HAWKINS,16,0.008985634%,8.9856342173
HAXTON,16,0.008985634%,8.9856342173
HILLIS,16,0.008985634%,8.9856342173
HOSSACK,16,0.008985634%,8.9856342173
HOY,16,0.008985634%,8.9856342173
KAVANAGH,16,0.008985634%,8.9856342173
KEATING,16,0.008985634%,8.9856342173
KYDD,16,0.008985634%,8.9856342173
LAMMIE,16,0.008985634%,8.9856342173
LATIMER,16,0.008985634%,8.9856342173
LUNDIE,16,0.008985634%,8.9856342173
MACKELLAR,16,0.008985634%,8.9856342173
MATHEWSON,16,0.008985634%,8.9856342173
MCCREATH,16,0.008985634%,8.9856342173
MCFALL,16,0.008985634%,8.9856342173
MCGROARTY,16,0.008985634%,8.9856342173
MEEHAN,16,0.008985634%,8.9856342173
MOWATT,16,0.008985634%,8.9856342173
MOWBRAY,16,0.008985634%,8.9856342173
NEAVE,16,0.008985634%,8.9856342173
NEWBIGGING,16,0.008985634%,8.9856342173
NEWELL,16,0.008985634%,8.9856342173
O'HANLON,16,0.008985634%,8.9856342173
PARKINSON,16,0.008985634%,8.9856342173
PERRIE,16,0.008985634%,8.9856342173
PIRRIE,16,0.008985634%,8.9856342173
PLUNKETT,16,0.008985634%,8.9856342173
PRIOR,16,0.008985634%,8.9856342173
READ,16,0.008985634%,8.9856342173
RHODES,16,0.008985634%,8.9856342173
RIDDOCH,16,0.008985634%,8.9856342173
ROE,16,0.008985634%,8.9856342173
ROURKE,16,0.008985634%,8.9856342173
RUNCIMAN,16,0.008985634%,8.9856342173
SANDEMAN,16,0.008985634%,8.9856342173
STANTON,16,0.008985634%,8.9856342173
STEEN,16,0.008985634%,8.9856342173
STILL,16,0.008985634%,8.9856342173
STRATHEARN,16,0.008985634%,8.9856342173
SWORD,16,0.008985634%,8.9856342173
THORPE,16,0.008985634%,8.9856342173
VALLELY,16,0.008985634%,8.9856342173
VICKERS,16,0.008985634%,8.9856342173
WALTERS,16,0.008985634%,8.9856342173
WARWICK,16,0.008985634%,8.9856342173
WHITFIELD,16,0.008985634%,8.9856342173
WHITTAKER,16,0.008985634%,8.9856342173
WOODBURN,16,0.008985634%,8.9856342173
ADIE,15,0.008424032%,8.4240320787
AHMAD,15,0.008424032%,8.4240320787
ALSTON,15,0.008424032%,8.4240320787
ATKINS,15,0.008424032%,8.4240320787
BALLOCH,15,0.008424032%,8.4240320787
BECKETT,15,0.008424032%,8.4240320787
BOWDEN,15,0.008424032%,8.4240320787
BOWEN,15,0.008424032%,8.4240320787
BRANNIGAN,15,0.008424032%,8.4240320787
BRECKENRIDGE,15,0.008424032%,8.4240320787
BRETT,15,0.008424032%,8.4240320787
BREWSTER,15,0.008424032%,8.4240320787
BUTCHER,15,0.008424032%,8.4240320787
CADGER,15,0.008424032%,8.4240320787
CALVERT,15,0.008424032%,8.4240320787
CARDNO,15,0.008424032%,8.4240320787
CARLE,15,0.008424032%,8.4240320787
CARSE,15,0.008424032%,8.4240320787
CATHCART,15,0.008424032%,8.4240320787
CAVEN,15,0.008424032%,8.4240320787
CLEGG,15,0.008424032%,8.4240320787
CLEGHORN,15,0.008424032%,8.4240320787
CLYDE,15,0.008424032%,8.4240320787
COCKER,15,0.008424032%,8.4240320787
COLLIGAN,15,0.008424032%,8.4240320787
CONDIE,15,0.008424032%,8.4240320787
DEENEY,15,0.008424032%,8.4240320787
DENNISON,15,0.008424032%,8.4240320787
DONOHOE,15,0.008424032%,8.4240320787
DORRIAN,15,0.008424032%,8.4240320787
DOUGHERTY,15,0.008424032%,8.4240320787
DOWLING,15,0.008424032%,8.4240320787
DUKE,15,0.008424032%,8.4240320787
ESSON,15,0.008424032%,8.4240320787
ETHERSON,15,0.008424032%,8.4240320787
EVERETT,15,0.008424032%,8.4240320787
FAIR,15,0.008424032%,8.4240320787
FERRIES,15,0.008424032%,8.4240320787
FRANCE,15,0.008424032%,8.4240320787
FULLER,15,0.008424032%,8.4240320787
GILLILAND,15,0.008424032%,8.4240320787
GIVEN,15,0.008424032%,8.4240320787
GREENHORN,15,0.008424032%,8.4240320787
HARKIN,15,0.008424032%,8.4240320787
HYDE,15,0.008424032%,8.4240320787
KEEN,15,0.008424032%,8.4240320787
KENNEY,15,0.008424032%,8.4240320787
KETTLES,15,0.008424032%,8.4240320787
KIRKHAM,15,0.008424032%,8.4240320787
LANE,15,0.008424032%,8.4240320787
LAURENSON,15,0.008424032%,8.4240320787
LEADBETTER,15,0.008424032%,8.4240320787
LEGGAT,15,0.008424032%,8.4240320787
LINDEN,15,0.008424032%,8.4240320787
LITHGOW,15,0.008424032%,8.4240320787
MAHON,15,0.008424032%,8.4240320787
MAINS,15,0.008424032%,8.4240320787
MCAUSLAND,15,0.008424032%,8.4240320787
MCCLOY,15,0.008424032%,8.4240320787
MCDONNELL,15,0.008424032%,8.4240320787
MCEVOY,15,0.008424032%,8.4240320787
MCHARG,15,0.008424032%,8.4240320787
MCHATTIE,15,0.008424032%,8.4240320787
MCLOUGHLIN,15,0.008424032%,8.4240320787
MCNEILLY,15,0.008424032%,8.4240320787
MENNIE,15,0.008424032%,8.4240320787
MILLEN,15,0.008424032%,8.4240320787
MINTO,15,0.008424032%,8.4240320787
MORISON,15,0.008424032%,8.4240320787
MUSTARD,15,0.008424032%,8.4240320787
NORTON,15,0.008424032%,8.4240320787
POTTINGER,15,0.008424032%,8.4240320787
RAESIDE,15,0.008424032%,8.4240320787
REEVES,15,0.008424032%,8.4240320787
RIDLEY,15,0.008424032%,8.4240320787
ROSSI,15,0.008424032%,8.4240320787
RUDDY,15,0.008424032%,8.4240320787
SILLARS,15,0.008424032%,8.4240320787
SKEA,15,0.008424032%,8.4240320787
STOREY,15,0.008424032%,8.4240320787
STRICKLAND,15,0.008424032%,8.4240320787
TALBOT,15,0.008424032%,8.4240320787
THIRD,15,0.008424032%,8.4240320787
TOWNSEND,15,0.008424032%,8.4240320787
VASS,15,0.008424032%,8.4240320787
WARDEN,15,0.008424032%,8.4240320787
WEATHERSTON,15,0.008424032%,8.4240320787
WHALEN,15,0.008424032%,8.4240320787
WITHERS,15,0.008424032%,8.4240320787
WOODCOCK,15,0.008424032%,8.4240320787
ALCORN,14,0.007862430%,7.8624299401
ARMIT,14,0.007862430%,7.8624299401
BALD,14,0.007862430%,7.8624299401
BALMER,14,0.007862430%,7.8624299401
BEGLEY,14,0.007862430%,7.8624299401
BENTLEY,14,0.007862430%,7.8624299401
BOATH,14,0.007862430%,7.8624299401
BOSWELL,14,0.007862430%,7.8624299401
BOYLAN,14,0.007862430%,7.8624299401
BROWNING,14,0.007862430%,7.8624299401
BURDEN,14,0.007862430%,7.8624299401
BUSBY,14,0.007862430%,7.8624299401
CALDOW,14,0.007862430%,7.8624299401
CASSELS,14,0.007862430%,7.8624299401
CHUNG,14,0.007862430%,7.8624299401
COBB,14,0.007862430%,7.8624299401
COLGAN,14,0.007862430%,7.8624299401
CONAGHAN,14,0.007862430%,7.8624299401
CONLON,14,0.007862430%,7.8624299401
CONNON,14,0.007862430%,7.8624299401
CRAIB,14,0.007862430%,7.8624299401
CRUDEN,14,0.007862430%,7.8624299401
DEARIE,14,0.007862430%,7.8624299401
DEIGHAN,14,0.007862430%,7.8624299401
DERRICK,14,0.007862430%,7.8624299401
DICKINSON,14,0.007862430%,7.8624299401
DUNSIRE,14,0.007862430%,7.8624299401
DURKIN,14,0.007862430%,7.8624299401
DURNO,14,0.007862430%,7.8624299401
FEARON,14,0.007862430%,7.8624299401
FOOTE,14,0.007862430%,7.8624299401
FOUBISTER,14,0.007862430%,7.8624299401
FRATER,14,0.007862430%,7.8624299401
FRY,14,0.007862430%,7.8624299401
FYVIE,14,0.007862430%,7.8624299401
GAMBLE,14,0.007862430%,7.8624299401
GANNON,14,0.007862430%,7.8624299401
GARROW,14,0.007862430%,7.8624299401
GROGAN,14,0.007862430%,7.8624299401
HAND,14,0.007862430%,7.8624299401
HANNA,14,0.007862430%,7.8624299401
HARGREAVES,14,0.007862430%,7.8624299401
HARROLD,14,0.007862430%,7.8624299401
HASSAN,14,0.007862430%,7.8624299401
HIDDLESTON,14,0.007862430%,7.8624299401
HIRST,14,0.007862430%,7.8624299401
HOBSON,14,0.007862430%,7.8624299401
HOGAN,14,0.007862430%,7.8624299401
HOOK,14,0.007862430%,7.8624299401
HORTON,14,0.007862430%,7.8624299401
HOTCHKISS,14,0.007862430%,7.8624299401
INCH,14,0.007862430%,7.8624299401
KINCAID,14,0.007862430%,7.8624299401
KINNIBURGH,14,0.007862430%,7.8624299401
LILLEY,14,0.007862430%,7.8624299401
LISTON,14,0.007862430%,7.8624299401
LLEWELLYN,14,0.007862430%,7.8624299401
LOBBAN,14,0.007862430%,7.8624299401
LOCKIE,14,0.007862430%,7.8624299401
LYNAS,14,0.007862430%,7.8624299401
MACBETH,14,0.007862430%,7.8624299401
MACDIARMID,14,0.007862430%,7.8624299401
MAILER,14,0.007862430%,7.8624299401
MAULE,14,0.007862430%,7.8624299401
MCALEESE,14,0.007862430%,7.8624299401
MCALOON,14,0.007862430%,7.8624299401
MCBEATH,14,0.007862430%,7.8624299401
MCBLAIN,14,0.007862430%,7.8624299401
MCCARDLE,14,0.007862430%,7.8624299401
MCCLINTOCK,14,0.007862430%,7.8624299401
MCCORD,14,0.007862430%,7.8624299401
MCELROY,14,0.007862430%,7.8624299401
MCGARVIE,14,0.007862430%,7.8624299401
MCGEOCH,14,0.007862430%,7.8624299401
MCGEOUGH,14,0.007862430%,7.8624299401
MCGIVERN,14,0.007862430%,7.8624299401
MCKAIN,14,0.007862430%,7.8624299401
MCMONAGLE,14,0.007862430%,7.8624299401
MCNEISH,14,0.007862430%,7.8624299401
MCPHIE,14,0.007862430%,7.8624299401
MCRITCHIE,14,0.007862430%,7.8624299401
MCVIE,14,0.007862430%,7.8624299401
MEIGHAN,14,0.007862430%,7.8624299401
METCALFE,14,0.007862430%,7.8624299401
MICHAEL,14,0.007862430%,7.8624299401
MILES,14,0.007862430%,7.8624299401
MOLLISON,14,0.007862430%,7.8624299401
MORELAND,14,0.007862430%,7.8624299401
MULHERON,14,0.007862430%,7.8624299401
MURCHIE,14,0.007862430%,7.8624299401
NAYLOR,14,0.007862430%,7.8624299401
NORTH,14,0.007862430%,7.8624299401
PATTULLO,14,0.007862430%,7.8624299401
PYPER,14,0.007862430%,7.8624299401
SHEK,14,0.007862430%,7.8624299401
SHIRLEY,14,0.007862430%,7.8624299401
SINGER,14,0.007862430%,7.8624299401
SNADDON,14,0.007862430%,7.8624299401
SPEED,14,0.007862430%,7.8624299401
SPROUL,14,0.007862430%,7.8624299401
STRONG,14,0.007862430%,7.8624299401
SWINTON,14,0.007862430%,7.8624299401
TAINSH,14,0.007862430%,7.8624299401
TIMMONS,14,0.007862430%,7.8624299401
TOPPING,14,0.007862430%,7.8624299401
TSANG,14,0.007862430%,7.8624299401
UNDERWOOD,14,0.007862430%,7.8624299401
WALDRON,14,0.007862430%,7.8624299401
WARNER,14,0.007862430%,7.8624299401
WATTERSON,14,0.007862430%,7.8624299401
WHITSON,14,0.007862430%,7.8624299401
WIGGINS,14,0.007862430%,7.8624299401
WILKINS,14,0.007862430%,7.8624299401
ABERNETHY,13,0.007300828%,7.3008278016
AFFLECK,13,0.007300828%,7.3008278016
AITKENHEAD,13,0.007300828%,7.3008278016
AITON,13,0.007300828%,7.3008278016
ASHTON,13,0.007300828%,7.3008278016
AUCHTERLONIE,13,0.007300828%,7.3008278016
BETHUNE,13,0.007300828%,7.3008278016
BETT,13,0.007300828%,7.3008278016
BIBI,13,0.007300828%,7.3008278016
BILSLAND,13,0.007300828%,7.3008278016
BIRCH,13,0.007300828%,7.3008278016
BLACKHALL,13,0.007300828%,7.3008278016
BRASH,13,0.007300828%,7.3008278016
CAIRNIE,13,0.007300828%,7.3008278016
CARNEY,13,0.007300828%,7.3008278016
CARPENTER,13,0.007300828%,7.3008278016
CASTLE,13,0.007300828%,7.3008278016
COLSTON,13,0.007300828%,7.3008278016
CONLIN,13,0.007300828%,7.3008278016
COSSAR,13,0.007300828%,7.3008278016
CRERAR,13,0.007300828%,7.3008278016
CROOKSTON,13,0.007300828%,7.3008278016
CROSSLEY,13,0.007300828%,7.3008278016
DEACON,13,0.007300828%,7.3008278016
DOOGAN,13,0.007300828%,7.3008278016
DORWARD,13,0.007300828%,7.3008278016
DOULL,13,0.007300828%,7.3008278016
DYCE,13,0.007300828%,7.3008278016
EAGLESHAM,13,0.007300828%,7.3008278016
ESPIE,13,0.007300828%,7.3008278016
EUNSON,13,0.007300828%,7.3008278016
FETTES,13,0.007300828%,7.3008278016
FINN,13,0.007300828%,7.3008278016
GAIR,13,0.007300828%,7.3008278016
GENTLES,13,0.007300828%,7.3008278016
GERRIE,13,0.007300828%,7.3008278016
GIBBS,13,0.007300828%,7.3008278016
GRANGER,13,0.007300828%,7.3008278016
GREENLAW,13,0.007300828%,7.3008278016
GREENLEES,13,0.007300828%,7.3008278016
GROAT,13,0.007300828%,7.3008278016
GUYAN,13,0.007300828%,7.3008278016
HALE,13,0.007300828%,7.3008278016
HANNAN,13,0.007300828%,7.3008278016
HARCUS,13,0.007300828%,7.3008278016
HARTE,13,0.007300828%,7.3008278016
HOBBS,13,0.007300828%,7.3008278016
HOLLYWOOD,13,0.007300828%,7.3008278016
HOURSTON,13,0.007300828%,7.3008278016
HOWATSON,13,0.007300828%,7.3008278016
HUMPHRIES,13,0.007300828%,7.3008278016
HYLAND,13,0.007300828%,7.3008278016
JUDGE,13,0.007300828%,7.3008278016
KELLAS,13,0.007300828%,7.3008278016
KILDAY,13,0.007300828%,7.3008278016
LOCKE,13,0.007300828%,7.3008278016
LOWDEN,13,0.007300828%,7.3008278016
MACADAM,13,0.007300828%,7.3008278016
MACTAVISH,13,0.007300828%,7.3008278016
MALCOLMSON,13,0.007300828%,7.3008278016
MALLEY,13,0.007300828%,7.3008278016
MALLOCH,13,0.007300828%,7.3008278016
MCARA,13,0.007300828%,7.3008278016
MCBREARTY,13,0.007300828%,7.3008278016
MCCAFFERY,13,0.007300828%,7.3008278016
MCCLAFFERTY,13,0.007300828%,7.3008278016
MCCLURG,13,0.007300828%,7.3008278016
MCCOWAN,13,0.007300828%,7.3008278016
MCGEACHIE,13,0.007300828%,7.3008278016
MCGILVRAY,13,0.007300828%,7.3008278016
MCGINNESS,13,0.007300828%,7.3008278016
MCGLADE,13,0.007300828%,7.3008278016
MCGOUGAN,13,0.007300828%,7.3008278016
MCGREEVY,13,0.007300828%,7.3008278016
MCNAIRN,13,0.007300828%,7.3008278016
MCNEILLIE,13,0.007300828%,7.3008278016
MCQUARRIE,13,0.007300828%,7.3008278016
MCSPORRAN,13,0.007300828%,7.3008278016
MERRY,13,0.007300828%,7.3008278016
MUNGALL,13,0.007300828%,7.3008278016
NAUGHTON,13,0.007300828%,7.3008278016
NUTT,13,0.007300828%,7.3008278016
O'CONNELL,13,0.007300828%,7.3008278016
OAG,13,0.007300828%,7.3008278016
OAKES,13,0.007300828%,7.3008278016
PIKE,13,0.007300828%,7.3008278016
PRYCE,13,0.007300828%,7.3008278016
PULLAR,13,0.007300828%,7.3008278016
RAINEY,13,0.007300828%,7.3008278016
RAY,13,0.007300828%,7.3008278016
RETTIE,13,0.007300828%,7.3008278016
RODDIE,13,0.007300828%,7.3008278016
SEATH,13,0.007300828%,7.3008278016
SEIVWRIGHT,13,0.007300828%,7.3008278016
SEYMOUR,13,0.007300828%,7.3008278016
SHEPPARD,13,0.007300828%,7.3008278016
SPEEDIE,13,0.007300828%,7.3008278016
STEPHENS,13,0.007300828%,7.3008278016
STITT,13,0.007300828%,7.3008278016
STUBBS,13,0.007300828%,7.3008278016
TASKER,13,0.007300828%,7.3008278016
THOW,13,0.007300828%,7.3008278016
TOLAND,13,0.007300828%,7.3008278016
TUDHOPE,13,0.007300828%,7.3008278016
TURLEY,13,0.007300828%,7.3008278016
VENTERS,13,0.007300828%,7.3008278016
WANN,13,0.007300828%,7.3008278016
WATTS,13,0.007300828%,7.3008278016
WIGHTON,13,0.007300828%,7.3008278016
WINCHESTER,13,0.007300828%,7.3008278016
BALLINGALL,12,0.006739226%,6.739225663
BEECH,12,0.006739226%,6.739225663
BEGGS,12,0.006739226%,6.739225663
BERRIE,12,0.006739226%,6.739225663
BIGGAR,12,0.006739226%,6.739225663
BLACKSTOCK,12,0.006739226%,6.739225663
BLADES,12,0.006739226%,6.739225663
BLANEY,12,0.006739226%,6.739225663
BOGLE,12,0.006739226%,6.739225663
BOW,12,0.006739226%,6.739225663
BRACKENRIDGE,12,0.006739226%,6.739225663
BRECHIN,12,0.006739226%,6.739225663
BRIGHT,12,0.006739226%,6.739225663
BROLLY,12,0.006739226%,6.739225663
CADDEN,12,0.006739226%,6.739225663
CAHILL,12,0.006739226%,6.739225663
CARSTAIRS,12,0.006739226%,6.739225663
CATHRO,12,0.006739226%,6.739225663
CHAMBERLAIN,12,0.006739226%,6.739225663
CHURCH,12,0.006739226%,6.739225663
COBBAN,12,0.006739226%,6.739225663
COBURN,12,0.006739226%,6.739225663
CORSON,12,0.006739226%,6.739225663
COWPER,12,0.006739226%,6.739225663
CRANE,12,0.006739226%,6.739225663
CULL,12,0.006739226%,6.739225663
DALLING,12,0.006739226%,6.739225663
DAVEY,12,0.006739226%,6.739225663
DAVISON,12,0.006739226%,6.739225663
DEGNAN,12,0.006739226%,6.739225663
DENHAM,12,0.006739226%,6.739225663
DENNY,12,0.006739226%,6.739225663
DEUCHARS,12,0.006739226%,6.739225663
DOBBIN,12,0.006739226%,6.739225663
DONNAN,12,0.006739226%,6.739225663
DORANS,12,0.006739226%,6.739225663
DOWELL,12,0.006739226%,6.739225663
DURHAM,12,0.006739226%,6.739225663
FELL,12,0.006739226%,6.739225663
FOREMAN,12,0.006739226%,6.739225663
FORGIE,12,0.006739226%,6.739225663
FOWLIE,12,0.006739226%,6.739225663
GARRY,12,0.006739226%,6.739225663
GETTY,12,0.006739226%,6.739225663
GIBBON,12,0.006739226%,6.739225663
GILES,12,0.006739226%,6.739225663
GOODMAN,12,0.006739226%,6.739225663
GOVE,12,0.006739226%,6.739225663
GRACE,12,0.006739226%,6.739225663
GRIMES,12,0.006739226%,6.739225663
GRIMLEY,12,0.006739226%,6.739225663
GUNNING,12,0.006739226%,6.739225663
HAGAN,12,0.006739226%,6.739225663
HALCROW,12,0.006739226%,6.739225663
HALPIN,12,0.006739226%,6.739225663
HAYWARD,12,0.006739226%,6.739225663
HEMPHILL,12,0.006739226%,6.739225663
HERDMAN,12,0.006739226%,6.739225663
HERKES,12,0.006739226%,6.739225663
HINSHELWOOD,12,0.006739226%,6.739225663
HO,12,0.006739226%,6.739225663
HOLLIDAY,12,0.006739226%,6.739225663
HOPPER,12,0.006739226%,6.739225663
HOUGHTON,12,0.006739226%,6.739225663
HOWELL,12,0.006739226%,6.739225663
HURST,12,0.006739226%,6.739225663
HYNES,12,0.006739226%,6.739225663
KENYON,12,0.006739226%,6.739225663
KIRBY,12,0.006739226%,6.739225663
LAVELLE,12,0.006739226%,6.739225663
LESSELS,12,0.006739226%,6.739225663
LUNN,12,0.006739226%,6.739225663
MACBEATH,12,0.006739226%,6.739225663
MACCORMICK,12,0.006739226%,6.739225663
MACMASTER,12,0.006739226%,6.739225663
MACNAUGHTON,12,0.006739226%,6.739225663
MACQUARRIE,12,0.006739226%,6.739225663
MAHER,12,0.006739226%,6.739225663
MAVER,12,0.006739226%,6.739225663
MCALINDEN,12,0.006739226%,6.739225663
MCCAUGHEY,12,0.006739226%,6.739225663
MCCROSSAN,12,0.006739226%,6.739225663
MCELWEE,12,0.006739226%,6.739225663
MCGEOWN,12,0.006739226%,6.739225663
MCGONIGAL,12,0.006739226%,6.739225663
MCGUFFIE,12,0.006739226%,6.739225663
MCINULTY,12,0.006739226%,6.739225663
MCKERNAN,12,0.006739226%,6.739225663
MCROBB,12,0.006739226%,6.739225663
MCSEVENEY,12,0.006739226%,6.739225663
MERCHANT,12,0.006739226%,6.739225663
MOONIE,12,0.006739226%,6.739225663
MOUAT,12,0.006739226%,6.739225663
MUDIE,12,0.006739226%,6.739225663
MUNDELL,12,0.006739226%,6.739225663
NORWOOD,12,0.006739226%,6.739225663
PANTON,12,0.006739226%,6.739225663
PERCIVAL,12,0.006739226%,6.739225663
PETER,12,0.006739226%,6.739225663
PITT,12,0.006739226%,6.739225663
POPE,12,0.006739226%,6.739225663
PUGH,12,0.006739226%,6.739225663
RAFFAN,12,0.006739226%,6.739225663
ROCKS,12,0.006739226%,6.739225663
SCORGIE,12,0.006739226%,6.739225663
SERGEANT,12,0.006739226%,6.739225663
SHEWAN,12,0.006739226%,6.739225663
SNODGRASS,12,0.006739226%,6.739225663
STARRS,12,0.006739226%,6.739225663
STRATTON,12,0.006739226%,6.739225663
TATE,12,0.006739226%,6.739225663
TERVIT,12,0.006739226%,6.739225663
THOMS,12,0.006739226%,6.739225663
TINNEY,12,0.006739226%,6.739225663
TORBET,12,0.006739226%,6.739225663
TRAINOR,12,0.006739226%,6.739225663
TYSON,12,0.006739226%,6.739225663
WAITE,12,0.006739226%,6.739225663
WARDLE,12,0.006739226%,6.739225663
WEAVER,12,0.006739226%,6.739225663
WINGATE,12,0.006739226%,6.739225663
YEAMAN,12,0.006739226%,6.739225663
ARMITAGE,11,0.006177624%,6.1776235244
ASHCROFT,11,0.006177624%,6.1776235244
ATHERTON,11,0.006177624%,6.1776235244
BERESFORD,11,0.006177624%,6.1776235244
BIGGINS,11,0.006177624%,6.1776235244
BLACKLAW,11,0.006177624%,6.1776235244
BLUES,11,0.006177624%,6.1776235244
BRYANT,11,0.006177624%,6.1776235244
BURN,11,0.006177624%,6.1776235244
CARNOCHAN,11,0.006177624%,6.1776235244
CATTERSON,11,0.006177624%,6.1776235244
CHRISTISON,11,0.006177624%,6.1776235244
CLANCY,11,0.006177624%,6.1776235244
COATES,11,0.006177624%,6.1776235244
COFFEY,11,0.006177624%,6.1776235244
COWLEY,11,0.006177624%,6.1776235244
CRAMB,11,0.006177624%,6.1776235244
CRILLY,11,0.006177624%,6.1776235244
CROOK,11,0.006177624%,6.1776235244
CUSHNIE,11,0.006177624%,6.1776235244
DEARY,11,0.006177624%,6.1776235244
DORIS,11,0.006177624%,6.1776235244
DREW,11,0.006177624%,6.1776235244
DUNNACHIE,11,0.006177624%,6.1776235244
DYET,11,0.006177624%,6.1776235244
EASDALE,11,0.006177624%,6.1776235244
EDMONDS,11,0.006177624%,6.1776235244
FAWCETT,11,0.006177624%,6.1776235244
FLAHERTY,11,0.006177624%,6.1776235244
FREELAND,11,0.006177624%,6.1776235244
GARLAND,11,0.006177624%,6.1776235244
GARTLAND,11,0.006177624%,6.1776235244
GLADSTONE,11,0.006177624%,6.1776235244
GOODWILLIE,11,0.006177624%,6.1776235244
GRANDISON,11,0.006177624%,6.1776235244
GRIBBIN,11,0.006177624%,6.1776235244
GROVES,11,0.006177624%,6.1776235244
HALEY,11,0.006177624%,6.1776235244
HANNAY,11,0.006177624%,6.1776235244
HAWTHORNE,11,0.006177624%,6.1776235244
HEENAN,11,0.006177624%,6.1776235244
HERRIOT,11,0.006177624%,6.1776235244
HIND,11,0.006177624%,6.1776235244
HOWITT,11,0.006177624%,6.1776235244
JAFFREY,11,0.006177624%,6.1776235244
JESSIMAN,11,0.006177624%,6.1776235244
JUNOR,11,0.006177624%,6.1776235244
KAYE,11,0.006177624%,6.1776235244
KEATINGS,11,0.006177624%,6.1776235244
KEENEY,11,0.006177624%,6.1776235244
KEILLER,11,0.006177624%,6.1776235244
KILLIN,11,0.006177624%,6.1776235244
KILLOH,11,0.006177624%,6.1776235244
KIRKALDY,11,0.006177624%,6.1776235244
LANGAN,11,0.006177624%,6.1776235244
LANGFORD,11,0.006177624%,6.1776235244
LANNIGAN,11,0.006177624%,6.1776235244
LATTA,11,0.006177624%,6.1776235244
LAUCHLAN,11,0.006177624%,6.1776235244
LAWLESS,11,0.006177624%,6.1776235244
LEACH,11,0.006177624%,6.1776235244
LEARY,11,0.006177624%,6.1776235244
LEDINGHAM,11,0.006177624%,6.1776235244
LEMON,11,0.006177624%,6.1776235244
LINN,11,0.006177624%,6.1776235244
MACALLISTER,11,0.006177624%,6.1776235244
MACEACHEN,11,0.006177624%,6.1776235244
MACISAAC,11,0.006177624%,6.1776235244
MACNAIR,11,0.006177624%,6.1776235244
MASSEY,11,0.006177624%,6.1776235244
MATCHETT,11,0.006177624%,6.1776235244
MATHIE,11,0.006177624%,6.1776235244
MCCONACHIE,11,0.006177624%,6.1776235244
MCCOOL,11,0.006177624%,6.1776235244
MCCRAW,11,0.006177624%,6.1776235244
MCGILP,11,0.006177624%,6.1776235244
MCGINNIS,11,0.006177624%,6.1776235244
MCGOWN,11,0.006177624%,6.1776235244
MCGRATTAN,11,0.006177624%,6.1776235244
MCISAAC,11,0.006177624%,6.1776235244
MCKEEVER,11,0.006177624%,6.1776235244
MCKIM,11,0.006177624%,6.1776235244
MCMARTIN,11,0.006177624%,6.1776235244
MCMEEKIN,11,0.006177624%,6.1776235244
MCVEAN,11,0.006177624%,6.1776235244
MELLIS,11,0.006177624%,6.1776235244
MIDDLER,11,0.006177624%,6.1776235244
MILLAN,11,0.006177624%,6.1776235244
MOON,11,0.006177624%,6.1776235244
MURCHISON,11,0.006177624%,6.1776235244
MURRIE,11,0.006177624%,6.1776235244
MYERS,11,0.006177624%,6.1776235244
O'BYRNE,11,0.006177624%,6.1776235244
OVENS,11,0.006177624%,6.1776235244
PATTIE,11,0.006177624%,6.1776235244
PEATTIE,11,0.006177624%,6.1776235244
PHEE,11,0.006177624%,6.1776235244
PHINN,11,0.006177624%,6.1776235244
PINKERTON,11,0.006177624%,6.1776235244
PITHIE,11,0.006177624%,6.1776235244
PLANK,11,0.006177624%,6.1776235244
RADCLIFFE,11,0.006177624%,6.1776235244
RAITT,11,0.006177624%,6.1776235244
ROLLAND,11,0.006177624%,6.1776235244
ROUGH,11,0.006177624%,6.1776235244
RUTHVEN,11,0.006177624%,6.1776235244
SADLER,11,0.006177624%,6.1776235244
SAYERS,11,0.006177624%,6.1776235244
SCOULLER,11,0.006177624%,6.1776235244
SELFRIDGE,11,0.006177624%,6.1776235244
SELLARS,11,0.006177624%,6.1776235244
SHERRIFF,11,0.006177624%,6.1776235244
SHERRIFFS,11,0.006177624%,6.1776235244
SHIRRA,11,0.006177624%,6.1776235244
SKELLY,11,0.006177624%,6.1776235244
SLESSOR,11,0.006177624%,6.1776235244
SLOSS,11,0.006177624%,6.1776235244
SORLEY,11,0.006177624%,6.1776235244
SPARK,11,0.006177624%,6.1776235244
SPINK,11,0.006177624%,6.1776235244
STILLIE,11,0.006177624%,6.1776235244
STOBIE,11,0.006177624%,6.1776235244
STREET,11,0.006177624%,6.1776235244
TERRIS,11,0.006177624%,6.1776235244
TERRY,11,0.006177624%,6.1776235244
TIMMINS,11,0.006177624%,6.1776235244
TOLLAN,11,0.006177624%,6.1776235244
TORRIE,11,0.006177624%,6.1776235244
TOWNS,11,0.006177624%,6.1776235244
USHER,11,0.006177624%,6.1776235244
WELDON,11,0.006177624%,6.1776235244
WHITEFIELD,11,0.006177624%,6.1776235244
WHITESIDE,11,0.006177624%,6.1776235244
YARDLEY,11,0.006177624%,6.1776235244
0,10,0.005616021%,5.6160213858
ABEL,10,0.005616021%,5.6160213858
ABRAHAM,10,0.005616021%,5.6160213858
AIKEN,10,0.005616021%,5.6160213858
ALDRIDGE,10,0.005616021%,5.6160213858
ASHE,10,0.005616021%,5.6160213858
BALDWIN,10,0.005616021%,5.6160213858
BANNATYNE,10,0.005616021%,5.6160213858
BAPTIE,10,0.005616021%,5.6160213858
BATTY,10,0.005616021%,5.6160213858
BEATSON,10,0.005616021%,5.6160213858
BEGBIE,10,0.005616021%,5.6160213858
BEWS,10,0.005616021%,5.6160213858
BLACKMORE,10,0.005616021%,5.6160213858
BLAKEY,10,0.005616021%,5.6160213858
BOLLAND,10,0.005616021%,5.6160213858
BOWER,10,0.005616021%,5.6160213858
BRAWLEY,10,0.005616021%,5.6160213858
BRITTAIN,10,0.005616021%,5.6160213858
BUNTIN,10,0.005616021%,5.6160213858
CANDLISH,10,0.005616021%,5.6160213858
CARRUTH,10,0.005616021%,5.6160213858
CHERRIE,10,0.005616021%,5.6160213858
COLES,10,0.005616021%,5.6160213858
COLMAN,10,0.005616021%,5.6160213858
COLTHART,10,0.005616021%,5.6160213858
CORNER,10,0.005616021%,5.6160213858
CROFT,10,0.005616021%,5.6160213858
CROMAR,10,0.005616021%,5.6160213858
CROW,10,0.005616021%,5.6160213858
D'ARCY,10,0.005616021%,5.6160213858
DAISLEY,10,0.005616021%,5.6160213858
DENOON,10,0.005616021%,5.6160213858
DEVENNEY,10,0.005616021%,5.6160213858
DIACK,10,0.005616021%,5.6160213858
DODS,10,0.005616021%,5.6160213858
DOOLEY,10,0.005616021%,5.6160213858
DOONAN,10,0.005616021%,5.6160213858
DORMAN,10,0.005616021%,5.6160213858
EDEN,10,0.005616021%,5.6160213858
FEE,10,0.005616021%,5.6160213858
FERN,10,0.005616021%,5.6160213858
FINNEY,10,0.005616021%,5.6160213858
FLECK,10,0.005616021%,5.6160213858
GARNER,10,0.005616021%,5.6160213858
GARTSHORE,10,0.005616021%,5.6160213858
GARVEN,10,0.005616021%,5.6160213858
GATHERER,10,0.005616021%,5.6160213858
GAW,10,0.005616021%,5.6160213858
GEAR,10,0.005616021%,5.6160213858
GIBNEY,10,0.005616021%,5.6160213858
GILBERTSON,10,0.005616021%,5.6160213858
GILHOOLEY,10,0.005616021%,5.6160213858
GILLIE,10,0.005616021%,5.6160213858
GILLIGAN,10,0.005616021%,5.6160213858
GILMORE,10,0.005616021%,5.6160213858
GLENCROSS,10,0.005616021%,5.6160213858
GOODLET,10,0.005616021%,5.6160213858
GREENFIELD,10,0.005616021%,5.6160213858
GRINDLAY,10,0.005616021%,5.6160213858
HACKETT,10,0.005616021%,5.6160213858
HAILSTONES,10,0.005616021%,5.6160213858
HALBERT,10,0.005616021%,5.6160213858
HAMPSON,10,0.005616021%,5.6160213858
HANSEN,10,0.005616021%,5.6160213858
HARDY,10,0.005616021%,5.6160213858
HASTON,10,0.005616021%,5.6160213858
HAWKES,10,0.005616021%,5.6160213858
HERBERTSON,10,0.005616021%,5.6160213858
HOWARTH,10,0.005616021%,5.6160213858
KELBIE,10,0.005616021%,5.6160213858
KILLEN,10,0.005616021%,5.6160213858
LARKINS,10,0.005616021%,5.6160213858
LAUGHLIN,10,0.005616021%,5.6160213858
LIND,10,0.005616021%,5.6160213858
LOVELL,10,0.005616021%,5.6160213858
LOWSON,10,0.005616021%,5.6160213858
LOY,10,0.005616021%,5.6160213858
LUNAN,10,0.005616021%,5.6160213858
LYTTLE,10,0.005616021%,5.6160213858
MACALISTER,10,0.005616021%,5.6160213858
MACKECHNIE,10,0.005616021%,5.6160213858
MARKEY,10,0.005616021%,5.6160213858
MARRS,10,0.005616021%,5.6160213858
MCALINDON,10,0.005616021%,5.6160213858
MCAUSLAN,10,0.005616021%,5.6160213858
MCAUSLANE,10,0.005616021%,5.6160213858
MCCARTER,10,0.005616021%,5.6160213858
MCCAW,10,0.005616021%,5.6160213858
MCCRIMMON,10,0.005616021%,5.6160213858
MCCULLEY,10,0.005616021%,5.6160213858
MCGEECHAN,10,0.005616021%,5.6160213858
MCGEORGE,10,0.005616021%,5.6160213858
MCGIFFEN,10,0.005616021%,5.6160213858
MCGIRR,10,0.005616021%,5.6160213858
MCGLINCHEY,10,0.005616021%,5.6160213858
MCGONAGLE,10,0.005616021%,5.6160213858
MCGUGAN,10,0.005616021%,5.6160213858
MCLUSKEY,10,0.005616021%,5.6160213858
MCMEECHAN,10,0.005616021%,5.6160213858
MCVITTIE,10,0.005616021%,5.6160213858
MEAD,10,0.005616021%,5.6160213858
MIDDLEMISS,10,0.005616021%,5.6160213858
MILLOY,10,0.005616021%,5.6160213858
MONEY,10,0.005616021%,5.6160213858
MORRIN,10,0.005616021%,5.6160213858
MURIE,10,0.005616021%,5.6160213858
NAYSMITH,10,0.005616021%,5.6160213858
NEAL,10,0.005616021%,5.6160213858
NEILLY,10,0.005616021%,5.6160213858
NICHOLL,10,0.005616021%,5.6160213858
O'SHEA,10,0.005616021%,5.6160213858
PAISLEY,10,0.005616021%,5.6160213858
PARKES,10,0.005616021%,5.6160213858
PARKIN,10,0.005616021%,5.6160213858
PARR,10,0.005616021%,5.6160213858
PATTINSON,10,0.005616021%,5.6160213858
PEGGIE,10,0.005616021%,5.6160213858
PELOSI,10,0.005616021%,5.6160213858
PENNINGTON,10,0.005616021%,5.6160213858
PHILLIP,10,0.005616021%,5.6160213858
PHIMISTER,10,0.005616021%,5.6160213858
PIPER,10,0.005616021%,5.6160213858
PRIEST,10,0.005616021%,5.6160213858
ROBIN,10,0.005616021%,5.6160213858
RUNDELL,10,0.005616021%,5.6160213858
RUSHFORD,10,0.005616021%,5.6160213858
SAMPSON,10,0.005616021%,5.6160213858
SCOLLAY,10,0.005616021%,5.6160213858
SEATTER,10,0.005616021%,5.6160213858
SELKIRK,10,0.005616021%,5.6160213858
SENIOR,10,0.005616021%,5.6160213858
SHIRKIE,10,0.005616021%,5.6160213858
SINTON,10,0.005616021%,5.6160213858
SIVEWRIGHT,10,0.005616021%,5.6160213858
SNELL,10,0.005616021%,5.6160213858
SORBIE,10,0.005616021%,5.6160213858
STANNERS,10,0.005616021%,5.6160213858
STRAITON,10,0.005616021%,5.6160213858
TANNAHILL,10,0.005616021%,5.6160213858
TANNOCK,10,0.005616021%,5.6160213858
TARBET,10,0.005616021%,5.6160213858
TAWSE,10,0.005616021%,5.6160213858
TIGHE,10,0.005616021%,5.6160213858
TIMONEY,10,0.005616021%,5.6160213858
TOBIN,10,0.005616021%,5.6160213858
TYRRELL,10,0.005616021%,5.6160213858
WALKINSHAW,10,0.005616021%,5.6160213858
WATERSON,10,0.005616021%,5.6160213858
WEDDELL,10,0.005616021%,5.6160213858
WILCOX,10,0.005616021%,5.6160213858
WILKES,10,0.005616021%,5.6160213858
WYATT,10,0.005616021%,5.6160213858
YOUNIE,10,0.005616021%,5.6160213858
