NAME,GENDER,COUNT,PERCENTAGE,PROP100K
EMMA,F,431
SOFIE,F,348
INGRID,F,324
NORA,F,316
SARA,F,312
EMILIE,F,310
ELLA,F,308
JULIE,F,304
ANNA,F,302
THEA,F,301
IDA,F,297
AMALIE,F,285
LINNEA,F,266
OLIVIA,F,265
MIA,F,264
VICTORIA,F,254
MARIA,F,240
VILDE,F,235
FRIDA,F,230
SOFIA,F,229
TUVA,F,228
LEAH,F,218
MAJA,F,217
MATHILDE,F,217
JENNY,F,202
AURORA,F,196
ODA,F,193
HEDDA,F,190
MARIE,F,188
ALMA,F,187
JULIA,F,177
AMANDA,F,173
HANNA,F,172
LILLY,F,160
TIRIL,F,155
MINA,F,153
SELMA,F,150
LIVE,F,149
MALIN,F,147
MARTINE,F,146
SIGRID,F,146
MILLE,F,145
ELINE,F,141
MATHEA,F,141
ELISE,F,140
ASTRID,F,138
ISABELLA,F,137
PERNILLE,F,137
EVA,F,135
MIE,F,134
ADA,F,128
ANDREA,F,126
SARAH,F,126
EMILY,F,122
MARI,F,121
ALVA,F,118
SIGNE,F,118
HANNAH,F,116
CELINE,F,114
JOSEFINE,F,113
HELENE,F,111
KAROLINE,F,105
LYKKE,F,105
JOHANNE,F,104
SUNNIVA,F,104
SYNNE,F,103
SOPHIA,F,102
AGNES,F,96
INGEBORG,F,96
RONJA,F,95
AMELIA,F,94
HERMINE,F,93
IBEN,F,92
MAYA,F,90
JOHANNA,F,87
EMILIA,F,86
KAJA,F,83
ERLE,F,82
ELIDA,F,80
ELLINOR,F,80
MAREN,F,80
OLINE,F,79
LOTTE,F,78
TILDE,F,78
ANE,F,77
SOLVEIG,F,77
MADELEN,F,73
ANNE,F,71
HELENA,F,71
ISABELL,F,71
NATHALIE,F,71
MILLA,F,70
ADELE,F,69
ALEXANDRA,F,68
YLVA,F,68
HELLE,F,67
LENA,F,67
LOUISE,F,67
EIRA,F,66
LEA,F,64
WILLIAM,M,439
OLIVER,M,392
MAGNUS,M,351
MATHIAS,M,344
LIAM,M,342
EMIL,M,323
ELIAS,M,317
SEBASTIAN,M,317
JONAS,M,315
DANIEL,M,307
HENRIK,M,304
ISAK,M,300
NOAH,M,300
TOBIAS,M,295
SANDER,M,289
ADRIAN,M,281
FILIP,M,263
LUCAS,M,263
ALEXANDER,M,260
AKSEL,M,253
JOHANNES,M,248
LEON,M,245
BENJAMIN,M,244
JAKOB,M,243
MATHEO,M,240
ANDREAS,M,221
MARTIN,M,220
THEODOR,M,220
MARIUS,M,216
ERIK,M,211
OSKAR,M,211
HÅKON,M,203
OLAV,M,200
OSCAR,M,197
OLE,M,196
LUKAS,M,191
THEO,M,191
JULIAN,M,186
SONDRE,M,185
MARKUS,M,179
KRISTIAN,M,178
JONATHAN,M,172
ODIN,M,167
GABRIEL,M,165
KASPER,M,165
LEO,M,165
JOHAN,M,161
MIKKEL,M,160
EVEN,M,159
DAVID,M,156
MARCUS,M,156
FELIX,M,153
HERMAN,M,152
SIGURD,M,150
EIRIK,M,148
FREDRIK,M,146
IVER,M,145
NIKOLAI,M,141
LEANDER,M,140
EDVARD,M,138
JACOB,M,138
ADAM,M,136
SVERRE,M,136
LUDVIG,M,133
SAMUEL,M,133
BRAGE,M,132
ULRIK,M,132
PHILIP,M,130
TRYM,M,130
LARS,M,128
ALEKSANDER,M,125
CHRISTIAN,M,122
VETLE,M,121
LINUS,M,120
ANTON,M,113
MAX,M,112
OLA,M,112
PEDER,M,111
STORM,M,111
ARON,M,110
ALFRED,M,107
KEVIN,M,107
GUSTAV,M,103
SIMON,M,98
THOMAS,M,97
DENNIS,M,93
CASPER,M,92
VICTOR,M,91
EMRIK,M,89
JESPER,M,86
NICOLAI,M,85
PETTER,M,84
VIKTOR,M,83
EMILIAN,M,82
MOHAMMAD,M,82
KRISTOFFER,M,81
SIVERT,M,81
JAN,M,76
SINDRE,M,76
BIRK,M,73
