NAME,GENDER,COUNT,PERCENTAGE,PROP100K
EMMA,F,452
NORA,F,424
SOFIE,F,373
LINNEA,F,356
INGRID,F,353
EMILIE,F,345
IDA,F,330
ANNA,F,320
AMALIE,F,311
THEA,F,311
JULIE,F,293
ELLA,F,289
LEAH,F,261
MIA,F,255
VILDE,F,254
SOFIA,F,251
FRIDA,F,241
MARIA,F,241
OLIVIA,F,239
SARA,F,239
MAJA,F,229
MATHILDE,F,229
VICTORIA,F,224
AURORA,F,220
HEDDA,F,217
TUVA,F,216
MARIE,F,212
ELISE,F,207
HANNA,F,191
JENNY,F,186
SELMA,F,184
JULIA,F,182
ELINE,F,178
LIVE,F,177
ODA,F,175
LILLY,F,173
MALIN,F,173
ALMA,F,160
MILLE,F,153
MATHEA,F,152
AMANDA,F,145
SIGRID,F,145
TIRIL,F,142
ANDREA,F,137
MARI,F,136
PERNILLE,F,136
ISABELLA,F,135
CELINE,F,133
MARTINE,F,133
MINA,F,132
ADA,F,128
ASTRID,F,127
ALVA,F,125
SYNNE,F,124
HANNAH,F,117
SARAH,F,117
SIGNE,F,113
MIE,F,112
JOHANNE,F,111
EMILY,F,109
JOSEFINE,F,109
SUNNIVA,F,109
EVA,F,108
RONJA,F,105
SOLVEIG,F,105
HERMINE,F,100
KAROLINE,F,100
HELENE,F,99
INGEBORG,F,97
IBEN,F,96
NATHALIE,F,96
SOPHIA,F,95
OLINE,F,94
LYKKE,F,91
KAJA,F,89
LOTTE,F,85
ALEXANDRA,F,84
AMELIA,F,84
MAREN,F,84
STELLA,F,84
AGNES,F,82
ERLE,F,81
LINA,F,81
LEA,F,79
ADELE,F,78
MILLA,F,78
ELIDA,F,77
ISABEL,F,76
ISABELL,F,76
JOHANNA,F,76
HELENA,F,74
LISA,F,73
LUNA,F,72
MATILDE,F,72
SILJE,F,71
TILDE,F,71
ANNE,F,68
EMILIA,F,68
SANNA,F,68
YLVA,F,68
WILLIAM,M,417
EMIL,M,413
JONAS,M,400
MAGNUS,M,383
OLIVER,M,377
MATHIAS,M,372
HENRIK,M,348
LIAM,M,337
SEBASTIAN,M,331
ELIAS,M,325
LUCAS,M,320
ADRIAN,M,318
NOAH,M,318
DANIEL,M,309
MARTIN,M,308
TOBIAS,M,306
SANDER,M,285
ISAK,M,283
LEON,M,279
ALEXANDER,M,274
MATHEO,M,262
BENJAMIN,M,258
LUKAS,M,235
OSKAR,M,231
SONDRE,M,230
ANDREAS,M,229
MARIUS,M,226
JAKOB,M,225
JOHANNES,M,225
AKSEL,M,224
JULIAN,M,221
MARKUS,M,220
THEODOR,M,219
ERIK,M,204
FREDRIK,M,200
HÅKON,M,200
KRISTIAN,M,196
JONATHAN,M,195
GABRIEL,M,194
LEANDER,M,191
SIGURD,M,190
THEO,M,183
JOHAN,M,181
DAVID,M,179
FILIP,M,176
MIKKEL,M,176
EVEN,M,172
EIRIK,M,171
OSCAR,M,170
MARCUS,M,166
KASPER,M,164
LEO,M,164
JACOB,M,160
OLAV,M,158
HERMAN,M,157
LARS,M,152
OLE,M,151
THOMAS,M,149
NIKOLAI,M,144
FELIX,M,143
MAX,M,143
ADAM,M,140
ALEKSANDER,M,138
ARON,M,134
OLA,M,133
IVER,M,132
CHRISTIAN,M,131
ULRIK,M,131
BRAGE,M,130
SVERRE,M,127
ODIN,M,124
TRYM,M,124
LUDVIG,M,123
SAMUEL,M,120
EDVARD,M,119
KRISTOFFER,M,119
KEVIN,M,117
LINUS,M,114
STORM,M,111
VETLE,M,110
SIMON,M,108
GUSTAV,M,106
DENNIS,M,104
SINDRE,M,102
CASPER,M,98
ANTON,M,95
MIKAEL,M,94
JESPER,M,92
NICOLAI,M,92
PHILIP,M,92
MATS,M,91
VILJAR,M,89
BIRK,M,88
VICTOR,M,87
VIKTOR,M,87
ALFRED,M,86
SIVERT,M,85
MOHAMMAD,M,82
PEDER,M,82
JENS,M,79
