NAME,GENDER,COUNT,PERCENT,PROP100K,ISNOTREALCOUNT
ADITYA|आदित्य,M,1,0.01%,10,1
ANIL|अनिल,M,1,0.01%,10,1
ARJUN|अर्जुन,M,1,0.01%,10,1
BIBEK|बिबेक,M,1,0.01%,10,1
CHANDRA|चन्द्र|चन्द्रा,U,1,0.01%,10,1
DHARMA|धर्म,M,1,0.01%,10,1
DIPAK|दीपक,M,1,0.01%,10,1
GOPAL|गोपाल,M,1,0.01%,10,1
INDRA|इन्द्र,M,1,0.01%,10,1
KALPANA|कल्पना,F,1,0.01%,10,1
KAMALA|कमला,U,1,0.01%,10,1
KISHOR|किशोर,M,1,0.01%,10,1
KUMAR|कुमार,M,1,0.01%,10,1
LAXMI|लक्ष्मी,U,1,0.01%,10,1
MAHESH|महेश,M,1,0.01%,10,1
MANISHA|मनिषा,F,1,0.01%,10,1
NARAYAN|नारायण,M,1,0.01%,10,1
NIRMAL|निर्मल,M,1,0.01%,10,1
NISHA|निशा,F,1,0.01%,10,1
POOJA|पूजा,F,1,0.01%,10,1
PRADIP|प्रदिप,M,1,0.01%,10,1
PRASAD|प्रसाद,M,1,0.01%,10,1
PUJA|पूजा,F,1,0.01%,10,1
RACHANA|रचना,F,1,0.01%,10,1
RAJANI|रजनी,F,1,0.01%,10,1
RAJENDRA|राजेन्द्र,M,1,0.01%,10,1
RAJIV|राजीव,M,1,0.01%,10,1
RAM|राम,M,1,0.01%,10,1
RATNA|रत्न|रत्ना,U,1,0.01%,10,1
RISHI|ऋषि,M,1,0.01%,10,1
ROSHAN|रोशन,U,1,0.01%,10,1
SANDEEP|सन्दीप,M,1,0.01%,10,1
SANJAY|सञ्जय,M,1,0.01%,10,1
SHANKAR|शङ्कर,M,1,0.01%,10,1
SHANTI|शान्ती,F,1,0.01%,10,1
SHYAM|श्याम,M,1,0.01%,10,1
SUMAN|सुमन,U,1,0.01%,10,1
SUNITA|सुनीता,F,1,0.01%,10,1
SURENDRA|सुरेन्द्र|सुरेंद्र,M,1,0.01%,10,1
SURYA|सूर्य,M,1,0.01%,10,1
SUSHILA|सुशीला,U,1,0.01%,10,1
USHA|उषा,F,1,0.01%,10,1
