Total,28302,,,
TotalF,13324,,,
TotalM,14978,,,
NAME,GENDER,COUNT,PERCENT,PROP100K
SOFIA,F,555,1.960992156%,1960.9921560314
FREJA,F,459,1.621793513%,1621.793512826
ELLA,F,449,1.586460321%,1586.4603208254
ALMA,F,445,1.572327044%,1572.3270440252
ANNA,F,419,1.480460745%,1480.4607448237
EMMA,F,415,1.466327468%,1466.3274680235
LAURA,F,412,1.455727510%,1455.7275104233
CLARA,F,398,1.406261042%,1406.2610416225
IDA,F,390,1.377994488%,1377.9944880221
ISABELLA,F,388,1.370927850%,1370.9278496219
KARLA,F,353,1.247261678%,1247.26167762
MAJA,F,333,1.176595294%,1176.5952936188
VICTORIA,F,333,1.176595294%,1176.5952936188
ALBERTE,F,328,1.158928698%,1158.9286976185
JOSEFINE,F,328,1.158928698%,1158.9286976185
SOFIE,F,320,1.130662144%,1130.6621440181
AGNES,F,317,1.120062186%,1120.0621864179
LIVA,F,306,1.081195675%,1081.1956752173
OLIVIA,F,301,1.063529079%,1063.529079217
CAROLINE,F,294,1.038795845%,1038.7958448166
MATHILDE,F,294,1.038795845%,1038.7958448166
LÆRKE,F,282,0.996396014%,996.3960144159
EMILIE,F,278,0.982262738%,982.2627376157
FRIDA,F,235,0.830330012%,830.3300120133
SARA,F,235,0.830330012%,830.3300120133
LILY,F,220,0.777330224%,777.3302240124
ESTHER,F,215,0.759663628%,759.6636280122
EMILY,F,214,0.756130309%,756.1303088121
MILLE,F,209,0.738463713%,738.4637128118
MARIE,F,205,0.724330436%,724.3304360116
ASTRID,F,204,0.720797117%,720.7971168115
ELLEN,F,204,0.720797117%,720.7971168115
NORA,F,203,0.717263798%,717.2637976115
ROSA,F,191,0.674863967%,674.8639672108
AYA,F,188,0.664264010%,664.2640096106
NAYA,F,186,0.657197371%,657.1973712105
ASTA,F,183,0.646597414%,646.5974136103
LUNA,F,179,0.632464137%,632.4641368101
VIGGA,F,175,0.618330860%,618.3308600099
LEA,F,173,0.611264222%,611.2642216098
LIV,F,168,0.593597626%,593.5976256095
JOHANNE,F,164,0.579464349%,579.4643488093
FILIPPA,F,163,0.575931030%,575.9310296092
JULIE,F,155,0.547664476%,547.6644760088
ANDREA,F,151,0.533531199%,533.5311992085
SIGNE,F,149,0.526464561%,526.4645608084
NANNA,F,147,0.519397922%,519.3979224083
SILJE,F,145,0.512331284%,512.3312840082
CELINA,F,133,0.469931454%,469.9314536075
GRY,F,133,0.469931454%,469.9314536075
WILLIAM,M,591,2.088191647%,2088.1916472334
NOAH,M,543,1.918592326%,1918.5923256307
LUCAS,M,534,1.886792453%,1886.7924528302
EMIL,M,489,1.727793089%,1727.7930888276
OLIVER,M,489,1.727793089%,1727.7930888276
OSCAR,M,480,1.695993216%,1695.9932160271
VICTOR,M,478,1.688926578%,1688.926577627
MALTHE,M,455,1.607660236%,1607.6602360257
ALFRED,M,425,1.501660660%,1501.660660024
CARL,M,418,1.476927426%,1476.9274256236
FREDERIK,M,405,1.430994276%,1430.9942760229
ELIAS,M,399,1.409794361%,1409.7943608226
MAGNUS,M,357,1.261394954%,1261.3949544202
VALDEMAR,M,333,1.176595294%,1176.5952936188
VILLADS,M,326,1.151862059%,1151.8620592184
ALEXANDER,M,324,1.144795421%,1144.7954208183
CHRISTIAN,M,324,1.144795421%,1144.7954208183
AUGUST,M,306,1.081195675%,1081.1956752173
JOHAN,M,306,1.081195675%,1081.1956752173
FELIX,M,305,1.077662356%,1077.6623560172
ANTON,M,303,1.070595718%,1070.5957176171
NOHR,M,302,1.067062398%,1067.0623984171
LIAM,M,300,1.059995760%,1059.995760017
AKSEL,M,285,1.006995972%,1006.9959720161
MIKKEL,M,283,0.999929334%,999.929333616
BENJAMIN,M,265,0.936329588%,936.329588015
MADS,M,257,0.908063034%,908.0630344145
STORM,M,256,0.904529715%,904.5297152145
MATHIAS,M,255,0.900996396%,900.9963960144
ADAM,M,254,0.897463077%,897.4630768144
SEBASTIAN,M,240,0.847996608%,847.9966080136
ALBERT,M,230,0.812663416%,812.663416013
THEODOR,M,228,0.805596778%,805.5967776129
ARTHUR,M,222,0.784396862%,784.3968624126
ELLIOT,M,215,0.759663628%,759.6636280122
MARIUS,M,214,0.756130309%,756.1303088121
MARCUS,M,208,0.734930394%,734.9303936118
VIGGO,M,207,0.731397074%,731.3970744117
PHILIP,M,206,0.727863755%,727.8637552116
TOBIAS,M,201,0.710197159%,710.1971592114
VILLUM,M,189,0.667797329%,667.7973288107
LAUGE,M,187,0.660730690%,660.7306904106
THOR,M,186,0.657197371%,657.1973712105
JAKOB,M,185,0.653664052%,653.6640520105
LAURITS,M,183,0.646597414%,646.5974136103
THEO,M,179,0.632464137%,632.4641368101
JONATHAN,M,166,0.586530987%,586.5309872094
ASGER,M,163,0.575931030%,575.9310296092
SILAS,M,162,0.572397710%,572.3977104092
MILAS,M,160,0.565331072%,565.331072009
