NAME,GENDER,COUNT,PERCENT,PROP100K,ISNOTREALCOUNT
ALIENOR|ALIÉNOR,F,1,0.01%,10,1
ANNA,F,1,0.01%,10,1
DONAT,M,1,0.01%,10,1
ISABEL|ISABÈL,F,1,0.01%,10,1
JOSEP|JOSÈP,M,1,0.01%,10,1
MAGALI,F,1,0.01%,10,1
MARGARIDA,F,1,0.01%,10,1
MIREIO|MIRÈIO,F,1,0.01%,10,1
PEIRE|PÈIRE,M,1,0.01%,10,1
