CHLOE 	F	7,745
EMILY 	F	6,616
SOPHIE 	F	6,311
JESSICA 	F	6,090
MEGAN 	F	5,724
HANNAH 	F	5,581
CHARLOTTE 	F	5,531
LAUREN 	F	5,529
REBECCA 	F	5,514
GEORGIA 	F	4,908
AMY 	F	4,666
LUCY 	F	4,235
EMMA 	F	4,126
BETHANY 	F	4,074
KATIE 	F	3,864
SHANNON 	F	3,640
LAURA 	F	2,937
COURTNEY 	F	2,812
OLIVIA 	F	2,789
ELEANOR 	F	2,747
MOLLY 	F	2,628
SARAH 	F	2,613
HOLLY 	F	2,584
ABIGAIL 	F	2,570
JADE 	F	2,538
ALICE 	F	2,259
ELLIE 	F	2,202
RACHEL 	F	2,120
DANIELLE 	F	2,069
ELIZABETH 	F	1,892
ZOE 	F	1,784
PAIGE 	F	1,703
GEORGINA 	F	1,700
VICTORIA 	F	1,650
CHELSEA 	F	1,649
LEAH 	F	1,605
NICOLE 	F	1,569
SAMANTHA 	F	1,552
NATASHA 	F	1,500
AMBER 	F	1,490
ANNA 	F	1,490
GRACE 	F	1,440
ALEXANDRA 	F	1,381
ELLA 	F	1,300
LOUISE 	F	1,283
CAITLIN 	F	1,215
MELISSA 	F	1,180
JASMINE 	F	1,154
AMELIA 	F	1,145
KAYLEIGH 	F	1,140
NATALIE 	F	1,138
STEPHANIE 	F	1,115
KATHERINE 	F	1,077
PHOEBE 	F	1,071
ABBIE 	F	1,067
LYDIA 	F	1,062
GEMMA 	F	1,053
JODIE 	F	1,021
HARRIET 	F	1,000
FRANCESCA 	F	975
AIMEE 	F	968
JENNIFER 	F	938
KIRSTY 	F	898
KATE 	F	892
HAYLEY 	F	877
ELLEN 	F	866
HOLLIE 	F	858
ASHLEIGH 	F	857
DAISY 	F	857
ROSIE 	F	818
ALISHA 	F	816
SIAN 	F	760
BETHAN 	F	750
CATHERINE 	F	736
LILY 	F	721
MOLLIE 	F	677
ISOBEL 	F	651
HEATHER 	F	645
RACHAEL 	F	643
DEMI 	F	633
YASMIN 	F	628
KELLY 	F	621
KATHRYN 	F	619
ALICIA 	F	606
NAOMI 	F	603
NIAMH 	F	591
RHIANNON 	F	591
MILLIE 	F	584
MIA 	F	583
ROBYN 	F	568
SOPHIA 	F	566
CHANTELLE 	F	557
KIMBERLEY 	F	551
IMOGEN 	F	548
MADELEINE 	F	540
BETH 	F	536
ERIN 	F	532
GABRIELLE 	F	527
TIA 	F	525
ISABELLE 	F	509
NICOLA 	F	506
CHARLIE 	F	501
JORDAN 	F	486
RUBY 	F	485
KELSEY 	F	476
LEANNE 	F	476
ISABELLA 	F	470
ISABEL 	F	468
POPPY 	F	468
REBEKAH 	F	462
TARA 	F	454
TIFFANY 	F	451
FREYA 	F	450
CLAIRE 	F	439
CASEY 	F	438
TAYLOR 	F	436
MAISIE 	F	433
MARY 	F	424
ANNIE 	F	423
ANNABEL 	F	418
MARIA 	F	405
JEMMA 	F	401
LOIS 	F	401
EVE 	F	392
ELOISE 	F	388
FAYE 	F	388
TONI 	F	388
HELEN 	F	383
KATY 	F	377
SARA 	F	373
STACEY 	F	364
SASHA 	F	361
BRITTANY 	F	358
SHAUNA 	F	356
AISHA 	F	351
CIARA 	F	347
TAMARA 	F	341
CLAUDIA 	F	338
BRYONY 	F	334
ELLE 	F	330
MORGAN 	F	330
RUTH 	F	330
LISA 	F	329
ELISE 	F	323
MICHAELA 	F	321
LARA 	F	319
JOANNA 	F	317
JENNA 	F	315
ELISHA 	F	314
NIKITA 	F	312
SHELBY 	F	309
CHARLEY 	F	301
INDIA 	F	299
JASMIN 	F	298
DANIELLA 	F	297
CARA 	F	292
KERRY 	F	291
KIRA 	F	289
ZARA 	F	289
BROOKE 	F	282
FIONA 	F	282
HELENA 	F	279
SIOBHAN 	F	279
MARTHA 	F	277
ABBEY 	F	274
RHIANNA 	F	271
PHILIPPA 	F	270
JOSEPHINE 	F	269
GABRIELLA 	F	267
NADIA 	F	266
ABBY 	F	264
SALLY 	F	263
JEMIMA 	F	259
SUMMER 	F	258
FLORENCE 	F	257
KIERA 	F	252
MATILDA 	F	250
ANNABELLE 	F	249
ALEX 	F	247
APRIL 	F	243
FFION 	F	242
FRANCES 	F	242
SABRINA 	F	242
HOPE 	F	233
LOUISA 	F	233
CARLA 	F	230
KATRINA 	F	230
SASKIA 	F	230
SAVANNAH 	F	230
SINEAD 	F	229
CARLY 	F	228
KEELEY 	F	228
SIMRAN 	F	228
ESTHER 	F	225
ANTONIA 	F	224
SAFFRON 	F	224
LORNA 	F	223
MICHELLE 	F	222
AYESHA 	F	220
ROSE 	F	216
ALANA 	F	215
CAROLINE 	F	212
ELENA 	F	212
SCARLETT 	F	206
AMIE 	F	205
EBONY 	F	204
MADELINE 	F	204
KIRSTEN 	F	202
MADISON 	F	202
DANA 	F	201
ASHLEY 	F	200
MARYAM 	F	200
SHONA 	F	200
CHRISTINA 	F	197
JAMIE 	F	195
SADIE 	F	195
EVIE 	F	193
NINA 	F	193
FATIMA 	F	192
HEIDI 	F	192
LIBBY 	F	191
CARYS 	F	189
JOANNE 	F	186
CLARE 	F	184
SHANICE 	F	181
AMANDA 	F	180
POLLY 	F	180
SKYE 	F	180
MAYA 	F	176
KARA 	F	175
EVA 	F	174
JOSIE 	F	174
JULIA 	F	174
BILLIE 	F	173
DEANNA 	F	173
ANASTASIA 	F	172
CHELSEY 	F	172
EDEN 	F	172
GEORGIE 	F	172
EMILIA 	F	169
SOFIA 	F	167
TEGAN 	F	166
TYLER 	F	166
TANYA 	F	162
TABITHA 	F	161
CHELSIE 	F	160
ESME 	F	158
LUCIE 	F	158
ROISIN 	F	158
SERENA 	F	156
CONNIE 	F	154
ELIZA 	F	154
IONA 	F	154
JESSIE 	F	154
ZAINAB 	F	154
LIBERTY 	F	153
ZAHRA 	F	153
KATHARINE 	F	152
PARIS 	F	152
FAITH 	F	150
MELANIE 	F	150
BROGAN 	F	149
LAYLA 	F	145
VANESSA 	F	145
RHIAN 	F	144
ADELE 	F	142
ANISA 	F	142
ALISON 	F	140
MARIAM 	F	140
TAYLA 	F	140
AMINA 	F	139
BEATRICE 	F	139
NADINE 	F	139
MONICA 	F	138
COURTENEY 	F	137
ELLIS 	F	137
LUCINDA 	F	136
NIA 	F	136
ROSEMARY 	F	135
KEIRA 	F	131
KIRAN 	F	129
TAMSIN 	F	129
AALIYAH 	F	128
ANGEL 	F	128
ROCHELLE 	F	128
MEGHAN 	F	127
RIA 	F	127
ELINOR 	F	126
KATHLEEN 	F	126
MADDISON 	F	126
MONIQUE 	F	126
EMILIE 	F	125
SYEDA 	F	125
MIRIAM 	F	124
VERITY 	F	124
BETHANIE 	F	123
KYRA 	F	123
ANYA 	F	122
FERN 	F	122
DARCY 	F	121
MARIE 	F	121
TILLY 	F	121
LOWRI 	F	120
BECKY 	F	119
KIRSTIE 	F	119
SANA 	F	118
ALYSHA 	F	117
IQRA 	F	117
LUCIA 	F	117
LEONIE 	F	116
FLORA 	F	115
PRIYA 	F	115
SIMONE 	F	115
YASMINE 	F	115
TANISHA 	F	112
AYSHA 	F	111
CERYS 	F	111
HAZEL 	F	111
CLARA 	F	110
DOMINIQUE 	F	110
ROSANNA 	F	110
SELINA 	F	110
KEELY 	F	107
MILLICENT 	F	107
CHANEL 	F	105
HALIMA 	F	105
LEIGH 	F	105
SHARNA 	F	105
ELLENA 	F	104
NANCY 	F	104
RENEE 	F	104
CONSTANCE 	F	103
JENNY 	F	103
MILLY 	F	103
BONNIE 	F	102
BRIONY 	F	101
ERICA 	F	101
CRYSTAL 	F	100
DEBORAH 	F	100
SONIA 	F	100
SYDNEY 	F	100
CELINE 	F	99
SHIVANI 	F	99
FELICITY 	F	98
NATALIA 	F	98
LACEY 	F	97
RHEA 	F	97
WHITNEY 	F	97
HARLEY 	F	96
CORAL 	F	95
KAITLIN 	F	95
KAYLEY 	F	95
CAPRICE 	F	94
SADIA 	F	94
TERRI 	F	93
SUSANNAH 	F	92
ALANNAH 	F	91
CASSIE 	F	91
CATRIN 	F	91
CERI 	F	91
KENNEDY 	F	91
ANGHARAD 	F	90
AOIFE 	F	90
DEVON 	F	90
JODI 	F	90
LOREN 	F	90
RHIANNE 	F	89
RIANNA 	F	89
ALEXANDRIA 	F	88
ROXANNE 	F	88
CODY 	F	87
LEILA 	F	87
TONICHA 	F	87
ANISHA 	F	86
BRONTE 	F	86
DIONNE 	F	86
ALIX 	F	85
ANDREA 	F	85
TIEGAN 	F	85
DANNIELLE 	F	84
ISLA 	F	84
LANA 	F	84
EVANGELINE 	F	83
HANNA 	F	83
MIRANDA 	F	83
SALMA 	F	83
ATLANTA 	F	82
DANNI 	F	82
FLEUR 	F	82
HALEEMA 	F	82
ROSA 	F	82
ABBI 	F	81
CHANELLE 	F	81
CHRISTIE 	F	81
KIA 	F	81
AISHAH 	F	80
ALIYAH 	F	80
CARRIE 	F	80
JANE 	F	80
ORLA 	F	80
CHRISTINE 	F	79
HONOR 	F	79
MARGARET 	F	79
BRIDIE 	F	78
CAITLYN 	F	78
DAYNA 	F	78
ELISABETH 	F	78
EVELYN 	F	78
DIANA 	F	77
FAY 	F	77
KIMBERLY 	F	77
STEVIE 	F	77
HENNA 	F	76
ANEESA 	F	75
KELSIE 	F	75
CARMEN 	F	74
JACQUELINE 	F	74
CASSANDRA 	F	73
HAFSA 	F	73
LILLY 	F	73
TAMMY 	F	73
DARCIE 	F	72
KIM 	F	72
TESSA 	F	72
ALEENA 	F	71
BILLIE-JO 	F	71
CATRIONA 	F	71
SABAH 	F	71
ALINA 	F	70
ANISAH 	F	70
CHARMAINE 	F	70
TALIA 	F	70
AUTUMN 	F	69
ELYSIA 	F	69
HANA 	F	69
KARLA 	F	69
LILLIE 	F	69
THEA 	F	69
BRONWYN 	F	68
NIKKI 	F	68
ROWAN 	F	68
TERI 	F	68
CLARISSA 	F	67
LAURYN 	F	67
DEMI-LEIGH 	F	66
GENEVIEVE 	F	66
HAYLEIGH 	F	66
SANAH 	F	66
ASHA 	F	65
CHARLENE 	F	65
JOY 	F	65
JULIETTE 	F	65
KAYLA 	F	65
LEONA 	F	65
SCARLET 	F	65
ANGELA 	F	64
LINDSEY 	F	64
MAIA 	F	64
TYRA 	F	64
ERIKA 	F	63
LOLA 	F	63
MARIAH 	F	63
MARNIE 	F	63
STACIE 	F	63
TANIA 	F	63
ANNE 	F	62
JAMIE-LEE 	F	62
KAREN 	F	62
KERRI 	F	62
TORI 	F	62
FARAH 	F	61
MARINA 	F	61
JODY 	F	60
LEVI 	F	60
LIA 	F	60
SACHA 	F	60
SAIMA 	F	60
CHIARA 	F	59
CODIE 	F	59
JULIE 	F	59
LARISSA 	F	59
LAURIE 	F	59
RIO 	F	59
ANNALISE 	F	58
CHARIS 	F	58
ELIN 	F	58
KHADIJA 	F	58
MANISHA 	F	58
BOBBIE 	F	57
ELLIE-MAY 	F	57
ISOBELLE 	F	57
JAZMIN 	F	57
KRISTINA 	F	57
MEG 	F	57
SAPPHIRE 	F	57
AISLING 	F	56
JULIET 	F	56
KERRIE 	F	56
PATRICIA 	F	56
AVA 	F	55
BRIDGET 	F	55
CHERIE 	F	55
EMMA-LOUISE 	F	55
KAITLYN 	F	55
SUZANNE 	F	55
ALYSSA 	F	54
AMI 	F	54
CHANTEL 	F	54
HENRIETTA 	F	54
HUMAIRA 	F	54
IRAM 	F	54
PENNY 	F	54
REGAN 	F	54
SAFIA 	F	54
ARABELLA 	F	53
IMAN 	F	53
KASEY 	F	53
ALEXIS 	F	52
KITTY 	F	52
ALANNA 	F	51
CHEYENNE 	F	51
DANIELA 	F	51
FARHANA 	F	51
FARZANA 	F	51
SEREN 	F	51
TALLULAH 	F	51
ABBIGAIL 	F	50
ANIKA 	F	50
BIANCA 	F	50
CAMILLA 	F	50
LEIA 	F	50
LOTTIE 	F	50
SUSAN 	F	50
TASMIN 	F	50
TASNIM 	F	50
ANITA 	F	49
CLEO 	F	49
EMELIA 	F	49
HAFSAH 	F	49
JAIME 	F	49
KAYA 	F	49
MADELAINE 	F	49
MEERA 	F	49
SKY 	F	49
FRANKIE 	F	48
GINA 	F	48
IKRA 	F	48
KELLIE 	F	48
KIAH 	F	48
MAY 	F	48
AILISH 	F	47
BRONWEN 	F	47
CANDICE 	F	47
DONNA 	F	47
KARINA 	F	47
MAISY 	F	47
MARIANNE 	F	47
MERCEDES 	F	47
PRIYANKA 	F	47
ROBERTA 	F	47
SADE 	F	47
SAIRA 	F	47
SAMIRA 	F	47
SUZANNAH 	F	47
BRODIE 	F	46
KAYLEE 	F	46
KYLIE 	F	46
MEREDITH 	F	46
SHARON 	F	46
SHELLEY 	F	46
ANA 	F	45
ELSPETH 	F	45
FAHIMA 	F	45
FAHMIDA 	F	45
JAZMINE 	F	45
JUSTINE 	F	45
MELODY 	F	45
ROSHNI 	F	45
ROWENA 	F	45
SAVANNA 	F	45
TAMIKA 	F	45
TEIGAN 	F	45
TIANNA 	F	45
TINA 	F	45
ALEXIA 	F	44
ALYS 	F	44
ENYA 	F	44
JOHANNA 	F	44
KARIS 	F	44
KEZIA 	F	44
KHADIJAH 	F	44
KIRBY 	F	44
LAILA 	F	44
REMI 	F	44
SHAUNNA 	F	44
SORCHA 	F	44
STELLA 	F	44
KARISHMA 	F	43
KAY 	F	43
KEZIAH 	F	43
MAE 	F	43
MARISSA 	F	43
ROSALIND 	F	43
CAMILLE 	F	42
DREW 	F	42
FATIMAH 	F	42
JAMIE-LEIGH 	F	42
KRISTY 	F	42
LINDSAY 	F	42
MICA 	F	42
NISHA 	F	42
RABIA 	F	42
SABA 	F	42
SHANNAN 	F	42
THERESA 	F	42
TIANA 	F	42
ZAYNAB 	F	42
CELIA 	F	41
DARCEY 	F	41
DION 	F	41
LEYLA 	F	41
LILLIAN 	F	41
NATALYA 	F	41
ROSEANNA 	F	41
SABINA 	F	41
TAYLER 	F	41
TIERNEY 	F	41
TYLA 	F	41
ADRIENNE 	F	40
AMY-LOUISE 	F	40
CARLEY 	F	40
JAYDE 	F	40
LENA 	F	40
LEONI 	F	40
NAZIA 	F	40
STACY 	F	40
VICKY 	F	40
EILISH 	F	39
JAYNE 	F	39
LINDA 	F	39
NEELAM 	F	39
SAFA 	F	39
TAMANNA 	F	39
YAZMIN 	F	39
AMIEE 	F	38
AMIRAH 	F	38
ANNE-MARIE 	F	38
ASHTON 	F	38
COLETTE 	F	38
ELLIE-MAE 	F	38
ELSIE 	F	38
LIANNE 	F	38
LYNDSEY 	F	38
SAARAH 	F	38
SANNA 	F	38
UZMA 	F	38
YASEMIN 	F	38
AILSA 	F	37
ALANIS 	F	37
CHANTE 	F	37
DAVINA 	F	37
JORDANNE 	F	37
KYLA 	F	37
MADDIE 	F	37
MAGGIE 	F	37
MARIYA 	F	37
PAULA 	F	37
SAMIA 	F	37
SHANNEN 	F	37
TAHMINA 	F	37
TERESA 	F	37
AINE 	F	36
ALANAH 	F	36
AMINAH 	F	36
ANEESAH 	F	36
ANN 	F	36
BAILEY 	F	36
CLOE 	F	36
DESTINY 	F	36
ELLISE 	F	36
KATERINA 	F	36
KEISHA 	F	36
KERI 	F	36
KRISTEN 	F	36
OCEAN 	F	36
REANNE 	F	36
RIANNE 	F	36
TASHA 	F	36
ALIYA 	F	35
AMIRA 	F	35
ASHLEA 	F	35
CAITLAN 	F	35
CHARLEE 	F	35
CORINNE 	F	35
JORJA 	F	35
KAJAL 	F	35
NEVE 	F	35
POOJA 	F	35
REBEKKA 	F	35
SARAH-JANE 	F	35
SHOLA 	F	35
SIDRA 	F	35
TASNEEM 	F	35
TESS 	F	35
ALEXA 	F	34
AMAL 	F	34
AMNA 	F	34
BERNADETTE 	F	34
CHANTAL 	F	34
ESTELLE 	F	34
GIORGIA 	F	34
HARMONY 	F	34
KATARINA 	F	34
KRISTIE 	F	34
LUISA 	F	34
MAARIYAH 	F	34
NEHA 	F	34
NICHOLA 	F	34
PAISLEY 	F	34
SHANTELLE 	F	34
ADELAIDE 	F	33
AMARA 	F	33
ASMA 	F	33
CHARLY 	F	33
ELEN 	F	33
ELERI 	F	33
FARRAH 	F	33
KATELYN 	F	33
KRYSTAL 	F	33
LEA 	F	33
LEANNA 	F	33
LILIAN 	F	33
MARTINA 	F	33
SHANIA 	F	33
TARYN 	F	33
AQSA 	F	32
ASHLEE 	F	32
ELENI 	F	32
ELLESSE 	F	32
ELSA 	F	32
GRACIE 	F	32
JAMILA 	F	32
JASPREET 	F	32
MAEVE 	F	32
MAXINE 	F	32
PHILLIPPA 	F	32
SANDRA 	F	32
SAOIRSE 	F	32
SUSANNA 	F	32
ABI 	F	31
ALEISHA 	F	31
ALIA 	F	31
ANGELICA 	F	31
CECILIA 	F	31
CHANICE 	F	31
CHERISE 	F	31
DAWN 	F	31
HUMAYRA 	F	31
MARISA 	F	31
NAIMA 	F	31
NATHALIE 	F	31
PENELOPE 	F	31
REANNA 	F	31
SHAKIRA 	F	31
SHERIDAN 	F	31
SUMAYYAH 	F	31
SUZANNA 	F	31
ZAYNAH 	F	31
ZHANE 	F	31
ALESSANDRA 	F	30
AMRITA 	F	30
AYLA 	F	30
CALLIE 	F	30
CHRISTIANA 	F	30
COLLEEN 	F	30
DEMI-LEE 	F	30
EMMIE 	F	30
LESLEY 	F	30
LINA 	F	30
MACKENZIE 	F	30
MANON 	F	30
MONTANA 	F	30
NAFISA 	F	30
PHILLIPA 	F	30
PRISCILLA 	F	30
RAHIMA 	F	30
RIYA 	F	30
SARAH-LOUISE 	F	30
ANAM 	F	29
ANN-MARIE 	F	29
BELINDA 	F	29
CHARLEIGH 	F	29
CHRISTY 	F	29
CORRIE 	F	29
FAIZA 	F	29
GEORGIANA 	F	29
HABIBA 	F	29
HERMIONE 	F	29
RADHIKA 	F	29
RAE 	F	29
RHIANN 	F	29
SHARMIN 	F	29
ABIDA 	F	28
AMRIT 	F	28
ANUM 	F	28
BRIANNA 	F	28
DANIKA 	F	28
DENISE 	F	28
KEELEIGH 	F	28
KIRSTIN 	F	28
LILI 	F	28
MANPREET 	F	28
MISBAH 	F	28
MOESHA 	F	28
PEYTON 	F	28
SAMARA 	F	28
SAMINA 	F	28
SHANI 	F	28
TAYA 	F	28
ARIANNE 	F	27
ATHENA 	F	27
BIBI 	F	27
CARLIE 	F	27
CASSIDY 	F	27
CHYNA 	F	27
DANI 	F	27
EILIDH 	F	27
GURPREET 	F	27
HARRIETT 	F	27
JANINE 	F	27
JOCELYN 	F	27
JORDANNA 	F	27
KELSEA 	F	27
KIRI 	F	27
MAIREAD 	F	27
MARI 	F	27
MATHILDA 	F	27
MISHA 	F	27
PIA 	F	27
SANAA 	F	27
SHANA 	F	27
SHELBIE 	F	27
SOMMER 	F	27
SOPHIE-LOUISE 	F	27
STORM 	F	27
TALITHA 	F	27
TRACY 	F	27
WENDY 	F	27
XANTHE 	F	27
ALESHA 	F	26
AMMAARAH 	F	26
ANGELINA 	F	26
ASIA 	F	26
BEVERLEY 	F	26
BROOKLYN 	F	26
CHANDNI 	F	26
CLARICE 	F	26
CRISTINA 	F	26
DANICA 	F	26
ELAINE 	F	26
ELLISHA 	F	26
ELOUISE 	F	26
FALLON 	F	26
HARPREET 	F	26
ISIS 	F	26
JOELY 	F	26
MARIELLA 	F	26
MASUMA 	F	26
NICHOLE 	F	26
NUR 	F	26
SELIN 	F	26
VERONICA 	F	26
YVONNE 	F	26
ABIGALE 	F	25
ABIGAYLE 	F	25
AGNES 	F	25
COLLETTE 	F	25
DANNIELLA 	F	25
ELLI 	F	25
ELYSE 	F	25
EMMY 	F	25
GILLIAN 	F	25
HAJRA 	F	25
HARRIETTE 	F	25
ISHA 	F	25
JUDITH 	F	25
KATIE-LOUISE 	F	25
KENDAL 	F	25
KOMAL 	F	25
LISA-MARIE 	F	25
NIKKITA 	F	25
NUALA 	F	25
PIPPA 	F	25
REEMA 	F	25
ROSEANNE 	F	25
TAMERA 	F	25
ALEESHA 	F	24
ALYX 	F	24
ANJALI 	F	24
AYSE 	F	24
BOBBI 	F	24
BUSHRA 	F	24
CAROL 	F	24
CLODAGH 	F	24
COURTNIE 	F	24
DOROTHY 	F	24
ELISA 	F	24
ELLICE 	F	24
HANIFA 	F	24
KADIE 	F	24
KAVITA 	F	24
MELISA 	F	24
NOOR 	F	24
PAMELA 	F	24
PORTIA 	F	24
PRECIOUS 	F	24
REMY 	F	24
RHIA 	F	24
ROSALIE 	F	24
ROSINA 	F	24
SAFIYYAH 	F	24
SORAYA 	F	24
TONISHA 	F	24
VIOLET 	F	24
XENA 	F	24
AAMINAH 	F	23
AMANI 	F	23
BETHANEY 	F	23
CAOIMHE 	F	23
CHERYL 	F	23
DEBBIE 	F	23
ELLENOR 	F	23
FATMA 	F	23
GLORIA 	F	23
HUMERA 	F	23
JAY 	F	23
JOYCE 	F	23
KIRANDEEP 	F	23
LORI 	F	23
NAFEESA 	F	23
NIMRA 	F	23
RACHELLE 	F	23
SHEENA 	F	23
TASLIMA 	F	23
TATIANA 	F	23
AFSANA 	F	22
ALISHIA 	F	22
ANIQA 	F	22
AYISHA 	F	22
CARINA 	F	22
CLEMENTINE 	F	22
CYDNEY 	F	22
DULCIE 	F	22
EMILEE 	F	22
GABRIELA 	F	22
GWEN 	F	22
HALEY 	F	22
HEBE 	F	22
HINA 	F	22
HUMAIRAA 	F	22
JADA 	F	22
JAYE 	F	22
JESSE 	F	22
JORDANA 	F	22
LEENA 	F	22
LORETTA 	F	22
LUCI 	F	22
MAISHA 	F	22
MARED 	F	22
MARIANNA 	F	22
NAZIFA 	F	22
OPHELIA 	F	22
PEARL 	F	22
RUKHSAR 	F	22
SHAMIMA 	F	22
SIDRAH 	F	22
SOFIE 	F	22
SONYA 	F	22
TIAH 	F	22
YASMEEN 	F	22
ZAHRAH 	F	22
ZENA 	F	22
ADELLE 	F	21
ALESSIA 	F	21
ARIANA 	F	21
BONITA 	F	21
CAMERON 	F	21
CECILY 	F	21
CHARLI 	F	21
DIANE 	F	21
DINA 	F	21
ELISSA 	F	21
ELLEANOR 	F	21
ELLESHA 	F	21
ELLY 	F	21
EMMELINE 	F	21
GERALDINE 	F	21
HEENA 	F	21
HOLLI 	F	21
JO 	F	21
LAUREL 	F	21
LETITIA 	F	21
MALI 	F	21
MONIKA 	F	21
MORWENNA 	F	21
NABILA 	F	21
NISHAT 	F	21
REA 	F	21
SAFIYA 	F	21
SHELLY 	F	21
SIANA 	F	21
TAMZIN 	F	21
URSULA 	F	21
WILLOW 	F	21
AAMINA 	F	20
ADRIANA 	F	20
AIYSHA 	F	20
ALLANA 	F	20
ANAIS 	F	20
BELLA 	F	20
CALLY 	F	20
CINDY 	F	20
CORTNEY 	F	20
DEANNE 	F	20
DIVYA 	F	20
ELICIA 	F	20
ELYSHA 	F	20
JAIMEE 	F	20
KATEY 	F	20
KIARA 	F	20
KLOE 	F	20
LAURAN 	F	20
LORRAINE 	F	20
MAARIYA 	F	20
MIKAYLA 	F	20
OCTAVIA 	F	20
PATSY 	F	20
POLLYANNA 	F	20
ROMANA 	F	20
SAMIHA 	F	20
TEMPANY 	F	20
VALENTINA 	F	20
VICKI 	F	20
YOLANDA 	F	20
ADINA 	F	19
ALYSSIA 	F	19
AMANDEEP 	F	19
AMBA 	F	19
AROOSA 	F	19
BARBARA 	F	19
CELESTE 	F	19
CHRISTABEL 	F	19
DEANA 	F	19
FARJANA 	F	19
IESHA 	F	19
JACINTA 	F	19
JANET 	F	19
KAISHA 	F	19
KIANA 	F	19
LAVINIA 	F	19
LEIGHA 	F	19
LILLI 	F	19
MARIYAH 	F	19
MUNA 	F	19
POPPIE 	F	19
RACHEAL 	F	19
RAEESA 	F	19
REAGAN 	F	19
RIKKI 	F	19
ROMY 	F	19
SHANIE 	F	19
TAMSYN 	F	19
ZOYA 	F	19
ALISSA 	F	18
ALYSHIA 	F	18
ANNEKA 	F	18
BEATRIX 	F	18
BERNICE 	F	18
CARMEL 	F	18
CHARITY 	F	18
CHAYA 	F	18
CORA 	F	18
EILIS 	F	18
ELEISHA 	F	18
ELISHIA 	F	18
EMILY-JANE 	F	18
FRANCINE 	F	18
GIULIA 	F	18
GWENLLIAN 	F	18
IKRAH 	F	18
IMANI 	F	18
INES 	F	18
IQRAH 	F	18
JACKIE 	F	18
JOELLE 	F	18
KACEY 	F	18
KAJOL 	F	18
KATYA 	F	18
KAYCEE 	F	18
KRISTA 	F	18
LATISHA 	F	18
LUCILLE 	F	18
MAISEY 	F	18
MARCIA 	F	18
MARIUM 	F	18
MIKAELA 	F	18
NANA 	F	18
NEAVE 	F	18
NORA 	F	18
PRINCESS 	F	18
REECE 	F	18
RIMA 	F	18
ROSEMARIE 	F	18
RUMANA 	F	18
SAHAR 	F	18
SAMEERA 	F	18
SAMIRAH 	F	18
SAMIYA 	F	18
SHAUNAGH 	F	18
SHAUNIE 	F	18
SHRIYA 	F	18
SYLVIA 	F	18
TABATHA 	F	18
ZAHRAA 	F	18
ZENAB 	F	18
AAMNA 	F	17
AIMIE 	F	17
AISLINN 	F	17
AMBREEN 	F	17
AMREEN 	F	17
ANEEKA 	F	17
ANNABELLA 	F	17
ASTRID 	F	17
BRENNA 	F	17
BRIA 	F	17
CARI 	F	17
CHERRY 	F	17
CHEYANNE 	F	17
CHRYSTAL 	F	17
ELANA 	F	17
ELIF 	F	17
FELICIA 	F	17
FENELLA 	F	17
FIONNUALA 	F	17
HAMIDA 	F	17
HESTER 	F	17
ISOBELLA 	F	17
JAYA 	F	17
KAI 	F	17
KAYLIE 	F	17
KOURTNEY 	F	17
LIBBIE 	F	17
LYNSEY 	F	17
MARIYAM 	F	17
MEHREEN 	F	17
MEHVISH 	F	17
NAILA 	F	17
NAKITA 	F	17
NAZISH 	F	17
PATRICE 	F	17
RAVEENA 	F	17
RIMSHA 	F	17
SABIHA 	F	17
SAFINA 	F	17
SAHRA 	F	17
SANYA 	F	17
SHAI 	F	17
SIENNA 	F	17
STARR 	F	17
STEFANIE 	F	17
SUMAYA 	F	17
TASNIA 	F	17
TAZMIN 	F	17
TEAGAN 	F	17
YUSRA 	F	17
ALISA 	F	16
ALLIYAH 	F	16
ALYCIA 	F	16
AMMARA 	F	16
AMMARAH 	F	16
AMY-JANE 	F	16
AMY-LEIGH 	F	16
ANNA-LOUISE 	F	16
AURORA 	F	16
BRONAGH 	F	16
CARAGH 	F	16
CARRIE-ANNE 	F	16
CATRINA 	F	16
CHERELLE 	F	16
CICELY 	F	16
CIERA 	F	16
FAIZAH 	F	16
FARIHA 	F	16
GRETA 	F	16
HAILEY 	F	16
HALEEMAH 	F	16
HARLEIGH 	F	16
HUSNA 	F	16
IONE 	F	16
JAIMIE 	F	16
JANELLE 	F	16
JORDEN 	F	16
KARLY 	F	16
KATHRINE 	F	16
KENYA 	F	16
KRISTIN 	F	16
LUBNA 	F	16
MAARIA 	F	16
MARWA 	F	16
NAIMAH 	F	16
NAZMIN 	F	16
NELL 	F	16
NIKISHA 	F	16
RAVEN 	F	16
REEM 	F	16
RHEANNA 	F	16
RICKI 	F	16
ROMANY 	F	16
SAMERA 	F	16
SEHRISH 	F	16
SHABNAM 	F	16
SHARNIE 	F	16
SHAYE 	F	16
SHEREEN 	F	16
STAR 	F	16
SUMAIYAH 	F	16
TAHLIA 	F	16
THALIA 	F	16
TILLIE 	F	16
VENETIA 	F	16
VIENNA 	F	16
ZARAH 	F	16
ZOEY 	F	16
ADRIANNE 	F	15
CAIT 	F	15
CAROLINA 	F	15
CATERINA 	F	15
CATHRYN 	F	15
COREY 	F	15
D'ARCY 	F	15
DARBY 	F	15
DELILAH 	F	15
ELANOR 	F	15
ELISIA 	F	15
ELLOUISE 	F	15
ERYN 	F	15
FATEMA 	F	15
FINLAY 	F	15
GEENA 	F	15
GRAINNE 	F	15
IFRAH 	F	15
IMAAN 	F	15
IRIS 	F	15
JENNIE 	F	15
JUDE 	F	15
KAYSHA 	F	15
KENDALL 	F	15
KEREN 	F	15
KHLOE 	F	15
MARYA 	F	15
MEAGAN 	F	15
MHAIRI 	F	15
NAJMA 	F	15
NASREEN 	F	15
NIRVANA 	F	15
RAEESAH 	F	15
REBECKA 	F	15
REBEKKAH 	F	15
RHIANA 	F	15
RUBINA 	F	15
RUQAYYAH 	F	15
SADIYAH 	F	15
SALINA 	F	15
SANNAH 	F	15
SARINA 	F	15
SHAREEN 	F	15
SHEREE 	F	15
SONAM 	F	15
SOPHY 	F	15
SUMAN 	F	15
TAHIRA 	F	15
TAMAR 	F	15
TANESHA 	F	15
XENIA 	F	15
YVETTE 	F	15
ZEBA 	F	15
AAISHA 	F	14
AKSA 	F	14
ALAW 	F	14
ALENA 	F	14
ALLANAH 	F	14
ALYSIA 	F	14
AMBER-LOUISE 	F	14
AMEENA 	F	14
ANDIE 	F	14
ANMOL 	F	14
ANOUSHKA 	F	14
ANOUSKA 	F	14
ANTOINETTE 	F	14
ASHLIE 	F	14
BAYLEIGH 	F	14
BLYTHE 	F	14
CELYN 	F	14
CHANTAY 	F	14
CORDELIA 	F	14
CORRINA 	F	14
COURTENAY 	F	14
DEMI-LEA 	F	14
EDIE 	F	14
EDITH 	F	14
ELIANA 	F	14
EMER 	F	14
EMMA-JANE 	F	14
ESHA 	F	14
GERI 	F	14
GIZEM 	F	14
HALIMAH 	F	14
HENA 	F	14
HIBAH 	F	14
JADINE 	F	14
JEMIMAH 	F	14
JESS 	F	14
JESSIKA 	F	14
JOAN 	F	14
JOLENE 	F	14
JULIANA 	F	14
KASIA 	F	14
KATELIN 	F	14
KATHY 	F	14
KEELIE 	F	14
KELSI 	F	14
LEIGH-ANNE 	F	14
MADIHA 	F	14
MAHNOOR 	F	14
MANDEEP 	F	14
MARIAN 	F	14
MARLEY 	F	14
MARY-JANE 	F	14
MONA 	F	14
NABEELA 	F	14
NADIYA 	F	14
NIKHITA 	F	14
NOSHIN 	F	14
OLIVE 	F	14
PALOMA 	F	14
PAULINE 	F	14
RENAE 	F	14
REZWANA 	F	14
RITA 	F	14
SAJIDA 	F	14
SEEMA 	F	14
SHAE 	F	14
SHANNAH 	F	14
SHANTEL 	F	14
SHARN 	F	14
SHAYLA 	F	14
SHEIKH 	F	14
SUMAIYA 	F	14
TALISHA 	F	14
TANITH 	F	14
TESNI 	F	14
VIRGINIA 	F	14
ZEINAB 	F	14
ZEYNEP 	F	14
AAISHAH 	F	13
ACACIA 	F	13
ADEEBA 	F	13
ALYCE 	F	13
AMBER-ROSE 	F	13
AMEERA 	F	13
ANABEL 	F	13
ANJA 	F	13
ANNALIESE 	F	13
ARIANNA 	F	13
ARZOO 	F	13
ASMAA 	F	13
AVNEET 	F	13
AYAN 	F	13
BLESSING 	F	13
CARIS 	F	13
CERISE 	F	13
CHANTELL 	F	13
CHERISH 	F	13
CODI 	F	13
DAINA 	F	13
DALIA 	F	13
DILAN 	F	13
EILEEN 	F	13
EIMEAR 	F	13
FARHEEN 	F	13
FINOLA 	F	13
FOZIA 	F	13
GAIA 	F	13
GEORGA 	F	13
GIOVANNA 	F	13
GISELLE 	F	13
HANAA 	F	13
HARSIMRAN 	F	13
HATTIE 	F	13
HELIN 	F	13
HIRA 	F	13
HUMA 	F	13
IZABELLA 	F	13
JANA 	F	13
JASKIRAN 	F	13
JAYMEE 	F	13
KAITLAN 	F	13
KAIYA 	F	13
KATHERYN 	F	13
KENDRA 	F	13
KIRSTYN 	F	13
KRISHNA 	F	13
LACIE 	F	13
LAETITIA 	F	13
LARNA 	F	13
LEIGH-ANN 	F	13
LIANA 	F	13
LIANE 	F	13
LINZI 	F	13
MABEL 	F	13
MALIKA 	F	13
MANDY 	F	13
MARA 	F	13
MARCELLA 	F	13
MICHA 	F	13
MINA 	F	13
MONET 	F	13
MYA 	F	13
NADA 	F	13
NAILAH 	F	13
NIDA 	F	13
NOSHEEN 	F	13
OLUWASEUN 	F	13
PANDORA 	F	13
PAVANDEEP 	F	13
RABIAH 	F	13
RIZWANA 	F	13
ROBIN 	F	13
ROMA 	F	13
SHANELLE 	F	13
SHERELLE 	F	13
SIMREN 	F	13
SIWAN 	F	13
SOBIA 	F	13
SONAL 	F	13
STEFANIA 	F	13
TUESDAY 	F	13
VIKKI 	F	13
WINIFRED 	F	13
AGATHA 	F	12
ALEEMA 	F	12
ALIMA 	F	12
AMEE 	F	12
ANEEQA 	F	12
ANISSA 	F	12
ANNA-MARIE 	F	12
ANNASTASIA 	F	12
AVRIL 	F	12
AZARIA 	F	12
BECKIE 	F	12
BETTY 	F	12
CARISSA 	F	12
CARRIGAN 	F	12
CHARLEA 	F	12
CHELSEA-LOUISE 	F	12
CHELSI 	F	12
CHINA 	F	12
COCO 	F	12
DAISIE 	F	12
DANNII 	F	12
DANYA 	F	12
DELYTH 	F	12
DEMI-LOUISE 	F	12
ELLIE-LOUISE 	F	12
ELLOISE 	F	12
FREJA 	F	12
GWENNAN 	F	12
HELEDD 	F	12
HONEY 	F	12
HUDA 	F	12
IFRA 	F	12
ISADORA 	F	12
JADENE 	F	12
JADZIA 	F	12
JASMYN 	F	12
JAYMIE 	F	12
JORDON 	F	12
KARIMA 	F	12
KATELAN 	F	12
KIYA 	F	12
KIZZY 	F	12
KYAH 	F	12
LATASHA 	F	12
LIVIA 	F	12
MADALAINE 	F	12
MADIHAH 	F	12
MAHA 	F	12
MARION 	F	12
MATHILDE 	F	12
MELLISSA 	F	12
MICHAELLA 	F	12
MILLI 	F	12
NADIRA 	F	12
NAZMA 	F	12
NICOL 	F	12
NICOLLE 	F	12
NOUR 	F	12
PRIMROSE 	F	12
RAZIA 	F	12
REBBECCA 	F	12
REBECA 	F	12
REENA 	F	12
RESHMA 	F	12
RHONA 	F	12
RILEY 	F	12
RIVKA 	F	12
ROSALYN 	F	12
ROXANNA 	F	12
RUKSAR 	F	12
SAIRAH 	F	12
SAMAH 	F	12
SANAM 	F	12
SANIA 	F	12
SASCHA 	F	12
SEHAR 	F	12
SHANNA 	F	12
SHAUNI 	F	12
SHAWNA 	F	12
SHAYNA 	F	12
SHERYL 	F	12
SIMRA 	F	12
SOMER 	F	12
SUMERA 	F	12
SYDNIE 	F	12
TANIKA 	F	12
TIARNA 	F	12
TOYAH 	F	12
TRACEY 	F	12
TYNE 	F	12
VIVIENNE 	F	12
WAHIDA 	F	12
ZOFIA 	F	12
AALIYA 	F	11
ABBEYGAIL 	F	11
ADA 	F	11
ADRIANNA 	F	11
AMAANI 	F	11
AMANA 	F	11
AMINAT 	F	11
ANNIKA 	F	11
ANSA 	F	11
AROOJ 	F	11
ASIYA 	F	11
AYA 	F	11
AYOMIDE 	F	11
BHAVINI 	F	11
BOBBY 	F	11
BRENDA 	F	11
BRYDIE 	F	11
CATARINA 	F	11
CERIAN 	F	11
CHIOMA 	F	11
CHLOE-ANN 	F	11
CORINNA 	F	11
DAISY-MAY 	F	11
DARYL 	F	11
DEBRA 	F	11
DELLA 	F	11
DEMILEIGH 	F	11
DEVAN 	F	11
DEVIKA 	F	11
DORA 	F	11
ELA 	F	11
ELEANORE 	F	11
ELENOR 	F	11
ELINA 	F	11
EMINE 	F	11
EMMANUELLE 	F	11
ESRA 	F	11
FABIENNE 	F	11
FATEHA 	F	11
FREYJA 	F	11
GENNA 	F	11
HAFIZA 	F	11
HALLE 	F	11
HAMDA 	F	11
HAWA 	F	11
HELOISE 	F	11
HEMA 	F	11
HILARY 	F	11
INDIANA 	F	11
INDIGO 	F	11
ISRA 	F	11
JADE-LOUISE 	F	11
JANNAT 	F	11
JASLEEN 	F	11
JAYDENE 	F	11
JENA 	F	11
KALEIGH 	F	11
KAYLEA 	F	11
KAZIA 	F	11
KELEIGH 	F	11
KELLY-MARIE 	F	11
KERENZA 	F	11
KIERAN 	F	11
KIREN 	F	11
KOREN 	F	11
KRISTAL 	F	11
KYM 	F	11
LATIFA 	F	11
LEONORA 	F	11
LORA 	F	11
MADDY 	F	11
MADELYN 	F	11
MAI 	F	11
MAIRI 	F	11
MAIZIE 	F	11
MALKA 	F	11
MARTINE 	F	11
MELINDA 	F	11
MELIS 	F	11
MERRYN 	F	11
MIAH 	F	11
MICHEALA 	F	11
MOLLI 	F	11
NAFISAH 	F	11
NASIMA 	F	11
NIMRAH 	F	11
NURUL 	F	11
ORIANNE 	F	11
RAEGAN 	F	11
RAMANDEEP 	F	11
REBEKA 	F	11
RENE 	F	11
RHIANON 	F	11
RIANA 	F	11
RONI 	F	11
RONNIE 	F	11
SAFIYAH 	F	11
SALIMA 	F	11
SAMMY 	F	11
SANIYA 	F	11
SELENA 	F	11
SHAHEEN 	F	11
SHANIECE 	F	11
SHANIKA 	F	11
SHANNICE 	F	11
SHARNI 	F	11
SHAY 	F	11
SHAZIA 	F	11
SHEILA 	F	11
SHELBI 	F	11
SHIRLEY 	F	11
SIMRUN 	F	11
SULTANA 	F	11
SYLVIE 	F	11
TABASSUM 	F	11
TALYA 	F	11
TAYLAR 	F	11
TEEGAN 	F	11
TERRIE 	F	11
TONI-MARIE 	F	11
WING 	F	11
ZAYNA 	F	11
ZOBIA 	F	11
AIESHA 	F	10
ALANTA 	F	10
ALEYSHA 	F	10
ALIESHA 	F	10
ALISHAH 	F	10
AMANPREET 	F	10
AMARAH 	F	10
AMENA 	F	10
ANEESHA 	F	10
ANGELIQUE 	F	10
ANNEMARIE 	F	10
ANNETTE 	F	10
ANNIE-ROSE 	F	10
ANNIS 	F	10
ANUSHKA 	F	10
ARIANE 	F	10
ASHER 	F	10
ATIYA 	F	10
AUDREY 	F	10
AVNI 	F	10
AYAH 	F	10
BERFIN 	F	10
BETHANNIE 	F	10
BETSY 	F	10
BHAVISHA 	F	10
BRIANA 	F	10
CANDY 	F	10
CARENZA 	F	10
CAREY 	F	10
CATHARINE 	F	10
CHANISE 	F	10
CHAVA 	F	10
CHE 	F	10
CHELCIE 	F	10
CHENICE 	F	10
CHERICE 	F	10
CORRINE 	F	10
DANIA 	F	10
DEENA 	F	10
DEMIE 	F	10
DENIZ 	F	10
DERVLA 	F	10
DIONE 	F	10
EBONIE 	F	10
EBRU 	F	10
ELLYSE 	F	10
EMILLIE 	F	10
ESMEE 	F	10
FAE 	F	10
FAWZIYAH 	F	10
FLAVIA 	F	10
FREDERICA 	F	10
GLESNI 	F	10
HAJAR 	F	10
HALINA 	F	10
HARLIE 	F	10
HIBA 	F	10
HINNA 	F	10
ILANA 	F	10
INGRID 	F	10
IRENE 	F	10
ISMA 	F	10
IVY 	F	10
JADE-MARIE 	F	10
JAINA 	F	10
JANNAH 	F	10
JAYNA 	F	10
JESSAMY 	F	10
JOANA 	F	10
KASHA 	F	10
KATHARINA 	F	10
KATJA 	F	10
KATRIONA 	F	10
KEMI 	F	10
KRISHMA 	F	10
KYMBERLEY 	F	10
LAKEISHA 	F	10
LATIFAH 	F	10
LEISHA 	F	10
LILIANA 	F	10
LORAN 	F	10
MADEEHA 	F	10
MAHMUDA 	F	10
MALAIKA 	F	10
MANAL 	F	10
MARTA 	F	10
MELODIE 	F	10
MERCY 	F	10
MICHELA 	F	10
MILAN 	F	10
MIRREN 	F	10
MOHINI 	F	10
MONTANNA 	F	10
NADIYAH 	F	10
NAFEESAH 	F	10
OLUWAKEMI 	F	10
OTTILIE 	F	10
PAGE 	F	10
PAYTON 	F	10
PHEBE 	F	10
RAHMA 	F	10
RANIA 	F	10
RHIANNAN 	F	10
RHYANNA 	F	10
RIAH 	F	10
ROSIE-MAY 	F	10
SABHA 	F	10
SAFAH 	F	10
SAHARA 	F	10
SAHIBA 	F	10
SALEHA 	F	10
SANDEEP 	F	10
SAVANAH 	F	10
SHABANA 	F	10
SHAKEELA 	F	10
SHAMA 	F	10
SHAMILA 	F	10
SHANIQUE 	F	10
SHARMILA 	F	10
SHERICE 	F	10
SHREYA 	F	10
SIENA 	F	10
SIMA 	F	10
SIMONA 	F	10
SORREL 	F	10
SYMONE 	F	10
TAIBA 	F	10
TAYAH 	F	10
TRUDIE 	F	10
UMA 	F	10
VANISHA 	F	10
VIVIAN 	F	10
VIVIEN 	F	10
WAHEEDA 	F	10
ZAKIA 	F	10
ZULEKHA 	F	10
AFREEN 	F	9
AICHA 	F	9
AILEEN 	F	9
AISHAT 	F	9
AKLIMA 	F	9
ALEAH 	F	9
ALEASHA 	F	9
ALLEGRA 	F	9
ALLIE 	F	9
ALLISON 	F	9
AMA 	F	9
AMYLEIGH 	F	9
ANIQAH 	F	9
ANNABELL 	F	9
ANTHEA 	F	9
AREEBA 	F	9
ASHIA 	F	9
ASHLYN 	F	9
BLISS 	F	9
BUSRA 	F	9
CALYPSO 	F	9
CAYLEIGH 	F	9
CEARA 	F	9
CEYDA 	F	9
CHANNON 	F	9
CHLOE-ANNE 	F	9
CLIONA 	F	9
CLOVER 	F	9
CORALIE 	F	9
DAKOTA 	F	9
DEEPA 	F	9
ELAINA 	F	9
ELAN 	F	9
ELLICIA 	F	9
ELLIE-MAI 	F	9
ELLIE-ROSE 	F	9
ELOISA 	F	9
EMAN 	F	9
ESTELLA 	F	9
EUNICE 	F	9
FAZILA 	F	9
GURSIMRAN 	F	9
HAJERA 	F	9
HANSA 	F	9
HASINA 	F	9
HELAINA 	F	9
HELENE 	F	9
IFEOLUWA 	F	9
IKRAM 	F	9
IQRAA 	F	9
ISHBEL 	F	9
IVANA 	F	9
JENIFER 	F	9
JORGIA 	F	9
JUSTICE 	F	9
JUWAIRIYYAH 	F	9
JYOTI 	F	9
KANWAL 	F	9
KARIN 	F	9
KASIE 	F	9
KASSIE 	F	9
KATARZYNA 	F	9
KEALY 	F	9
KEEGAN 	F	9
KEIGHLEY 	F	9
KERRIS 	F	9
KERRY-ANN 	F	9
KERRY-ANNE 	F	9
KHATIJA 	F	9
KIAYA 	F	9
KIESHA 	F	9
KINZA 	F	9
KYA 	F	9
LEIGHANNE 	F	9
LIANNA 	F	9
LIDIA 	F	9
LILIA 	F	9
LIZA 	F	9
LOWENNA 	F	9
LUCY-ANNE 	F	9
LULU 	F	9
LYNDSAY 	F	9
MAARYA 	F	9
MAIYA 	F	9
MALEEHA 	F	9
MALIHA 	F	9
MEHWISH 	F	9
MENNA 	F	9
MERYL 	F	9
MICAELA 	F	9
MINNIE 	F	9
MOLLY-ANNE 	F	9
MONISHA 	F	9
MURRON 	F	9
MYAH 	F	9
MYFANWY 	F	9
NABIHAH 	F	9
NATACHA 	F	9
NIEVE 	F	9
NOREEN 	F	9
NUSRAT 	F	9
OLUWADAMILOLA 	F	9
OLUWATOSIN 	F	9
ORLAGH 	F	9
PARRIS 	F	9
PASCALE 	F	9
PAYAL 	F	9
PHEOBE 	F	9
PHILOMENA 	F	9
RABIYA 	F	9
RASHIDA 	F	9
RAVNEET 	F	9
RAYANNE 	F	9
RHEANNE 	F	9
RHIANE 	F	9
ROMILLY 	F	9
ROSAMUND 	F	9
RUKSANA 	F	9
RUPINDER 	F	9
SADAF 	F	9
SADIYA 	F	9
SAKINA 	F	9
SALLY-ANN 	F	9
SAM 	F	9
SAMMY-JO 	F	9
SANDY 	F	9
SAVANA 	F	9
SEANA 	F	9
SERINA 	F	9
SHAHANA 	F	9
SHANAZ 	F	9
SHANEL 	F	9
SHANINE 	F	9
SHARNE 	F	9
SHELLIE 	F	9
SHERRIE 	F	9
SHIANNE 	F	9
SUMAYYA 	F	9
SUMER 	F	9
SUNDAS 	F	9
TAHIRAH 	F	9
TAMEKA 	F	9
TASHANA 	F	9
TATUM 	F	9
TAYYIBAH 	F	9
TEMITOPE 	F	9
TENISHA 	F	9
TERRI-ANN 	F	9
THEODORA 	F	9
TIRION 	F	9
TRISHA 	F	9
TRISHNA 	F	9
UMERA 	F	9
YASMINA 	F	9
ZAKIYYAH 	F	9
ZULAIKHA 	F	9
AASIYAH 	F	8
ABBIGALE 	F	8
ABBYGAIL 	F	8
ABIGAILE 	F	8
ABYGAIL 	F	8
ADELA 	F	8
ALAA 	F	8
ALECIA 	F	8
ALESHIA 	F	8
ALEXANDREA 	F	8
ALMAS 	F	8
AMINATA 	F	8
AMISHA 	F	8
ANEELA 	F	8
ANNALISA 	F	8
ANWEN 	F	8
ASTON 	F	8
ASYA 	F	8
AUGUSTA 	F	8
AURELIA 	F	8
AYEISHA 	F	8
AYLIN 	F	8
AYLISH 	F	8
BETHANI 	F	8
BLAISE 	F	8
BRANDI 	F	8
BREANNA 	F	8
BRITTANIE 	F	8
BROGHAN 	F	8
BRONYA 	F	8
BROOK 	F	8
CALLI 	F	8
CARLENE 	F	8
CHANA 	F	8
CHANELL 	F	8
CHARLIE-ANN 	F	8
CHRISTA 	F	8
CHYNNA 	F	8
CLARISSE 	F	8
COLBY 	F	8
CORINA 	F	8
COURTNAY 	F	8
COURTNEY-LEIGH 	F	8
CRESSIDA 	F	8
DARA 	F	8
DARIAN 	F	8
DEMPSEY 	F	8
DENA 	F	8
DENI 	F	8
DENNI 	F	8
DESIREE 	F	8
DILARA 	F	8
DIVINE 	F	8
DORCAS 	F	8
DUYGU 	F	8
EDA 	F	8
ELLYN 	F	8
EMEL 	F	8
EMMA-JAYNE 	F	8
EMMA-LEIGH 	F	8
ESMAE 	F	8
FATHIMA 	F	8
FRANCESSCA 	F	8
FRANCHESCA 	F	8
GAIL 	F	8
GEORGETTE 	F	8
GEORGI 	F	8
GEORGIA-MAE 	F	8
GEORGIANNA 	F	8
GWENNO 	F	8
HANAN 	F	8
HANIFAH 	F	8
HAYLIE 	F	8
HEAVEN 	F	8
HIFZA 	F	8
HOLLY-ANNE 	F	8
ILONA 	F	8
INEZ 	F	8
JADIE 	F	8
JAMIELEE 	F	8
JAMIELEIGH 	F	8
JANIE 	F	8
JANKI 	F	8
JAVERIA 	F	8
JAYME 	F	8
JAZMYN 	F	8
JEAN 	F	8
JERI 	F	8
JODIE-LEIGH 	F	8
JOLIE 	F	8
JORDANN 	F	8
JORDYN 	F	8
JUWAYRIYAH 	F	8
KALISHA 	F	8
KATHRYNE 	F	8
KATIE-ANNE 	F	8
KAYSIE 	F	8
KEA 	F	8
KEARA 	F	8
KERYS 	F	8
KEYLEIGH 	F	8
KHADEEJA 	F	8
KODIE 	F	8
KRUPA 	F	8
KUBRA 	F	8
LACY 	F	8
LANI 	F	8
LAURA-JANE 	F	8
LEAHA 	F	8
LEONNA 	F	8
LIAH 	F	8
LILY-MAY 	F	8
LISAMARIE 	F	8
LLINOS 	F	8
LORREN 	F	8
LUCIANA 	F	8
MALEEHAH 	F	8
MARIAMA 	F	8
MARIKA 	F	8
MARYANN 	F	8
MARYANNE 	F	8
MAUREEN 	F	8
MEAGHAN 	F	8
MELINA 	F	8
MELLISA 	F	8
MICHAL 	F	8
MIYA 	F	8
NABILAH 	F	8
NAEEMA 	F	8
NAHIMA 	F	8
NATASCHA 	F	8
NAVNEET 	F	8
NAYAAB 	F	8
NERYS 	F	8
NUSAYBAH 	F	8
OLAMIDE 	F	8
OPAL 	F	8
ORIANA 	F	8
PAGAN 	F	8
PERI 	F	8
PHOENIX 	F	8
PORSHA 	F	8
RAMSHA 	F	8
REMA 	F	8
ROHIMA 	F	8
RONNI 	F	8
RUKHSAAR 	F	8
RUQAIYAH 	F	8
RUQAYYA 	F	8
SABBAH 	F	8
SABINE 	F	8
SALLIE 	F	8
SAMEENA 	F	8
SAMMI 	F	8
SAMMIE 	F	8
SELMA 	F	8
SHAHNAZ 	F	8
SHAKILA 	F	8
SHANIQUA 	F	8
SHANNEL 	F	8
SHARMAINE 	F	8
SHARMINA 	F	8
SHAYMA 	F	8
SHELINA 	F	8
SHELLBY 	F	8
SIANNA 	F	8
SIGOURNEY 	F	8
SIMRAH 	F	8
SNEHA 	F	8
SONALI 	F	8
SUNITA 	F	8
SURAYA 	F	8
SUZIE 	F	8
SYMRAN 	F	8
TAISHA 	F	8
TANIYA 	F	8
TANZEELA 	F	8
TANZINA 	F	8
TASNIMA 	F	8
TAYBAH 	F	8
THAHMINA 	F	8
TONIE 	F	8
TRINITY 	F	8
TULSI 	F	8
TYLAH 	F	8
VALERIE 	F	8
WALLIS 	F	8
WILLA 	F	8
YARA 	F	8
YOCHEVED 	F	8
ZAHIRA 	F	8
ZAINUB 	F	8
ZEENAT 	F	8
ZEHRA 	F	8
AALIA 	F	7
AAMIRAH 	F	7
AARTI 	F	7
ABIGAEL 	F	7
ADEELA 	F	7
AILIS 	F	7
ALAINA 	F	7
ALETHEA 	F	7
ALIAH 	F	7
ALICJA 	F	7
ALISIA 	F	7
AMALIA 	F	7
AMAN 	F	7
AMARDEEP 	F	7
AMBAR 	F	7
AMELIE 	F	7
AMMIE 	F	7
ARAMINTA 	F	7
ASTRA 	F	7
AVALON 	F	7
AZRA 	F	7
BAYLEY 	F	7
BOBBIE-JO 	F	7
BRANWEN 	F	7
CAILIN 	F	7
CAITRIONA 	F	7
CAMILA 	F	7
CAROLYN 	F	7
CHAISE 	F	7
CHANIECE 	F	7
CHARELLE 	F	7
CHARLIE-ANNE 	F	7
CHELSEA-LEIGH 	F	7
CHELSEA-MARIE 	F	7
CHELSY 	F	7
CHENELLE 	F	7
CHEVONNE 	F	7
CHRISSIE 	F	7
CIAN 	F	7
CLAIR 	F	7
CORIE 	F	7
CORRIN 	F	7
CORY 	F	7
COURTNEY-JADE 	F	7
DANAE 	F	7
DAVINIA 	F	7
DEVINA 	F	7
DIMPLE 	F	7
DINAH 	F	7
EFFIE 	F	7
EIMER 	F	7
ELEANA 	F	7
ELEASHA 	F	7
ELIESHA 	F	7
ELISHEVA 	F	7
ELLA-LOUISE 	F	7
ELLE-MAE 	F	7
ELLIEMAY 	F	7
ELLINOR 	F	7
ELODIE 	F	7
ELYSSIA 	F	7
EMA 	F	7
EMILLY 	F	7
EMILY-MAY 	F	7
EMILY-ROSE 	F	7
EMMA-LEE 	F	7
EMMANUELLA 	F	7
EMMILY 	F	7
ERRIN 	F	7
ESMA 	F	7
EZGI 	F	7
FAATIMAH 	F	7
FABIA 	F	7
FABIHA 	F	7
FALAK 	F	7
FATHEMA 	F	7
FIONN 	F	7
FOLASADE 	F	7
GAGANDEEP 	F	7
GAYNOR 	F	7
GENEVA 	F	7
GEORGIA-LEIGH 	F	7
GEORGIA-LOUISE 	F	7
GEORGIA-MAY 	F	7
GEORGIA-ROSE 	F	7
HADASSAH 	F	7
HANAH 	F	7
HANNAH-MARIE 	F	7
HARDEEP 	F	7
HARVEEN 	F	7
HASEENA 	F	7
HASNA 	F	7
HEBA 	F	7
HIBO 	F	7
HODAN 	F	7
HOLLEY 	F	7
HOLLY-ANN 	F	7
HONOUR 	F	7
INDI 	F	7
INDIANNA 	F	7
ISHRAT 	F	7
IZABEL 	F	7
JASDEEP 	F	7
JASMINA 	F	7
JAVAIRIA 	F	7
JAZZMIN 	F	7
JENAI 	F	7
JILL 	F	7
JOHURA 	F	7
JONI 	F	7
JOSCELYN 	F	7
KAILEY 	F	7
KAINAAT 	F	7
KAINAT 	F	7
KARISS 	F	7
KARLI 	F	7
KARLIE 	F	7
KARYS 	F	7
KAYE 	F	7
KEALEIGH 	F	7
KELBY 	F	7
KELLY-ANNE 	F	7
KERRYANNE 	F	7
KESHIA 	F	7
KHADEEJAH 	F	7
KHADEJA 	F	7
KHADIZA 	F	7
KIANNA 	F	7
KIERRA 	F	7
KIMRAN 	F	7
KIRANJIT 	F	7
KIRBIE 	F	7
KIRRA 	F	7
KRISTI 	F	7
KULSUM 	F	7
LAINA 	F	7
LAKSHMI 	F	7
LAMARA 	F	7
LARAIB 	F	7
LEIGHANN 	F	7
LEONNIE 	F	7
LETICIA 	F	7
LINSEY 	F	7
LISHA 	F	7
LLIO 	F	7
LORELLE 	F	7
LUCY-ANN 	F	7
MADIYA 	F	7
MAGDALENA 	F	7
MAHEEN 	F	7
MAIR 	F	7
MAJA 	F	7
MARGUERITE 	F	7
MARIANA 	F	7
MARY-ANNE 	F	7
MARYUM 	F	7
MCKENZIE 	F	7
MEDINA 	F	7
MEGANE 	F	7
MEHAK 	F	7
MIMI 	F	7
MOMINA 	F	7
MORGANE 	F	7
MOYA 	F	7
MUNEEBA 	F	7
NAHIDA 	F	7
NAKISHA 	F	7
NATASJA 	F	7
NAVDEEP 	F	7
NAYAB 	F	7
NIAH 	F	7
NICKY 	F	7
NICOLETTE 	F	7
NIOMI 	F	7
NOA 	F	7
ODETTE 	F	7
OONAGH 	F	7
ORLAITH 	F	7
OYINKANSOLA 	F	7
PANAYIOTA 	F	7
PARYS 	F	7
PAYGE 	F	7
PERRI 	F	7
RAINE 	F	7
RANA 	F	7
REGINA 	F	7
REHANA 	F	7
RENA 	F	7
RIAN 	F	7
ROCHEL 	F	7
ROSE-MARIE 	F	7
ROSETTA 	F	7
ROSHEEN 	F	7
ROSY 	F	7
ROWANNE 	F	7
RUCHI 	F	7
RUMENA 	F	7
SAARA 	F	7
SABAA 	F	7
SABIA 	F	7
SAFEENA 	F	7
SAFIYYA 	F	7
SAHIRA 	F	7
SAJIDAH 	F	7
SALWA 	F	7
SAMAIRA 	F	7
SAMAR 	F	7
SAMEEN 	F	7
SAMIYAH 	F	7
SAPHIA 	F	7
SAPNA 	F	7
SAXON 	F	7
SEJAL 	F	7
SERIFE 	F	7
SHABINA 	F	7
SHAH 	F	7
SHAHINA 	F	7
SHAIMA 	F	7
SHAMAILA 	F	7
SHAMSA 	F	7
SHANADE 	F	7
SHANON 	F	7
SHARA 	F	7
SHARELLE 	F	7
SHARI 	F	7
SHAZMIN 	F	7
SHELDON 	F	7
SHENICE 	F	7
SHERI 	F	7
SHERIE 	F	7
SHERRY 	F	7
SHIRA 	F	7
SHOSHANA 	F	7
SHREENA 	F	7
SHUMA 	F	7
SHYLA 	F	7
SIANI 	F	7
SIBEL 	F	7
SIONA 	F	7
SONIYA 	F	7
SOPHINA 	F	7
SOROH 	F	7
STEFFI 	F	7
SUFIA 	F	7
SURIYA 	F	7
SUSIE 	F	7
SUZY 	F	7
TAIWO 	F	7
TAJA 	F	7
TALOR 	F	7
TAYBA 	F	7
TAYYABA 	F	7
TEJAL 	F	7
WARDA 	F	7
YELENA 	F	7
YETUNDE 	F	7
ZAIRA 	F	7
ZAKIYAH 	F	7
ZILAN 	F	7
AANISAH 	F	6
ABBIE-LOUISE 	F	6
ABIR 	F	6
ADAMA 	F	6
ADELINE 	F	6
AESHA 	F	6
AFIA 	F	6
AFIYAH 	F	6
AHLAM 	F	6
AIMEE-LEIGH 	F	6
ALARNA 	F	6
ALAYNA 	F	6
ALBA 	F	6
ALEEZA 	F	6
ALEJANDRA 	F	6
ALEKSANDRA 	F	6
ALIZA 	F	6
ALMA 	F	6
ALMAAS 	F	6
AMAYA 	F	6
AMERA 	F	6
AMNAH 	F	6
AMRAN 	F	6
AMYLEE 	F	6
ANILA 	F	6
ANJUM 	F	6
ANJUMA 	F	6
ANNA-LEIGH 	F	6
ANNA-MARIA 	F	6
ANNEST 	F	6
ANUSHA 	F	6
ARIA 	F	6
ARIAN 	F	6
ARIELLA 	F	6
ATHENE 	F	6
AUGUST 	F	6
AVITAL 	F	6
AYASHA 	F	6
AYMAN 	F	6
BEATRIZ 	F	6
BENITA 	F	6
BETHNEY 	F	6
BHAVIKA 	F	6
BIJAL 	F	6
BISMAH 	F	6
BLAZE 	F	6
BRACKEN 	F	6
BREEZE 	F	6
BRYONI 	F	6
BRYONIE 	F	6
CALI 	F	6
CALLA 	F	6
CANDACE 	F	6
CANSU 	F	6
CARIAD 	F	6
CARLEIGH 	F	6
CAROLANNE 	F	6
CASSIA 	F	6
CEINWEN 	F	6
CELINA 	F	6
CHARNELLE 	F	6
CHASE 	F	6
CHELSEE 	F	6
CHERI 	F	6
CHERISSE 	F	6
CHEYNE 	F	6
CHI 	F	6
CHLOE-LOUISE 	F	6
CHLOE-MARIE 	F	6
CHRISTIANNA 	F	6
CLEOPATRA 	F	6
CLIO 	F	6
CODEY 	F	6
CYNTHIA 	F	6
DAMARIS 	F	6
DAMLA 	F	6
DAPHNE 	F	6
DEEPIKA 	F	6
DELANEY 	F	6
DELPHI 	F	6
DENVER 	F	6
DERYN 	F	6
DEVORAH 	F	6
EDWINA 	F	6
ELESHA 	F	6
ELINORE 	F	6
ELLA-MAY 	F	6
ELLANA 	F	6
ELLEE 	F	6
ELLEY 	F	6
ELLIW 	F	6
EMERALD 	F	6
EMILY-JAYNE 	F	6
EMILY-LOUISE 	F	6
EMMI 	F	6
FAHEEMA 	F	6
FERNE 	F	6
FLORRIE 	F	6
FREDDIE 	F	6
GEMMA-LOUISE 	F	6
GINNY 	F	6
GIUSEPPINA 	F	6
HAJIRA 	F	6
HANI 	F	6
HANNAH-LOUISE 	F	6
HARKIRAN 	F	6
HARLEEN 	F	6
HARRIE 	F	6
HAYLEE 	F	6
HAZERA 	F	6
HODO 	F	6
IDIL 	F	6
IMOGENE 	F	6
INDYA 	F	6
IREM 	F	6
IRRAM 	F	6
IRUM 	F	6
ISHANI 	F	6
ISMAY 	F	6
IZZY 	F	6
JAE 	F	6
JAMIE-LOUISE 	F	6
JAMILAH 	F	6
JAYDEE 	F	6
JAYDEN 	F	6
JAZZ 	F	6
JEYDA 	F	6
JORDAINE 	F	6
JORGIE 	F	6
JUNE 	F	6
JUSTINA 	F	6
KAELA 	F	6
KAILA 	F	6
KALI 	F	6
KAMARA 	F	6
KARAM 	F	6
KARLEIGH 	F	6
KATIA 	F	6
KATIE-LEIGH 	F	6
KATIE-MARIE 	F	6
KAYLEIGH-ANNE 	F	6
KAYSEY 	F	6
KAYTLIN 	F	6
KEAH 	F	6
KEANNA 	F	6
KEESHA 	F	6
KEEVA 	F	6
KEHINDE 	F	6
KELCEY 	F	6
KENSEY 	F	6
KERENSA 	F	6
KERRYN 	F	6
KHANSA 	F	6
KHIA 	F	6
KIRANJEET 	F	6
KYESHA 	F	6
LACE 	F	6
LADY 	F	6
LAINE 	F	6
LAINEY 	F	6
LAMORNA 	F	6
LEAH-MARIE 	F	6
LORENA 	F	6
LYNDA 	F	6
LYNN 	F	6
LYRIC 	F	6
MADELYNE 	F	6
MAEGAN 	F	6
MAGAN 	F	6
MAGDALENE 	F	6
MAHRUKH 	F	6
MAIMUNA 	F	6
MAIRA 	F	6
MAKAYLA 	F	6
MARGAUX 	F	6
MARY-ANN 	F	6
MAUD 	F	6
MEGAN-LOUISE 	F	6
MEGAN-ROSE 	F	6
MEGHA 	F	6
MERYEM 	F	6
MIKALA 	F	6
MIRA 	F	6
MIRAIN 	F	6
MISCHA 	F	6
MOHIMA 	F	6
MOLLY-MAY 	F	6
MOMENA 	F	6
MUNIBAH 	F	6
MYRA 	F	6
NABEEHA 	F	6
NABEELAH 	F	6
NABIHA 	F	6
NADYA 	F	6
NASRA 	F	6
NATASSIA 	F	6
NATASSJA 	F	6
NATHANIA 	F	6
NAWAL 	F	6
NEENA 	F	6
NICKI 	F	6
NIKITTA 	F	6
NILIMA 	F	6
NISHMA 	F	6
NYREE 	F	6
OLUWATOBI 	F	6
OMOLARA 	F	6
OMOLOLA 	F	6
OREOLUWA 	F	6
OZGE 	F	6
PAIGHTON 	F	6
PAOLA 	F	6
PEACHES 	F	6
PERDITA 	F	6
PERRY 	F	6
PERSEPHONE 	F	6
RADHA 	F	6
RAINA 	F	6
RAJNI 	F	6
RANI 	F	6
RAPHAELLA 	F	6
RAQUEL 	F	6
RAVINA 	F	6
RAYA 	F	6
REAH 	F	6
REBEKHA 	F	6
RHIANNAH 	F	6
RIANNAH 	F	6
RIMINI 	F	6
ROMINA 	F	6
ROSEY 	F	6
ROZINA 	F	6
RUDI 	F	6
RUKIA 	F	6
RUMAYSA 	F	6
RYAN 	F	6
SABBA 	F	6
SABENA 	F	6
SAFAA 	F	6
SAGAL 	F	6
SAIBA 	F	6
SAIMAH 	F	6
SAJEDA 	F	6
SALEENA 	F	6
SALIHA 	F	6
SAMAN 	F	6
SAMEEHA 	F	6
SAMMI-JO 	F	6
SAMREEN 	F	6
SANCHIA 	F	6
SANGEETA 	F	6
SANJIDAH 	F	6
SARAI 	F	6
SARAYA 	F	6
SARENA 	F	6
SARISH 	F	6
SEHER 	F	6
SELEN 	F	6
SEONAID 	F	6
SEPHORA 	F	6
SERA 	F	6
SERENE 	F	6
SHAAN 	F	6
SHAISTA 	F	6
SHAJEDA 	F	6
SHAKERA 	F	6
SHANAY 	F	6
SHANISE 	F	6
SHANNELLE 	F	6
SHANNON-LOUISE 	F	6
SHANTE 	F	6
SHANTELL 	F	6
SHARLENE 	F	6
SHARLOTTE 	F	6
SHAUNA-LEIGH 	F	6
SHAUNNAH 	F	6
SHAZMEEN 	F	6
SHELLBIE 	F	6
SHIRIN 	F	6
SIDNEY 	F	6
SIDONIE 	F	6
SIMRANDEEP 	F	6
SIMRANPREET 	F	6
SINEM 	F	6
SITA 	F	6
SITI 	F	6
SOMIA 	F	6
SOPHIE-LEIGH 	F	6
SUAD 	F	6
SUMAIRA 	F	6
SUMIA 	F	6
SUMMA 	F	6
SUNNY 	F	6
SUZAN 	F	6
TAHNEE 	F	6
TAHSIN 	F	6
TAMIA 	F	6
TANSY 	F	6
TAOME 	F	6
TARAN 	F	6
TASMIA 	F	6
TASMINA 	F	6
TATE 	F	6
TAYMAR 	F	6
TEAH 	F	6
TEONA 	F	6
TIAN 	F	6
TIANNE 	F	6
TIFFANI 	F	6
TONIA 	F	6
TRUDY 	F	6
UMAYMAH 	F	6
UMME 	F	6
UNA 	F	6
UROOSA 	F	6
URVI 	F	6
VALENTINE 	F	6
VELVET 	F	6
VERA 	F	6
YAREN 	F	6
YUMNA 	F	6
ZAINA 	F	6
ZANA 	F	6
ZEENA 	F	6
ZITA 	F	6
ZOHA 	F	6
ZOHRA 	F	6
AAMENA 	F	5
ABBIGAYLE 	F	5
ABBYGALE 	F	5
ADEOLA 	F	5
ADERONKE 	F	5
ADILA 	F	5
ADILAH 	F	5
ADITI 	F	5
AFEEFAH 	F	5
AIMEE-LOUISE 	F	5
AINSLEY 	F	5
AKOSUA 	F	5
AKSAH 	F	5
ALABAMA 	F	5
ALANNIS 	F	5
ALAYA 	F	5
ALBANY 	F	5
ALISSIA 	F	5
ALIYYAH 	F	5
ALLANNA 	F	5
ALLYSHA 	F	5
ALYA 	F	5
ALYSON 	F	5
AMATULLAH 	F	5
AMBER-JADE 	F	5
AMBER-MARIE 	F	5
AMBERLY 	F	5
AMBIA 	F	5
AMBIKA 	F	5
AMEY 	F	5
AMY-JO 	F	5
AMY-LEE 	F	5
ANANYA 	F	5
ANASTAZIA 	F	5
ANDI 	F	5
ANESHA 	F	5
ANGIE 	F	5
ANNALEA 	F	5
ANNALEE 	F	5
ANNEKE 	F	5
ANNIE-MAY 	F	5
ANNMARIE 	F	5
ARIZONA 	F	5
ARMANI 	F	5
ATALANTA 	F	5
ATIYAH 	F	5
AYANNA 	F	5
BAILIE 	F	5
BECKI 	F	5
BEGUM 	F	5
BETHEN 	F	5
BILLY-JO 	F	5
BLAIZE 	F	5
BLOSSOM 	F	5
BONNY 	F	5
BRACHA 	F	5
BRADIE 	F	5
BRANDIE 	F	5
BRIGID 	F	5
BRIONEY 	F	5
BRITTANI 	F	5
BRYHER 	F	5
CAGLA 	F	5
CAITLAND 	F	5
CAPRI 	F	5
CARMELA 	F	5
CAROLANN 	F	5
CARRA 	F	5
CEIRA 	F	5
CERI-ANN 	F	5
CHANNEL 	F	5
CHANNELLE 	F	5
CHARDAE 	F	5
CHARISE 	F	5
CHARLOTTE-LOUISE 	F	5
CHELBY 	F	5
CHENISE 	F	5
CHERRIE 	F	5
CHINWE 	F	5
CHLOE-MAY 	F	5
CLAIRE-LOUISE 	F	5
CLAUDETTE 	F	5
CLEMENCY 	F	5
CORRAN 	F	5
CORYN 	F	5
COURTNEY-LEE 	F	5
DALLAS 	F	5
DARCI 	F	5
DARIA 	F	5
DEE 	F	5
DELPHINE 	F	5
DEMELZA 	F	5
DEMILEA 	F	5
DEQA 	F	5
DESPINA 	F	5
DHARA 	F	5
DIANNA 	F	5
DOMENICA 	F	5
DONIA 	F	5
EKTA 	F	5
ELEANER 	F	5
ELIS 	F	5
ELLA-ROSE 	F	5
ELLECIA 	F	5
ELLYSIA 	F	5
ELOUISA 	F	5
ELVA 	F	5
ELYCIA 	F	5
EMELIE 	F	5
ERINN 	F	5
ERUM 	F	5
ESTA 	F	5
EUGENIE 	F	5
FAAIZAH 	F	5
FAARIA 	F	5
FAHEEMAH 	F	5
FARIDA 	F	5
FARIHAH 	F	5
FARREN 	F	5
FARYAL 	F	5
FATIHA 	F	5
FAUZIA 	F	5
FAYZA 	F	5
FIZA 	F	5
FRANCHESKA 	F	5
GURJINDER 	F	5
GWYNETH 	F	5
HAAJIRA 	F	5
HADIQA 	F	5
HAJRAH 	F	5
HALEENA 	F	5
HALEMA 	F	5
HANISHA 	F	5
HARVINDER 	F	5
HASEEBA 	F	5
HATICE 	F	5
HAZAL 	F	5
HELEENA 	F	5
HETTIE 	F	5
HETTY 	F	5
HIRRA 	F	5
IDA 	F	5
ILAYDA 	F	5
INAS 	F	5
ISABELA 	F	5
ISABELL 	F	5
ISATOU 	F	5
JACEY 	F	5
JAI 	F	5
JAIMINI 	F	5
JANAKI 	F	5
JANAY 	F	5
JANICE 	F	5
JANNA 	F	5
JASMEET 	F	5
JAYCEE 	F	5
JAYDA 	F	5
JAZZMINE 	F	5
JEMMA-LOUISE 	F	5
JENELLE 	F	5
JENESSA 	F	5
JENNI 	F	5
JEORGIA 	F	5
KAAJAL 	F	5
KACIE 	F	5
KALLIE 	F	5
KAMILA 	F	5
KAMILAH 	F	5
KANEEZ 	F	5
KAR 	F	5
KARI 	F	5
KAROLINA 	F	5
KASHMIR 	F	5
KATIE-ROSE 	F	5
KATLYN 	F	5
KATRINE 	F	5
KATRYN 	F	5
KAYNAT 	F	5
KEALEY 	F	5
KEANA 	F	5
KELCIE 	F	5
KELLY-ANN 	F	5
KENDELL 	F	5
KENZA 	F	5
KESIA 	F	5
KIRAH 	F	5
KIZZIE 	F	5
KLARA 	F	5
KODI 	F	5
KORI 	F	5
KORRIE 	F	5
KRISTINE 	F	5
KYRAH 	F	5
LATESHA 	F	5
LATOYA 	F	5
LAURISSA 	F	5
LAVERNE 	F	5
LEANDRA 	F	5
LEEZA 	F	5
LEIAH 	F	5
LEILANI 	F	5
LEONE 	F	5
LETISHA 	F	5
LIAN 	F	5
LILA 	F	5
LILIE 	F	5
LILITH 	F	5
LILY-ANN 	F	5
LILY-MAE 	F	5
LIYAH 	F	5
LOGAN 	F	5
LONI 	F	5
LOREDANA 	F	5
LOWRIE 	F	5
LUCIANNA 	F	5
MAAME 	F	5
MADALENE 	F	5
MADALYN 	F	5
MADDALENA 	F	5
MADELENE 	F	5
MADIA 	F	5
MADINA 	F	5
MAEVA 	F	5
MAHALIA 	F	5
MAHUM 	F	5
MAIRE 	F	5
MAKENZIE 	F	5
MALLORY 	F	5
MAMIE 	F	5
MANJOT 	F	5
MARCIE 	F	5
MARGOT 	F	5
MARISHA 	F	5
MARNI 	F	5
MARTIKA 	F	5
MARY-BETH 	F	5
MASOOMA 	F	5
MAYMUNA 	F	5
MEENAKSHI 	F	5
MEESHA 	F	5
MEGHANN 	F	5
MEHR 	F	5
MELIKA 	F	5
MELITA 	F	5
MERVE 	F	5
MICHELE 	F	5
MIKI 	F	5
MIKKI 	F	5
MILENA 	F	5
MILLISSA 	F	5
MOIRA 	F	5
MOLLY-ANN 	F	5
MOLLY-JO 	F	5
MORAG 	F	5
MORGEN 	F	5
MORIOM 	F	5
MUMINAH 	F	5
NAEEMAH 	F	5
NAMRA 	F	5
NAZIRA 	F	5
NAZNEEN 	F	5
NEEMA 	F	5
NEEVE 	F	5
NERISSA 	F	5
NIK 	F	5
NIKI 	F	5
NISHI 	F	5
NITA 	F	5
NNEKA 	F	5
NOORA 	F	5
NORAH 	F	5
NUHA 	F	5
OCEA 	F	5
OLIVIA-ROSE 	F	5
OLUWABUKOLA 	F	5
OLUWASEYI 	F	5
OLYMPIA 	F	5
OZLEM 	F	5
PARISA 	F	5
PARVEEN 	F	5
PATIENCE 	F	5
PAYNTON 	F	5
PEGGY 	F	5
PERRIE 	F	5
PETRA 	F	5
PETRINA 	F	5
PINAR 	F	5
PRIA 	F	5
PUJA 	F	5
QUEENIE 	F	5
RADIA 	F	5
RAHEELA 	F	5
RAHEEMA 	F	5
RAIHANA 	F	5
RAISA 	F	5
RAISAH 	F	5
RAMEEN 	F	5
RASHA 	F	5
RAYNA 	F	5
RAYNOR 	F	5
RAZAN 	F	5
RAZWANA 	F	5
REBECCAH 	F	5
REEGAN 	F	5
REISS 	F	5
REMIE 	F	5
REO 	F	5
RHIANYDD 	F	5
RHODA 	F	5
RICHA 	F	5
RIDA 	F	5
RIFAT 	F	5
RIMAH 	F	5
RINA 	F	5
ROHANNA 	F	5
ROMAANA 	F	5
RONA 	F	5
ROWEN 	F	5
ROXANA 	F	5
ROXY 	F	5
RUBY-MAE 	F	5
RUHI 	F	5
RUJINA 	F	5
RUKAYYA 	F	5
RUKIYA 	F	5
RUMAANAH 	F	5
RUQIYA 	F	5
SAADIA 	F	5
SABEEN 	F	5
SABREENA 	F	5
SABRINE 	F	5
SADIAH 	F	5
SADIKA 	F	5
SAFFA 	F	5
SAIDA 	F	5
SAIRISH 	F	5
SAMA 	F	5
SAMRA 	F	5
SAMYA 	F	5
SANTANA 	F	5
SARA-JANE 	F	5
SARAN 	F	5
SARIKA 	F	5
SAYEDA 	F	5
SENIZ 	F	5
SENNEN 	F	5
SHAHIDA 	F	5
SHAINA 	F	5
SHALINI 	F	5
SHALOM 	F	5
SHAMEELAH 	F	5
SHAMIKA 	F	5
SHAN 	F	5
SHANAE 	F	5
SHANEY 	F	5
SHANNAGH 	F	5
SHARANJIT 	F	5
SHARIFA 	F	5
SHARMA 	F	5
SHEA 	F	5
SHEEMA 	F	5
SHEFALI 	F	5
SHEKINAH 	F	5
SHIREEN 	F	5
SHREEYA 	F	5
SHUHENA 	F	5
SHYANNE 	F	5
SIA 	F	5
SIAMA 	F	5
SIANNE 	F	5
SILA 	F	5
SIMRANJEET 	F	5
SIMRIT 	F	5
SOFI 	F	5
SOPHIE-JANE 	F	5
SOPHIE-MARIE 	F	5
STEVIE-LEE 	F	5
STEVIE-LEIGH 	F	5
STORME 	F	5
SUMAYAH 	F	5
SUMMAH 	F	5
SUNAINA 	F	5
SURAIYA 	F	5
TABETHA 	F	5
TAHREEM 	F	5
TAIBAH 	F	5
TAILA 	F	5
TALI 	F	5
TAMARAH 	F	5
TAMARRA 	F	5
TANAYA 	F	5
TANEESHA 	F	5
TANJIMA 	F	5
TANJINA 	F	5
TASIA 	F	5
TASMYN 	F	5
TATJANA 	F	5
TAWANA 	F	5
TAWNY 	F	5
TAYLAH 	F	5
TEGEN 	F	5
TELERI 	F	5
TELISHA 	F	5
TEMITAYO 	F	5
THANIYA 	F	5
THARA 	F	5
TIA-LOUISE 	F	5
TIFFINY 	F	5
TILLEY 	F	5
TRICIA 	F	5
TRUDI 	F	5
TYANNA 	F	5
UMAMAH 	F	5
UMARAH 	F	5
VAISHALI 	F	5
VASILIKI 	F	5
VENESSA 	F	5
VERONIKA 	F	5
VIOLA 	F	5
VISHALI 	F	5
WAFA 	F	5
WINNIE 	F	5
WINONA 	F	5
YAEL 	F	5
YANA 	F	5
YANNA 	F	5
YASAMIN 	F	5
YAZMINE 	F	5
YOUSRA 	F	5
YSABEL 	F	5
YUEN 	F	5
ZABRINA 	F	5
ZAINEB 	F	5
ZARINA 	F	5
ZOLA 	F	5
ZUBIA 	F	5
AAKIFAH 	F	4
AASIA 	F	4
ABISOLA 	F	4
ADAEZE 	F	4
ADEDAYO 	F	4
ADENA 	F	4
ADJOA 	F	4
AFNAN 	F	4
AFRA 	F	4
AFSHA 	F	4
AFSHAH 	F	4
AFSHAN 	F	4
AIDA 	F	4
AILA 	F	4
AIMA 	F	4
AIME 	F	4
AINSLIE 	F	4
AISHLING 	F	4
AISHWARYA 	F	4
AJA 	F	4
AJI 	F	4
ALANYA 	F	4
ALESI 	F	4
ALEXINA 	F	4
ALEYA 	F	4
ALIMAH 	F	4
ALTHEA 	F	4
ALVA 	F	4
ALYESHA 	F	4
ALYXANDRA 	F	4
AMAAL 	F	4
AMAARAH 	F	4
AMARNI 	F	4
AMBER-LEIGH 	F	4
AMBERLEY 	F	4
AMEERAH 	F	4
AMELIA-JANE 	F	4
AMIE-LOUISE 	F	4
AMILAH 	F	4
AMRA 	F	4
AMY-BETH 	F	4
ANDREIA 	F	4
ANEKA 	F	4
ANEST 	F	4
ANIA 	F	4
ANIKE 	F	4
ANISE 	F	4
ANNA-LEE 	F	4
ANNA-MAY 	F	4
ANNALIE 	F	4
ANNALIZE 	F	4
ANNELIESE 	F	4
ANNISA 	F	4
ANTONELLA 	F	4
ANTONIETTA 	F	4
ANUOLUWAPO 	F	4
APRYL 	F	4
AQEELAH 	F	4
ARCHANA 	F	4
AREFA 	F	4
ARIFA 	F	4
ARIFAH 	F	4
AROOB 	F	4
ARRIANNE 	F	4
ARWA 	F	4
ASHLING 	F	4
ASSIA 	F	4
ATHINA 	F	4
ATIA 	F	4
AVANI 	F	4
AYAAN 	F	4
AYANA 	F	4
AYEESHA 	F	4
AYESHAH 	F	4
AYSHE 	F	4
AZIZAH 	F	4
AZMINA 	F	4
BALDEEP 	F	4
BANITA 	F	4
BATSHEVA 	F	4
BAYLEE 	F	4
BEAU 	F	4
BECCI 	F	4
BELLE 	F	4
BERIVAN 	F	4
BETHANY-ANN 	F	4
BETHANY-JO 	F	4
BETHANY-ROSE 	F	4
BETHLEHEM 	F	4
BHAKTI 	F	4
BILLIE-JEAN 	F	4
BILLIE-RAE 	F	4
BILLY 	F	4
BISMA 	F	4
BLUE 	F	4
BOBBI-JO 	F	4
BOBBIE-LEIGH 	F	4
BREANNE 	F	4
BRITANY 	F	4
BRITNEY 	F	4
BRONIA 	F	4
BRONNEN 	F	4
BRYNIE 	F	4
BURCU 	F	4
BUSE 	F	4
CALLEY 	F	4
CAMEO 	F	4
CANDIS 	F	4
CARLOTTA 	F	4
CARMELLA 	F	4
CAROLE 	F	4
CARYL 	F	4
CASSEY 	F	4
CASSI 	F	4
CATHERINA 	F	4
CATHY 	F	4
CATIA 	F	4
CECILE 	F	4
CEIRE 	F	4
CEMILE 	F	4
CERIDWEN 	F	4
CERIS 	F	4
CEYLAN 	F	4
CHANCE 	F	4
CHANDA 	F	4
CHANDLER 	F	4
CHANTALLE 	F	4
CHARLETTE 	F	4
CHARMAIN 	F	4
CHARMIAN 	F	4
CHELBIE 	F	4
CHELSEA-LEE 	F	4
CHELSIE-LOUISE 	F	4
CHER 	F	4
CHESNEY 	F	4
CHEVELLE 	F	4
CHEY 	F	4
CHLOE-JADE 	F	4
CHOLE 	F	4
CIGDEM 	F	4
CLAIRA 	F	4
CLIODHNA 	F	4
COBY 	F	4
COLEEN 	F	4
COMFORT 	F	4
CONNOR 	F	4
CORAN 	F	4
COSIMA 	F	4
COURTNEY-LOUISE 	F	4
CRISTY 	F	4
CYDNIE 	F	4
DAIZY 	F	4
DAMILOLA 	F	4
DANAH 	F	4
DAVITA 	F	4
DELENN 	F	4
DELICIA 	F	4
DEMI-JAY 	F	4
DEMMI 	F	4
DERREN 	F	4
DERRYN 	F	4
DHANISHA 	F	4
DISNEY 	F	4
DIYA 	F	4
DOLLY 	F	4
DOMONIQUE 	F	4
DOROTHEA 	F	4
EBANY 	F	4
EBONI 	F	4
EBUNOLUWA 	F	4
ECHO 	F	4
EESHA 	F	4
EIREANN 	F	4
ELAIN 	F	4
ELISSE 	F	4
ELIVIA 	F	4
ELIZ 	F	4
ELIZAVETA 	F	4
ELLA-MAE 	F	4
ELLE-MAY 	F	4
ELLESE 	F	4
ELORA 	F	4
ELSBETH 	F	4
ELUNED 	F	4
EMI 	F	4
EMILEIGH 	F	4
EMILY-JO 	F	4
EMMA-JADE 	F	4
EMY 	F	4
ENIOLA 	F	4
ENO 	F	4
ENOLA 	F	4
EVAN 	F	4
EVANGELINA 	F	4
FAATIMA 	F	4
FAHIZA 	F	4
FAISA 	F	4
FARIAH 	F	4
FARNAZ 	F	4
FARRELL 	F	4
FATHEHA 	F	4
FATOU 	F	4
FATUMA 	F	4
FAWN 	F	4
FENN 	F	4
FFLUR 	F	4
FILZA 	F	4
FINLEY 	F	4
FINN 	F	4
FIONNA 	F	4
FIRDAWS 	F	4
FOLAKE 	F	4
FRANCIS 	F	4
FRANCISCA 	F	4
FREDA 	F	4
GABY 	F	4
GAMZE 	F	4
GENA 	F	4
GEORGE 	F	4
GERMAINE 	F	4
GIANNA 	F	4
GLORY 	F	4
GOLDIE 	F	4
GRACIA 	F	4
GULSHAN 	F	4
GUNAY 	F	4
GWENDOLINE 	F	4
HA 	F	4
HABIBAH 	F	4
HADIYA 	F	4
HAFIZAH 	F	4
HAJIRAH 	F	4
HALA 	F	4
HALEIGH 	F	4
HAMDI 	F	4
HAMERA 	F	4
HANAAN 	F	4
HANEEFAH 	F	4
HANEEN 	F	4
HANG 	F	4
HANIA 	F	4
HANNAH-ROSE 	F	4
HARJOT 	F	4
HARNEET 	F	4
HAWWA 	F	4
HAYAT 	F	4
HAYLEY-JANE 	F	4
HENNAH 	F	4
HIFSAH 	F	4
HIRAL 	F	4
HO 	F	4
HOLLY-MAE 	F	4
HUMAYRAA 	F	4
IBUKUNOLUWA 	F	4
IFFAT 	F	4
IFZA 	F	4
INAYAH 	F	4
INDERPREET 	F	4
INDIRA 	F	4
IOANNA 	F	4
ISLAY 	F	4
ISMAH 	F	4
ISOLDE 	F	4
ITALIA 	F	4
IYESHA 	F	4
IZABELA 	F	4
IZABELLE 	F	4
JACQUELYN 	F	4
JADESOLA 	F	4
JAGJIT 	F	4
JAID 	F	4
JAMI 	F	4
JAMIE-LEA 	F	4
JAMILLA 	F	4
JANAE 	F	4
JANEY 	F	4
JANINA 	F	4
JANITA 	F	4
JANVI 	F	4
JASKARAN 	F	4
JASMEEN 	F	4
JASMINDER 	F	4
JAVARIA 	F	4
JAYMEE-LEIGH 	F	4
JEANNIE 	F	4
JEENA 	F	4
JEEVAN 	F	4
JENNAH 	F	4
JERRY 	F	4
JESICA 	F	4
JESSICA-MAE 	F	4
JESSICA-ROSE 	F	4
JODEE 	F	4
JODIE-LEE 	F	4
JOEY 	F	4
JOLEY 	F	4
JORDANE 	F	4
JOURDAN 	F	4
JUDY 	F	4
JULIANNE 	F	4
JUMANA 	F	4
KA 	F	4
KADI 	F	4
KADISHA 	F	4
KAIJA 	F	4
KALEY 	F	4
KALLI 	F	4
KALLY 	F	4
KANA 	F	4
KAPRICE 	F	4
KARLEY 	F	4
KARMEN 	F	4
KARRIS 	F	4
KATELEN 	F	4
KATI 	F	4
KATIE-ANN 	F	4
KATIE-JANE 	F	4
KATIE-MAY 	F	4
KATRESE 	F	4
KAY-LEIGH 	F	4
KAYLAH 	F	4
KAYLEIGH-ANN 	F	4
KAZI 	F	4
KEILEIGH 	F	4
KERA 	F	4
KERRI-ANNE 	F	4
KERRIE-ANN 	F	4
KERRIE-ANNE 	F	4
KERRIGAN 	F	4
KERSHA 	F	4
KES 	F	4
KIRANDIP 	F	4
KIRIN 	F	4
KIRSTI 	F	4
KISHA 	F	4
KIYANA 	F	4
KOLSUMA 	F	4
KRISTIANA 	F	4
KYIA 	F	4
KYNA 	F	4
KYOMI 	F	4
LA 	F	4
LAMEES 	F	4
LAOISE 	F	4
LARISA 	F	4
LAURA-JAYNE 	F	4
LAXMI 	F	4
LAYNA 	F	4
LEANE 	F	4
LEE 	F	4
LEE-ANN 	F	4
LEEANN 	F	4
LEELA 	F	4
LEILAH 	F	4
LEXI 	F	4
LIMA 	F	4
LINNEA 	F	4
LISE 	F	4
LIZZIE 	F	4
LLEUCU 	F	4
LORELEI 	F	4
LORRETTA 	F	4
LOTTE 	F	4
LOUISHA 	F	4
LOULOU 	F	4
LUBABA 	F	4
LUCA 	F	4
LUCIENNE 	F	4
LUCKY 	F	4
LUCY-MAE 	F	4
LUCY-MAY 	F	4
LUKA 	F	4
LULA 	F	4
LYNETTE 	F	4
MADALEINE 	F	4
MADYSON 	F	4
MAGDA 	F	4
MAGENTA 	F	4
MAHFUZA 	F	4
MAHIMA 	F	4
MAIMOONAH 	F	4
MAJEDA 	F	4
MAKEDA 	F	4
MALA 	F	4
MANDIP 	F	4
MANEESHA 	F	4
MANIKA 	F	4
MANVEER 	F	4
MARIELLE 	F	4
MARILENA 	F	4
MARJANA 	F	4
MARLIE 	F	4
MARRIA 	F	4
MARRIUM 	F	4
MARTELL 	F	4
MARY-KATE 	F	4
MARYAMA 	F	4
MARYAN 	F	4
MARYLOU 	F	4
MATTIE 	F	4
MAUDE 	F	4
MAVISH 	F	4
MAYURI 	F	4
MEDI 	F	4
MEEGAN 	F	4
MEENA 	F	4
MEGANNE 	F	4
MEGGAN 	F	4
MEI 	F	4
MELISHA 	F	4
MELIZ 	F	4
MERIAM 	F	4
MERIEL 	F	4
MERYN 	F	4
MESHA 	F	4
MICHALA 	F	4
MILA 	F	4
MING 	F	4
MIRYAM 	F	4
MISBA 	F	4
MISTY 	F	4
MODUPE 	F	4
MOLLY-MAE 	F	4
MONIFAH 	F	4
MUNIRA 	F	4
NAA 	F	4
NAGINA 	F	4
NAGMA 	F	4
NAHEEDA 	F	4
NAIMH 	F	4
NAJIYAH 	F	4
NANCIE 	F	4
NARELLE 	F	4
NASEEMA 	F	4
NASHWA 	F	4
NASIRA 	F	4
NATISHA 	F	4
NAVJOT 	F	4
NAVPREET 	F	4
NEESHA 	F	4
NENEH 	F	4
NESTA 	F	4
NIALA 	F	4
NICHOL 	F	4
NICOLINA 	F	4
NICOLL 	F	4
NIDHI 	F	4
NIKETA 	F	4
NIKOLA 	F	4
NIMAH 	F	4
NIMISHA 	F	4
NISA 	F	4
NISHITA 	F	4
NON 	F	4
NOURA 	F	4
NOWSHIN 	F	4
NUMRA 	F	4
NYLA 	F	4
OLA 	F	4
OLAYEMI 	F	4
OLUWATOBILOBA 	F	4
OLUWATOMI 	F	4
OONA 	F	4
ORIANE 	F	4
PALLAVI 	F	4
PENNIE 	F	4
PERSIA 	F	4
POONAM 	F	4
PRABHJOT 	F	4
PREENA 	F	4
PREEYA 	F	4
PRIYAL 	F	4
QUEEN 	F	4
RABBIA 	F	4
RACHAL 	F	4
RACHELE 	F	4
RAHAT 	F	4
RAISHA 	F	4
RAKHEE 	F	4
RALIAT 	F	4
RAMISA 	F	4
RAMLA 	F	4
RAVEEN 	F	4
RAY 	F	4
RAYHANA 	F	4
RAYNE 	F	4
RAZEENA 	F	4
REANNON 	F	4
REBBECA 	F	4
REBECCA-LOUISE 	F	4
REBECKAH 	F	4
REKHA 	F	4
RENU 	F	4
RHEANNON 	F	4
RHONDA 	F	4
RIANNON 	F	4
RIDHI 	F	4
RISHA 	F	4
RIVER 	F	4
ROANNA 	F	4
ROHINI 	F	4
ROSALIA 	F	4
ROSHAN 	F	4
ROSLYN 	F	4
ROZEENA 	F	4
RUHENA 	F	4
RUKAIYA 	F	4
RUKSHANA 	F	4
RUNA 	F	4
RUZINA 	F	4
RYA 	F	4
RYANNE 	F	4
SAALIHAH 	F	4
SABIYA 	F	4
SAFIYE 	F	4
SAHANA 	F	4
SAHIMA 	F	4
SAIKA 	F	4
SAISHA 	F	4
SAJNI 	F	4
SAKINAH 	F	4
SALEEMA 	F	4
SALEMA 	F	4
SALIHAH 	F	4
SALIMAH 	F	4
SALMAA 	F	4
SAMANTA 	F	4
SAMEERAH 	F	4
SAMI 	F	4
SAMIAH 	F	4
SAMIHAH 	F	4
SARAH-JAYNE 	F	4
SAREENA 	F	4
SARIAH 	F	4
SAWDA 	F	4
SAYEEDA 	F	4
SEANAGH 	F	4
SEDA 	F	4
SEETAL 	F	4
SENA 	F	4
SERISH 	F	4
SHAANA 	F	4
SHADE 	F	4
SHAGUFTA 	F	4
SHAHARA 	F	4
SHAHIMA 	F	4
SHAMEELA 	F	4
SHAMIM 	F	4
SHANAI 	F	4
SHANIAH 	F	4
SHANNIE 	F	4
SHARLA 	F	4
SHARNAH 	F	4
SHARNAI 	F	4
SHARNAY 	F	4
SHARNNA 	F	4
SHAUNA-LEA 	F	4
SHAUNAH 	F	4
SHEINA 	F	4
SHELBEY 	F	4
SHEVAUN 	F	4
SHIONA 	F	4
SHUME 	F	4
SHWETA 	F	4
SIDHRA 	F	4
SIERRA 	F	4
SIMARAN 	F	4
SIMISOLA 	F	4
SIMRANJIT 	F	4
SKIE 	F	4
SOFINA 	F	4
SOFIYA 	F	4
SOMAYYA 	F	4
SONJA 	F	4
SOPHIE-MAY 	F	4
SOPHIE-ROSE 	F	4
STAISHA 	F	4
STEPHENIE 	F	4
STEVI 	F	4
SUE 	F	4
SUMAH 	F	4
SUMMAR 	F	4
SUNNA 	F	4
SURINA 	F	4
SYDNEE 	F	4
SYRA 	F	4
TAHERA 	F	4
TAI 	F	4
TAJAH 	F	4
TALA 	F	4
TALLULA 	F	4
TAMINA 	F	4
TAMMI 	F	4
TANEKA 	F	4
TANZILA 	F	4
TARA-JADE 	F	4
TARANPREET 	F	4
TARIN 	F	4
TASHARNA 	F	4
TATYANA 	F	4
TAVIA 	F	4
TAYABA 	F	4
TAYLOR-ANN 	F	4
TAYYEBA 	F	4
TEA 	F	4
TEIA 	F	4
TENNILLE 	F	4
TERI-ANN 	F	4
TERRI-ANNE 	F	4
TERRI-LOUISE 	F	4
TEYA 	F	4
THAMANNA 	F	4
THAMINA 	F	4
THANIA 	F	4
THASLIMA 	F	4
THEADORA 	F	4
THERESE 	F	4
THUY 	F	4
TIA-ROSE 	F	4
TIARA 	F	4
TIGER 	F	4
TILDA 	F	4
TIYANNA 	F	4
TOLULOPE 	F	4
TONI-LEIGH 	F	4
TRULY 	F	4
TUGCE 	F	4
TULA 	F	4
UCHENNA 	F	4
UMARA 	F	4
UZOAMAKA 	F	4
VALERIA 	F	4
VICKIE 	F	4
WAI 	F	4
WAJIHAH 	F	4
WITNEY 	F	4
YOLANDE 	F	4
YSABELLA 	F	4
YUKI 	F	4
ZAHIDA 	F	4
ZAIBA 	F	4
ZAINAH 	F	4
ZAKIYA 	F	4
ZAKIYYA 	F	4
ZARQA 	F	4
ZARRIN 	F	4
ZEYNAB 	F	4
ZOE-LOUISE 	F	4
ZOWIE 	F	4
ZULAIKHAH 	F	4
AA'ISHAH 	F	3
AALIAH 	F	3
AAMIRA 	F	3
AANYA 	F	3
AATIKA 	F	3
AATIQAH 	F	3
ABAGAIL 	F	3
ABBEYGALE 	F	3
ABBIE-JO 	F	3
ABBIE-LEIGH 	F	3
ABBIEGAIL 	F	3
ABBIEGALE 	F	3
ABBYGAYLE 	F	3
ABEDA 	F	3
ABENA 	F	3
ABIE 	F	3
ABIMBOLA 	F	3
ABINAYA 	F	3
ABIRAMI 	F	3
ABRAR 	F	3
ABY 	F	3
ABYAN 	F	3
ADARA 	F	3
ADEDOYIN 	F	3
ADEENA 	F	3
ADEL 	F	3
ADETOLA 	F	3
ADONIA 	F	3
ADRIEN 	F	3
AERIN 	F	3
AFEEFA 	F	3
AFIFA 	F	3
AFIFAH 	F	3
AFRICA 	F	3
AFSARA 	F	3
AFSHEEN 	F	3
AIDEEN 	F	3
AILBHE 	F	3
AILISHA 	F	3
AIMAN 	F	3
AIMIEE 	F	3
AIMY 	F	3
AINSLEIGH 	F	3
AISYA 	F	3
AIYA 	F	3
AIYANA 	F	3
AKILAH 	F	3
AKUA 	F	3
ALARA 	F	3
ALASKA 	F	3
ALAYAH 	F	3
ALEYNA 	F	3
ALIAA 	F	3
ALICE-MAE 	F	3
ALIEA 	F	3
ALINE 	F	3
ALIS 	F	3
ALISHA-MARIE 	F	3
ALISHEA 	F	3
ALIXANDRA 	F	3
ALLA 	F	3
ALLISHA 	F	3
ALONA 	F	3
ALYSHEA 	F	3
AMALIE 	F	3
AMANDINE 	F	3
AMANIE 	F	3
AMARACHI 	F	3
AME 	F	3
AMEENAH 	F	3
AMEL 	F	3
AMELIA-ROSE 	F	3
AMETHYST 	F	3
AMMA 	F	3
AMMAARA 	F	3
AMUN 	F	3
AMY-MAY 	F	3
AMYLEA 	F	3
ANABELLE 	F	3
ANDRIANNA 	F	3
ANESA 	F	3
ANEZKA 	F	3
ANFAL 	F	3
ANGELIKA 	F	3
ANIELA 	F	3
ANIELLA 	F	3
ANIESHA 	F	3
ANITHA 	F	3
ANKITA 	F	3
ANNA-MAE 	F	3
ANNA-ROSE 	F	3
ANNAH 	F	3
ANNALESE 	F	3
ANNAM 	F	3
ANNAMARIE 	F	3
ANNELI 	F	3
ANNELISE 	F	3
ANNICE 	F	3
ANNIE-MAE 	F	3
ANNISHA 	F	3
ANNUM 	F	3
ANOKHI 	F	3
ANONA 	F	3
ANOUK 	F	3
APHRA 	F	3
ARIANWEN 	F	3
ARIELLE 	F	3
ARISA 	F	3
ARLENE 	F	3
AROUSA 	F	3
ARYA 	F	3
ASHLEAH 	F	3
ASHLI 	F	3
ASHLIN 	F	3
ASHNI 	F	3
ASHWINI 	F	3
ASIAH 	F	3
ASIYAH 	F	3
ASRA 	F	3
ATALYA 	F	3
ATIFA 	F	3
ATINUKE 	F	3
ATIYYAH 	F	3
ATLANTIS 	F	3
AVIGAIL 	F	3
AVITA 	F	3
AWEL 	F	3
AWO 	F	3
AYAKA 	F	3
AYEASHA 	F	3
AYESHIA 	F	3
AYLISHA 	F	3
AYSA 	F	3
AYSEL 	F	3
AYSHEA 	F	3
AZEEMA 	F	3
AZIZA 	F	3
BABITA 	F	3
BAHAR 	F	3
BAILLIE 	F	3
BAYA 	F	3
BECA 	F	3
BEIBHINN 	F	3
BELEN 	F	3
BENEDICTE 	F	3
BERYL 	F	3
BESSIE 	F	3
BETHANY-ANNE 	F	3
BETHENY 	F	3
BEULAH 	F	3
BHAVNEET 	F	3
BHUMIKA 	F	3
BILLIE-JAY 	F	3
BILLIE-JOE 	F	3
BILLIE-MAY 	F	3
BILLIEJO 	F	3
BINAL 	F	3
BINTA 	F	3
BLAIRE 	F	3
BLAKE 	F	3
BO 	F	3
BRANDY 	F	3
BRIANNAH 	F	3
BRIANNE 	F	3
BRIAR 	F	3
BRIDE 	F	3
BRIERLEY 	F	3
BRIGIT 	F	3
BRITANNY 	F	3
BRITTANNY 	F	3
BRITTONY 	F	3
BROGEN 	F	3
BROMWYN 	F	3
BROOKLYNE 	F	3
BRUCHA 	F	3
BRYONEY 	F	3
BRYONNY 	F	3
BUDDUG 	F	3
CADI 	F	3
CAIRA 	F	3
CAITLAIN 	F	3
CAITLEN 	F	3
CAITLUN 	F	3
CAITLYNN 	F	3
CALEY 	F	3
CAMELLIA 	F	3
CAMILLIA 	F	3
CAMISHA 	F	3
CANSEL 	F	3
CARI-ANN 	F	3
CARLI 	F	3
CARLISHA 	F	3
CARLY-ANNE 	F	3
CARRIE-ANN 	F	3
CARRIEANNE 	F	3
CARRIS 	F	3
CASEY-JANE 	F	3
CASEY-LEE 	F	3
CASEY-LEIGH 	F	3
CASSIE-ANN 	F	3
CASSY 	F	3
CECILIE 	F	3
CEE-JAY 	F	3
CEEJAY 	F	3
CEMALIYE 	F	3
CERYN 	F	3
CHALICE 	F	3
CHANDRIKA 	F	3
CHANTAE 	F	3
CHARDONAY 	F	3
CHARLEY-ANN 	F	3
CHARLEY-ANNE 	F	3
CHARLEY-LOUISE 	F	3
CHARLIE-LOUISE 	F	3
CHARNA 	F	3
CHARNE 	F	3
CHARNEY 	F	3
CHARYS 	F	3
CHAUNTELLE 	F	3
CHAYE 	F	3
CHELSEA-ANN 	F	3
CHENAY 	F	3
CHERIDAN 	F	3
CHERRELLE 	F	3
CHEVON 	F	3
CHLOE-ROSE 	F	3
CHLOEY 	F	3
CHRISSY 	F	3
CHRISTALLA 	F	3
CHRISTI 	F	3
CLARRISA 	F	3
CLODIE 	F	3
CORI 	F	3
CORIN 	F	3
CORNELIA 	F	3
CORRYN 	F	3
COURTNEE 	F	3
COURTNEY-JANE 	F	3
COURTNEY-MARIE 	F	3
COURTNEY-PAIGE 	F	3
CRISTA 	F	3
CYAN 	F	3
CYRA 	F	3
DAENA 	F	3
DAHLIA 	F	3
DAISI 	F	3
DAISY-MAE 	F	3
DAISY-MAI 	F	3
DALE 	F	3
DAMINI 	F	3
DANISHA 	F	3
DANNI-LEIGH 	F	3
DANYELLE 	F	3
DARRIAN 	F	3
DARSHANA 	F	3
DAYLE 	F	3
DEANNA-MARIE 	F	3
DEARBHLA 	F	3
DEEPALI 	F	3
DEEVA 	F	3
DEIRDRE 	F	3
DEMEE 	F	3
DEMI-MARIE 	F	3
DEMILEE 	F	3
DENISHA 	F	3
DERYA 	F	3
DESTINEE 	F	3
DEVANSHI 	F	3
DEWAN 	F	3
DIAMOND 	F	3
DIANDRA 	F	3
DIELLZA 	F	3
DIMITRA 	F	3
DISHA 	F	3
DJAMILA 	F	3
DORSA 	F	3
DOYINSOLA 	F	3
EANNA 	F	3
EBBIE 	F	3
ECE 	F	3
EDDI 	F	3
EDIL 	F	3
EDINA 	F	3
EISHA 	F	3
EITHNE 	F	3
ELANNA 	F	3
ELEANOR-ROSE 	F	3
ELENYA 	F	3
ELEONORE 	F	3
ELHAM 	F	3
ELISHEBA 	F	3
ELISSIA 	F	3
ELIZE 	F	3
ELKIE 	F	3
ELLA-MARIE 	F	3
ELLAMAY 	F	3
ELLE-JO 	F	3
ELLE-MAI 	F	3
ELLE-ROSE 	F	3
ELLIE-JAE 	F	3
ELLIE-JANE 	F	3
ELLIE-JAY 	F	3
ELLIE-JO 	F	3
ELLIESE 	F	3
ELLISA 	F	3
ELLISON 	F	3
ELLISSE 	F	3
ELLORA 	F	3
ELYNOR 	F	3
EMEFA 	F	3
EMELINE 	F	3
EMILEY 	F	3
EMMA-JO 	F	3
EMMA-LEA 	F	3
EMMALENE 	F	3
EMMALOUISE 	F	3
ENA 	F	3
ENNA 	F	3
EPIPHANY 	F	3
ERYKAH 	F	3
ESHE 	F	3
ESMERALDA 	F	3
ESTER 	F	3
EUGENIA 	F	3
EVELINA 	F	3
EVELINE 	F	3
EVELYNNE 	F	3
EVIE-ROSE 	F	3
EZME 	F	3
EZRA 	F	3
FABIANA 	F	3
FADUMA 	F	3
FAHRIN 	F	3
FARHA 	F	3
FARHAT 	F	3
FARZEEN 	F	3
FATEMAH 	F	3
FATIN 	F	3
FATOUMATA 	F	3
FAYOLA 	F	3
FEARN 	F	3
FELESHA 	F	3
FILIZ 	F	3
FINTY 	F	3
FOLASHADE 	F	3
FRANCESKA 	F	3
FRANKI 	F	3
FRANZISKA 	F	3
GABBY 	F	3
GABRIELE 	F	3
GAGANPREET 	F	3
GEMIMA 	F	3
GEORGENA 	F	3
GEORGY 	F	3
GERRI 	F	3
GHAZALA 	F	3
GHULAM 	F	3
GILA 	F	3
GIORGINA 	F	3
GOPIKA 	F	3
GREER 	F	3
GULSAH 	F	3
GURKIRAN 	F	3
GURLEEN 	F	3
GURNEET 	F	3
GURSHARON 	F	3
HAAJARAH 	F	3
HADEEL 	F	3
HADEEQAH 	F	3
HADIA 	F	3
HADIKA 	F	3
HADIYAH 	F	3
HADIZA 	F	3
HAFEEZA 	F	3
HAIDEE 	F	3
HAIKA 	F	3
HALAINA 	F	3
HANEEFA 	F	3
HANIAH 	F	3
HANNAA 	F	3
HARISAH 	F	3
HARJINDER 	F	3
HARLEE 	F	3
HARMEET 	F	3
HARRIS 	F	3
HARSIMRAT 	F	3
HAVANA 	F	3
HAYA 	F	3
HAZRA 	F	3
HEERAL 	F	3
HELAYNA 	F	3
HEMMA 	F	3
HENAL 	F	3
HEPHZIBAH 	F	3
HEULWEN 	F	3
HIBAAQ 	F	3
HIFSA 	F	3
HILDA 	F	3
HIMANI 	F	3
HINAL 	F	3
HIROKO 	F	3
HOI 	F	3
HOLLIE-ANNE 	F	3
HOLLY-LOUISE 	F	3
HOUDA 	F	3
HUMAIRAH 	F	3
HUMARA 	F	3
HUMMA 	F	3
IANTHE 	F	3
IFSA 	F	3
IJEOMA 	F	3
IKEOLUWA 	F	3
ILHAM 	F	3
ILHAN 	F	3
ILSA 	F	3
IMANA 	F	3
IMELDA 	F	3
INDEA 	F	3
INDIAH 	F	3
INOLA 	F	3
IOLA 	F	3
IONI 	F	3
IRELAND 	F	3
ISRAH 	F	3
JABEEN 	F	3
JACE 	F	3
JACIE 	F	3
JACQUI 	F	3
JADEAN 	F	3
JADEEN 	F	3
JAIDA 	F	3
JAIDE 	F	3
JAINABA 	F	3
JAINI 	F	3
JAMAICA 	F	3
JAMEELA 	F	3
JAMELIA 	F	3
JAMEY 	F	3
JANANI 	F	3
JANNATUL 	F	3
JASBIR 	F	3
JASKIRAT 	F	3
JASMYNE 	F	3
JASNEET 	F	3
JASVEEN 	F	3
JASVINDER 	F	3
JASWINDER 	F	3
JAYLEIGH 	F	3
JAZ 	F	3
JEANETTE 	F	3
JEANNA 	F	3
JEANNE 	F	3
JEMILA 	F	3
JEMINA 	F	3
JENAE 	F	3
JENEVIEVE 	F	3
JENIKA 	F	3
JENINE 	F	3
JERUSHA 	F	3
JESCA 	F	3
JESSAMINE 	F	3
JESSAMYN 	F	3
JESSI 	F	3
JESSICA-JADE 	F	3
JESSIE-LEIGH 	F	3
JESSIE-MAY 	F	3
JESSIKAH 	F	3
JESSY 	F	3
JILLIAN 	F	3
JIORDAN 	F	3
JO-ANNE 	F	3
JODHI 	F	3
JODIE-MAY 	F	3
JODINE 	F	3
JOHANNAH 	F	3
JOLEEN 	F	3
JORGE 	F	3
JORJIA 	F	3
JOSE 	F	3
JOSEY 	F	3
JOSIE-LEIGH 	F	3
JOURDAIN 	F	3
JOVANA 	F	3
JOYA 	F	3
JUHI 	F	3
JUMAIMA 	F	3
JUWAYRIA 	F	3
KADIZA 	F	3
KADY 	F	3
KAHLAN 	F	3
KAIA 	F	3
KAILEE 	F	3
KAILEIGH 	F	3
KAITLEN 	F	3
KAJA 	F	3
KALIE 	F	3
KALIFA 	F	3
KALILA 	F	3
KAMALDEEP 	F	3
KAMALJIT 	F	3
KAMISHA 	F	3
KANAKO 	F	3
KANISHA 	F	3
KARANDEEP 	F	3
KAREEMAH 	F	3
KARIMAH 	F	3
KARINE 	F	3
KARISHA 	F	3
KARLEE 	F	3
KARMA 	F	3
KARRIGAN 	F	3
KARRINA 	F	3
KARYN 	F	3
KASTHURI 	F	3
KATELYNE 	F	3
KATIEANNE 	F	3
KATISHA 	F	3
KATLIN 	F	3
KATRIN 	F	3
KATRYNA 	F	3
KAYDI 	F	3
KAYLEIGH-LOUISE 	F	3
KAYLEIGH-MARIE 	F	3
KAYLIEGH 	F	3
KC 	F	3
KEARNA 	F	3
KEAVY 	F	3
KEELI 	F	3
KEERAT 	F	3
KEILA 	F	3
KEILEY 	F	3
KEIRRA 	F	3
KELCI 	F	3
KELLEY 	F	3
KELLY-JO 	F	3
KELSA 	F	3
KELSEY-LEIGH 	F	3
KELSY 	F	3
KENDEL 	F	3
KENNA 	F	3
KENZIE 	F	3
KERI-ANN 	F	3
KERIS 	F	3
KERRY-LOUISE 	F	3
KERRYANN 	F	3
KERYN 	F	3
KESHA 	F	3
KETSIA 	F	3
KEYA 	F	3
KHADIGA 	F	3
KHADIJAT 	F	3
KHAILA 	F	3
KHALIDA 	F	3
KHALISAH 	F	3
KHAWLA 	F	3
KHIZRA 	F	3
KHUSHALI 	F	3
KIEGAN 	F	3
KIERAH 	F	3
KIMBERLEE 	F	3
KIMBERLEIGH 	F	3
KIMIA 	F	3
KIMIYA 	F	3
KINJAL 	F	3
KIONA 	F	3
KIRA-NERYS 	F	3
KIRANPREET 	F	3
KIRANVEER 	F	3
KIRSTY-MARIE 	F	3
KIRTI 	F	3
KIYAH 	F	3
KLAUDIA 	F	3
KOWSAR 	F	3
KRYSTINA 	F	3
KYLER 	F	3
KYRIA 	F	3
KYRIAKI 	F	3
KYRIE 	F	3
LADAN 	F	3
LAIKEN 	F	3
LAILAH 	F	3
LAIQA 	F	3
LAISHA 	F	3
LAKESHA 	F	3
LAKISHA 	F	3
LAMIA 	F	3
LAREB 	F	3
LASHAN 	F	3
LASHARN 	F	3
LASHARNE 	F	3
LATIA 	F	3
LATITIA 	F	3
LATOYAH 	F	3
LAURA-ANNE 	F	3
LAURA-BETH 	F	3
LAURI 	F	3
LAURICE 	F	3
LAURREN 	F	3
LAYNE 	F	3
LEANA 	F	3
LEANN 	F	3
LEASHA 	F	3
LEE-ANNE 	F	3
LEEMA 	F	3
LEIGH-ANNA 	F	3
LEINA 	F	3
LELAINA 	F	3
LENNIE 	F	3
LEONNE 	F	3
LEONY 	F	3
LETTY 	F	3
LEXIE 	F	3
LIBBI 	F	3
LILAC 	F	3
LILLY-MAY 	F	3
LILY-ANNE 	F	3
LILY-MAI 	F	3
LILY-ROSE 	F	3
LINH 	F	3
LIORA 	F	3
LISETTE 	F	3
LLIWEN 	F	3
LORIEN 	F	3
LOUANNE 	F	3
LOUELLA 	F	3
LOUIZA 	F	3
LUANA 	F	3
LUANNE 	F	3
LUCHIA 	F	3
LUCRETIA 	F	3
LUCY-ANNA 	F	3
LUCY-JAYNE 	F	3
LUCYANNE 	F	3
LUISE 	F	3
LUNED 	F	3
LUWAM 	F	3
MACEY 	F	3
MACHAELA 	F	3
MACIE 	F	3
MACY 	F	3
MADALIN 	F	3
MADALINE 	F	3
MADEHA 	F	3
MADHVI 	F	3
MAGDALEN 	F	3
MAHAM 	F	3
MAHBUBA 	F	3
MAHDIYYAH 	F	3
MAHIDA 	F	3
MAHIRA 	F	3
MAHISHA 	F	3
MAHNAZ 	F	3
MAIGAN 	F	3
MAISIE-JANE 	F	3
MAIVISH 	F	3
MALINI 	F	3
MANINDER 	F	3
MANJINDER 	F	3
MARIE-CLAIRE 	F	3
MARIEM 	F	3
MARIESHA 	F	3
MARIETTE 	F	3
MARIGOLD 	F	3
MARIHAH 	F	3
MARINE 	F	3
MARLA 	F	3
MARLENE 	F	3
MARLI 	F	3
MARRIYAH 	F	3
MARY-JAYNE 	F	3
MARY-LOU 	F	3
MARY-LOUISE 	F	3
MARYAH 	F	3
MARYIAM 	F	3
MARZANA 	F	3
MATTEA 	F	3
MAWGAN 	F	3
MAXIME 	F	3
MAYESHA 	F	3
MEADHBH 	F	3
MEGAN-LEIGH 	F	3
MEGGIE 	F	3
MEGHNA 	F	3
MEHMOONA 	F	3
MEI-LING 	F	3
MEINIR 	F	3
MEISHA 	F	3
MELAINA 	F	3
MELAINE 	F	3
MELENA 	F	3
MELVINA 	F	3
MEMOONA 	F	3
MEMUNA 	F	3
MERAL 	F	3
MERCEDIE 	F	3
MEREL 	F	3
MERIEM 	F	3
MERISSA 	F	3
MERITA 	F	3
MERLE 	F	3
MIA-LOUISE 	F	3
MICAH 	F	3
MIKAH 	F	3
MIKEALA 	F	3
MILLA 	F	3
MOLLIE-ANN 	F	3
MOLLIE-ANNE 	F	3
MOMINAH 	F	3
MONAE 	F	3
MONEEBA 	F	3
MONIFA 	F	3
MONIRA 	F	3
MOONISAH 	F	3
MORENIKE 	F	3
MORGANA 	F	3
MOSAMMAT 	F	3
MOTUNRAYO 	F	3
MOYOSORE 	F	3
MU'MINAH 	F	3
MUHSINA 	F	3
MUNEEBAH 	F	3
MUNIRAH 	F	3
MURREN 	F	3
MUSAMMAT 	F	3
MUSAMMOD 	F	3
NAAILA 	F	3
NADENE 	F	3
NADIN 	F	3
NADJA 	F	3
NAFEEZA 	F	3
NAIOMI 	F	3
NAJAH 	F	3
NANAMI 	F	3
NARGIS 	F	3
NASEEM 	F	3
NASRIN 	F	3
NASTASSJA 	F	3
NATALIJA 	F	3
NATANYA 	F	3
NATASIA 	F	3
NATE 	F	3
NATHALIA 	F	3
NAUSHEEN 	F	3
NAYANA 	F	3
NAYLA 	F	3
NAZMEEN 	F	3
NAZMINA 	F	3
NAZNIN 	F	3
NEDA 	F	3
NEELUM 	F	3
NEGIN 	F	3
NEISHA 	F	3
NENA 	F	3
NESHA 	F	3
NETTA 	F	3
NGOC 	F	3
NHI 	F	3
NIDAH 	F	3
NIDHA 	F	3
NIKOLE 	F	3
NIKOU 	F	3
NILA 	F	3
NILANI 	F	3
NIMO 	F	3
NISBAH 	F	3
NISHATH 	F	3
NJERI 	F	3
NOHA 	F	3
NOLA 	F	3
NUSHRAT 	F	3
NUSRATH 	F	3
NUZHAT 	F	3
NYOMI 	F	3
OGECHI 	F	3
OLOLADE 	F	3
OLUTOMI 	F	3
OLUWADARA 	F	3
OLUWAPELUMI 	F	3
OLUWATOMISIN 	F	3
OLUWATOYIN 	F	3
OLUWATUMININU 	F	3
OMOLADE 	F	3
OMOTOLA 	F	3
OMOWUNMI 	F	3
ONOME 	F	3
OPEOLUWA 	F	3
OPEYEMI 	F	3
ORIANNA 	F	3
PAAYAL 	F	3
PAGEN 	F	3
PAIGEN 	F	3
PAKEEZAH 	F	3
PAULINA 	F	3
PENINA 	F	3
PHILIPA 	F	3
PHOEBIE 	F	3
PHYLLIDA 	F	3
PIPER 	F	3
POPPI 	F	3
PORCIA 	F	3
PRABJOT 	F	3
PRINA 	F	3
PRITI 	F	3
PURDY 	F	3
QUDSIYAH 	F	3
RA'EESAH 	F	3
RABAB 	F	3
RACHNA 	F	3
RACQUEL 	F	3
RADEYAH 	F	3
RADIYAH 	F	3
RAE-ANNE 	F	3
RAEANNE 	F	3
RAFIA 	F	3
RAHBIA 	F	3
RAHELA 	F	3
RAHILA 	F	3
RAHIMAH 	F	3
RAIZEL 	F	3
RAJNA 	F	3
RAJVINDER 	F	3
RAKHI 	F	3
RAKIYA 	F	3
RAMEESHA 	F	3
RAMESHA 	F	3
RAMISHA 	F	3
RAMONE 	F	3
RANYA 	F	3
RAPHAELA 	F	3
RASHAUN 	F	3
RASHEEDA 	F	3
RASHIDAT 	F	3
RASNA 	F	3
RAWAN 	F	3
RAYAN 	F	3
RAYANN 	F	3
RAYANNA 	F	3
REANN 	F	3
REANNAH 	F	3
REBA 	F	3
REESE 	F	3
REHA 	F	3
REHANNA 	F	3
REISEL 	F	3
REMMI 	F	3
RENATA 	F	3
RENAY 	F	3
RENEA 	F	3
RENEECE 	F	3
RHIAIN 	F	3
RIANN 	F	3
RIARNA 	F	3
RIDDHI 	F	3
RIFAH 	F	3
RIKAYA 	F	3
RIONA 	F	3
RISAKO 	F	3
ROBBYN 	F	3
ROBINA 	F	3
ROMESA 	F	3
ROMILY 	F	3
ROSALEEN 	F	3
ROSAMOND 	F	3
ROSANNE 	F	3
ROSEANN 	F	3
ROSEMIN 	F	3
ROSHANA 	F	3
ROSITA 	F	3
ROXI 	F	3
ROYA 	F	3
ROZALIA 	F	3
RUBEENA 	F	3
RUBIE 	F	3
RUKHSANA 	F	3
RUMER 	F	3
RUMINA 	F	3
RYANNA 	F	3
SAADIAH 	F	3
SABAHAT 	F	3
SABEEHA 	F	3
SABEENA 	F	3
SABERA 	F	3
SABIRA 	F	3
SACHI 	F	3
SAE 	F	3
SAEEDA 	F	3
SAFFIA 	F	3
SAFFIYAH 	F	3
SAFI 	F	3
SAFIAH 	F	3
SAFIRA 	F	3
SAHDIA 	F	3
SAHER 	F	3
SAKEENA 	F	3
SAKSHI 	F	3
SALI 	F	3
SALIA 	F	3
SALLY-ANNE 	F	3
SALOME 	F	3
SALONI 	F	3
SAMEEYA 	F	3
SAMERAH 	F	3
SANEELA 	F	3
SANJANA 	F	3
SAPHINA 	F	3
SAPHIRE 	F	3
SAPHRON 	F	3
SAPPHIRA 	F	3
SARAHLOUISE 	F	3
SARITA 	F	3
SARRA 	F	3
SARRAH 	F	3
SAUDAH 	F	3
SAVANAGH 	F	3
SAYEMA 	F	3
SAYRA 	F	3
SCARLETTE 	F	3
SCOUT 	F	3
SEANNA 	F	3
SEERAT 	F	3
SEHR 	F	3
SELENE 	F	3
SELINE 	F	3
SEMA 	F	3
SEMHAR 	F	3
SERAFINA 	F	3
SERAN 	F	3
SERAPHINA 	F	3
SEREENA 	F	3
SEVCAN 	F	3
SEVDA 	F	3
SHADI 	F	3
SHADIA 	F	3
SHAFAQ 	F	3
SHAHENA 	F	3
SHAHIRA 	F	3
SHAIANNE 	F	3
SHAILEE 	F	3
SHAIMAA 	F	3
SHAIRA 	F	3
SHAJIDA 	F	3
SHALEIGH 	F	3
SHALEY 	F	3
SHALINA 	F	3
SHAMILAH 	F	3
SHAMINA 	F	3
SHANE 	F	3
SHANEECE 	F	3
SHANELL 	F	3
SHANITA 	F	3
SHANNAY 	F	3
SHANNON-MARIE 	F	3
SHANTA 	F	3
SHANTAI 	F	3
SHANTAY 	F	3
SHAQUILLA 	F	3
SHAREE 	F	3
SHARIAH 	F	3
SHARICE 	F	3
SHARIQA 	F	3
SHARNEE 	F	3
SHARNELLE 	F	3
SHARONJEET 	F	3
SHARONJIT 	F	3
SHAUNTELLE 	F	3
SHAVONNE 	F	3
SHAWNEE 	F	3
SHAWNIE 	F	3
SHAYLEIGH 	F	3
SHAYMAA 	F	3
SHEIKA 	F	3
SHEKIRA 	F	3
SHEMA 	F	3
SHENAE 	F	3
SHENAY 	F	3
SHENIKA 	F	3
SHENIZ 	F	3
SHEREECE 	F	3
SHERENE 	F	3
SHERIECE 	F	3
SHERRI 	F	3
SHIALA 	F	3
SHIAN 	F	3
SHIANN 	F	3
SHIMA 	F	3
SHIRELLE 	F	3
SHIVALI 	F	3
SHONAGH 	F	3
SHORIFA 	F	3
SHREE 	F	3
SHRUTHI 	F	3
SHRUTI 	F	3
SHYANN 	F	3
SIANIE 	F	3
SIDDIQA 	F	3
SIDDIQAH 	F	3
SIHAM 	F	3
SILAN 	F	3
SILVIA 	F	3
SIMERAN 	F	3
SIMGE 	F	3
SIMI 	F	3
SIMMONE 	F	3
SIMRATH 	F	3
SINDY 	F	3
SIRIOL 	F	3
SITARA 	F	3
SIVAN 	F	3
SIYA 	F	3
SOHINI 	F	3
SOKAINA 	F	3
SOMAYA 	F	3
SONA 	F	3
SOPHIE-JO 	F	3
SOPHIEANN 	F	3
SORA 	F	3
SORRELLE 	F	3
STASSY 	F	3
STEFFANIE 	F	3
STEPHANI 	F	3
STEVIE-JO 	F	3
STEVIE-LOUISE 	F	3
SUBRINA 	F	3
SUGRA 	F	3
SUHA 	F	3
SUHAYLAH 	F	3
SUKHDEEP 	F	3
SUKI 	F	3
SULTAN 	F	3
SUMIYYA 	F	3
SUMMAYA 	F	3
SUMMER-LOUISE 	F	3
SUNDAY 	F	3
SUNDHAS 	F	3
SUNIA 	F	3
SUNNAH 	F	3
SUNSHINE 	F	3
SUSANA 	F	3
SUSANNE 	F	3
SWATI 	F	3
T'YANNA 	F	3
TAAIBAH 	F	3
TABASSAM 	F	3
TAEGAN 	F	3
TAHIA 	F	3
TAHIYA 	F	3
TAHSEEN 	F	3
TAIA 	F	3
TAL 	F	3
TALIAH 	F	3
TAMASIN 	F	3
TAMI 	F	3
TAMLIN 	F	3
TAMMIE 	F	3
TANGINA 	F	3
TANICHA 	F	3
TANISHIA 	F	3
TANJILA 	F	3
TANNA 	F	3
TARA-MARIE 	F	3
TARAH 	F	3
TARANDEEP 	F	3
TARANNUM 	F	3
TASFIA 	F	3
TASHAN 	F	3
TASLEEM 	F	3
TASLEEMA 	F	3
TASMIAH 	F	3
TAYLA-ANN 	F	3
TAYLOR-JANE 	F	3
TAYLOR-JAYNE 	F	3
TAYYIBA 	F	3
TEAN 	F	3
TEJA 	F	3
TEMIDAYO 	F	3
TEMILOLA 	F	3
TENESHA 	F	3
TERRI-LEIGH 	F	3
THANH 	F	3
THOMASINA 	F	3
TILLI 	F	3
TINASHE 	F	3
TINIKA 	F	3
TISHA 	F	3
TIYA 	F	3
TIYANA 	F	3
TOBY 	F	3
TOLUWALOPE 	F	3
TOLUWANIMI 	F	3
TOMMY 	F	3
TONIKA 	F	3
TONYA 	F	3
TORAL 	F	3
TORI-LEIGH 	F	3
TRACIE 	F	3
TREA 	F	3
TREVYN 	F	3
TROI 	F	3
TRYPHENA 	F	3
TYA 	F	3
TYANA 	F	3
TYESHA 	F	3
UBAH 	F	3
UMAH 	F	3
UMAIMA 	F	3
UMAIRA 	F	3
UMM 	F	3
URVASHI 	F	3
USMA 	F	3
VARSHA 	F	3
VEENA 	F	3
VERONIQUE 	F	3
VIDA 	F	3
VIVIANA 	F	3
WAN 	F	3
WASIMA 	F	3
WEDNESDAY 	F	3
XANTIA 	F	3
YAA 	F	3
YAGMUR 	F	3
YAIZA 	F	3
YELIZ 	F	3
YEMAYA 	F	3
YEN 	F	3
YING 	F	3
YSOBEL 	F	3
YSOBELLA 	F	3
YU 	F	3
YVES 	F	3
ZAAKIRAH 	F	3
ZALIKA 	F	3
ZANNA 	F	3
ZAREENA 	F	3
ZARIN 	F	3
ZARKA 	F	3
ZARTASHA 	F	3
ZEA 	F	3
ZELDA 	F	3
ZENIB 	F	3
ZENOBIA 	F	3
ZENUB 	F	3
ZIA 	F	3
ZIANA 	F	3
ZILLAH 	F	3
ZINA 	F	3

