JACK 	M	9,785
THOMAS 	M	9,454
JAMES 	M	8,748
JOSHUA 	M	7,275
DANIEL 	M	6,935
MATTHEW 	M	6,152
SAMUEL 	M	6,123
JOSEPH 	M	5,875
CALLUM 	M	5,587
WILLIAM 	M	5,287
RYAN 	M	5,080
LUKE 	M	4,982
LEWIS 	M	4,916
HARRY 	M	4,914
BENJAMIN 	M	4,559
JORDAN 	M	4,466
LIAM 	M	4,350
GEORGE 	M	4,286
OLIVER 	M	3,958
ALEXANDER 	M	3,951
ADAM 	M	3,931
CONNOR 	M	3,786
JAKE 	M	3,427
CAMERON 	M	3,181
NATHAN 	M	2,870
MICHAEL 	M	2,869
KIERAN 	M	2,777
JACOB 	M	2,746
MOHAMMED 	M	2,722
JAMIE 	M	2,500
BEN 	M	2,485
CHARLIE 	M	2,350
BRADLEY 	M	2,336
BRANDON 	M	2,298
OWEN 	M	2,201
AARON 	M	2,151
KYLE 	M	1,999
CHRISTOPHER 	M	1,937
ROBERT 	M	1,853
ETHAN 	M	1,772
CHARLES 	M	1,667
DAVID 	M	1,642
EDWARD 	M	1,605
REECE 	M	1,602
ALEX 	M	1,567
DYLAN 	M	1,512
ANDREW 	M	1,497
MAX 	M	1,431
LOUIS 	M	1,397
SAM 	M	1,375
HENRY 	M	1,359
MORGAN 	M	1,343
JOE 	M	1,292
RHYS 	M	1,270
JONATHAN 	M	1,248
TYLER 	M	1,230
JOHN 	M	1,158
SCOTT 	M	1,111
SEAN 	M	1,111
DOMINIC 	M	1,029
NICHOLAS 	M	997
HARRISON 	M	961
ROSS 	M	917
ALFIE 	M	899
JAY 	M	890
CONOR 	M	866
ELLIOT 	M	857
ASHLEY 	M	850
PATRICK 	M	847
JOEL 	M	829
BILLY 	M	815
PETER 	M	804
DECLAN 	M	773
STEPHEN 	M	750
AIDAN 	M	748
MITCHELL 	M	747
TOBY 	M	743
MARK 	M	715
ISAAC 	M	710
MOHAMMAD 	M	687
ANTHONY 	M	683
MUHAMMAD 	M	659
JASON 	M	650
HARVEY 	M	644
TOM 	M	638
EWAN 	M	626
LEON 	M	599
OSCAR 	M	599
KAI 	M	584
ELLIS 	M	580
LEE 	M	562
STEVEN 	M	560
MARCUS 	M	554
PAUL 	M	554
ZACHARY 	M	551
ELLIOTT 	M	548
RICHARD 	M	547
TAYLOR 	M	528
MASON 	M	511
LUCAS 	M	495
JOSH 	M	492
BAILEY 	M	490
KANE 	M	488
SHAUN 	M	487
CHRISTIAN 	M	478
RORY 	M	478
COREY 	M	475
ARCHIE 	M	451
CURTIS 	M	438
SHANE 	M	427
NIALL 	M	426
SEBASTIAN 	M	425
AIDEN 	M	422
CALUM 	M	409
NATHANIEL 	M	409
TIMOTHY 	M	404
GABRIEL 	M	400
ZAK 	M	397
FREDERICK 	M	394
TOMMY 	M	392
DANNY 	M	384
CRAIG 	M	383
FINLAY 	M	380
DEAN 	M	348
ROBBIE 	M	348
KIERON 	M	339
SIMON 	M	321
FINLEY 	M	320
HAYDEN 	M	310
TOBIAS 	M	303
CIARAN 	M	289
PHILIP 	M	289
ALI 	M	288
HAMZA 	M	286
NOAH 	M	284
FRASER 	M	252
SYED 	M	252
MARTIN 	M	250
RONAN 	M	249
FINN 	M	247
MOHAMED 	M	247
MILES 	M	245
CARL 	M	243
HASSAN 	M	240
LOUIE 	M	240
GREGORY 	M	238
MATHEW 	M	237
ROWAN 	M	237
ANGUS 	M	236
ALFRED 	M	234
EVAN 	M	233
FELIX 	M	233
JORDON 	M	233
REGAN 	M	233
ABDUL 	M	227
EUAN 	M	226
TRISTAN 	M	224
CONNER 	M	217
KARL 	M	217
LEO 	M	216
CALEB 	M	213
OMAR 	M	213
KEVIN 	M	210
LEVI 	M	210
BENEDICT 	M	209
LLOYD 	M	207
LAURENCE 	M	204
MYLES 	M	202
AHMED 	M	201
MAXWELL 	M	200
MUHAMMED 	M	198
MAXIMILIAN 	M	197
BRENDAN 	M	196
HUGO 	M	196
ARRON 	M	194
IBRAHIM 	M	194
REUBEN 	M	194
ARTHUR 	M	193
LUCA 	M	191
ALISTAIR 	M	185
LAWRENCE 	M	185
BLAKE 	M	184
CORY 	M	180
STUART 	M	180
DILLON 	M	179
GARETH 	M	179
THEODORE 	M	178
SPENCER 	M	176
JAYDEN 	M	175
ZAIN 	M	175
DREW 	M	172
FRANCIS 	M	171
IEUAN 	M	168
DARREN 	M	166
KEIRAN 	M	165
TOMAS 	M	165
BILAL 	M	163
ZAC 	M	163
STEFAN 	M	162
MARC 	M	160
STANLEY 	M	160
IAN 	M	159
JUSTIN 	M	157
ROHAN 	M	157
LOGAN 	M	156
MACAULEY 	M	153
JARED 	M	151
TROY 	M	149
BYRON 	M	147
KIEREN 	M	147
WILL 	M	147
MILO 	M	145
THEO 	M	145
ANTONY 	M	144
ZACK 	M	144
HASAN 	M	141
SOLOMON 	M	141
ABDULLAH 	M	140
HAMZAH 	M	140
KALLUM 	M	140
KEENAN 	M	140
KURTIS 	M	140
TOMOS 	M	137
HARLEY 	M	136
WESLEY 	M	136
JESSE 	M	135
SONNY 	M	135
BRETT 	M	134
UMAR 	M	134
CASEY 	M	133
JAMAL 	M	133
ALAN 	M	132
HAYDN 	M	132
OWAIN 	M	132
HAMISH 	M	130
TRAVIS 	M	130
TONY 	M	129
CALVIN 	M	128
KIAN 	M	127
KRISTIAN 	M	127
JAK 	M	126
TYRONE 	M	126
SAUL 	M	124
JACKSON 	M	123
JED 	M	123
YUSUF 	M	123
RAHUL 	M	122
COLE 	M	120
ALBERT 	M	119
IWAN 	M	119
JUNAID 	M	119
WARREN 	M	117
AUSTIN 	M	116
EMMANUEL 	M	116
JASPER 	M	116
ARRAN 	M	114
GUY 	M	114
ADRIAN 	M	113
USMAN 	M	112
ANDRE 	M	109
BRAD 	M	108
DAFYDD 	M	108
GARY 	M	108
HUGH 	M	108
JUDE 	M	108
CODY 	M	106
DALE 	M	106
JAI 	M	106
KYE 	M	106
TYRESE 	M	106
DION 	M	103
ALASTAIR 	M	102
FRANKIE 	M	102
FREDDIE 	M	102
ADIL 	M	101
CIAN 	M	101
FRANK 	M	101
RICKY 	M	101
JONATHON 	M	100
VINCENT 	M	100
ZACHARIAH 	M	99
BOBBY 	M	97
AMIR 	M	96
FERGUS 	M	96
JOSEF 	M	96
KAINE 	M	96
KURT 	M	96
LUIS 	M	96
ROBIN 	M	96
BARNABY 	M	94
PHILLIP 	M	94
ALEC 	M	93
ANTONIO 	M	93
CAIN 	M	93
DOUGLAS 	M	93
SHAY 	M	93
ISMAIL 	M	92
KEELAN 	M	92
KYRAN 	M	92
RILEY 	M	92
SHOAIB 	M	92
MUSTAFA 	M	90
FRAZER 	M	89
JADEN 	M	89
MARCO 	M	89
DAMIEN 	M	88
JON 	M	88
SHEA 	M	87
GRANT 	M	86
BRYN 	M	85
GAVIN 	M	85
JEREMY 	M	85
MAXIMILLIAN 	M	85
PERRY 	M	85
BRIAN 	M	84
CALLAN 	M	84
RONNIE 	M	84
CHAD 	M	83
ELIJAH 	M	83
JONAH 	M	83
LEIGHTON 	M	83
ARJUN 	M	82
CHARLEY 	M	82
JULIAN 	M	82
NICOLAS 	M	82
JAC 	M	81
SION 	M	81
ARON 	M	80
KEATON 	M	80
KAMRAN 	M	79
TODD 	M	78
ZACH 	M	78
ERIC 	M	77
IMRAN 	M	77
JIMMY 	M	76
REISS 	M	76
STEFFAN 	M	75
AJAY 	M	74
DARIUS 	M	74
DEVON 	M	74
ARUN 	M	73
MARLEY 	M	73
SAIF 	M	73
HARIS 	M	71
VICTOR 	M	71
NEIL 	M	70
NIKHIL 	M	70
LACHLAN 	M	69
DUNCAN 	M	68
JACQUES 	M	67
SETH 	M	67
ANTON 	M	66
DANTE 	M	66
KIRAN 	M	66
RAPHAEL 	M	66
ELIOT 	M	65
HUW 	M	65
RICARDO 	M	65
BRENDON 	M	64
HAROON 	M	64
QASIM 	M	64
RAJAN 	M	64
IOAN 	M	63
RAJA 	M	63
SOHAIL 	M	63
AMAN 	M	62
ASAD 	M	62
COLIN 	M	62
KEIR 	M	62
RUSSELL 	M	62
ADNAN 	M	61
DARNELL 	M	61
ELIAS 	M	61
FLYNN 	M	61
AHMAD 	M	60
ALED 	M	60
CLAYTON 	M	60
JAKOB 	M	60
KENNETH 	M	60
MACKENZIE 	M	60
AMAR 	M	59
AWAIS 	M	59
BRODIE 	M	59
CAI 	M	59
MACAULAY 	M	59
XAVIER 	M	59
CHANDLER 	M	58
CONRAD 	M	58
DEXTER 	M	58
GREG 	M	58
LUC 	M	58
MATT 	M	58
PIERS 	M	58
SAMIR 	M	58
TYREECE 	M	58
HARRIS 	M	57
KADE 	M	57
RUBEN 	M	57
TARIQ 	M	57
DANE 	M	56
HUMZA 	M	56
JEROME 	M	56
MITCHEL 	M	56
RIO 	M	56
TYRELL 	M	56
ASHER 	M	55
EOIN 	M	55
KEEGAN 	M	55
NATHANAEL 	M	55
RHODRI 	M	55
ASTON 	M	54
DANYAL 	M	54
JOHNATHAN 	M	54
LUKAS 	M	54
MALACHI 	M	54
SIDNEY 	M	54
TERRY 	M	54
AADAM 	M	53
ANDREAS 	M	53
DAMON 	M	53
EDEN 	M	53
HUSSAIN 	M	53
CAVAN 	M	52
FAISAL 	M	52
KELVIN 	M	52
ASHTON 	M	51
ASIM 	M	51
BRANDAN 	M	51
DAMIAN 	M	51
DENNIS 	M	51
KHALID 	M	51
RALPH 	M	51
SAMI 	M	51
CARLOS 	M	50
HAIDER 	M	50
KARAN 	M	50
KENAN 	M	50
OSIAN 	M	50
RAYMOND 	M	50
CALLAM 	M	49
EDMUND 	M	49
HASHIM 	M	49
KAMERON 	M	49
KEIRON 	M	49
MICAH 	M	49
REAGAN 	M	49
RISHI 	M	49
SACHIN 	M	49
SHAH 	M	49
SOL 	M	49
HARRI 	M	48
JOSIAH 	M	48
OSKAR 	M	48
AAMIR 	M	47
DALTON 	M	47
GIANLUCA 	M	47
LEONARDO 	M	47
MILAN 	M	47
PIERCE 	M	47
SHAWN 	M	47
SIMEON 	M	47
UZAIR 	M	47
ALASDAIR 	M	46
GLEN 	M	46
MAXIM 	M	46
WAYNE 	M	46
ALESSANDRO 	M	45
MALIK 	M	45
SAMEER 	M	45
ZAKARIA 	M	45
EDDIE 	M	44
FLETCHER 	M	44
HECTOR 	M	44
IAIN 	M	44
IESTYN 	M	44
JEEVAN 	M	44
ABU 	M	43
HASEEB 	M	43
SHIVAM 	M	43
ZAKARIYA 	M	43
ABRAHAM 	M	42
BAYLEY 	M	42
BROOKLYN 	M	42
CARTER 	M	42
FABIAN 	M	42
JAYDON 	M	42
KAIN 	M	42
SHELDON 	M	42
UMAIR 	M	42
AKASH 	M	41
ARAN 	M	41
ELI 	M	41
GREGOR 	M	41
HASNAIN 	M	41
IZAAK 	M	41
MEHMET 	M	41
NABEEL 	M	41
SULAIMAN 	M	41
CADE 	M	40
CAINE 	M	40
KEITH 	M	40
LORCAN 	M	40
NICO 	M	40
RIAN 	M	40
SEAMUS 	M	40
TERENCE 	M	40
AADIL 	M	39
ANAS 	M	39
COLBY 	M	39
JOHNNY 	M	39
KISHAN 	M	39
LEONARD 	M	39
MARSHALL 	M	39
REES 	M	39
ZANE 	M	39
AMAAN 	M	38
AQIB 	M	38
BRYAN 	M	38
CHAY 	M	38
DAN 	M	38
DEWI 	M	38
GRAHAM 	M	38
HAARIS 	M	38
JERMAINE 	M	38
MATTEO 	M	38
SALMAN 	M	38
TREY 	M	38
ABBAS 	M	37
GEORGIE 	M	37
JORGE 	M	37
KASIM 	M	37
LENNON 	M	37
LYNDON 	M	37
MARTYN 	M	37
QUINN 	M	37
TATE 	M	37
USMAAN 	M	37
ADEEL 	M	36
DILLAN 	M	36
KRISHAN 	M	36
TARAN 	M	36
USAMAH 	M	36
ZEESHAN 	M	36
DANYAAL 	M	35
FARHAN 	M	35
FRED 	M	35
JARROD 	M	35
LEWYS 	M	35
RUFUS 	M	35
RUPERT 	M	35
TEDDY 	M	35
YASIN 	M	35
ALEXANDRE 	M	34
GIOVANNI 	M	34
IBRAHEEM 	M	34
LAYTON 	M	34
LEIGH 	M	34
RAHIM 	M	34
ROBSON 	M	34
STEWART 	M	34
TY 	M	34
WASIM 	M	34
CIERAN 	M	33
EZRA 	M	33
GIDEON 	M	33
KELSEY 	M	33
KENNY 	M	33
KIT 	M	33
KOFI 	M	33
KYRON 	M	33
OAKLEY 	M	33
REMI 	M	33
ROBERTO 	M	33
SAHIL 	M	33
BRANDEN 	M	32
CARWYN 	M	32
FRANKLIN 	M	32
HAYDON 	M	32
JOEY 	M	32
RAVI 	M	32
SHAQUILLE 	M	32
SUFYAAN 	M	32
SURAJ 	M	32
WILFRED 	M	32
ZUBAIR 	M	32
BRENNAN 	M	31
BRYCE 	M	31
EDWIN 	M	31
FABIO 	M	31
GILES 	M	31
GLENN 	M	31
KARIM 	M	31
LORENZO 	M	31
SAMUAL 	M	31
ZACHERY 	M	31
BLAINE 	M	30
FINNIAN 	M	30
HAROLD 	M	30
MARCEL 	M	30
SAMMY 	M	30
TED 	M	30
YASEEN 	M	30
AMIN 	M	29
AYMAN 	M	29
BROGAN 	M	29
CHE 	M	29
CHESTER 	M	29
CYRUS 	M	29
DILAN 	M	29
ERIK 	M	29
FRANCESCO 	M	29
IFAN 	M	29
ISA 	M	29
IVAN 	M	29
JEREMIAH 	M	29
MOSES 	M	29
NABIL 	M	29
OSMAN 	M	29
SAQIB 	M	29
TAYLER 	M	29
ANIL 	M	28
ARCHIBALD 	M	28
ASHLEIGH 	M	28
DAANYAAL 	M	28
DARYL 	M	28
DENIS 	M	28
EMILIO 	M	28
GIANNI 	M	28
HENRI 	M	28
ISAIAH 	M	28
JARRED 	M	28
JEFFREY 	M	28
KINGSLEY 	M	28
MANRAJ 	M	28
ROY 	M	28
SHAE 	M	28
TALHA 	M	28
TYE 	M	28
ALLAN 	M	27
ELIS 	M	27
JAGO 	M	27
JAMIL 	M	27
JORDEN 	M	27
KALEB 	M	27
KAMAL 	M	27
KASEY 	M	27
KAVAN 	M	27
KEANU 	M	27
KRISTOPHER 	M	27
MOHAMMOD 	M	27
OSAMA 	M	27
PIERRE 	M	27
SHUAIB 	M	27
USAMA 	M	27
ABDIRAHMAN 	M	26
ASA 	M	26
AZHAR 	M	26
CAMRON 	M	26
COLM 	M	26
CORMAC 	M	26
DEON 	M	26
HAKEEM 	M	26
ISRAEL 	M	26
JONTY 	M	26
JUNIOR 	M	26
LAMAR 	M	26
LAURIE 	M	26
LUKA 	M	26
MARIO 	M	26
NYLE 	M	26
OLLIE 	M	26
REEGAN 	M	26
RIZWAN 	M	26
RUAIRI 	M	26
SEBASTIEN 	M	26
SUBHAN 	M	26
TIM 	M	26
ZAYN 	M	26
ANDY 	M	25
ARIF 	M	25
BARNEY 	M	25
BRANDON-LEE 	M	25
BROOK 	M	25
DARRYL 	M	25
FINTAN 	M	25
GARIN 	M	25
GERARD 	M	25
HAMMAD 	M	25
JOSS 	M	25
KALUM 	M	25
NAEEM 	M	25
ROHIT 	M	25
UWAIS 	M	25
VINAY 	M	25
WADE 	M	25
ZESHAN 	M	25
AARRON 	M	24
ARJAN 	M	24
ATIF 	M	24
BEAU 	M	24
BRUCE 	M	24
DANIAL 	M	24
HAL 	M	24
ISMAEEL 	M	24
JAMAAL 	M	24
JONAS 	M	24
KAYLUM 	M	24
MOHSIN 	M	24
RAHEEM 	M	24
REMY 	M	24
SHAKEEL 	M	24
SHEIKH 	M	24
SHYAM 	M	24
TIERNAN 	M	24
TYRON 	M	24
YAHYA 	M	24
ZAID 	M	24
AKSHAY 	M	23
ALEXANDROS 	M	23
AMRIT 	M	23
ARBAAZ 	M	23
AYDEN 	M	23
BRENDEN 	M	23
CAMPBELL 	M	23
CONNAH 	M	23
CORRIE 	M	23
DARRAGH 	M	23
DONOVAN 	M	23
EMRE 	M	23
FAHAD 	M	23
FREDDY 	M	23
JAN 	M	23
JARRAD 	M	23
KAYNE 	M	23
KEANE 	M	23
LOCHLAN 	M	23
MCKENZIE 	M	23
MIGUEL 	M	23
NATHANIAL 	M	23
ORLANDO 	M	23
PRINCE 	M	23
REGGIE 	M	23
SAMSON 	M	23
SHAAN 	M	23
STORM 	M	23
TOMMY-LEE 	M	23
TYREKE 	M	23
TYRIQUE 	M	23
YOUSEF 	M	23
AARAN 	M	22
ADEN 	M	22
ALBIE 	M	22
BILAAL 	M	22
BRADLEE 	M	22
CHRIS 	M	22
EMILE 	M	22
FAHIM 	M	22
FAIZAN 	M	22
GARRY 	M	22
GIUSEPPE 	M	22
HUSEYIN 	M	22
JAIDEN 	M	22
JAYE 	M	22
JULIUS 	M	22
KALEM 	M	22
KASHIF 	M	22
MAGNUS 	M	22
MERT 	M	22
OTIS 	M	22
REEF 	M	22
SHAHID 	M	22
TAI 	M	22
TANVIR 	M	22
ZACKARY 	M	22
ZAKARY 	M	22
ABDULLAHI 	M	21
ABID 	M	21
ALEXIS 	M	21
AMIT 	M	21
ARMAN 	M	21
COBY 	M	21
DEVAN 	M	21
EMIL 	M	21
EUGENE 	M	21
EZEKIEL 	M	21
FAHEEM 	M	21
FINBAR 	M	21
HOWARD 	M	21
IDRIS 	M	21
JAE 	M	21
KALVIN 	M	21
KAREEM 	M	21
KEANAN 	M	21
KELAN 	M	21
KOBE 	M	21
MAHDI 	M	21
MURRAY 	M	21
NOEL 	M	21
PABLO 	M	21
REHAN 	M	21
SAEED 	M	21
SAYED 	M	21
SILAS 	M	21
SUNNY 	M	21
TYLA 	M	21
VISHAL 	M	21
YOUSUF 	M	21
YUNUS 	M	21
ADEM 	M	20
ANTOINE 	M	20
BALRAJ 	M	20
BARRY 	M	20
CAN 	M	20
CASPAR 	M	20
CASSIUS 	M	20
DENVER 	M	20
DOMINIK 	M	20
EWEN 	M	20
GORDON 	M	20
HARI 	M	20
HUSNAIN 	M	20
JOHNATHON 	M	20
KAAN 	M	20
KHALIL 	M	20
LANCE 	M	20
LEYTON 	M	20
MALCOLM 	M	20
MARKUS 	M	20
MIRZA 	M	20
NILE 	M	20
ROMAN 	M	20
SHIV 	M	20
SUHAIL 	M	20
SYDNEY 	M	20
TRE 	M	20
TYRIQ 	M	20
WILLEM 	M	20
YASIR 	M	20
ZION 	M	20
AMANDEEP 	M	19
ANEES 	M	19
ASHRAF 	M	19
CARLO 	M	19
CARLTON 	M	19
CHRISTY 	M	19
DENIZ 	M	19
DEVANTE 	M	19
DYLON 	M	19
GIORGIO 	M	19
HAIDAR 	M	19
JAROD 	M	19
JOSE 	M	19
JULES 	M	19
KAYLEM 	M	19
KOREY 	M	19
MAISON 	M	19
OLUWATOBI 	M	19
RICHIE 	M	19
SAAD 	M	19
SOHAIB 	M	19
STEPHAN 	M	19
SULTAN 	M	19
TAHIR 	M	19
TARIK 	M	19
WAQAS 	M	19
ZACHARIA 	M	19
ZACHARIAS 	M	19
ZOHAIB 	M	19
AMEER 	M	18
AMMAR 	M	18
ANISH 	M	18
AQEEL 	M	18
AYRTON 	M	18
BRADY 	M	18
BRODY 	M	18
COSMO 	M	18
DARIO 	M	18
DHRUV 	M	18
FINDLAY 	M	18
HABIB 	M	18
HAMAAD 	M	18
JESS 	M	18
JOHAN 	M	18
JOHN-PAUL 	M	18
JUNAYD 	M	18
LUQMAN 	M	18
MARVIN 	M	18
MIKEY 	M	18
MUSA 	M	18
NASIR 	M	18
OMARI 	M	18
ORAN 	M	18
PAOLO 	M	18
PHOENIX 	M	18
RAFAEL 	M	18
RONALD 	M	18
SUFYAN 	M	18
SULAYMAN 	M	18
SUNIL 	M	18
TAHMID 	M	18
TORIN 	M	18
TREVOR 	M	18
USAAMAH 	M	18
VARUN 	M	18
WALEED 	M	18
ABDULRAHMAN 	M	17
AINSLEY 	M	17
AKEEL 	M	17
ARMAAN 	M	17
ASHWIN 	M	17
BECK 	M	17
BEVAN 	M	17
BILL 	M	17
BRADEN 	M	17
BRUNO 	M	17
CHANCE 	M	17
CHASE 	M	17
DEREK 	M	17
EDGAR 	M	17
EOGHAN 	M	17
EREN 	M	17
FARIS 	M	17
GAGE 	M	17
GERAINT 	M	17
GWION 	M	17
HADLEY 	M	17
HUZAIFAH 	M	17
IZAAC 	M	17
JAYDN 	M	17
KAYA 	M	17
LENNY 	M	17
MARLON 	M	17
MAXIME 	M	17
MCCAULEY 	M	17
NED 	M	17
OISIN 	M	17
RAYAN 	M	17
RIVER 	M	17
ROSHAN 	M	17
SACHA 	M	17
SANJAY 	M	17
SHAYNE 	M	17
STEVIE 	M	17
SULEMAN 	M	17
TOMMIE 	M	17
ZAHID 	M	17
ZAKI 	M	17
AKEEM 	M	16
ALIX 	M	16
ANGELO 	M	16
ARNOLD 	M	16
AUGUSTUS 	M	16
BENN 	M	16
CASPER 	M	16
CLEMENT 	M	16
DANISH 	M	16
EAMON 	M	16
EATHAN 	M	16
HAKIM 	M	16
ILYAS 	M	16
JAVIER 	M	16
JODY 	M	16
KABIR 	M	16
KALEEM 	M	16
KARAM 	M	16
KYAN 	M	16
NADEEM 	M	16
NELSON 	M	16
SHAKIL 	M	16
SHAMAS 	M	16
VINNIE 	M	16
WALID 	M	16
ADEEB 	M	15
AHMET 	M	15
ALESSIO 	M	15
ARSLAN 	M	15
ASIF 	M	15
AUSTEN 	M	15
BARAN 	M	15
BERNARD 	M	15
BRAYDEN 	M	15
BURHAN 	M	15
CAOLAN 	M	15
COURTNEY 	M	15
DEACON 	M	15
DIEGO 	M	15
DRU 	M	15
ETIENNE 	M	15
FREDERIC 	M	15
FYNN 	M	15
HARUN 	M	15
HUSSEIN 	M	15
HUZAIFA 	M	15
ISHMAEL 	M	15
ISMAEL 	M	15
JASKARAN 	M	15
JAWAD 	M	15
JEVAN 	M	15
JORDAN-LEE 	M	15
KODY 	M	15
KONNOR 	M	15
KORBEN 	M	15
MD 	M	15
MOHAMAD 	M	15
NIKOLAS 	M	15
OLUWASEUN 	M	15
PARIS 	M	15
PEARCE 	M	15
RAEES 	M	15
RAY 	M	15
RICCARDO 	M	15
ROGER 	M	15
SAQLAIN 	M	15
SASHA 	M	15
TADHG 	M	15
TAINE 	M	15
TAYYAB 	M	15
TAYYIB 	M	15
TIAGO 	M	15
UMAYR 	M	15
WIL 	M	15
YOUSAF 	M	15
YOUSSEF 	M	15
ZAKARIAH 	M	15
ZAKIR 	M	15
ZAYD 	M	15
ABDUR 	M	14
ADDISON 	M	14
ADNAAN 	M	14
ALISDAIR 	M	14
AMARDEEP 	M	14
AMEEN 	M	14
ANWAR 	M	14
BRENT 	M	14
DEKLAN 	M	14
DENZEL 	M	14
EAMONN 	M	14
EBEN 	M	14
EBRAHIM 	M	14
GAURAV 	M	14
GIACOMO 	M	14
GLYN 	M	14
GURPREET 	M	14
HUMZAH 	M	14
HYWEL 	M	14
IRFAN 	M	14
ISSAC 	M	14
JAMIE-LEE 	M	14
JAYSON 	M	14
JAZZ 	M	14
JEM 	M	14
JEVON 	M	14
JOZEF 	M	14
KEIREN 	M	14
KHALED 	M	14
KHURRAM 	M	14
KIA 	M	14
KYNAN 	M	14
LENNOX 	M	14
LINUS 	M	14
LYNDEN 	M	14
MAHAD 	M	14
MAJID 	M	14
MONTGOMERY 	M	14
MOSHE 	M	14
MUJAHID 	M	14
NASEEM 	M	14
NICK 	M	14
OLUWASEYI 	M	14
RAYYAN 	M	14
ROHAIL 	M	14
ROLAND 	M	14
RYLAN 	M	14
SANTINO 	M	14
TARUN 	M	14
TERRELL 	M	14
TIARNAN 	M	14
TYLOR 	M	14
WASEEM 	M	14
YASSER 	M	14
YASSIN 	M	14
ALEJANDRO 	M	13
ALISTER 	M	13
ANAND 	M	13
AZEEM 	M	13
BERTIE 	M	13
BLUE 	M	13
CAIRO 	M	13
CORBIN 	M	13
CRISTIAN 	M	13
DAWSON 	M	13
DEEN 	M	13
DHANYAL 	M	13
DIOGO 	M	13
DONELL 	M	13
FINNLEY 	M	13
FIONN 	M	13
GEOFFREY 	M	13
GUILLAUME 	M	13
GURDEEP 	M	13
IZAK 	M	13
JAIME 	M	13
JAMEEL 	M	13
JERRY 	M	13
JOSEFF 	M	13
JULIEN 	M	13
KHALEEL 	M	13
KIER 	M	13
KIRK 	M	13
KYLAN 	M	13
LEROY 	M	13
LIBAN 	M	13
LINDEN 	M	13
LOUI 	M	13
MARCOS 	M	13
MATEO 	M	13
MD. 	M	13
MOIN 	M	13
NASIM 	M	13
NIKITA 	M	13
OWAIS 	M	13
RAYHAN 	M	13
RIAZ 	M	13
SALIM 	M	13
SHAHZAIB 	M	13
SHOHAIB 	M	13
SID 	M	13
TRENT 	M	13
WILSON 	M	13
ABDALLAH 	M	12
ABUL 	M	12
ADHAM 	M	12
AEDAN 	M	12
AKIRA 	M	12
ALBAN 	M	12
ALEKSANDAR 	M	12
ALUN 	M	12
AMMAAR 	M	12
AMMAN 	M	12
ANIS 	M	12
ARBAZ 	M	12
ARBER 	M	12
ARIAN 	M	12
ARMANI 	M	12
AXEL 	M	12
AYOMIDE 	M	12
BARNABAS 	M	12
CEM 	M	12
CHAIM 	M	12
CHIRAG 	M	12
CONNAR 	M	12
CONNELL 	M	12
CORIN 	M	12
DAANISH 	M	12
DARREL 	M	12
DONALD 	M	12
DWAYNE 	M	12
EDAN 	M	12
EMANUEL 	M	12
FAIZAAN 	M	12
FARHAAN 	M	12
FERGAL 	M	12
GREGG 	M	12
GUS 	M	12
HAKAN 	M	12
HAMAD 	M	12
JADON 	M	12
JASDEEP 	M	12
JAYDAN 	M	12
JEZ 	M	12
JOAO 	M	12
KAILUM 	M	12
KAMIL 	M	12
KEON 	M	12
KHIZAR 	M	12
KRISTEN 	M	12
LEWIE 	M	12
MACAULY 	M	12
MASSIMO 	M	12
MURAT 	M	12
MYRON 	M	12
NADIR 	M	12
NEAL 	M	12
NEEL 	M	12
NIKESH 	M	12
OMER 	M	12
PADRAIG 	M	12
RIDWAN 	M	12
RITCHIE 	M	12
RUDI 	M	12
SAFYAN 	M	12
TAHA 	M	12
TARRAN 	M	12
TRAFFORD 	M	12
TYREEK 	M	12
VIJAY 	M	12
YAAKOV 	M	12
YISROEL 	M	12
ADEL 	M	11
ANEURIN 	M	11
ARSALAN 	M	11
ARYAN 	M	11
AZAAN 	M	11
BECKHAM 	M	11
BLAIR 	M	11
CAIUS 	M	11
CATHAL 	M	11
CHRISTOS 	M	11
CLARK 	M	11
CONALL 	M	11
DAWOOD 	M	11
DEVIN 	M	11
DEVONTE 	M	11
DHILLON 	M	11
DUANE 	M	11
EHSAN 	M	11
FAHD 	M	11
FAIZ 	M	11
FRANCISCO 	M	11
FREDRICK 	M	11
FURKAN 	M	11
GULAM 	M	11
GUTO 	M	11
HAIDEN 	M	11
HARVINDER 	M	11
HERBIE 	M	11
JAVAN 	M	11
JEAN 	M	11
JEAN-LUC 	M	11
JEDD 	M	11
JENSEN 	M	11
JIM 	M	11
JOVAN 	M	11
JUAN 	M	11
KALEN 	M	11
KAMEN 	M	11
KEN 	M	11
KEVAL 	M	11
KHURAM 	M	11
KIERRAN 	M	11
KRISHNA 	M	11
LESLIE 	M	11
LINCOLN 	M	11
LLEWELYN 	M	11
LLYWELYN 	M	11
MARKO 	M	11
NAHID 	M	11
NANA 	M	11
NASSER 	M	11
NAVEED 	M	11
NAYAN 	M	11
NIAL 	M	11
NICKY 	M	11
OLUWATOSIN 	M	11
OTTO 	M	11
PAULO 	M	11
PEDRO 	M	11
RAHEEL 	M	11
RAJ 	M	11
RASHEED 	M	11
REESE 	M	11
REID 	M	11
REIS 	M	11
RENE 	M	11
RYLEY 	M	11
SALEH 	M	11
SANDEEP 	M	11
SHAI 	M	11
SHAYAN 	M	11
SOLOMAN 	M	11
STEVE 	M	11
SUKHRAJ 	M	11
SULAIMAAN 	M	11
TAREK 	M	11
TERRENCE 	M	11
TOMASZ 	M	11
UMER 	M	11
VINCENZO 	M	11
WALTER 	M	11
WYATT 	M	11
AAKASH 	M	10
AARONDEEP 	M	10
ABDI 	M	10
ABEL 	M	10
ABUBAKR 	M	10
AERON 	M	10
AHSAN 	M	10
AKBAR 	M	10
AMOS 	M	10
ARCHER 	M	10
AREEB 	M	10
AYDIN 	M	10
AYUB 	M	10
BASIL 	M	10
BENJAMEN 	M	10
BRET 	M	10
CERI 	M	10
CHANDON 	M	10
CHARLTON 	M	10
CHI 	M	10
CLARKE 	M	10
CLIVE 	M	10
CONAN 	M	10
CORBEN 	M	10
CULLEN 	M	10
DANIAAL 	M	10
DARCY 	M	10
DARNEL 	M	10
DARSHAN 	M	10
DEVEN 	M	10
DOMONIC 	M	10
DONTE 	M	10
EESA 	M	10
ENZO 	M	10
FARAAZ 	M	10
FENTON 	M	10
GERALD 	M	10
GIAN 	M	10
GOVIND 	M	10
GRAEME 	M	10
GURPAL 	M	10
GURVEER 	M	10
HADYN 	M	10
HERBERT 	M	10
HUSAIN 	M	10
IBRAR 	M	10
IDREES 	M	10
ISHAQ 	M	10
IVO 	M	10
JAMEL 	M	10
JIMI 	M	10
JOLYON 	M	10
JOWAN 	M	10
KAYDEN 	M	10
KILLIAN 	M	10
KORY 	M	10
KUSH 	M	10
LAITH 	M	10
LEMUEL 	M	10
LYLE 	M	10
MAHMOUD 	M	10
MANVIR 	M	10
MAREK 	M	10
MATTHIAS 	M	10
MIHIR 	M	10
MUNEEB 	M	10
MURTAZA 	M	10
NAIM 	M	10
NIKOLAI 	M	10
OZAN 	M	10
PAVAN 	M	10
PIETRO 	M	10
RAFI 	M	10
RAHAT 	M	10
RAIS 	M	10
RAJIV 	M	10
RAMONE 	M	10
RAUL 	M	10
RAVINDER 	M	10
REACE 	M	10
REON 	M	10
RIYAD 	M	10
RODNEY 	M	10
RUARI 	M	10
RUI 	M	10
SAFWAN 	M	10
SAJID 	M	10
SALMAAN 	M	10
SHAHZEB 	M	10
SHAKIR 	M	10
SHEIK 	M	10
SHERIDAN 	M	10
SUBHAAN 	M	10
TALHAH 	M	10
TIGER 	M	10
TOR 	M	10
TYREESE 	M	10
UMUT 	M	10
VIVEK 	M	10
WAQAR 	M	10
YASH 	M	10
ZAKK 	M	10
ABDUR-RAHMAN 	M	9
ABRAR 	M	9
ADITYA 	M	9
AKRAM 	M	9
ALFI 	M	9
AMARI 	M	9
AMER 	M	9
ANDERSON 	M	9
AQEEB 	M	9
AVINASH 	M	9
AYAZ 	M	9
AYODEJI 	M	9
BALAL 	M	9
BHAVIN 	M	9
BILLY-JOE 	M	9
BRAYDON 	M	9
BRYNLEY 	M	9
CHETAN 	M	9
CORAN 	M	9
CORI 	M	9
DANIELE 	M	9
DANIYAL 	M	9
DAUD 	M	9
DAVE 	M	9
DAWUD 	M	9
DEEPAK 	M	9
DENNY 	M	9
DERRY 	M	9
DILRAJ 	M	9
DOUGAL 	M	9
DWIGHT 	M	9
ELIOTT 	M	9
ENRICO 	M	9
ERIN 	M	9
ERNEST 	M	9
FLOYD 	M	9
FOX 	M	9
GEORGIOS 	M	9
GINO 	M	9
GWILYM 	M	9
HADI 	M	9
HALLAM 	M	9
HAMID 	M	9
HANS 	M	9
HO 	M	9
IKRAM 	M	9
ISHAN 	M	9
ISIAH 	M	9
ISSA 	M	9
JABIR 	M	9
JARVIS 	M	9
JASPAL 	M	9
JASRAJ 	M	9
JAWAAD 	M	9
JESSIE 	M	9
JETHRO 	M	9
JOAB 	M	9
JORDI 	M	9
KADEN 	M	9
KAIDEN 	M	9
KAILAN 	M	9
KALAM 	M	9
KALLAM 	M	9
KAYLEN 	M	9
KEALAN 	M	9
KEILAN 	M	9
KELTON 	M	9
KENNEDY 	M	9
KHARI 	M	9
KIEFER 	M	9
KYRIACOS 	M	9
LINDON 	M	9
LOCHLANN 	M	9
MARCELLO 	M	9
MARWAN 	M	9
MATTIA 	M	9
MAXIMILIEN 	M	9
MOISHE 	M	9
NILES 	M	9
NOOR 	M	9
NUMAAN 	M	9
NYALL 	M	9
OLE 	M	9
PASCAL 	M	9
PATRIK 	M	9
PIRAN 	M	9
PRESTON 	M	9
QAIS 	M	9
QUENTIN 	M	9
RAHIL 	M	9
RAIHAN 	M	9
RAKEEM 	M	9
REEVE 	M	9
REZA 	M	9
RHYDIAN 	M	9
RICO 	M	9
RONALDO 	M	9
SALAH 	M	9
SALEM 	M	9
SANJEEV 	M	9
SCOT 	M	9
SHAHBAZ 	M	9
SHARAZ 	M	9
SHAYE 	M	9
SHAZAD 	M	9
SHILOH 	M	9
SONNIE 	M	9
STAN 	M	9
STEFANO 	M	9
SVEN 	M	9
TALIESIN 	M	9
TANVEER 	M	9
TASHAN 	M	9
THAI 	M	9
TOMMI 	M	9
TYRAN 	M	9
TYSON 	M	9
VIKRAM 	M	9
VINNY 	M	9
YANN 	M	9
YOEL 	M	9
ZAKARIYYA 	M	9
ABDULAHI 	M	8
ADAN 	M	8
AKAASH 	M	8
AKMAL 	M	8
ALBERTO 	M	8
ALLEN 	M	8
ALVIN 	M	8
AMAAD 	M	8
ANDRES 	M	8
ANGEL 	M	8
AQIL 	M	8
ARBAB 	M	8
ARMANDO 	M	8
ART 	M	8
ASAM 	M	8
ASHLEE 	M	8
AYOUB 	M	8
AYUSH 	M	8
AZIM 	M	8
BARIS 	M	8
BERTRAM 	M	8
BHAVIK 	M	8
BLANE 	M	8
BLAZE 	M	8
BOB 	M	8
CADAN 	M	8
CAMDEN 	M	8
CAMERAN 	M	8
CEEJAY 	M	8
CLAY 	M	8
CLIFFORD 	M	8
CODEY 	M	8
COHEN 	M	8
CONAL 	M	8
CONNALL 	M	8
DARAGH 	M	8
DEVLIN 	M	8
DJANGO 	M	8
DOMENICO 	M	8
DONNELL 	M	8
DYLLAN 	M	8
EDOARDO 	M	8
EMERSON 	M	8
EPHRAIM 	M	8
FERNANDO 	M	8
FILIPPO 	M	8
FORREST 	M	8
FRANKLYN 	M	8
FRASIER 	M	8
FREDERIK 	M	8
FREDRIK 	M	8
GHULAM 	M	8
HALIL 	M	8
HAMSA 	M	8
HANNAN 	M	8
HARPREET 	M	8
HARRIE 	M	8
HARSH 	M	8
HARVIR 	M	8
HIREN 	M	8
HISHAM 	M	8
IHSAN 	M	8
IMAAD 	M	8
INDERPAL 	M	8
INIGO 	M	8
IOLO 	M	8
ISHAAQ 	M	8
ISRAR 	M	8
JAD 	M	8
JAKUB 	M	8
JAYMIE 	M	8
JEAN-PIERRE 	M	8
JEFFERSON 	M	8
JOB 	M	8
JOBY 	M	8
JOHANN 	M	8
JOHANNES 	M	8
JUSTICE 	M	8
KALIM 	M	8
KARANDEEP 	M	8
KASSIM 	M	8
KAYLAN 	M	8
KEAN 	M	8
KEREM 	M	8
KERN 	M	8
KESTER 	M	8
KHALEEM 	M	8
KHAN 	M	8
KISHEN 	M	8
KRIS 	M	8
KRISTOFER 	M	8
KUNAL 	M	8
LARS 	M	8
LAWSON 	M	8
LENNIE 	M	8
LLION 	M	8
LLYR 	M	8
LUCCA 	M	8
LUCIANO 	M	8
LUQMAAN 	M	8
MAC 	M	8
MADISON 	M	8
MAHIR 	M	8
MAURICE 	M	8
MEHDI 	M	8
MELVIN 	M	8
MERLIN 	M	8
MICHEAL 	M	8
MIKA 	M	8
MOBEEN 	M	8
MONTEL 	M	8
MONTY 	M	8
MORDECHAI 	M	8
MUHSIN 	M	8
MUJTABA 	M	8
NADIM 	M	8
NAZMUL 	M	8
NIGEL 	M	8
NIYAZ 	M	8
NOMAAN 	M	8
OLAMIDE 	M	8
OLUWADAMILOLA 	M	8
OLUWAFEMI 	M	8
PREM 	M	8
QAMAR 	M	8
QUINTON 	M	8
RAFE 	M	8
RAMI 	M	8
RASHAD 	M	8
RAVEN 	M	8
RED 	M	8
RHYAN 	M	8
RODRIGO 	M	8
ROHIN 	M	8
ROMARIO 	M	8
RYAN-LEE 	M	8
SAID 	M	8
SALVATORE 	M	8
SHAKUR 	M	8
SHAMUS 	M	8
SHLOMO 	M	8
SIMRAN 	M	8
SIRAJ 	M	8
STEFFEN 	M	8
SUHAYL 	M	8
SULIMAN 	M	8
THOM 	M	8
TOMMYLEE 	M	8
TRAE 	M	8
TRYSTAN 	M	8
VALENTINO 	M	8
VAUGHAN 	M	8
VAUGHN 	M	8
WAJID 	M	8
YAHYE 	M	8
YITZCHOK 	M	8
YOUCEF 	M	8
ZAINUL 	M	8
ZESHAAN 	M	8
ABDURAHMAN 	M	7
ABE 	M	7
AFZAL 	M	7
ALEEM 	M	7
AMRIK 	M	7
ANKIT 	M	7
ANOOP 	M	7
ANUJ 	M	7
ARVIND 	M	7
ARWEL 	M	7
ASH 	M	7
AUBREY 	M	7
AVAIS 	M	7
AYDAN 	M	7
AYOTUNDE 	M	7
AZIZ 	M	7
BAILLIE 	M	7
BAILY 	M	7
BENOIT 	M	7
BERKAY 	M	7
BILLY-RAY 	M	7
BLAISE 	M	7
BRADLEIGH 	M	7
BROOKE 	M	7
BUSTER 	M	7
CALLEN 	M	7
CANAAN 	M	7
CASSIAN 	M	7
CHARLEE 	M	7
CODIE 	M	7
CONNA 	M	7
CORIE 	M	7
CORNELIUS 	M	7
CRISPIN 	M	7
DAKOTA 	M	7
DANI 	M	7
DARRELL 	M	7
DAVIN 	M	7
DECLAND 	M	7
DINO 	M	7
DOMINICK 	M	7
DOVID 	M	7
EDSON 	M	7
ELISHA 	M	7
ELVIS 	M	7
ESA 	M	7
FABIEN 	M	7
FABRIZIO 	M	7
FARAZ 	M	7
FARID 	M	7
FEZAAN 	M	7
FILIP 	M	7
FINNLAY 	M	7
FIRAT 	M	7
FURQAAN 	M	7
GARYN 	M	7
GEORDIE 	M	7
GRUFFYDD 	M	7
GWYN 	M	7
HABIBUR 	M	7
HALLUM 	M	7
HAMMAAD 	M	7
HANIF 	M	7
HARDEEP 	M	7
HARMAN 	M	7
HASNAAT 	M	7
HUSAM 	M	7
IBRAAHEEM 	M	7
IFEOLUWA 	M	7
IHSAAN 	M	7
IJAZ 	M	7
ILAN 	M	7
IMAD 	M	7
IMMANUEL 	M	7
INDERJIT 	M	7
IOANNIS 	M	7
JAGDEEP 	M	7
JAHED 	M	7
JAIMIE 	M	7
JASPREET 	M	7
JAVED 	M	7
JAYAN 	M	7
JAYME 	M	7
JEFF 	M	7
JELANI 	M	7
JENSON 	M	7
JIBRAN 	M	7
JOCELYN 	M	7
JON-PAUL 	M	7
KADEEM 	M	7
KAILEM 	M	7
KALLAN 	M	7
KALON 	M	7
KARSTEN 	M	7
KAVI 	M	7
KELLAN 	M	7
KETAN 	M	7
KHAI 	M	7
KIELAN 	M	7
KONRAD 	M	7
KORAY 	M	7
KORI 	M	7
KURRAN 	M	7
KUSHAL 	M	7
KWABENA 	M	7
KYAL 	M	7
LESTER 	M	7
LUCIAN 	M	7
MAHAMED 	M	7
MAHAMMED 	M	7
MAHESH 	M	7
MAHMOOD 	M	7
MAHOMED 	M	7
MANDEEP 	M	7
MANUEL 	M	7
MARIUS 	M	7
MARTY 	M	7
MEHRAN 	M	7
MURAD 	M	7
MYLO 	M	7
NARAYAN 	M	7
NASH 	M	7
NIAM 	M	7
NIAZ 	M	7
NUMAN 	M	7
OLIVIER 	M	7
OLUWATOBILOBA 	M	7
OMAIR 	M	7
OREN 	M	7
ORIN 	M	7
ORION 	M	7
PARTH 	M	7
PATRIC 	M	7
PAVANDEEP 	M	7
PRANAV 	M	7
PRAVEEN 	M	7
QAASIM 	M	7
RAMEEZ 	M	7
RAMEL 	M	7
RASHAAN 	M	7
RASHID 	M	7
RAYHAAN 	M	7
RHYCE 	M	7
RODERICK 	M	7
ROHAAN 	M	7
RUEBEN 	M	7
SADIQ 	M	7
SAHIR 	M	7
SALEEM 	M	7
SAMIUL 	M	7
SANCHEZ 	M	7
SAXON 	M	7
SEYED 	M	7
SHABAZ 	M	7
SHAMIM 	M	7
SHLOIME 	M	7
SHMUEL 	M	7
SINAN 	M	7
SIRAAJ 	M	7
SKYE 	M	7
STELIOS 	M	7
SUHAIB 	M	7
TAARIQ 	M	7
TAHER 	M	7
TAIWO 	M	7
TAVIS 	M	7
TEMITOPE 	M	7
TERREL 	M	7
TIMUR 	M	7
TITUS 	M	7
TRISTEN 	M	7
UBAID 	M	7
USAYD 	M	7
UTHMAN 	M	7
UZAYR 	M	7
VIREN 	M	7
WILIAM 	M	7
WILLIS 	M	7
XANDER 	M	7
YAKOV 	M	7
YIANNIS 	M	7
YOSEF 	M	7
ZACKERY 	M	7
ZAYNE 	M	7
ZISHAN 	M	7
ZUHAYR 	M	7
AASIM 	M	6
ABDALLA 	M	6
ABDULAZIZ 	M	6
ABDULLA 	M	6
ABDURRAHMAN 	M	6
ABUBAKAR 	M	6
AHRON 	M	6
AIMAN 	M	6
AJMAL 	M	6
AL 	M	6
ALAA 	M	6
ALEKSANDER 	M	6
ALEXEI 	M	6
ALLY 	M	6
AMAAR 	M	6
AMAL 	M	6
AMANI 	M	6
AMR 	M	6
AMRITPAL 	M	6
AMUN 	M	6
ANASS 	M	6
ANEESH 	M	6
AODHAN 	M	6
ARUNDEEP 	M	6
ARVIN 	M	6
ASHA 	M	6
ASHISH 	M	6
ASHVIN 	M	6
ASSAD 	M	6
AUGUSTINE 	M	6
BARTHOLOMEW 	M	6
BEDE 	M	6
BILLIE 	M	6
BJORN 	M	6
BLAYNE 	M	6
BORIS 	M	6
BRADD 	M	6
BRANDYN 	M	6
BRINLEY 	M	6
BUDDY 	M	6
CAILEAN 	M	6
CAL 	M	6
CALAN 	M	6
CALE 	M	6
CHAE 	M	6
CHARLY 	M	6
CHRISTIE 	M	6
CHUKWUEMEKA 	M	6
CIERON 	M	6
CLINTON 	M	6
COBI 	M	6
CONAH 	M	6
CONLAN 	M	6
CONSTANTINE 	M	6
COOPER 	M	6
CORRAN 	M	6
COSIMO 	M	6
CULLAN 	M	6
DARDAN 	M	6
DARIEN 	M	6
DEAGLAN 	M	6
DEJAN 	M	6
DEMETRI 	M	6
DESMOND 	M	6
DEV 	M	6
DHIREN 	M	6
DONAL 	M	6
DORIAN 	M	6
DRE 	M	6
DYFAN 	M	6
EBENEZER 	M	6
EDIZ 	M	6
EDUARDO 	M	6
EMMET 	M	6
EMMETT 	M	6
ENES 	M	6
ENOCH 	M	6
ERNIE 	M	6
FAARIS 	M	6
FARHAD 	M	6
FARREN 	M	6
FEDERICO 	M	6
FINIAN 	M	6
FLORIAN 	M	6
FRANCO 	M	6
FRAZIER 	M	6
FREDRIC 	M	6
FURQAN 	M	6
GAGANDEEP 	M	6
GILBERT 	M	6
GRADY 	M	6
GRUFFUDD 	M	6
GULED 	M	6
GURDIT 	M	6
GURJEEVAN 	M	6
GURVINDER 	M	6
GURVIR 	M	6
HALEEM 	M	6
HARJOT 	M	6
HARMINDER 	M	6
HARVIE 	M	6
HASSAAN 	M	6
HIMMAT 	M	6
HISHAAM 	M	6
HUDSON 	M	6
IKENNA 	M	6
IQBAL 	M	6
ISAAK 	M	6
ISLAM 	M	6
ISRAAR 	M	6
JACQUE 	M	6
JADAN 	M	6
JAGROOP 	M	6
JARAD 	M	6
JASMEET 	M	6
JAVEN 	M	6
JAYCOB 	M	6
JAZ 	M	6
JO 	M	6
JOBE 	M	6
JORDY 	M	6
JUNED 	M	6
KADIR 	M	6
KAELAN 	M	6
KAMAR 	M	6
KEHINDE 	M	6
KEIGAN 	M	6
KELECHI 	M	6
KELLEN 	M	6
KEMAL 	M	6
KENT 	M	6
KHALIFA 	M	6
KI 	M	6
KIMANI 	M	6
KOBI 	M	6
KOJO 	M	6
KYRONE 	M	6
LATHAM 	M	6
LAURENT 	M	6
LAYNE 	M	6
LAYTH 	M	6
LEX 	M	6
LUCIEN 	M	6
LUDOVIC 	M	6
LYALL 	M	6
MACK 	M	6
MAHAMMAD 	M	6
MANPREET 	M	6
MANSOOR 	M	6
MARIOS 	M	6
MARUF 	M	6
MATHIAS 	M	6
MEER 	M	6
MICHELE 	M	6
MICKY 	M	6
MIKE 	M	6
MILLAN 	M	6
MINHAJ 	M	6
MIR 	M	6
MITCH 	M	6
MITESH 	M	6
MOHAMUD 	M	6
MOHIT 	M	6
MONTAGUE 	M	6
MUBARAK 	M	6
MUHAMMOD 	M	6
MUSAB 	M	6
MUSTAPHA 	M	6
NAHUM 	M	6
NASSIM 	M	6
NATHEN 	M	6
NAZIM 	M	6
NEERAJ 	M	6
NIKLAS 	M	6
NIKOS 	M	6
NILS 	M	6
NISHAN 	M	6
NOMAN 	M	6
NURUL 	M	6
ODIN 	M	6
OKAN 	M	6
OLUWAPELUMI 	M	6
OLUWATIMILEHIN 	M	6
OMID 	M	6
ONUR 	M	6
PADDY 	M	6
PARDEEP 	M	6
PRASHANT 	M	6
PRIYAN 	M	6
PUNEET 	M	6
RAJDEEP 	M	6
RAMZAN 	M	6
RAZA 	M	6
REHAAN 	M	6
REILLY 	M	6
RION 	M	6
RISHABH 	M	6
RISHAN 	M	6
ROBBY 	M	6
ROURKE 	M	6
RUDY 	M	6
RUSHIL 	M	6
RYHAN 	M	6
SAAJAN 	M	6
SAHIB 	M	6
SAI 	M	6
SAJJAD 	M	6
SAMAD 	M	6
SANTIAGO 	M	6
SARBJIT 	M	6
SAWAN 	M	6
SHAKIB 	M	6
SHAYAAN 	M	6
SHAZAIB 	M	6
SPIKE 	M	6
STEPHANOS 	M	6
STERLING 	M	6
SUKHDEEP 	M	6
SUNDEEP 	M	6
TAJ 	M	6
TAO 	M	6
TARYN 	M	6
TAYYEB 	M	6
TEMILOLUWA 	M	6
THIERRY 	M	6
TREMAYNE 	M	6
TYRECE 	M	6
TYREE 	M	6
UGUR 	M	6
VALENTINE 	M	6
VIKAS 	M	6
VIRAJ 	M	6
VOLKAN 	M	6
WAI 	M	6
WAJAHAT 	M	6
WILFRID 	M	6
YACINE 	M	6
YANNICK 	M	6
YONIS 	M	6
YOUNIS 	M	6
YUSEF 	M	6
YUTA 	M	6
ZAAKIR 	M	6
ZAYYAN 	M	6
ZECHARIAH 	M	6
ZEIN 	M	6
ZUHAIR 	M	6
AAQIB 	M	5
AASHIR 	M	5
AATIF 	M	5
ABAAS 	M	5
ABDIAZIZ 	M	5
ABDULKADIR 	M	5
ABDULMALIK 	M	5
ABDUR-RAHEEM 	M	5
ABHINAV 	M	5
ABHISHEK 	M	5
ACER 	M	5
ADEMOLA 	M	5
ADRIEN 	M	5
AKEEB 	M	5
AKIB 	M	5
AKIM 	M	5
AKSHAR 	M	5
ALBY 	M	5
ALDEN 	M	5
AMIL 	M	5
AMINUR 	M	5
AMMAD 	M	5
ANJUM 	M	5
ANMOL 	M	5
ARMAND 	M	5
ARNAV 	M	5
ARNIE 	M	5
ARREN 	M	5
ARSHAD 	M	5
ARWYN 	M	5
ARYA 	M	5
AVI 	M	5
AVRAHAM 	M	5
AYMEN 	M	5
BAILEE 	M	5
BAILIE 	M	5
BAYLEE 	M	5
BAYLIE 	M	5
BENITO 	M	5
BENJAMAN 	M	5
BENNY 	M	5
BENTLEY 	M	5
BERKAN 	M	5
BHAVESH 	M	5
BILLAL 	M	5
BLU 	M	5
BORUCH 	M	5
BOYD 	M	5
BRENTON 	M	5
BURAK 	M	5
CADEN 	M	5
CAMRAN 	M	5
CANER 	M	5
CARRICK 	M	5
CECIL 	M	5
CELLAN 	M	5
CELYN 	M	5
CHAUDHRY 	M	5
CHEY 	M	5
CHIDI 	M	5
CHUN 	M	5
CLAUDE 	M	5
CLYDE 	M	5
CONER 	M	5
CONNAGH 	M	5
CONRAN 	M	5
CORBY 	M	5
CORBYN 	M	5
CORREY 	M	5
CRAWFORD 	M	5
CREEGAN 	M	5
CURRAN 	M	5
CY 	M	5
DAANYAL 	M	5
DADE 	M	5
DANIYAAL 	M	5
DARA 	M	5
DARIAN 	M	5
DARYLL 	M	5
DAVEY 	M	5
DAVIS 	M	5
DEIO 	M	5
DENIRO 	M	5
DHANISH 	M	5
DIESEL 	M	5
DIGBY 	M	5
DIMITRI 	M	5
DOGAN 	M	5
DON 	M	5
DUDLEY 	M	5
EDOUARD 	M	5
EESAA 	M	5
ELDON 	M	5
ELIEZER 	M	5
ELYAS 	M	5
EMAD 	M	5
EMYR 	M	5
ENDRIT 	M	5
ENIS 	M	5
ENNIS 	M	5
ESSA 	M	5
ETHEN 	M	5
FARRELL 	M	5
FAYEZ 	M	5
FAYSAL 	M	5
FINDLEY 	M	5
FINNBAR 	M	5
FINNBARR 	M	5
FINTON 	M	5
FLINT 	M	5
FLORIN 	M	5
FORD 	M	5
FUAD 	M	5
GARTH 	M	5
GERRARD 	M	5
GIL 	M	5
GRIFFIN 	M	5
GURSIMRAN 	M	5
GWYDION 	M	5
HAASHIM 	M	5
HADLEIGH 	M	5
HAMED 	M	5
HAMSE 	M	5
HARPAL 	M	5
HARVEER 	M	5
HASAAN 	M	5
HASHEM 	M	5
HASIB 	M	5
HASSNAIN 	M	5
HATIM 	M	5
HEDD 	M	5
HUBERT 	M	5
HUSSNAIN 	M	5
ILYAAS 	M	5
IMAN 	M	5
INAAM 	M	5
ISHAAN 	M	5
IVOR 	M	5
JABER 	M	5
JAHID 	M	5
JAHMAL 	M	5
JAIDAN 	M	5
JALAL 	M	5
JAMESON 	M	5
JARETH 	M	5
JASVIR 	M	5
JATIN 	M	5
JAYKE 	M	5
JEDIDIAH 	M	5
JEFFERY 	M	5
JEMEL 	M	5
JEVEN 	M	5
JIN 	M	5
JONSON 	M	5
JORAWAR 	M	5
JORDYN 	M	5
JOS 	M	5
JOURDAN 	M	5
JUDAH 	M	5
JUHEL 	M	5
KACEY 	M	5
KAIF 	M	5
KAIRO 	M	5
KALAN 	M	5
KALIL 	M	5
KAMAAL 	M	5
KAMAHL 	M	5
KARANJIT 	M	5
KARUN 	M	5
KAVANAGH 	M	5
KAZI 	M	5
KEARAN 	M	5
KEELEN 	M	5
KEI 	M	5
KELL 	M	5
KELLAND 	M	5
KENTON 	M	5
KESHAV 	M	5
KHRISTIAN 	M	5
KIE 	M	5
KIERRON 	M	5
KING 	M	5
KIYAN 	M	5
KOBIE 	M	5
KOLAWOLE 	M	5
KWAKU 	M	5
KWAME 	M	5
KYRO 	M	5
LAIGHTON 	M	5
LARRY 	M	5
LEIGHAM 	M	5
LLEWELLYN 	M	5
LOKI 	M	5
LOREN 	M	5
LYAM 	M	5
LYON 	M	5
MACAULLY 	M	5
MACSEN 	M	5
MAHMUD 	M	5
MAN 	M	5
MANISH 	M	5
MANJOT 	M	5
MARCELL 	M	5
MARCELO 	M	5
MARLOWE 	M	5
MAROOF 	M	5
MATEUSZ 	M	5
MATHIEU 	M	5
MATTHIEU 	M	5
MAYUR 	M	5
MAZIN 	M	5
MEIRION 	M	5
MENACHEM 	M	5
MEURIG 	M	5
MIRAJ 	M	5
MONTELL 	M	5
MORGEN 	M	5
MUBASHIR 	M	5
MUDASSAR 	M	5
MUHAMAD 	M	5
MUHAMED 	M	5
NAVDEEP 	M	5
NAWAZ 	M	5
NAZEEM 	M	5
NIHAL 	M	5
NIKKI 	M	5
NIMA 	M	5
NIRAV 	M	5
NISHIL 	M	5
NOLAN 	M	5
NORMAN 	M	5
OBED 	M	5
OBINNA 	M	5
OLANREWAJU 	M	5
OLLY 	M	5
OLUTOBI 	M	5
OPEYEMI 	M	5
ORRIN 	M	5
OSSAMA 	M	5
OWYN 	M	5
OZAIR 	M	5
OZGUR 	M	5
PAVEL 	M	5
PHILIPPE 	M	5
PIETER 	M	5
PRAKASH 	M	5
PRENTICE 	M	5
PRIYAM 	M	5
PRIYEN 	M	5
QAYS 	M	5
QUINLAN 	M	5
RAEKWON 	M	5
RAJESH 	M	5
RAKIM 	M	5
RALF 	M	5
RAMON 	M	5
REED 	M	5
REMEL 	M	5
RENO 	M	5
REZWAN 	M	5
RIDHWAN 	M	5
RIECE 	M	5
ROB 	M	5
ROGAN 	M	5
RONIN 	M	5
ROSHAAN 	M	5
ROWEN 	M	5
RUAIRIDH 	M	5
RUBIN 	M	5
RUHEL 	M	5
SABIR 	M	5
SAFIAN 	M	5
SAHID 	M	5
SAIFUL 	M	5
SALIH 	M	5
SALVADOR 	M	5
SAMMIE 	M	5
SAURAV 	M	5
SEBASTIANO 	M	5
SERGIO 	M	5
SERKAN 	M	5
SHAFIQ 	M	5
SHAMIL 	M	5
SHANNON 	M	5
SHAYLEN 	M	5
SHERIF 	M	5
SHIVAN 	M	5
SHUAYB 	M	5
SHYHEIM 	M	5
SIKANDER 	M	5
SKY 	M	5
SOBAAN 	M	5
SOFIAN 	M	5
SOREN 	M	5
STEVAN 	M	5
SULMAN 	M	5
SYD 	M	5
TAFARI 	M	5
TALVIN 	M	5
TANBIR 	M	5
TARANDEEP 	M	5
TARANJIT 	M	5
TARANVIR 	M	5
TAUHEED 	M	5
TAYLAN 	M	5
TEALE 	M	5
TEJ 	M	5
THADDEUS 	M	5
TIMON 	M	5
TOLULOPE 	M	5
TORBEN 	M	5
TREMAINE 	M	5
TYREISS 	M	5
TYREL 	M	5
TYRELLE 	M	5
VIKESH 	M	5
WASIF 	M	5
WILF 	M	5
YAMIN 	M	5
YAN 	M	5
YASAR 	M	5
YASSINE 	M	5
YEHUDA 	M	5
ZAFRAN 	M	5
ZAHIR 	M	5
ZEKE 	M	5
ZIA 	M	5
ZOHEB 	M	5
AAREN 	M	4
AARUN 	M	4
AAYUSH 	M	4
ABD 	M	4
ABDISHAKUR 	M	4
ABDOU 	M	4
ABDULRAHIM 	M	4
ABIDUR 	M	4
ABUBAKARR 	M	4
ACE 	M	4
ADENIYI 	M	4
ADEWALE 	M	4
ADI 	M	4
ADIB 	M	4
ADREES 	M	4
AFTAB 	M	4
AKHIL 	M	4
AKIL 	M	4
AKIVA 	M	4
ALAIN 	M	4
ALBION 	M	4
ALDO 	M	4
ALEXANDA 	M	4
ALEXI 	M	4
ALEXZANDER 	M	4
ALFREDO 	M	4
ALFY 	M	4
ALON 	M	4
AMARN 	M	4
AMARU 	M	4
AMINUL 	M	4
AMRAN 	M	4
ANDERS 	M	4
ANDI 	M	4
ANEIRIN 	M	4
ANGELOS 	M	4
ANSON 	M	4
ANTHONIE 	M	4
ANTONINO 	M	4
ARAFAT 	M	4
ARANDEEP 	M	4
AREES 	M	4
ARLEN 	M	4
ARLIND 	M	4
ARNE 	M	4
ARRY 	M	4
ARTURO 	M	4
ASHAR 	M	4
ASHDON 	M	4
ASTEN 	M	4
ATO 	M	4
ATTICUS 	M	4
AUGUSTIN 	M	4
AULON 	M	4
AZAD 	M	4
BADR 	M	4
BARON 	M	4
BASHIR 	M	4
BAYLEIGH 	M	4
BILLYJOE 	M	4
BLADE 	M	4
BOAZ 	M	4
BOBBIE 	M	4
BRAD-LEE 	M	4
BRADON 	M	4
BRICE 	M	4
CADELL 	M	4
CAELAN 	M	4
CAERON 	M	4
CAILEN 	M	4
CAILUM 	M	4
CALAM 	M	4
CALEM 	M	4
CAM'RON 	M	4
CAMARON 	M	4
CAMEREN 	M	4
CAMERON-JAMES 	M	4
CANE 	M	4
CARLITO 	M	4
CARSON 	M	4
CARY 	M	4
CAYMAN 	M	4
CEDRIC 	M	4
CEIRAN 	M	4
CEIRION 	M	4
CENK 	M	4
CHANDAN 	M	4
CHARALAMBOS 	M	4
CLAUDIO 	M	4
CLEM 	M	4
CLINT 	M	4
COBIE 	M	4
COLLIN 	M	4
COLLINS 	M	4
COLUM 	M	4
CONAR 	M	4
CUAN 	M	4
CYLE 	M	4
D'ANDRE 	M	4
DAIRE 	M	4
DAMION 	M	4
DANESH 	M	4
DANNY-LEE 	M	4
DARION 	M	4
DARRION 	M	4
DAVINDER 	M	4
DAYNE 	M	4
DAYTON 	M	4
DE 	M	4
DEANDRE 	M	4
DEEP 	M	4
DEIAN 	M	4
DEINIOL 	M	4
DEION 	M	4
DEMETRIUS 	M	4
DEMPSEY 	M	4
DENILSON 	M	4
DEWAN 	M	4
DHILAN 	M	4
DILWAR 	M	4
DIMITRIS 	M	4
DJAMEL 	M	4
DOGUKAN 	M	4
DONTAI 	M	4
DOULTON 	M	4
DOV 	M	4
DOYLE 	M	4
DREN 	M	4
DYLLON 	M	4
EASHAN 	M	4
EFAN 	M	4
EFE 	M	4
EGZON 	M	4
EITAN 	M	4
EITHAN 	M	4
ELGAN 	M	4
ELLERY 	M	4
EMIR 	M	4
EMRYS 	M	4
EVANDER 	M	4
EVANGELOS 	M	4
FAISEL 	M	4
FARAH 	M	4
FAREED 	M	4
FATIH 	M	4
FAWWAZ 	M	4
FELIPE 	M	4
FENN 	M	4
FINNEGAN 	M	4
FLORENT 	M	4
FRAIZER 	M	4
GAETAN 	M	4
GAIGE 	M	4
GARRETT 	M	4
GAVINDER 	M	4
GENE 	M	4
GEORGI 	M	4
GEORGIO 	M	4
GERRY 	M	4
GERWYN 	M	4
GODWIN 	M	4
GUISEPPE 	M	4
GURINDER 	M	4
GURMUKH 	M	4
GWERN 	M	4
HAAMID 	M	4
HABEEB 	M	4
HAFEEZ 	M	4
HAMAS 	M	4
HAMDAN 	M	4
HAMILTON 	M	4
HANAD 	M	4
HANLEY 	M	4
HARISH 	M	4
HARJEET 	M	4
HARJEEVAN 	M	4
HARJINDER 	M	4
HARJIT 	M	4
HARKARAN 	M	4
HARLEE 	M	4
HARPER 	M	4
HASHIR 	M	4
HAYDYN 	M	4
HAYYAN 	M	4
HIMESH 	M	4
HIRAM 	M	4
HIROKI 	M	4
HOLDEN 	M	4
HUMAYUN 	M	4
HUNTER 	M	4
HUSSAM 	M	4
IFTIKHAR 	M	4
IMTIAZ 	M	4
INDIANA 	M	4
INDIGO 	M	4
ISAAQ 	M	4
ISHAK 	M	4
ITHSHAM 	M	4
JACKIE 	M	4
JAGJIT 	M	4
JAMARL 	M	4
JAMIELEE 	M	4
JANEK 	M	4
JARDEL 	M	4
JARLATH 	M	4
JARRELL 	M	4
JASWINDER 	M	4
JAXON 	M	4
JAYA 	M	4
JAYLEN 	M	4
JEAN-PAUL 	M	4
JETMIR 	M	4
JETT 	M	4
JOASH 	M	4
JOHN-JOSEPH 	M	4
JOHNNIE 	M	4
JONJO 	M	4
JONNIE 	M	4
JONNY 	M	4
JORDANE 	M	4
JOSHUA-JAMES 	M	4
JOSUE 	M	4
JUDD 	M	4
JUGRAJ 	M	4
KACI 	M	4
KAELUM 	M	4
KAIDE 	M	4
KAL 	M	4
KALIB 	M	4
KAMAU 	M	4
KAMRON 	M	4
KAPIL 	M	4
KAR 	M	4
KARTER 	M	4
KASPER 	M	4
KEAGAN 	M	4
KEANEN 	M	4
KEATAN 	M	4
KEGAN 	M	4
KEIGHTON 	M	4
KEIL 	M	4
KENTO 	M	4
KERRY 	M	4
KESLEY 	M	4
KHIZER 	M	4
KHYLE 	M	4
KIARAN 	M	4
KIEL 	M	4
KIENAN 	M	4
KIERNAN 	M	4
KION 	M	4
KIRON 	M	4
KOLE 	M	4
KONNER 	M	4
KRAIG 	M	4
KRISHNAN 	M	4
KYI 	M	4
KYM 	M	4
KYMANI 	M	4
KYREN 	M	4
LABIB 	M	4
LAINE 	M	4
LAMARR 	M	4
LANDON 	M	4
LANE 	M	4
LATRELL 	M	4
LAWRIE 	M	4
LAZARUS 	M	4
LEEVI 	M	4
LEONE 	M	4
LEOPOLD 	M	4
LEUTRIM 	M	4
LEVIN 	M	4
LEWIN 	M	4
LIONEL 	M	4
LIRIM 	M	4
LOUIX 	M	4
LUTHER 	M	4
MACE 	M	4
MACEY 	M	4
MAKENZIE 	M	4
MALIQUE 	M	4
MANAV 	M	4
MANI 	M	4
MANTAS 	M	4
MANVEER 	M	4
MARSHAL 	M	4
MARTELL 	M	4
MASUM 	M	4
MATTIE 	M	4
MATTY 	M	4
MAXIMUS 	M	4
MAZHAR 	M	4
MAZHARUL 	M	4
MCAULEY 	M	4
MEHUL 	M	4
MEIR 	M	4
MICAIAH 	M	4
MIKAEEL 	M	4
MIKEL 	M	4
MILLER 	M	4
MILOS 	M	4
MING 	M	4
MINHAZ 	M	4
MODOU 	M	4
MOHAMOUD 	M	4
MOHD 	M	4
MOHIB 	M	4
MOINUDDIN 	M	4
MOMIN 	M	4
MOSAN 	M	4
MOUHAMED 	M	4
MOUNIR 	M	4
MUBEEN 	M	4
MUBIN 	M	4
MUHIBUR 	M	4
MUKHTAR 	M	4
MUNGO 	M	4
MUNIR 	M	4
MUSTAF 	M	4
MUSTAFE 	M	4
NADER 	M	4
NAFEES 	M	4
NAHOM 	M	4
NAJIB 	M	4
NATHON 	M	4
NAVEEN 	M	4
NAVRAJ 	M	4
NAYEEM 	M	4
NAYIM 	M	4
NICCOLO 	M	4
NIKOLA 	M	4
NILAY 	M	4
NIRAJ 	M	4
NIRAL 	M	4
NITESH 	M	4
NUR 	M	4
OCEAN 	M	4
ODHRAN 	M	4
OLAWALE 	M	4
OLUFEMI 	M	4
OLUMIDE 	M	4
OLUSEYI 	M	4
OLUWATOMISIN 	M	4
OM 	M	4
ORHAN 	M	4
OSAMAH 	M	4
OSHER 	M	4
OSKA 	M	4
OSSIAN 	M	4
OUSAMA 	M	4
OUSMAN 	M	4
PADRAIC 	M	4
PANASHE 	M	4
PANAYIOTIS 	M	4
PARAS 	M	4
PASHA 	M	4
PERRIE 	M	4
PINCHOS 	M	4
PIP 	M	4
PRAISE 	M	4
PRANAY 	M	4
PRITAM 	M	4
PRITESH 	M	4
QUAID 	M	4
QUINCY 	M	4
QUINTIN 	M	4
RAHAN 	M	4
RAIHAAN 	M	4
RAIYAN 	M	4
RAJAH 	M	4
RAJINDER 	M	4
RAJVEER 	M	4
RAKEEB 	M	4
RAKIB 	M	4
RAMADAN 	M	4
RAMAN 	M	4
RASHARN 	M	4
REDD 	M	4
REDWAN 	M	4
REGINALD 	M	4
REICE 	M	4
REX 	M	4
RIAD 	M	4
RICK 	M	4
RICKI 	M	4
RIEGAN 	M	4
RIKESH 	M	4
RIKU 	M	4
RIYAN 	M	4
RIYAZ 	M	4
ROCKY 	M	4
ROHIL 	M	4
RONI 	M	4
ROSARIO 	M	4
ROYCE 	M	4
RUAIDHRI 	M	4
RUBEL 	M	4
RUSHANE 	M	4
RYLEE 	M	4
SAAGAR 	M	4
SABRI 	M	4
SAGAR 	M	4
SAHAL 	M	4
SAHIN 	M	4
SAIFULLAH 	M	4
SAIFUR 	M	4
SAJAN 	M	4
SAJEEL 	M	4
SAKARIYE 	M	4
SAKIB 	M	4
SAMEH 	M	4
SAMIE 	M	4
SAMRAJ 	M	4
SANJIV 	M	4
SARFARAZ 	M	4
SARFRAZ 	M	4
SAYYED 	M	4
SEIF 	M	4
SENAN 	M	4
SERHAT 	M	4
SHABAAN 	M	4
SHAHAN 	M	4
SHAHRIAR 	M	4
SHAHRIYAR 	M	4
SHAILEN 	M	4
SHAKEIL 	M	4
SHAMRAIZ 	M	4
SHARMARKE 	M	4
SHIHAB 	M	4
SHIMON 	M	4
SHIRAZ 	M	4
SHOLOM 	M	4
SIMONE 	M	4
SLATER 	M	4
STEPHANE 	M	4
SUFIAN 	M	4
SUKHBIR 	M	4
SUKHPAL 	M	4
SUKHVEER 	M	4
SULAMAN 	M	4
SULLIVAN 	M	4
SUMEET 	M	4
T 	M	4
T-JAY 	M	4
TAHJ 	M	4
TAHMIDUR 	M	4
TAIDGH 	M	4
TAJINDER 	M	4
TALON 	M	4
TAMEEM 	M	4
TANE 	M	4
TANER 	M	4
TANZEEL 	M	4
TARREN 	M	4
TASEEN 	M	4
TAYNE 	M	4
TEAGUE 	M	4
TEDDIE 	M	4
TEE-JAY 	M	4
TEEJAY 	M	4
TEJAN 	M	4
TEJAS 	M	4
TEJAY 	M	4
TEVIN 	M	4
THE 	M	4
THEODOR 	M	4
THIBAULT 	M	4
TIAN 	M	4
TOBI 	M	4
TOBIAH 	M	4
TOBIE 	M	4
TOBIN 	M	4
TOLGA 	M	4
TOLUWANI 	M	4
TOMEK 	M	4
TOMMASO 	M	4
TOMMY-JOE 	M	4
TRAI 	M	4
TREVON 	M	4
TRISTON 	M	4
TUDOR 	M	4
TULLY 	M	4
TYLAN 	M	4
UBAIDULLAH 	M	4
UCHECHUKWU 	M	4
UGOCHUKWU 	M	4
UMMAR 	M	4
VEER 	M	4
VITO 	M	4
VITTORIO 	M	4
WAHAB 	M	4
WAHID 	M	4
WALLACE 	M	4
WASIL 	M	4
WILLOUGHBY 	M	4
WINSTON 	M	4
YAHIA 	M	4
YANNIS 	M	4
YITZCHAK 	M	4
YOGESH 	M	4
YONAH 	M	4
YOUNES 	M	4
ZACKARIAH 	M	4
ZAHEER 	M	4
ZAINE 	M	4
ZAKARI 	M	4
ZAMAN 	M	4
ZAMEER 	M	4
ZEB 	M	4
ZEBEDEE 	M	4
ZEESHAAN 	M	4
ZEN 	M	4
ZENON 	M	4
ZIDANE 	M	4
ZOHIB 	M	4
ZULFIKAR 	M	4
ZVI 	M	4
A.J. 	M	3
AADITYA 	M	3
AARIF 	M	3
AARONVEER 	M	3
AARYAN 	M	3
ABBAAS 	M	3
ABDEL 	M	3
ABDELRAHMAN 	M	3
ABDIKARIM 	M	3
ABDILLAHI 	M	3
ABDIRAHIM 	M	3
ABDIRISAQ 	M	3
ABDUL-AZEEZ 	M	3
ABDUL-AZIZ 	M	3
ABDUL-HASEEB 	M	3
ABDUL-MALIK 	M	3
ABDUL-RAHMAN 	M	3
ABDULBASIT 	M	3
ABDULHAKIM 	M	3
ABDUR-REHMAN 	M	3
ABDURRAHIM 	M	3
ABDUS 	M	3
ABHIJEET 	M	3
ABIR 	M	3
ABSAR 	M	3
ABU-BAKR 	M	3
ADDAM 	M	3
ADEKUNLE 	M	3
ADEYINKA 	M	3
ADONIS 	M	3
AENGUS 	M	3
AFZAAL 	M	3
AGIT 	M	3
AHAD 	M	3
AIDON 	M	3
AJAZ 	M	3
AJHAR 	M	3
AJIT 	M	3
AKEAL 	M	3
AKIF 	M	3
AKINOLA 	M	3
AKWASI 	M	3
AL-AMIN 	M	3
ALBIN 	M	3
ALEN 	M	3
ALI-AKBAR 	M	3
ALMIR 	M	3
ALOM 	M	3
ALPHONSO 	M	3
ALTON 	M	3
AMANDIP 	M	3
AMANJEET 	M	3
AMANPREET 	M	3
AMARJIT 	M	3
AMARNI 	M	3
AMARVEER 	M	3
AMINE 	M	3
AMOR 	M	3
AMRAJ 	M	3
ANDREI 	M	3
ANDREJ 	M	3
ANELKA 	M	3
ANGAD 	M	3
ANKUSH 	M	3
ANSAR 	M	3
ANTONI 	M	3
ARHAM 	M	3
ARI 	M	3
ARIA 	M	3
ARION 	M	3
ARIQ 	M	3
ARLO 	M	3
ARMARI 	M	3
ARRUN 	M	3
ARSALAAN 	M	3
ARTUR 	M	3
ARYAAN 	M	3
ASHAN 	M	3
ASHARN 	M	3
ASHIR 	M	3
ASHLIN 	M	3
ASHLY 	M	3
ASHWYN 	M	3
ASLAN 	M	3
ASSIM 	M	3
ASWIN 	M	3
ATEEQ 	M	3
ATHANASIOS 	M	3
ATHAR 	M	3
ATUL 	M	3
AURYN 	M	3
AUZAIR 	M	3
AVROHOM 	M	3
AYOOLA 	M	3
AZHARUL 	M	3
BABATUNDE 	M	3
BABY 	M	3
BADEN 	M	3
BAILEY-JAMES 	M	3
BALJINDER 	M	3
BALLAL 	M	3
BART 	M	3
BEDWYR 	M	3
BELAL 	M	3
BENJI 	M	3
BENNETT 	M	3
BENZION 	M	3
BERDAN 	M	3
BERK 	M	3
BERKE 	M	3
BILLY-DEAN 	M	3
BINYAMIN 	M	3
BINYOMIN 	M	3
BLEDDYN 	M	3
BODRUL 	M	3
BOSTON 	M	3
BOWEN 	M	3
BRADAN 	M	3
BRADIE 	M	3
BRADLY 	M	3
BRAIDEN 	M	3
BRANNON 	M	3
BRAY 	M	3
BRENNON 	M	3
BRINDLEY 	M	3
BROGEN 	M	3
BULENT 	M	3
BYRAN 	M	3
CAEL 	M	3
CAERAN 	M	3
CAIDEN 	M	3
CAIO 	M	3
CALEDON 	M	3
CALIB 	M	3
CARADOG 	M	3
CARLIN 	M	3
CASH 	M	3
CASSIDY 	M	3
CAVEN 	M	3
CAYNE 	M	3
CEE 	M	3
CEI 	M	3
CELAL 	M	3
CEMAL 	M	3
CENGIZ 	M	3
CERITH 	M	3
CESAR 	M	3
CHADD 	M	3
CHADLEY 	M	3
CHARAN 	M	3
CHARLIE-GEORGE 	M	3
CHAUDHARY 	M	3
CHAUDRY 	M	3
CHAUNCEY 	M	3
CHESNEY 	M	3
CHINEDUM 	M	3
CHIRAAG 	M	3
CHRISTOPH 	M	3
CHRISTOPHE 	M	3
CIARON 	M	3
CILLIAN 	M	3
CJ 	M	3
CLIFF 	M	3
CLIRIM 	M	3
COEN 	M	3
CONAGH 	M	3
CONNAIRE 	M	3
CONNAN 	M	3
CONSTANTINOS 	M	3
CORBAN 	M	3
CORNELL 	M	3
CUBA 	M	3
CYNAN 	M	3
CYRIL 	M	3
D'ANGELO 	M	3
DAFYD 	M	3
DAHNISH 	M	3
DALEY 	M	3
DALLAN 	M	3
DALRAJ 	M	3
DANNI 	M	3
DANNIEL 	M	3
DARIN 	M	3
DARNELLE 	M	3
DARON 	M	3
DARRIAN 	M	3
DARRIUS 	M	3
DARRON 	M	3
DARYLE 	M	3
DAVIE 	M	3
DAVY 	M	3
DAX 	M	3
DECKLAN 	M	3
DEEPESH 	M	3
DEJUAN 	M	3
DEL 	M	3
DELANEY 	M	3
DELROY 	M	3
DENNON 	M	3
DERMOT 	M	3
DERREN 	M	3
DERRI 	M	3
DERVIS 	M	3
DERYN 	M	3
DEVANG 	M	3
DEVAUNTE 	M	3
DEVESH 	M	3
DEVONTAE 	M	3
DEWAYNE 	M	3
DHANYAAL 	M	3
DHRU 	M	3
DIARMUID 	M	3
DIGGORY 	M	3
DILEEP 	M	3
DILLEN 	M	3
DILLION 	M	3
DIPESH 	M	3
DJ 	M	3
DJORDJE 	M	3
DOLTON 	M	3
DOMINIQUE 	M	3
DONTAE 	M	3
DONTAY 	M	3
DORAN 	M	3
DRAZIC 	M	3
DREY 	M	3
DRIN 	M	3
DRUE 	M	3
DRUMMOND 	M	3
DURAN 	M	3
DURELL 	M	3
DUSAN 	M	3
DWAINE 	M	3
EARL 	M	3
EBAN 	M	3
EBRIMA 	M	3
ED 	M	3
EDDY 	M	3
EDMOND 	M	3
EDON 	M	3
EDRIS 	M	3
EDUARD 	M	3
EDWYN 	M	3
EISUKE 	M	3
ELAN 	M	3
ELIO 	M	3
ELIYOHU 	M	3
ELLYS 	M	3
ELY 	M	3
ELYS 	M	3
EMDADUR 	M	3
EMRAN 	M	3
ERBLIN 	M	3
ERVIN 	M	3
ESHAN 	M	3
EUGENIO 	M	3
EUROS 	M	3
FABIANO 	M	3
FAHID 	M	3
FAHIMUL 	M	3
FARDEEN 	M	3
FARDIN 	M	3
FARES 	M	3
FARLEY 	M	3
FARON 	M	3
FARRIS 	M	3
FAWAZ 	M	3
FAYED 	M	3
FEROZE 	M	3
FEZHAN 	M	3
FILIPE 	M	3
FINAN 	M	3
FINBARR 	M	3
FORBES 	M	3
FOSTER 	M	3
FRANCOIS 	M	3
FRANKIE-LEE 	M	3
FYNLEY 	M	3
GAIUS 	M	3
GAR 	M	3
GARAN 	M	3
GARVEY 	M	3
GENO 	M	3
GENT 	M	3
GENTIAN 	M	3
GEORGES 	M	3
GIANCARLO 	M	3
GIANFRANCO 	M	3
GIULIO 	M	3
GORAN 	M	3
GULLIVER 	M	3
GUNEY 	M	3
GURDEV 	M	3
GURJIT 	M	3
GURKAN 	M	3
GURTEJ 	M	3
GUVEN 	M	3
GWYNDAF 	M	3
HADDEN 	M	3
HADEN 	M	3
HAGAN 	M	3
HAITHAM 	M	3
HALIM 	M	3
HANAAN 	M	3
HANI 	M	3
HANLON 	M	3
HANZALAH 	M	3
HAQEEM 	M	3
HARALAMBOS 	M	3
HARBIR 	M	3
HARLAN 	M	3
HARNEK 	M	3
HAROUN 	M	3
HARRAJ 	M	3
HARRYSON 	M	3
HARSHIL 	M	3
HARTEJ 	M	3
HARVIN 	M	3
HASAAM 	M	3
HASANAIN 	M	3
HASNAN 	M	3
HASSEN 	M	3
HAYTHAM 	M	3
HAZAR 	M	3
HAZIQ 	M	3
HEFIN 	M	3
HENDRY 	M	3
HENRIQUE 	M	3
HESHAM 	M	3
HICHAM 	M	3
HILTON 	M	3
HIZAR 	M	3
HORATIO 	M	3
HUMAIR 	M	3
HUMPHREY 	M	3
HUNG 	M	3
HUSAYN 	M	3
HUSNEIN 	M	3
HUSSAN 	M	3
HUXLEY 	M	3
IANTO 	M	3
IDRISS 	M	3
IEAUN 	M	3
IGNATIUS 	M	3
IKECHI 	M	3
IKECHUKWU 	M	3
IKRAAM 	M	3
ILIAS 	M	3
ILIJA 	M	3
IMAAN 	M	3
INSHAAL 	M	3
ISAAM 	M	3
ISAMBARD 	M	3
ISHMAM 	M	3
ISMAA'EEL 	M	3
ISMET 	M	3
IYAZ 	M	3
IZAAZ 	M	3
JABARI 	M	3
JABE 	M	3
JAEDON 	M	3
JAEGER 	M	3
JAHANGIR 	M	3
JAIMEE 	M	3
JAIMIN 	M	3
JAISAL 	M	3
JAKIR 	M	3
JAMAHL 	M	3
JAMALI 	M	3
JAMEY 	M	3
JANAID 	M	3
JANZEN 	M	3
JAPHET 	M	3
JAQ 	M	3
JAQUES 	M	3
JARDELL 	M	3
JARON 	M	3
JASBIR 	M	3
JASKIRAN 	M	3
JATINDER 	M	3
JAWWAD 	M	3
JAYCE 	M	3
JAYDEEP 	M	3
JAYDYN 	M	3
JAYMES 	M	3
JAYMIN 	M	3
JAYVON 	M	3
JEAN-BAPTISTE 	M	3
JEEVEN 	M	3
JEMAL 	M	3
JERELL 	M	3
JEROEN 	M	3
JESAL 	M	3
JEVAUGHN 	M	3
JEWEL 	M	3
JEZZ 	M	3
JITESH 	M	3
JOACHIM 	M	3
JOHNSON 	M	3
JONOTHAN 	M	3
JONTI 	M	3
JOOLS 	M	3
JORDANLEE 	M	3
JOSHUA-LEE 	M	3
JOSHUAH 	M	3
JOTHAM 	M	3
JUJHAR 	M	3
KABEER 	M	3
KAEL 	M	3
KAIDAN 	M	3
KAILAM 	M	3
KAINAN 	M	3
KAIS 	M	3
KAISER 	M	3
KAJ 	M	3
KALE 	M	3
KALEEL 	M	3
KALMAN 	M	3
KAMREN 	M	3
KAMRUL 	M	3
KAMRUN 	M	3
KARAMJIT 	M	3
KARANVEER 	M	3
KARLOS 	M	3
KARLTON 	M	3
KARTIK 	M	3
KASHANE 	M	3
KASIE 	M	3
KAVEN 	M	3
KAWSAR 	M	3
KAYDE 	M	3
KAYLEB 	M	3
KEAH 	M	3
KEANO 	M	3
KEAREN 	M	3
KEELEY 	M	3
KEENON 	M	3
KEES 	M	3
KEETON 	M	3
KEINAN 	M	3
KELLER 	M	3
KENDALL 	M	3
KENECHUKWU 	M	3
KERON 	M	3
KEVAN 	M	3
KHADAR 	M	3
KHALIM 	M	3
KHAWAJA 	M	3
KHUSHAL 	M	3
KIEN 	M	3
KIETAN 	M	3
KILE 	M	3
KIM 	M	3
KIN 	M	3
KIREAN 	M	3
KIREN 	M	3
KISHI 	M	3
KITT 	M	3
KIYA 	M	3
KIYANI 	M	3
KLAYTON 	M	3
KLEIN 	M	3
KOBY 	M	3
KODI 	M	3
KOLADE 	M	3
KONNA 	M	3
KONSTANTINE 	M	3
KORIE 	M	3
KRAY 	M	3
KRISTAN 	M	3
KRZYSZTOF 	M	3
KUBILAY 	M	3
KY 	M	3
KYRESE 	M	3
LAMAAR 	M	3
LAMIN 	M	3
LASZLO 	M	3
LAURENS 	M	3
LAW 	M	3
LAWRANCE 	M	3
LAWTON 	M	3
LEAM 	M	3
LEANDRO 	M	3
LEEROY 	M	3
LEIF 	M	3
LEMAR 	M	3
LEOM 	M	3
LEONIDAS 	M	3
LEVON 	M	3
LEWES 	M	3
LEXUS 	M	3
LIAN 	M	3
LIIBAAN 	M	3
LLIAM 	M	3
LOCHLAINN 	M	3
LORNE 	M	3
LOU 	M	3
LOUKAS 	M	3
LUAN 	M	3
LUKMAN 	M	3
LUTFI 	M	3
LYNDAN 	M	3
LYSANDER 	M	3
MAALIK 	M	3
MADOC 	M	3
MAHAMOUD 	M	3
MAHAZ 	M	3
MAHER 	M	3
MAHFUZUR 	M	3
MAHMUT 	M	3
MALICK 	M	3
MANH 	M	3
MANSUR 	M	3
MANVINDER 	M	3
MARLOW 	M	3
MARQUES 	M	3
MASOOD 	M	3
MASOUD 	M	3
MASSIMILIANO 	M	3
MATEOS 	M	3
MATEUS 	M	3
MATTHEUS 	M	3
MATTHEW-JAMES 	M	3
MAURIZIO 	M	3
MAVERICK 	M	3
MAXIMILLION 	M	3
MAYER 	M	3
MAYOWA 	M	3
MAYSON 	M	3
MEHRAB 	M	3
MEILIR 	M	3
MENELIK 	M	3
MERRICK 	M	3
MERVYN 	M	3
METE 	M	3
MICHAL 	M	3
MICHALIS 	M	3
MICHEL 	M	3
MICK 	M	3
MIJANUR 	M	3
MIKKEL 	M	3
MILEN 	M	3
MILEY 	M	3
MILLAR 	M	3
MIN 	M	3
MINH 	M	3
MINHAZUL 	M	3
MIRO 	M	3
MIROSLAV 	M	3
MISCHA 	M	3
MOHAMMUD 	M	3
MOHIN 	M	3
MOHSEN 	M	3
MOHUMMED 	M	3
MORRIS 	M	3
MORTIMER 	M	3
MOUSA 	M	3
MOYOSOREOLUWA 	M	3
MUAAZ 	M	3
MUAWIYAH 	M	3
MUAZ 	M	3
MUHMMAD 	M	3
MUNEER 	M	3
MURDO 	M	3
MUSTAFAA 	M	3
MUZAMMIL 	M	3
MYKAL 	M	3
NADAV 	M	3
NAHEED 	M	3
NAHEEM 	M	3
NAHIM 	M	3
NAHSHON 	M	3
NAIMUL 	M	3
NAJEEB 	M	3
NAJMUL 	M	3
NAKUL 	M	3
NAMAN 	M	3
NAQIB 	M	3
NARAIN 	M	3
NASAR 	M	3
NASSIR 	M	3
NATHANEAL 	M	3
NAUMAN 	M	3
NAVID 	M	3
NAVJOT 	M	3
NAZAM 	M	3
NAZIR 	M	3
NEHEMIAH 	M	3
NEWTON 	M	3
NICKOLAS 	M	3
NICLAS 	M	3
NICOLAI 	M	3
NIROSHAN 	M	3
NITIN 	M	3
NIVEN 	M	3
NIZAM 	M	3
NIZAMUL 	M	3
NNAEMEKA 	M	3
NNAMDI 	M	3
NOA 	M	3
NOAM 	M	3
NORBERT 	M	3
NORTON 	M	3
NOSSON 	M	3
NOUMAAN 	M	3
NOUMAN 	M	3
NUMAIR 	M	3
NYAL 	M	3
NYE 	M	3
OBAID 	M	3
OBI 	M	3
OLADIMEJI 	M	3
OLATUNDE 	M	3
OLUKAYODE 	M	3
OLUSEUN 	M	3
OLUWADAMILARE 	M	3
OLUWAGBENGA 	M	3
OLUWANIFEMI 	M	3
OLUWASEGUN 	M	3
OLUWASHOLA 	M	3
OLUWATOMI 	M	3
ONDER 	M	3
ONKAR 	M	3
ONNI 	M	3
OPEOLUWA 	M	3
ORSON 	M	3
OUSSAMA 	M	3
OZCAN 	M	3
OZKAN 	M	3
PACEY 	M	3
PARAMVEER 	M	3
PARAN 	M	3
PATRYK 	M	3
PAULIUS 	M	3
PAVINDER 	M	3
PAVITAR 	M	3
PAWAN 	M	3
PEARSE 	M	3
PELE 	M	3
PERCY 	M	3
PERRIN 	M	3
PETAR 	M	3
PETROS 	M	3
PHELIM 	M	3
PHIL 	M	3
PIERO 	M	3
PINCHAS 	M	3
PRASANNA 	M	3
PRATIK 	M	3
PREMAL 	M	3
PRESLEY 	M	3
PRITPAL 	M	3
QADAR 	M	3
QASAM 	M	3
QENDRIM 	M	3
RA'EES 	M	3
RAFAY 	M	3
RAFIQ 	M	3
RAGHAV 	M	3
RAI 	M	3
RAJPAL 	M	3
RAMANDEEP 	M	3
RAMESH 	M	3
RAMIN 	M	3
RANA 	M	3
RANDELL 	M	3
RANULPH 	M	3
RAQEEB 	M	3
RASHAAD 	M	3
RASHAUN 	M	3
RASHED 	M	3
RAZEEN 	M	3
READE 	M	3
REDFORD 	M	3
REDMOND 	M	3
REMMEL 	M	3
REMMIE 	M	3
REUEL 	M	3
RHAIN 	M	3
RICKIE 	M	3
RIDLEY 	M	3
RISHAB 	M	3
RISHIL 	M	3
RITESH 	M	3
RIZA 	M	3
ROAN 	M	3
ROBI 	M	3
ROLLO 	M	3
ROMAINE 	M	3
ROME 	M	3
ROMEL 	M	3
ROMEO 	M	3
ROMERO 	M	3
RON 	M	3
ROONEY 	M	3
RORIE 	M	3
ROWLAND 	M	3
RUHUL 	M	3
RUMAN 	M	3
RUNE 	M	3
RUSSEL 	M	3
RYLEIGH 	M	3
RYO 	M	3
SABBIR 	M	3
SADAQAT 	M	3
SAFWAAN 	M	3
SAIM 	M	3
SAJAD 	M	3
SALLAH 	M	3
SAMATAR 	M	3
SAMER 	M	3
SAMET 	M	3
SAMUELE 	M	3
SAMY 	M	3
SANI 	M	3
SANTOSH 	M	3
SAQAB 	M	3
SARAN 	M	3
SATNAM 	M	3
SATPAL 	M	3
SATVEER 	M	3
SAVRAJ 	M	3
SAVVAS 	M	3
SAYEED 	M	3
SAYYID 	M	3
SEAMAS 	M	3
SHABAN 	M	3
SHABIR 	M	3
SHADI 	M	3
SHAHEEN 	M	3
SHAHEER 	M	3
SHAHIDUR 	M	3
SHAHJAHAN 	M	3
SHAHRYAR 	M	3
SHAIKH 	M	3
SHAIN 	M	3
SHAJAN 	M	3
SHAN 	M	3
SHANEEL 	M	3
SHAREEF 	M	3
SHARIF 	M	3
SHARIQ 	M	3
SHEHRYAR 	M	3
SHER 	M	3
SHERAZ 	M	3
SHKELQIM 	M	3
SHOIAB 	M	3
SHOIB 	M	3
SHOMARI 	M	3
SHREYAN 	M	3
SHULEM 	M	3
SHUN 	M	3
SIAM 	M	3
SIDDARTH 	M	3
SIMRANJIT 	M	3
SOHAN 	M	3
STAFFORD 	M	3
SUHAYB 	M	3
SUHEL 	M	3
SUKHJEEVAN 	M	3
SUKHPREET 	M	3
SUKHVIR 	M	3
SULAYMAAN 	M	3
SULEIMAN 	M	3
SULIMAAN 	M	3
SUMIT 	M	3
SYLVAN 	M	3
SYLVESTER 	M	3
SYRUS 	M	3
TAAHIR 	M	3
TADGH 	M	3
TAHSIN 	M	3
TAIGH 	M	3
TAIKI 	M	3
TAL 	M	3
TALLON 	M	3
TALVINDER 	M	3
TAM 	M	3
TAMIM 	M	3
TAMOOR 	M	3
TANIS 	M	3
TANISH 	M	3
TANNER 	M	3
TANZIM 	M	3
TARAS 	M	3
TAREEQ 	M	3
TARELL 	M	3
TARKAN 	M	3
TASHI 	M	3
TASHON 	M	3
TATENDA 	M	3
TAUSIF 	M	3
TAWHEED 	M	3
TAYIB 	M	3
TAYLA 	M	3
TAYLON 	M	3
TAYYUB 	M	3
TEIGE 	M	3
TEMITAYO 	M	3
TENDAI 	M	3
TERELL 	M	3
THABIT 	M	3
THAMIM 	M	3
THANE 	M	3
THIBAUT 	M	3
THOMAS-JAY 	M	3
THURSTON 	M	3
TIERAN 	M	3
TIJAN 	M	3
TIMMY 	M	3
TIMO 	M	3
TIRATH 	M	3
TIREE 	M	3
TJ 	M	3
TOLUNAY 	M	3
TOLUWALOPE 	M	3
TOMER 	M	3
TONI 	M	3
TORE 	M	3
TRAY 	M	3
TREI 	M	3
TREYNAE 	M	3
TRISTRAM 	M	3
TRUAN 	M	3
TRUNG 	M	3
TUDUR 	M	3
TYLAH 	M	3
TYLAR 	M	3
TYLER-JAMES 	M	3
TYRESSE 	M	3
TYRIC 	M	3
TYRICK 	M	3
TYRIN 	M	3
TYRUS 	M	3
UMANG 	M	3
URIEL 	M	3
VALMIR 	M	3
VASILE 	M	3
VEGAS 	M	3
VENKATA 	M	3
VERNON 	M	3
VIDUR 	M	3
VIGAN 	M	3
VIKTOR 	M	3
VINEET 	M	3
VIRAN 	M	3
VISHNU 	M	3
WAIL 	M	3
WAQAAR 	M	3
WARIS 	M	3
WARWICK 	M	3
WESTLEIGH 	M	3
WEZLEY 	M	3
WOODY 	M	3
YACOUB 	M	3
YAQOOB 	M	3
YAQUB 	M	3
YAW 	M	3
YECHIEL 	M	3
YI 	M	3
YLLI 	M	3
YNYR 	M	3
YOAV 	M	3
YOHANN 	M	3
YOONIS 	M	3
YOSSI 	M	3
YOUNESS 	M	3
YOUSIF 	M	3
YURI 	M	3
YVAN 	M	3
ZAAHID 	M	3
ZACARIA 	M	3
ZACARY 	M	3
ZACHARIUS 	M	3
ZAEEM 	M	3
ZAFRAAN 	M	3
ZAHEED 	M	3
ZAKARIYE 	M	3
ZAKER 	M	3
ZANDER 	M	3
ZEV 	M	3
ZHI 	M	3
ZIAN 	M	3
ZIDAN 	M	3
ZIGGY 	M	3
ZORAN 	M	3
ZUHAIB 	M	3

