NAME,GENDER,COUNT,PERCENTAGE,PROP100K
CHARLOTTE,F,255
OLIVIA,F,243
ISLA,F,226
EMILY,F,221
SOPHIE,F,211
AMELIA,F,210
ELLA,F,206
HARPER,F,204
SOPHIA,F,198
RUBY,F,180
ISABELLA,F,170
AVA,F,169
GRACE,F,166
MIA,F,163
CHLOE,F,158
MILA,F,156
LILY,F,153
ZOE,F,152
LUCY,F,151
EMMA,F,146
HANNAH,F,118
GEORGIA,F,117
EVA,F,107
PAIGE,F,106
ARIA,F,104
SIENNA,F,101
BELLA,F,99
WILLOW,F,92
EVELYN,F,91
INDIE,F,91
MADISON,F,89
ABIGAIL,F,87
SCARLETT,F,87
HAZEL,F,85
JESSICA,F,84
MADDISON,F,84
MACKENZIE,F,81
EDEN,F,79
ELIZABETH,F,79
ALEXIS,F,77
ISABELLE,F,76
IVY,F,73
ALICE,F,71
HOLLY,F,70
EVIE,F,69
MAIA,F,69
ZARA,F,69
AALIYAH,F,68
MILLIE,F,68
OLIVE,F,68
SOFIA,F,67
STELLA,F,67
AYLA,F,66
SUMMER,F,62
AMBER,F,60
JASMINE,F,60
ROSE,F,60
ELLIE,F,58
LEAH,F,56
POPPY,F,56
VIOLET,F,56
LILLY,F,55
NINA,F,55
LAYLA,F,54
PEYTON,F,54
PIPPA,F,54
MOLLY,F,53
ANNA,F,52
PIPER,F,52
IMOGEN,F,51
SAMANTHA,F,51
ADDISON,F,50
BROOKLYN,F,50
PHOEBE,F,50
ARIANA,F,49
MADELEINE,F,47
AURORA,F,46
MATILDA,F,46
KATE,F,45
SAVANNAH,F,45
THEA,F,45
ALEXANDRA,F,44
BROOKE,F,44
FLORENCE,F,43
NATALIE,F,43
ANNABELLE,F,42
ISOBEL,F,42
KAYLA,F,42
NEVAEH,F,42
SADIE,F,42
HARRIET,F,41
ISABEL,F,41
SARAH,F,41
CAITLIN,F,40
KATIE,F,40
KEIRA,F,40
FREYA,F,39
HAYLEY,F,39
MARIA,F,39
NAOMI,F,39
OLIVER,M,313
JACK,M,265
JAMES,M,255
MASON,M,244
LIAM,M,241
WILLIAM,M,234
NOAH,M,231
LUCAS,M,228
BENJAMIN,M,207
JACOB,M,202
ETHAN,M,198
HUNTER,M,194
ALEXANDER,M,190
SAMUEL,M,188
CHARLIE,M,186
MAX,M,178
RYAN,M,172
THOMAS,M,169
COOPER,M,162
DANIEL,M,155
JACKSON,M,154
LEVI,M,153
LEO,M,151
BRAXTON,M,148
GEORGE,M,144
ELIJAH,M,142
ISAAC,M,139
LACHLAN,M,139
JOSHUA,M,138
HENRY,M,136
OSCAR,M,136
BLAKE,M,135
JAYDEN,M,126
CARTER,M,125
HARRY,M,121
LUKE,M,121
CONNOR,M,116
MATTHEW,M,116
ELI,M,111
LUCA,M,111
HARRISON,M,110
RILEY,M,100
JOSEPH,M,98
CALEB,M,97
RYDER,M,94
TOBY,M,94
TYLER,M,93
FLYNN,M,90
XAVIER,M,88
DYLAN,M,85
JAXON,M,85
NATHAN,M,83
ARCHIE,M,82
ARLO,M,80
LOGAN,M,80
MICHAEL,M,79
JORDAN,M,78
FINN,M,77
LINCOLN,M,75
SEBASTIAN,M,75
ZACHARY,M,74
LOUIS,M,72
THEODORE,M,71
FLETCHER,M,70
ROMAN,M,70
AIDEN,M,68
FELIX,M,68
ASHTON,M,67
DAVID,M,67
ARCHER,M,64
ADAM,M,62
BEAU,M,62
EDWARD,M,62
HUGO,M,61
ALEX,M,60
CAMERON,M,60
GRAYSON,M,60
AUSTIN,M,59
AARON,M,58
JAKE,M,58
PATRICK,M,58
CHARLES,M,57
ANGUS,M,54
NIXON,M,54
JASPER,M,52
EZRA,M,51
HUDSON,M,51
JOHN,M,51
MARCUS,M,50
NATHANIEL,M,50
THEO,M,50
ASHER,M,49
HARLEY,M,48
QUINN,M,48
COHEN,M,47
PHOENIX,M,47
VINCENT,M,47
ARTHUR,M,46
AIDAN,M,45
LEWIS,M,44
