NAME,GENDER,COUNT,PERCENTAGE,PROP100K
LIAM,M,315
JOSHUA,M,292
OLIVER,M,286
LUCAS,M,279
WILLIAM,M,272
NOAH,M,271
SAMUEL,M,266
JAMES,M,264
BENJAMIN,M,250
JACK,M,244
JACOB,M,239
COOPER,M,231
RYAN,M,231
HUNTER,M,225
MASON,M,220
ETHAN,M,215
DANIEL,M,214
MAX,M,214
THOMAS,M,210
LACHLAN,M,189
ISAAC,M,185
RILEY,M,185
LEVI,M,183
BLAKE,M,181
JAYDEN,M,179
LUKE,M,178
CHARLIE,M,176
ALEXANDER,M,174
TYLER,M,168
CONNOR,M,156
GEORGE,M,156
XAVIER,M,154
JACKSON,M,152
ELIJAH,M,151
ELI,M,141
LEO,M,139
LOGAN,M,139
CALEB,M,138
DYLAN,M,136
MATTHEW,M,131
HARRY,M,128
LUCA,M,125
FINN,M,122
JOSEPH,M,120
JAKE,M,119
NATHAN,M,119
OSCAR,M,116
ALEX,M,114
CAMERON,M,109
AIDEN,M,106
HARRISON,M,105
CARTER,M,103
HENRY,M,103
MICHAEL,M,98
TOBY,M,96
FLYNN,M,87
ASHTON,M,86
JAXON,M,82
DAVID,M,79
FELIX,M,79
ZACHARY,M,78
JOHN,M,76
AUSTIN,M,75
JORDAN,M,75
SAM,M,74
ANGUS,M,72
LOUIS,M,71
PHOENIX,M,71
JESSE,M,70
ADAM,M,68
CODY,M,68
ARCHIE,M,67
CHARLES,M,66
RYDER,M,65
AIDAN,M,61
ANDREW,M,61
CHRISTIAN,M,59
KINGSTON,M,59
BEN,M,58
NATHANIEL,M,58
QUINN,M,58
LINCOLN,M,57
SEBASTIAN,M,57
EDWARD,M,56
FLETCHER,M,56
MARCUS,M,56
SETH,M,56
ROBERT,M,55
MAXWELL,M,54
ZAC,M,54
ZION,M,54
JAMIE,M,53
NICHOLAS,M,53
TYSON,M,53
CHASE,M,52
CRUZ,M,52
CHRISTOPHER,M,51
DECLAN,M,50
PATRICK,M,50
ROMAN,M,50
RUBY,F,335
OLIVIA,F,324
SOPHIE,F,309
ISABELLA,F,277
CHARLOTTE,F,258
GRACE,F,246
ELLA,F,243
LILY,F,241
EMILY,F,231
AMELIA,F,227
CHLOE,F,220
AVA,F,205
ISLA,F,198
EMMA,F,189
SOPHIA,F,179
ZOE,F,175
LUCY,F,169
MIA,F,165
PAIGE,F,152
MADISON,F,151
GEORGIA,F,145
JESSICA,F,142
HANNAH,F,132
EVA,F,124
SIENNA,F,123
BELLA,F,119
HOLLY,F,108
SUMMER,F,107
STELLA,F,106
ALEXIS,F,105
MILA,F,104
MAIA,F,100
ABIGAIL,F,96
EDEN,F,96
ELIZABETH,F,91
ISABELLE,F,85
SAMANTHA,F,85
LILLY,F,84
MADDISON,F,84
NEVAEH,F,84
SARAH,F,83
ZARA,F,83
ANNA,F,82
ALICE,F,81
ADDISON,F,80
AMBER,F,80
BROOKE,F,79
MACKENZIE,F,79
SOFIA,F,79
JADE,F,76
SCARLETT,F,76
MIKAYLA,F,75
KAYLA,F,72
MOLLY,F,72
HAZEL,F,71
LEAH,F,71
ALYSSA,F,68
KATE,F,65
JASMINE,F,64
AALIYAH,F,62
TAYLOR,F,62
WILLOW,F,62
PIPPA,F,61
BROOKLYN,F,60
PHOEBE,F,60
ANNABELLE,F,58
ARIA,F,58
CAITLIN,F,58
FAITH,F,58
AMY,F,57
PEYTON,F,57
VIOLET,F,57
HAYLEY,F,56
ISABEL,F,56
OLIVE,F,55
AYLA,F,54
POPPY,F,54
KATIE,F,53
MANAIA,F,52
EVELYN,F,51
KEIRA,F,51
ALEXANDRA,F,49
ELLIE,F,49
SAVANNAH,F,49
ELISE,F,48
LAYLA,F,48
NATALIE,F,48
REBECCA,F,48
TAYLA,F,48
VICTORIA,F,48
ANGEL,F,47
MILLIE,F,46
LUCIA,F,45
LAUREN,F,44
MARIA,F,44
NINA,F,44
SASHA,F,44
ARIANA,F,43
ISOBEL,F,43
KHLOE,F,43
