NAME,GENDER,COUNT,PERCENT,PROP100K,ISNOTREALCOUNT
ALTE|אַלְטֶע,F,1,0.01%,10,1
ANSHEL|אַנְשֶׁעל,M,1,0.01%,10,1
BAILA|בֵײלָא,F,1,0.01%,10,1
BER|בֶער,M,1,0.01%,10,1
BLUMA|בְלוּמָא,F,1,0.01%,10,1
CHARNA,F,1,0.01%,10,1
DOVID|דוד,M,1,0.01%,10,1
EIDEL|אֵײדֶעל,F,1,0.01%,10,1
FAIGA|פֵֿײגָא,F,1,0.01%,10,1
FAIVISH|פַֿײבֿוּשׁ,M,1,0.01%,10,1
FEIBUSH|פַֿײבוּשׁ,M,1,0.01%,10,1
FEIVEL|פַֿײבֶֿעל|פַֿײוֶעל,M,1,0.01%,10,1
FISHKE|פִֿישְׁקֶע,M,1,0.01%,10,1
FRUMA|פֿרוּמָא,F,1,0.01%,10,1
GITTEL|גִיטְל,F,1,0.01%,10,1
GLUKEL|גְלוּקְל,F,1,0.01%,10,1
GOLDIE,F,1,0.01%,10,1
HENA|הֶענַא,F,1,0.01%,10,1
HENDEL|הֶנדְל,F,1,0.01%,10,1
HENYE|הֶענְיֶע,F,1,0.01%,10,1
HERSH|הֶערְשׁ|הֶרְשׁ,M,1,0.01%,10,1
HESHEL|הֶעשֶׁעל,M,1,0.01%,10,1
HIRSHEL|הֶערשֶׁעל|הֶרשֶׁל,M,1,0.01%,10,1
HODEL|הָאדֶעל,F,1,0.01%,10,1
HYMAN|הײמן,M,1,0.01%,10,1
ISER|אִיסֶר,M,1,0.01%,10,1
KAILA|קַײלָע,F,1,0.01%,10,1
KAYLA|קַײלָע,F,1,0.01%,10,1
KREINDEL|קְרַײנְדֶעל,F,1,0.01%,10,1
LAZER|לֵײזֶער,M,1,0.01%,10,1
LIEBER|לִיבֶער,M,1,0.01%,10,1
MIRELE|מִירֶעל,F,1,0.01%,10,1
MOTEL|מָאטְל,M,1,0.01%,10,1
NOSSON|נָתָן,M,1,0.01%,10,1
PERLE,F,1,0.01%,10,1
RAISEL|רֵײזֶעל,F,1,0.01%,10,1
REINA|רֵײנָא,F,1,0.01%,10,1
RUCHEL,F,1,0.01%,10,1
SENDER|סֶנְדֶר,M,1,0.01%,10,1
SHAINDEL|שֵׁײנדֶל,F,1,0.01%,10,1
SHAYNAH|שֵׁײנָא,F,1,0.01%,10,1
SHIMMEL|שִׁימְעֶל,M,1,0.01%,10,1
SHPRINTZE|שְׁפּרִינְצֶע,F,1,0.01%,10,1
SISEL|סִיסְל,F,1,0.01%,10,1
SURI,F,1,0.01%,10,1
TOIBA|טוֹיבָא,F,1,0.01%,10,1
VELVEL|װֶעלװֶעל,M,1,0.01%,10,1
YANKEL|יַאנְקֶעל,M,1,0.01%,10,1
YENTL|יֶענְטל,F,1,0.01%,10,1
YUDEL|יוּדֶעל,M,1,0.01%,10,1
YUTKE|יוּטְקֶע,F,1,0.01%,10,1
ZELDA|זֶעלְדָא,F,1,0.01%,10,1
ZELIG|זֶעלִיג,M,1,0.01%,10,1
ZUSA,F,1,0.01%,10,1
