NAME,COUNT,PERCENT,PROP100K,ISNOTREALCOUNT
ABRAHAMSSON,1,0.01%,10,1
ADAMSSON,1,0.01%,10,1
ADOLVSSON,1,0.01%,10,1
AHLGREN,1,0.01%,10,1
AKERMAN|ÅKERMAN,1,0.01%,10,1
ALBINSON,1,0.01%,10,1
ALBRECHTSSON,1,0.01%,10,1
ALBREKTSON,1,0.01%,10,1
ALEXANDERSON,1,0.01%,10,1
ALFREDSSON,1,0.01%,10,1
ALFSSON,1,0.01%,10,1
ALVARSSON,1,0.01%,10,1
ANDREASSON|ANDRÉASSON,1,0.01%,10,1
ARTHURSSON,1,0.01%,10,1
BECK,1,0.01%,10,1
BENGTSSON,1,0.01%,10,1
BERGFALK,1,0.01%,10,1
BERGSTROM|BERGSTRÖM,1,0.01%,10,1
BJORK|BJÖRK,1,0.01%,10,1
BJORNSSON|BJÖRNSSON,1,0.01%,10,1
BLOMGREN,1,0.01%,10,1
BREINER,1,0.01%,10,1
BYSTROM|BYSTRÖM,1,0.01%,10,1
CARLSSON,1,0.01%,10,1
DAHL,1,0.01%,10,1
DANIELSSON,1,0.01%,10,1
EK,1,0.01%,10,1
ELD,1,0.01%,10,1
ENGBERG,1,0.01%,10,1
ENGSTROM|ENGSTRÖM,1,0.01%,10,1
ERICSSON,1,0.01%,10,1
FALK,1,0.01%,10,1
GERHARDSSON,1,0.01%,10,1
GRAHN,1,0.01%,10,1
GUNVALDSSON,1,0.01%,10,1
HALL,1,0.01%,10,1
HANSSON,1,0.01%,10,1
HERMANSSON,1,0.01%,10,1
HOLGERSSON,1,0.01%,10,1
HULT,1,0.01%,10,1
INGESSON,1,0.01%,10,1
JANSSON,1,0.01%,10,1
JOHANSSON,1,0.01%,10,1
JONASSON,1,0.01%,10,1
JONSSON,1,0.01%,10,1
KJELLSSON,1,0.01%,10,1
KNUTSON,1,0.01%,10,1
KRON,1,0.01%,10,1
LANG|LÅNG,1,0.01%,10,1
LARSSON,1,0.01%,10,1
LEONARDSSON,1,0.01%,10,1
LINDGREN,1,0.01%,10,1
LINDQUIST,1,0.01%,10,1
LJUNG,1,0.01%,10,1
LJUNGGREN,1,0.01%,10,1
LJUNGSTRAND,1,0.01%,10,1
LUND,1,0.01%,10,1
LUNDQUIST,1,0.01%,10,1
MARDH|MÅRDH,1,0.01%,10,1
MARTINSSON,1,0.01%,10,1
MIKAELSSON,1,0.01%,10,1
NILSSON,1,0.01%,10,1
NORMANSSON,1,0.01%,10,1
NYLUND,1,0.01%,10,1
OLANDER,1,0.01%,10,1
OLOFSDOTTER,1,0.01%,10,1
OLSON,1,0.01%,10,1
OMAN|ÖMAN,1,0.01%,10,1
OTTOSSON,1,0.01%,10,1
PERSSON,1,0.01%,10,1
PETTERSSON,1,0.01%,10,1
RAGNVALDSSON,1,0.01%,10,1
ROBERTSSON,1,0.01%,10,1
RUPERTSSON,1,0.01%,10,1
SOLBERG,1,0.01%,10,1
SORENSON,1,0.01%,10,1
STEFANSSON,1,0.01%,10,1
STENDAHL,1,0.01%,10,1
STRAND,1,0.01%,10,1
SVENSON,1,0.01%,10,1
TJADER|TJÄDER,1,0.01%,10,1
ULFSSON,1,0.01%,10,1
VICTORSON,1,0.01%,10,1
VINTER,1,0.01%,10,1
WANG,1,0.01%,10,1
WINTER,1,0.01%,10,1
WUOPIO,1,0.01%,10,1
