NAME,GENDER,COUNT,PERCENT,PROP100K,ISNOTREALCOUNT
AAFJE,F,1,0.01%,10,1
ABE,M,1,0.01%,10,1
AD,M,1,0.01%,10,1
ADELBERT,M,1,0.01%,10,1
ADOLF,M,1,0.01%,10,1
ADRIANUS,M,1,0.01%,10,1
ALBERT,M,1,0.01%,10,1
ALBERTUS,M,1,0.01%,10,1
ALDERT,M,1,0.01%,10,1
ALEIDA,F,1,0.01%,10,1
ALEXANDER,M,1,0.01%,10,1
ALFONS,M,1,0.01%,10,1
ALIDA,F,1,0.01%,10,1
ALMA,F,1,0.01%,10,1
AMALIA,F,1,0.01%,10,1
AMBER,F,1,0.01%,10,1
AMELIA,F,1,0.01%,10,1
ANDREAS,M,1,0.01%,10,1
ANGELA,F,1,0.01%,10,1
ANGELINA,F,1,0.01%,10,1
ANIKA,F,1,0.01%,10,1
ANJA,F,1,0.01%,10,1
ANNA,F,1,0.01%,10,1
ANNE,F,1,0.01%,10,1
ANNELIEN,F,1,0.01%,10,1
ANNELIESE,F,1,0.01%,10,1
ANNET,F,1,0.01%,10,1
ANNIE,F,1,0.01%,10,1
ANOUK,F,1,0.01%,10,1
ANTJE,F,1,0.01%,10,1
ANTONIA,F,1,0.01%,10,1
ANTONIUS,M,1,0.01%,10,1
AREND,M,1,0.01%,10,1
ARIE,M,1,0.01%,10,1
ARJAN,M,1,0.01%,10,1
ARNOUD,M,1,0.01%,10,1
ARTHUR,M,1,0.01%,10,1
AUGUSTIJN,M,1,0.01%,10,1
BAREND,M,1,0.01%,10,1
BARTEL,M,1,0.01%,10,1
BAS,M,1,0.01%,10,1
BEATRIX,F,1,0.01%,10,1
BEN,M,1,0.01%,10,1
BENJAMIN,M,1,0.01%,10,1
BERNARD,M,1,0.01%,10,1
BERT,M,1,0.01%,10,1
BOB,M,1,0.01%,10,1
BONIFAAS,M,1,0.01%,10,1
BRAAM,M,1,0.01%,10,1
BRECHT,M,1,0.01%,10,1
BRIGITTA,F,1,0.01%,10,1
CARLA,F,1,0.01%,10,1
CAROLIEN,F,1,0.01%,10,1
CAS,M,1,0.01%,10,1
CATHARINA,F,1,0.01%,10,1
CECILE|CÉCILE,F,1,0.01%,10,1
CEEL,M,1,0.01%,10,1
CHANTAL,F,1,0.01%,10,1
CHRIS,U,1,0.01%,10,1
CHRISTINA,F,1,0.01%,10,1
CHRISTOFFEL,M,1,0.01%,10,1
CLAUDIA,F,1,0.01%,10,1
COBA,F,1,0.01%,10,1
COEN,M,1,0.01%,10,1
COKKIE,F,1,0.01%,10,1
COOS,M,1,0.01%,10,1
CORNELIA,F,1,0.01%,10,1
CORNELIUS,M,1,0.01%,10,1
DAAN,M,1,0.01%,10,1
DAMIAN,M,1,0.01%,10,1
DANIELLE|DANIËLLE,F,1,0.01%,10,1
DAVID,M,1,0.01%,10,1
DENISE,F,1,0.01%,10,1
DIANA,F,1,0.01%,10,1
DICK,M,1,0.01%,10,1
DIEDERICK,M,1,0.01%,10,1
DIRK,M,1,0.01%,10,1
DORA,F,1,0.01%,10,1
DRIES,M,1,0.01%,10,1
ED,M,1,0.01%,10,1
EDUARD,M,1,0.01%,10,1
EGBERT,M,1,0.01%,10,1
ELEONORA,F,1,0.01%,10,1
ELIAN,U,1,0.01%,10,1
ELISE,F,1,0.01%,10,1
ELLEN,F,1,0.01%,10,1
ELMA,F,1,0.01%,10,1
ELSE,F,1,0.01%,10,1
ELVIRA,F,1,0.01%,10,1
EMMA,F,1,0.01%,10,1
ERIK,M,1,0.01%,10,1
ERNST,M,1,0.01%,10,1
ESME|ESMÉ,U,1,0.01%,10,1
ESTHER,F,1,0.01%,10,1
EVELIEN,F,1,0.01%,10,1
EVERT,M,1,0.01%,10,1
EWOUD,M,1,0.01%,10,1
FAAS,M,1,0.01%,10,1
FEBE,F,1,0.01%,10,1
FELINE,F,1,0.01%,10,1
FEMKE,F,1,0.01%,10,1
FENNA,F,1,0.01%,10,1
FERDINAND,M,1,0.01%,10,1
FILIP,M,1,0.01%,10,1
FILOMENA,F,1,0.01%,10,1
FLEURETTE,F,1,0.01%,10,1
FLOOR,U,1,0.01%,10,1
FLORINA,F,1,0.01%,10,1
FONS,M,1,0.01%,10,1
FRANK,M,1,0.01%,10,1
FRANS,M,1,0.01%,10,1
FREDERIK,M,1,0.01%,10,1
FRITS,M,1,0.01%,10,1
FUNSKE,M,1,0.01%,10,1
GABRIELLE|GABRIËLLE,F,1,0.01%,10,1
GEERTJE,F,1,0.01%,10,1
GEMMA,F,1,0.01%,10,1
GERARD,M,1,0.01%,10,1
GERBEN,M,1,0.01%,10,1
GERDA,F,1,0.01%,10,1
GERHARD,M,1,0.01%,10,1
GERLINDE,F,1,0.01%,10,1
GEROLF,M,1,0.01%,10,1
GERRIT,M,1,0.01%,10,1
GERT,M,1,0.01%,10,1
GERTRUDE,F,1,0.01%,10,1
GIJS,M,1,0.01%,10,1
GILBERT,M,1,0.01%,10,1
GILLIS,M,1,0.01%,10,1
GODELIEVE,F,1,0.01%,10,1
GREET,F,1,0.01%,10,1
GRIET,F,1,0.01%,10,1
GUSTAAF,M,1,0.01%,10,1
HADEWYCH,F,1,0.01%,10,1
HANNA,F,1,0.01%,10,1
HANNAH,F,1,0.01%,10,1
HANNES,M,1,0.01%,10,1
HANS,M,1,0.01%,10,1
HEDY,F,1,0.01%,10,1
HEIKO,M,1,0.01%,10,1
HEINO,M,1,0.01%,10,1
HELEEN,F,1,0.01%,10,1
HELENA,F,1,0.01%,10,1
HELMA,F,1,0.01%,10,1
HENDRIKA,F,1,0.01%,10,1
HENDRINA,F,1,0.01%,10,1
HENNIE,U,1,0.01%,10,1
HENRICUS,M,1,0.01%,10,1
HENRIETTE|HENRIËTTE,F,1,0.01%,10,1
HERMAN,M,1,0.01%,10,1
HIERONYMUS,M,1,0.01%,10,1
HILDE,F,1,0.01%,10,1
HUBERTUS,M,1,0.01%,10,1
HUGO,M,1,0.01%,10,1
IDA,F,1,0.01%,10,1
IJSBRAND,M,1,0.01%,10,1
IMA,F,1,0.01%,10,1
INA,F,1,0.01%,10,1
IRENA,F,1,0.01%,10,1
IRMA,F,1,0.01%,10,1
ISABELLA,F,1,0.01%,10,1
IVO,M,1,0.01%,10,1
IZAAK|IZAÄK,M,1,0.01%,10,1
JAAP,M,1,0.01%,10,1
JACOB,M,1,0.01%,10,1
JACOBINA,F,1,0.01%,10,1
JACOBUS,M,1,0.01%,10,1
JAKOB,M,1,0.01%,10,1
JANA,F,1,0.01%,10,1
JANNA,F,1,0.01%,10,1
JANTINE,F,1,0.01%,10,1
JASMIJN,F,1,0.01%,10,1
JEANETTE,F,1,0.01%,10,1
JEANNETTE,F,1,0.01%,10,1
JELLE,M,1,0.01%,10,1
JELTSJE,F,1,0.01%,10,1
JENNIGJE,F,1,0.01%,10,1
JEROEN,M,1,0.01%,10,1
JET,F,1,0.01%,10,1
JETTE,F,1,0.01%,10,1
JOB,M,1,0.01%,10,1
JODOCUS,M,1,0.01%,10,1
JOEP,M,1,0.01%,10,1
JOHAN,M,1,0.01%,10,1
JOHANNEKE,F,1,0.01%,10,1
JOLANDA,F,1,0.01%,10,1
JONATHAN,M,1,0.01%,10,1
JOORD,M,1,0.01%,10,1
JOOST,M,1,0.01%,10,1
JORIS,M,1,0.01%,10,1
JOSEPHINE,F,1,0.01%,10,1
JOZEF,M,1,0.01%,10,1
JOZUA,M,1,0.01%,10,1
JULIA,F,1,0.01%,10,1
JULIE,F,1,0.01%,10,1
JURRIAAN,M,1,0.01%,10,1
JUSTUS,M,1,0.01%,10,1
KAREL,M,1,0.01%,10,1
KASPER,M,1,0.01%,10,1
KATELIJNE,F,1,0.01%,10,1
KATJA,F,1,0.01%,10,1
KATRIJN,F,1,0.01%,10,1
KEES,M,1,0.01%,10,1
KEVIN,M,1,0.01%,10,1
KLASINA,F,1,0.01%,10,1
KOBE,M,1,0.01%,10,1
KOEN,M,1,0.01%,10,1
KOERT,M,1,0.01%,10,1
KUNIGONDE,F,1,0.01%,10,1
LAMMERT,M,1,0.01%,10,1
LARS,M,1,0.01%,10,1
LAURA,F,1,0.01%,10,1
LAURIE,U,1,0.01%,10,1
LENNART,M,1,0.01%,10,1
LEON,M,1,0.01%,10,1
LEONIE,F,1,0.01%,10,1
LEVI,M,1,0.01%,10,1
LIA,F,1,0.01%,10,1
LIEN,F,1,0.01%,10,1
LIESBETH,F,1,0.01%,10,1
LIESJE,F,1,0.01%,10,1
LIEVEN,M,1,0.01%,10,1
LIJSBETH,F,1,0.01%,10,1
LISA,F,1,0.01%,10,1
LISELOT,F,1,0.01%,10,1
LODEWIJK,M,1,0.01%,10,1
LOTTE,F,1,0.01%,10,1
LOUISA,F,1,0.01%,10,1
LOURENS,M,1,0.01%,10,1
LUCAS,M,1,0.01%,10,1
LUDO,M,1,0.01%,10,1
LUUK,M,1,0.01%,10,1
LYSANNE,F,1,0.01%,10,1
MAARTEN,M,1,0.01%,10,1
MAAS,M,1,0.01%,10,1
MADELIEF,F,1,0.01%,10,1
MAGDA,F,1,0.01%,10,1
MAIKEL,M,1,0.01%,10,1
MANNES,M,1,0.01%,10,1
MARCEL,M,1,0.01%,10,1
MARCO,M,1,0.01%,10,1
MARGARETHA,F,1,0.01%,10,1
MARGRIET,F,1,0.01%,10,1
MARIANNE,F,1,0.01%,10,1
MARIELLE|MARIËLLE,F,1,0.01%,10,1
MARIJKE,F,1,0.01%,10,1
MARIJSE,F,1,0.01%,10,1
MARILOU,F,1,0.01%,10,1
MARINUS,M,1,0.01%,10,1
MARITA,F,1,0.01%,10,1
MARJA,F,1,0.01%,10,1
MARJO,F,1,0.01%,10,1
MARJOLEIN,F,1,0.01%,10,1
MARK,M,1,0.01%,10,1
MARLIES,F,1,0.01%,10,1
MARNIX,M,1,0.01%,10,1
MARTEN,M,1,0.01%,10,1
MARTIJN,M,1,0.01%,10,1
MARTINE,F,1,0.01%,10,1
MATHILDE,F,1,0.01%,10,1
MATTHIJS,M,1,0.01%,10,1
MAURITS,M,1,0.01%,10,1
MAXIMILIAAN,M,1,0.01%,10,1
MEES,M,1,0.01%,10,1
MEINARD,M,1,0.01%,10,1
MEINE,M,1,0.01%,10,1
MEINT,M,1,0.01%,10,1
MELANIE,F,1,0.01%,10,1
MELISSA,F,1,0.01%,10,1
MENNO,M,1,0.01%,10,1
MICHAEL|MICHAËL,M,1,0.01%,10,1
MICHEL,M,1,0.01%,10,1
MICHIEL,M,1,0.01%,10,1
MIEKE,F,1,0.01%,10,1
MIEP,F,1,0.01%,10,1
MILAN,M,1,0.01%,10,1
MINKE,U,1,0.01%,10,1
MIRJAM,F,1,0.01%,10,1
MIRTHE,F,1,0.01%,10,1
MOZES,M,1,0.01%,10,1
NES,F,1,0.01%,10,1
NICK,M,1,0.01%,10,1
NICOL,F,1,0.01%,10,1
NICOLE,F,1,0.01%,10,1
NICOLINE,F,1,0.01%,10,1
NIELS,M,1,0.01%,10,1
NINA,F,1,0.01%,10,1
NOELLE|NOËLLE,F,1,0.01%,10,1
NOORTJE,F,1,0.01%,10,1
NORBERT,M,1,0.01%,10,1
OLIVIER,M,1,0.01%,10,1
OTTO,M,1,0.01%,10,1
PAUL,M,1,0.01%,10,1
PAULIEN,F,1,0.01%,10,1
PEPIJN,M,1,0.01%,10,1
PETRA,F,1,0.01%,10,1
PETRUS,M,1,0.01%,10,1
PIER,M,1,0.01%,10,1
PIETER,M,1,0.01%,10,1
PIM,M,1,0.01%,10,1
PUCK,U,1,0.01%,10,1
QUIRIJN,M,1,0.01%,10,1
RADBOUD,M,1,0.01%,10,1
RAFAEL|RAFAËL,M,1,0.01%,10,1
REIN,M,1,0.01%,10,1
REINOUD,M,1,0.01%,10,1
REMBRANDT,M,1,0.01%,10,1
RENEE|RENÉE,F,1,0.01%,10,1
RIA,F,1,0.01%,10,1
RIEN,M,1,0.01%,10,1
RIK,M,1,0.01%,10,1
RINA,F,1,0.01%,10,1
RINUS,M,1,0.01%,10,1
ROB,M,1,0.01%,10,1
ROBERT,M,1,0.01%,10,1
ROBRECHT,M,1,0.01%,10,1
RODOLF,M,1,0.01%,10,1
ROELAND,M,1,0.01%,10,1
ROGER,M,1,0.01%,10,1
ROKUS,M,1,0.01%,10,1
ROOS,F,1,0.01%,10,1
ROSA,F,1,0.01%,10,1
ROSANNE,F,1,0.01%,10,1
RUBEN,M,1,0.01%,10,1
RUPERT,M,1,0.01%,10,1
RUTH,F,1,0.01%,10,1
SABIEN,F,1,0.01%,10,1
SAMUEL,M,1,0.01%,10,1
SANDRA,F,1,0.01%,10,1
SARA,F,1,0.01%,10,1
SEBASTIAAN,M,1,0.01%,10,1
SEM,M,1,0.01%,10,1
SIEGER,M,1,0.01%,10,1
SIEMEN,M,1,0.01%,10,1
SILKE,F,1,0.01%,10,1
SIMON,M,1,0.01%,10,1
SJAKIE,M,1,0.01%,10,1
SJOERD,M,1,0.01%,10,1
SOFIE,F,1,0.01%,10,1
SOPHIE,F,1,0.01%,10,1
STEF,M,1,0.01%,10,1
STEFANA,F,1,0.01%,10,1
STEFANUS,M,1,0.01%,10,1
STELLA,F,1,0.01%,10,1
STEPHAN,M,1,0.01%,10,1
STEVEN,M,1,0.01%,10,1
STIJN,M,1,0.01%,10,1
SUZANNE,F,1,0.01%,10,1
SVEN,M,1,0.01%,10,1
TAMARA,F,1,0.01%,10,1
TESS,F,1,0.01%,10,1
TEUNA,F,1,0.01%,10,1
THECLA,F,1,0.01%,10,1
THEODOOR,M,1,0.01%,10,1
THEOFILUS,M,1,0.01%,10,1
THERESIA,F,1,0.01%,10,1
THEUNIS,M,1,0.01%,10,1
THIJMEN,M,1,0.01%,10,1
THIRZA,F,1,0.01%,10,1
THYRZA,F,1,0.01%,10,1
TIES,M,1,0.01%,10,1
TIJN,M,1,0.01%,10,1
TIM,M,1,0.01%,10,1
TIMO,M,1,0.01%,10,1
TIMOTHEUS,M,1,0.01%,10,1
TINEKE,F,1,0.01%,10,1
TJEERD,M,1,0.01%,10,1
TON,M,1,0.01%,10,1
TREES,F,1,0.01%,10,1
TRUDIE,F,1,0.01%,10,1
TRUUS,F,1,0.01%,10,1
TYGO,M,1,0.01%,10,1
VAAST,M,1,0.01%,10,1
VANESSA,F,1,0.01%,10,1
VEERKE,F,1,0.01%,10,1
VICTOR,M,1,0.01%,10,1
WENDEL,M,1,0.01%,10,1
WERNER,M,1,0.01%,10,1
WIBO,M,1,0.01%,10,1
WIL,U,1,0.01%,10,1
WILHELMINA,F,1,0.01%,10,1
WILLEM,M,1,0.01%,10,1
WILLEMINA,F,1,0.01%,10,1
WILMA,F,1,0.01%,10,1
WOB,M,1,0.01%,10,1
WOUTER,M,1,0.01%,10,1
XANDER,M,1,0.01%,10,1
YORICK,M,1,0.01%,10,1
YVO,M,1,0.01%,10,1
ZEF,M,1,0.01%,10,1
