Total,16330,,,
TotalF,7198,,,
TotalM,9132,,,
NAME,GENDER,COUNT,PERCENT,PROP100K
EMMA,F,258,1.579914268%,1579.914268218
OLIVIA,F,256,1.567666871%,1567.66687079
EMILY,F,183,1.120636865%,1120.6368646663
SOPHIA,F,173,1.059399878%,1059.399877526
AVA,F,163,0.998162890%,998.1628903858
CHLOE,F,159,0.973668096%,973.6680955297
CHARLOTTE,F,155,0.949173301%,949.1733006736
ABIGAIL,F,150,0.918554807%,918.5548071035
AMELIA,F,140,0.857317820%,857.3178199633
ELLA,F,133,0.814451929%,814.4519289651
HANNAH,F,130,0.796080833%,796.080832823
ISABELLA,F,127,0.777709737%,777.709736681
ARIA,F,116,0.710349051%,710.3490508267
LILY,F,113,0.691977955%,691.9779546846
MIA,F,112,0.685854256%,685.8542559706
ISLA,F,111,0.679730557%,679.7305572566
AVERY,F,104,0.636864666%,636.8646662584
ELIZABETH,F,102,0.624617269%,624.6172688304
MILA,F,101,0.618493570%,618.4935701164
EVELYN,F,100,0.612369871%,612.3698714023
GRACE,F,99,0.606246173%,606.2461726883
MADISON,F,98,0.600122474%,600.1224739743
SCARLETT,F,95,0.581751378%,581.7513778322
BROOKLYN,F,94,0.575627679%,575.6276791182
MAYA,F,87,0.532761788%,532.76178812
CLAIRE,F,86,0.526638089%,526.638089406
AUDREY,F,81,0.496019596%,496.0195958359
SOPHIE,F,81,0.496019596%,496.0195958359
STELLA,F,81,0.496019596%,496.0195958359
NATALIE,F,80,0.489895897%,489.8958971219
ISABELLE,F,78,0.477648500%,477.6484996938
VIOLET,F,77,0.471524801%,471.5248009798
HAILEY,F,76,0.465401102%,465.4011022658
IVY,F,70,0.428658910%,428.6589099816
ALICE,F,69,0.422535211%,422.5352112676
HAZEL,F,68,0.416411513%,416.4115125536
EVA,F,67,0.410287814%,410.2878138396
MACKENZIE,F,67,0.410287814%,410.2878138396
ZOE,F,67,0.410287814%,410.2878138396
ELLIE,F,65,0.398040416%,398.0404164115
LUCY,F,65,0.398040416%,398.0404164115
ANNA,F,64,0.391916718%,391.9167176975
VICTORIA,F,61,0.373545622%,373.5456215554
AUBREY,F,59,0.361298224%,361.2982241274
SARAH,F,57,0.349050827%,349.0508266993
JULIA,F,56,0.342927128%,342.9271279853
PIPER,F,56,0.342927128%,342.9271279853
GEORGIA,F,55,0.336803429%,336.8034292713
PAISLEY,F,55,0.336803429%,336.8034292713
QUINN,F,54,0.330679731%,330.6797305573
SOFIA,F,54,0.330679731%,330.6797305573
ZOEY,F,53,0.324556032%,324.5560318432
CLARA,F,52,0.318432333%,318.4323331292
AYLA,F,51,0.312308634%,312.3086344152
EVERLY,F,51,0.312308634%,312.3086344152
AURORA,F,50,0.306184936%,306.1849357012
MADELINE,F,50,0.306184936%,306.1849357012
PAIGE,F,50,0.306184936%,306.1849357012
RUBY,F,50,0.306184936%,306.1849357012
ELISE,F,48,0.293937538%,293.9375382731
NORA,F,48,0.293937538%,293.9375382731
JASMINE,F,47,0.287813840%,287.8138395591
LILLIAN,F,47,0.287813840%,287.8138395591
SAMANTHA,F,46,0.281690141%,281.6901408451
ADDISON,F,45,0.275566442%,275.566442131
ALEXANDRA,F,45,0.275566442%,275.566442131
HARPER,F,45,0.275566442%,275.566442131
ALEXIS,F,44,0.269442743%,269.442743417
LAYLA,F,44,0.269442743%,269.442743417
LEAH,F,44,0.269442743%,269.442743417
NAOMI,F,44,0.269442743%,269.442743417
PEYTON,F,44,0.269442743%,269.442743417
SIENNA,F,44,0.269442743%,269.442743417
WILLOW,F,44,0.269442743%,269.442743417
ALYSSA,F,43,0.263319045%,263.319044703
ELEANOR,F,43,0.263319045%,263.319044703
RACHEL,F,43,0.263319045%,263.319044703
ALEXA,F,42,0.257195346%,257.195345989
PENELOPE,F,42,0.257195346%,257.195345989
KATE,F,41,0.251071647%,251.071647275
SADIE,F,41,0.251071647%,251.071647275
NORAH,F,40,0.244947949%,244.9479485609
AUBREE,F,39,0.238824250%,238.8242498469
AUTUMN,F,39,0.238824250%,238.8242498469
JESSICA,F,39,0.238824250%,238.8242498469
MADELEINE,F,39,0.238824250%,238.8242498469
NEVAEH,F,39,0.238824250%,238.8242498469
TAYLOR,F,39,0.238824250%,238.8242498469
EMILIA,F,38,0.232700551%,232.7005511329
FREYA,F,38,0.232700551%,232.7005511329
KEIRA,F,38,0.232700551%,232.7005511329
ARIANA,F,37,0.226576852%,226.5768524189
JADE,F,37,0.226576852%,226.5768524189
KAYLEE,F,37,0.226576852%,226.5768524189
ARIANNA,F,36,0.220453154%,220.4531537048
LYDIA,F,36,0.220453154%,220.4531537048
ANNABELLE,F,35,0.214329455%,214.3294549908
BRIELLE,F,35,0.214329455%,214.3294549908
SUMMER,F,35,0.214329455%,214.3294549908
ARYA,F,33,0.202082058%,202.0820575628
OLIVER,M,217,1.328842621%,1328.8426209431
ETHAN,M,206,1.261481935%,1261.4819350888
LIAM,M,203,1.243110839%,1243.1108389467
BENJAMIN,M,201,1.230863442%,1230.8634415187
LUCAS,M,193,1.181873852%,1181.8738518065
ALEXANDER,M,183,1.120636865%,1120.6368646663
JACOB,M,183,1.120636865%,1120.6368646663
MASON,M,177,1.083894672%,1083.8946723821
WILLIAM,M,173,1.059399878%,1059.399877526
HUNTER,M,169,1.034905083%,1034.9050826699
JAMES,M,167,1.022657685%,1022.6576852419
LOGAN,M,166,1.016533987%,1016.5339865279
OWEN,M,163,0.998162890%,998.1628903858
NOAH,M,158,0.967544397%,967.5443968157
CARTER,M,141,0.863441519%,863.4415186773
NATHAN,M,133,0.814451929%,814.4519289651
JACK,M,132,0.808328230%,808.3282302511
AIDEN,M,129,0.789957134%,789.957134109
JACKSON,M,125,0.765462339%,765.4623392529
JAYDEN,M,124,0.759338641%,759.3386405389
SAMUEL,M,119,0.728720147%,728.7201469688
RYAN,M,118,0.722596448%,722.5964482547
DANIEL,M,116,0.710349051%,710.3490508267
HUDSON,M,114,0.698101653%,698.1016533987
ISAAC,M,114,0.698101653%,698.1016533987
LINCOLN,M,113,0.691977955%,691.9779546846
GABRIEL,M,110,0.673606859%,673.6068585426
EVAN,M,106,0.649112064%,649.1120636865
AUSTIN,M,104,0.636864666%,636.8646662584
WYATT,M,103,0.630740968%,630.7409675444
GRAYSON,M,97,0.593998775%,593.9987752603
HENRY,M,96,0.587875077%,587.8750765462
CONNOR,M,95,0.581751378%,581.7513778322
MATTHEW,M,95,0.581751378%,581.7513778322
THEODORE,M,94,0.575627679%,575.6276791182
CALEB,M,93,0.569503980%,569.5039804042
THOMAS,M,93,0.569503980%,569.5039804042
ELIJAH,M,92,0.563380282%,563.3802816901
LEO,M,88,0.538885487%,538.885486834
LEVI,M,87,0.532761788%,532.76178812
LUKE,M,85,0.520514391%,520.514390692
ZACHARY,M,83,0.508266993%,508.2669932639
JAXON,M,81,0.496019596%,496.0195958359
MARCUS,M,79,0.483772198%,483.7721984078
RYDER,M,79,0.483772198%,483.7721984078
DECLAN,M,77,0.471524801%,471.5248009798
DYLAN,M,77,0.471524801%,471.5248009798
ELI,M,77,0.471524801%,471.5248009798
MICHAEL,M,77,0.471524801%,471.5248009798
SAWYER,M,77,0.471524801%,471.5248009798
SEBASTIAN,M,77,0.471524801%,471.5248009798
CHARLES,M,76,0.465401102%,465.4011022658
JOSHUA,M,76,0.465401102%,465.4011022658
PARKER,M,76,0.465401102%,465.4011022658
ASHER,M,74,0.453153705%,453.1537048377
JOHN,M,73,0.447030006%,447.0300061237
KAI,M,73,0.447030006%,447.0300061237
ADAM,M,72,0.440906307%,440.9063074097
NOLAN,M,72,0.440906307%,440.9063074097
DAVID,M,69,0.422535211%,422.5352112676
MAX,M,69,0.422535211%,422.5352112676
ANDREW,M,68,0.416411513%,416.4115125536
LINDEN,M,68,0.416411513%,416.4115125536
BLAKE,M,67,0.410287814%,410.2878138396
GAVIN,M,67,0.410287814%,410.2878138396
CHASE,M,66,0.404164115%,404.1641151255
LUCA,M,66,0.404164115%,404.1641151255
DOMINIC,M,65,0.398040416%,398.0404164115
JOSEPH,M,63,0.385793019%,385.7930189835
EVERETT,M,61,0.373545622%,373.5456215554
COHEN,M,57,0.349050827%,349.0508266993
EMMETT,M,57,0.349050827%,349.0508266993
WESTON,M,57,0.349050827%,349.0508266993
BENNETT,M,56,0.342927128%,342.9271279853
FELIX,M,56,0.342927128%,342.9271279853
NATHANIEL,M,55,0.336803429%,336.8034292713
NICHOLAS,M,55,0.336803429%,336.8034292713
JASON,M,54,0.330679731%,330.6797305573
JORDAN,M,54,0.330679731%,330.6797305573
KAYDEN,M,54,0.330679731%,330.6797305573
LANDON,M,54,0.330679731%,330.6797305573
COLE,M,53,0.324556032%,324.5560318432
HAYDEN,M,53,0.324556032%,324.5560318432
TRISTAN,M,53,0.324556032%,324.5560318432
TYLER,M,53,0.324556032%,324.5560318432
ANTHONY,M,52,0.318432333%,318.4323331292
JASPER,M,52,0.318432333%,318.4323331292
RILEY,M,52,0.318432333%,318.4323331292
RYKER,M,52,0.318432333%,318.4323331292
ARMAAN,M,51,0.312308634%,312.3086344152
BRAYDEN,M,51,0.312308634%,312.3086344152
COOPER,M,51,0.312308634%,312.3086344152
TYSON,M,51,0.312308634%,312.3086344152
HARRISON,M,50,0.306184936%,306.1849357012
EASTON,M,46,0.281690141%,281.6901408451
MATEO,M,46,0.281690141%,281.6901408451
SILAS,M,45,0.275566442%,275.566442131
CAMERON,M,44,0.269442743%,269.442743417
COLTON,M,44,0.269442743%,269.442743417
GREYSON,M,44,0.269442743%,269.442743417
