NAME,GENDER,COUNT,PERCENT,PROP100K,ISNOTREALCOUNT
ABRAHAM,M,1,0.01%,10,1
ADAM,M,1,0.01%,10,1
ADRIAN,M,1,0.01%,10,1
AGDA,F,1,0.01%,10,1
AGNETA,F,1,0.01%,10,1
AINA,F,1,0.01%,10,1
ALBERT,M,1,0.01%,10,1
ALEX,U,1,0.01%,10,1
ALEXANDRA,F,1,0.01%,10,1
ALF,M,1,0.01%,10,1
ALFRED,M,1,0.01%,10,1
ALVAR,M,1,0.01%,10,1
ANDERS,M,1,0.01%,10,1
ANDREAS,M,1,0.01%,10,1
ANJA,F,1,0.01%,10,1
ANNE,F,1,0.01%,10,1
ANNETTE,F,1,0.01%,10,1
ANSGAR,M,1,0.01%,10,1
ANTONIA,F,1,0.01%,10,1
ARNE,M,1,0.01%,10,1
ARTHUR,M,1,0.01%,10,1
ARVID,M,1,0.01%,10,1
ASBJORN|ASBJÖRN,M,1,0.01%,10,1
ASLOG|ASLÖG,F,1,0.01%,10,1
ASTRID,F,1,0.01%,10,1
AXEL,M,1,0.01%,10,1
BARBRO,F,1,0.01%,10,1
BEATRICE,F,1,0.01%,10,1
BENGTA,F,1,0.01%,10,1
BERIT,F,1,0.01%,10,1
BERNT,M,1,0.01%,10,1
BIRGER,M,1,0.01%,10,1
BIRGITTA,F,1,0.01%,10,1
BJOERN,M,1,0.01%,10,1
BJORNE|BJÖRNE,M,1,0.01%,10,1
BODIL,F,1,0.01%,10,1
BOSSE,M,1,0.01%,10,1
BRITT,F,1,0.01%,10,1
CAI,M,1,0.01%,10,1
CAJSA,F,1,0.01%,10,1
CARIN,F,1,0.01%,10,1
CARITA,F,1,0.01%,10,1
CAROLA,F,1,0.01%,10,1
CAROLINE,F,1,0.01%,10,1
CATHARINA,F,1,0.01%,10,1
CATRINE,F,1,0.01%,10,1
CHARLOTTA,F,1,0.01%,10,1
CHRISTER,M,1,0.01%,10,1
CHRISTIN,F,1,0.01%,10,1
CHRISTINE,F,1,0.01%,10,1
CILLA,F,1,0.01%,10,1
CLARA,F,1,0.01%,10,1
DAG,M,1,0.01%,10,1
DAGNY,F,1,0.01%,10,1
DAN,M,1,0.01%,10,1
DANNE,M,1,0.01%,10,1
DIANA,F,1,0.01%,10,1
EA,F,1,0.01%,10,1
EBBE,M,1,0.01%,10,1
EDITH,F,1,0.01%,10,1
EDVIN,M,1,0.01%,10,1
EILERT,M,1,0.01%,10,1
EIRA,F,1,0.01%,10,1
ELEONORA,F,1,0.01%,10,1
ELIN,F,1,0.01%,10,1
ELIS,M,1,0.01%,10,1
ELISABETH,F,1,0.01%,10,1
ELLA,F,1,0.01%,10,1
ELOF,M,1,0.01%,10,1
ELSA,F,1,0.01%,10,1
EMBLA,F,1,0.01%,10,1
EMIL,M,1,0.01%,10,1
EMILIE,F,1,0.01%,10,1
ENOK,M,1,0.01%,10,1
ERICA,F,1,0.01%,10,1
ERIKA,F,1,0.01%,10,1
ERLING,M,1,0.01%,10,1
ERNA,F,1,0.01%,10,1
ESBJORN|ESBJÖRN,M,1,0.01%,10,1
ESTHER,F,1,0.01%,10,1
EVELINA,F,1,0.01%,10,1
FELIX,M,1,0.01%,10,1
FILIPPA,F,1,0.01%,10,1
FOLKE,M,1,0.01%,10,1
FREDRIK,M,1,0.01%,10,1
FREJ,M,1,0.01%,10,1
FRIDA,F,1,0.01%,10,1
FRITJOF,M,1,0.01%,10,1
GABRIELLA,F,1,0.01%,10,1
GERD,F,1,0.01%,10,1
GERHARD,M,1,0.01%,10,1
GITTAN,F,1,0.01%,10,1
GORAN|GÖRAN,M,1,0.01%,10,1
GOSTAV|GÖSTAV,M,1,0.01%,10,1
GREGER,M,1,0.01%,10,1
GRY,F,1,0.01%,10,1
GUDRUN,F,1,0.01%,10,1
GUN,F,1,0.01%,10,1
GUNDA,F,1,0.01%,10,1
GUNILLA,F,1,0.01%,10,1
GUNNE,M,1,0.01%,10,1
GUNVOR,F,1,0.01%,10,1
GUSTAV,M,1,0.01%,10,1
HALSTEN,M,1,0.01%,10,1
HAMPUS,M,1,0.01%,10,1
HANNA,F,1,0.01%,10,1
HANNE,F,1,0.01%,10,1
HANS,M,1,0.01%,10,1
HASSE,M,1,0.01%,10,1
HEDVIG,F,1,0.01%,10,1
HELEN,F,1,0.01%,10,1
HELENE,F,1,0.01%,10,1
HELGE,M,1,0.01%,10,1
HELMI,F,1,0.01%,10,1
HENNING,M,1,0.01%,10,1
HENRIK,M,1,0.01%,10,1
HENRIKE,F,1,0.01%,10,1
HILDA,F,1,0.01%,10,1
HILLEVI,F,1,0.01%,10,1
HJORDIS|HJÖRDIS,F,1,0.01%,10,1
HUGO,M,1,0.01%,10,1
IDA,F,1,0.01%,10,1
INGA,F,1,0.01%,10,1
INGEBORG,F,1,0.01%,10,1
INGEGERD,F,1,0.01%,10,1
INGER,F,1,0.01%,10,1
INGOLF,M,1,0.01%,10,1
INGVAR,M,1,0.01%,10,1
IRIS,F,1,0.01%,10,1
ISAK,M,1,0.01%,10,1
JACOB,M,1,0.01%,10,1
JAN,M,1,0.01%,10,1
JANNA,F,1,0.01%,10,1
JANNICKE,F,1,0.01%,10,1
JARL,M,1,0.01%,10,1
JENNIE,F,1,0.01%,10,1
JENNY,F,1,0.01%,10,1
JERK,M,1,0.01%,10,1
JESSICA,F,1,0.01%,10,1
JOEL,M,1,0.01%,10,1
JOHANNA,F,1,0.01%,10,1
JON,M,1,0.01%,10,1
JONATAN,M,1,0.01%,10,1
JONNA,F,1,0.01%,10,1
JORGEN|JÖRGEN,M,1,0.01%,10,1
JOSEFINA,F,1,0.01%,10,1
JUDIT,F,1,0.01%,10,1
KAI,M,1,0.01%,10,1
KAJ,M,1,0.01%,10,1
KAJA,F,1,0.01%,10,1
KALLE,M,1,0.01%,10,1
KARE|KÅRE,M,1,0.01%,10,1
KARINA,F,1,0.01%,10,1
KARL,M,1,0.01%,10,1
KAROLINA,F,1,0.01%,10,1
KATARINA,F,1,0.01%,10,1
KATJA,F,1,0.01%,10,1
KATRINA,F,1,0.01%,10,1
KENNET,M,1,0.01%,10,1
KERSTIN,F,1,0.01%,10,1
KEVIN,M,1,0.01%,10,1
KIM,M,1,0.01%,10,1
KJERSTIN,F,1,0.01%,10,1
KLAS,M,1,0.01%,10,1
KNUT,M,1,0.01%,10,1
KRISTER,M,1,0.01%,10,1
KRISTIN,F,1,0.01%,10,1
KRISTINE,F,1,0.01%,10,1
LAILA,F,1,0.01%,10,1
LASSE,M,1,0.01%,10,1
LEA,F,1,0.01%,10,1
LELLE,M,1,0.01%,10,1
LENNART,M,1,0.01%,10,1
LILLY,F,1,0.01%,10,1
LINDA,F,1,0.01%,10,1
LINNEA|LINNÉA,F,1,0.01%,10,1
LIS,F,1,0.01%,10,1
LISBET,F,1,0.01%,10,1
LISELOTT,F,1,0.01%,10,1
LIV,F,1,0.01%,10,1
LORENS,M,1,0.01%,10,1
LOTTE,F,1,0.01%,10,1
LOUISE,F,1,0.01%,10,1
LOVISA,F,1,0.01%,10,1
LUDDE,M,1,0.01%,10,1
LUKAS,M,1,0.01%,10,1
MAGDA,F,1,0.01%,10,1
MAGNUS,M,1,0.01%,10,1
MAJA,F,1,0.01%,10,1
MALENA,F,1,0.01%,10,1
MALTE,M,1,0.01%,10,1
MARGARETA,F,1,0.01%,10,1
MARI,F,1,0.01%,10,1
MARIANNE,F,1,0.01%,10,1
MARINA,F,1,0.01%,10,1
MARITA,F,1,0.01%,10,1
MARKUS,M,1,0.01%,10,1
MARTA,F,1,0.01%,10,1
MARTHA,F,1,0.01%,10,1
MARTINA,F,1,0.01%,10,1
MATHILDA,F,1,0.01%,10,1
MATS,M,1,0.01%,10,1
MATTHIAS,M,1,0.01%,10,1
MAX,M,1,0.01%,10,1
MELKER,M,1,0.01%,10,1
META,F,1,0.01%,10,1
MICHAEL,M,1,0.01%,10,1
MIKAEL,M,1,0.01%,10,1
MILLA,F,1,0.01%,10,1
MIMMI,F,1,0.01%,10,1
MOA,F,1,0.01%,10,1
MONIKA,F,1,0.01%,10,1
NANNA,F,1,0.01%,10,1
NIKLAS,M,1,0.01%,10,1
NINA,F,1,0.01%,10,1
NOAK,M,1,0.01%,10,1
OLA,M,1,0.01%,10,1
OLIVER,M,1,0.01%,10,1
OLLE,M,1,0.01%,10,1
OLOV,M,1,0.01%,10,1
ORVAR,M,1,0.01%,10,1
OSKAR,M,1,0.01%,10,1
OTTILIA,F,1,0.01%,10,1
OVE,M,1,0.01%,10,1
PATRIK,M,1,0.01%,10,1
PAULA,F,1,0.01%,10,1
PAULINE,F,1,0.01%,10,1
PEER,M,1,0.01%,10,1
PELLE,M,1,0.01%,10,1
PERNILLA,F,1,0.01%,10,1
PETRA,F,1,0.01%,10,1
PETTER,M,1,0.01%,10,1
PIA,F,1,0.01%,10,1
PONTUS,M,1,0.01%,10,1
RAGNAR,M,1,0.01%,10,1
RAGNVALD,M,1,0.01%,10,1
RALF,M,1,0.01%,10,1
RANDI,F,1,0.01%,10,1
REBECCA,F,1,0.01%,10,1
REGINA,F,1,0.01%,10,1
RIKARD,M,1,0.01%,10,1
ROBERT,M,1,0.01%,10,1
ROFFE,M,1,0.01%,10,1
ROLAND,M,1,0.01%,10,1
RONJA,F,1,0.01%,10,1
RUBEN,M,1,0.01%,10,1
RUNA,F,1,0.01%,10,1
RUT,F,1,0.01%,10,1
SAGA,F,1,0.01%,10,1
SAMUEL,M,1,0.01%,10,1
SANDRA,F,1,0.01%,10,1
SARA,F,1,0.01%,10,1
SEBASTIAN,M,1,0.01%,10,1
SEVERIN,M,1,0.01%,10,1
SIGFRID,M,1,0.01%,10,1
SIGMUND,M,1,0.01%,10,1
SIGNY,F,1,0.01%,10,1
SIGRUN,F,1,0.01%,10,1
SIGVARD,M,1,0.01%,10,1
SIRI,F,1,0.01%,10,1
SIXTEN,M,1,0.01%,10,1
SOLVEIG,F,1,0.01%,10,1
SONJA,F,1,0.01%,10,1
STAFFAN,M,1,0.01%,10,1
STELLAN,M,1,0.01%,10,1
STIG,M,1,0.01%,10,1
STURE,M,1,0.01%,10,1
SUSANNA,F,1,0.01%,10,1
SVANTE,M,1,0.01%,10,1
SVEN,M,1,0.01%,10,1
SYLVIA,F,1,0.01%,10,1
TANJA,F,1,0.01%,10,1
TEA,F,1,0.01%,10,1
TEODORA,F,1,0.01%,10,1
TERESE,F,1,0.01%,10,1
TESSAN,F,1,0.01%,10,1
THEODOR,M,1,0.01%,10,1
THERESE,F,1,0.01%,10,1
THOMAS,M,1,0.01%,10,1
THORA,F,1,0.01%,10,1
THORBORG,F,1,0.01%,10,1
THORSTEN,M,1,0.01%,10,1
THYRA,F,1,0.01%,10,1
TIM,M,1,0.01%,10,1
TOMAS,M,1,0.01%,10,1
TORA,F,1,0.01%,10,1
TORBORG,F,1,0.01%,10,1
TORE,M,1,0.01%,10,1
TORKEL,M,1,0.01%,10,1
TORVALD,M,1,0.01%,10,1
TOVE,F,1,0.01%,10,1
TRYGGVE,M,1,0.01%,10,1
TURE,M,1,0.01%,10,1
TUVA,F,1,0.01%,10,1
TYRA,F,1,0.01%,10,1
ULLA,F,1,0.01%,10,1
ULRIK,M,1,0.01%,10,1
URBAN,M,1,0.01%,10,1
VALDEMAR,M,1,0.01%,10,1
VALTER,M,1,0.01%,10,1
VENDELA,F,1,0.01%,10,1
VERNER,M,1,0.01%,10,1
VICTOR,M,1,0.01%,10,1
VIDAR,M,1,0.01%,10,1
VIKING,M,1,0.01%,10,1
VIKTORIA,F,1,0.01%,10,1
VILHELMINA,F,1,0.01%,10,1
VILMA,F,1,0.01%,10,1
VINCENT,M,1,0.01%,10,1
VIRGINIA,F,1,0.01%,10,1
VIVI,F,1,0.01%,10,1
WALDEMAR,M,1,0.01%,10,1
WERNER,M,1,0.01%,10,1
YNGVE,M,1,0.01%,10,1
