NAME,COUNT,PERCENT,PROP100K,ISNOTREALCOUNT
ANTIC|ANTIĆ|Антић,1,0.01%,10,1
BABIC|BABIĆ|Бабић,1,0.01%,10,1
BRANKOVIC|BRANKOVIĆ|Бранковић,1,0.01%,10,1
CRNCEVIC|CRNČEVIĆ|Црнчевић,1,0.01%,10,1
DRAGIC|DRAGIĆ|Драгић,1,0.01%,10,1
FILIPOVIC|FILIPOVIĆ,1,0.01%,10,1
ILIC|ILIĆ,1,0.01%,10,1
JANKOVIC|JANKOVIĆ,1,0.01%,10,1
KASUN,1,0.01%,10,1
KOVAC,1,0.01%,10,1
LONCAR|LONČAR|Лончар,1,0.01%,10,1
MARKOVIC|MARKOVIĆ,1,0.01%,10,1
MIHAJLOVIC|MIHAJLOVIĆ,1,0.01%,10,1
MILOJEVIC|MILOJEVIĆ|Милојевић,1,0.01%,10,1
MILOVANOVIC|MILOVANOVIĆ|Миловановић,1,0.01%,10,1
NOVAK,1,0.01%,10,1
PETROVIC|PETROVIĆ,1,0.01%,10,1
STANKIC|STANKIĆ,1,0.01%,10,1
STOJANOVIC|STOJANOVIĆ,1,0.01%,10,1
VUKOVIC|VUKOVIĆ|Вуковић,1,0.01%,10,1
ZORIC|ZORIĆ|Зорић,1,0.01%,10,1
